IIIYYG 01  FAPDU07-CURSOR-CODES.                                        215 DOVH
IIIYYG         10  DBLINK-S-4073-4081-F-CODE                            222 BRTN
IIIYYG                                      PIC X(1)        VALUE 'C'.  222 BRTN
IIIYYG         10  DBLINK-S-4073-4081-E-CODE                            222 BRTN
IIIYYG                                      PIC X(1)        VALUE 'C'.  222 BRTN
IIIYYG         10  DBLINK-S-4073-4083-F-CODE                            222 BRTN
IIIYYG                                      PIC X(1)        VALUE 'C'.  222 BRTN
IIIYYG         10  DBLINK-S-4073-4083-E-CODE                            222 BRTN
IIIYYG                                      PIC X(1)        VALUE 'C'.  222 BRTN
IIIYYG         10  DBLINK-S-4073-4091-F-CODE                            222 BRTN
IIIYYG                                      PIC X(1)        VALUE 'C'.  222 BRTN
IIIYYG         10  DBLINK-S-4073-4091-E-CODE                            222 BRTN
IIIYYG                                      PIC X(1)        VALUE 'C'.  222 BRTN
IIIYYG         10  DBLINK-S-4073-4104-F-CODE                            222 BRTN
IIIYYG                                      PIC X(1)        VALUE 'C'.  222 BRTN
IIIYYG         10  DBLINK-S-4073-4104-E-CODE                            222 BRTN
IIIYYG                                      PIC X(1)        VALUE 'C'.  222 BRTN
IIIYYG         10  DBLINK-S-4073-4150-I-F-CODE                          222 BRTN
IIIYYG                                      PIC X(1)        VALUE 'C'.  222 BRTN
IIIYYG         10  DBLINK-S-4073-4150-I-E-CODE                          222 BRTN
IIIYYG                                      PIC X(1)        VALUE 'C'.  222 BRTN
IIIYYG         10  DBLINK-S-4073-4150-V-F-CODE                          222 BRTN
IIIYYG                                      PIC X(1)        VALUE 'C'.  222 BRTN
IIIYYG         10  DBLINK-S-4073-4150-V-E-CODE                          222 BRTN
IIIYYG                                      PIC X(1)        VALUE 'C'.  222 BRTN
IIIYYG         10  DBLINK-S-4073-4153-F-CODE                            222 BRTN
IIIYYG                                      PIC X(1)        VALUE 'C'.  222 BRTN
IIIYYG         10  DBLINK-S-4073-4153-E-CODE                            222 BRTN
IIIYYG                                      PIC X(1)        VALUE 'C'.  222 BRTN
IIIYYG         10  DBLINK-S-4073-4165-F-CODE                            222 BRTN
IIIYYG                                      PIC X(1)        VALUE 'C'.  222 BRTN
IIIYYG         10  DBLINK-S-4073-4165-E-CODE                            222 BRTN
IIIYYG                                      PIC X(1)        VALUE 'C'.  222 BRTN
IIIYYG         10  DBLINK-S-4073-4410-F-CODE                            222 BRTN
IIIYYG                                      PIC X(1)        VALUE 'C'.  222 BRTN
IIIYYG         10  DBLINK-S-4073-4410-E-CODE                            222 BRTN
IIIYYG                                      PIC X(1)        VALUE 'C'.  222 BRTN
IIIYYG         10  DBLINK-S-4073-4410-I-F-CODE                          222 BRTN
IIIYYG                                      PIC X(1)        VALUE 'C'.  222 BRTN
IIIYYG         10  DBLINK-S-4073-4410-I-E-CODE                          222 BRTN
IIIYYG                                      PIC X(1)        VALUE 'C'.  222 BRTN
IIIYYG         10  DBLINK-S-4073-4081-N-CODE                            325 BRTN
IIIYYG                                      PIC X(1)        VALUE 'C'.  325 BRTN
IIIYYG         10  DBLINK-S-4073-4083-N-CODE                            325 BRTN
IIIYYG                                      PIC X(1)        VALUE 'C'.  325 BRTN
IIIYYG         10  DBLINK-S-4073-4091-N-CODE                            325 BRTN
IIIYYG                                      PIC X(1)        VALUE 'C'.  325 BRTN
IIIYYG         10  DBLINK-S-4073-4104-N-CODE                            325 BRTN
IIIYYG                                      PIC X(1)        VALUE 'C'.  325 BRTN
IIIYYG         10  DBLINK-S-4073-4150-I-N-CODE                          325 BRTN
IIIYYG                                      PIC X(1)        VALUE 'C'.  325 BRTN
IIIYYG         10  DBLINK-S-4073-4150-V-N-CODE                          325 BRTN
IIIYYG                                      PIC X(1)        VALUE 'C'.  325 BRTN
IIIYYG         10  DBLINK-S-4073-4153-N-CODE                            325 BRTN
IIIYYG                                      PIC X(1)        VALUE 'C'.  325 BRTN
IIIYYG         10  DBLINK-S-4073-4165-N-CODE                            325 BRTN
IIIYYG                                      PIC X(1)        VALUE 'C'.  325 BRTN
IIIYYG         10  DBLINK-S-4073-4410-N-CODE                            325 BRTN
IIIYYG                                      PIC X(1)        VALUE 'C'.  325 BRTN
IIIYYG         10  DBLINK-S-4073-4410-I-N-CODE                          325 BRTN
IIIYYG                                      PIC X(1)        VALUE 'C'.  325 BRTN
IIIYYG         10  DBLINK-S-4073-4081-P-CODE                            325 BRTN
IIIYYG                                      PIC X(1)        VALUE 'C'.  325 BRTN
IIIYYG         10  DBLINK-S-4073-4083-P-CODE                            325 BRTN
IIIYYG                                      PIC X(1)        VALUE 'C'.  325 BRTN
IIIYYG         10  DBLINK-S-4073-4091-P-CODE                            325 BRTN
IIIYYG                                      PIC X(1)        VALUE 'C'.  325 BRTN
IIIYYG         10  DBLINK-S-4073-4104-P-CODE                            325 BRTN
IIIYYG                                      PIC X(1)        VALUE 'C'.  325 BRTN
IIIYYG         10  DBLINK-S-4073-4150-I-P-CODE                          325 BRTN
IIIYYG                                      PIC X(1)        VALUE 'C'.  325 BRTN
IIIYYG         10  DBLINK-S-4073-4150-V-P-CODE                          325 BRTN
IIIYYG                                      PIC X(1)        VALUE 'C'.  325 BRTN
IIIYYG         10  DBLINK-S-4073-4153-P-CODE                            325 BRTN
IIIYYG                                      PIC X(1)        VALUE 'C'.  325 BRTN
IIIYYG         10  DBLINK-S-4073-4165-P-CODE                            325 BRTN
IIIYYG                                      PIC X(1)        VALUE 'C'.  325 BRTN
IIIYYG         10  DBLINK-S-4073-4410-P-CODE                            325 BRTN
IIIYYG                                      PIC X(1)        VALUE 'C'.  325 BRTN
IIIYYG         10  DBLINK-S-4073-4410-I-P-CODE                          325 BRTN
IIIYYG                                      PIC X(1)        VALUE 'C'.  325 BRTN
IIIYYG         10  DBLINK-S-6117-6139-F-CODE                            222 BRTN
IIIYYG                                      PIC X(1)        VALUE 'C'.  222 BRTN
IIIYYG         10  DBLINK-S-6117-6139-E-CODE                            222 BRTN
IIIYYG                                      PIC X(1)        VALUE 'C'.  222 BRTN
IIIYYG         10  DBLINK-S-6117-6156-F-CODE                            222 BRTN
IIIYYG                                      PIC X(1)        VALUE 'C'.  222 BRTN
IIIYYG         10  DBLINK-S-6117-6156-E-CODE                            222 BRTN
IIIYYG                                      PIC X(1)        VALUE 'C'.  222 BRTN
IIIYYG         10  DBLINK-S-6117-6157-F-CODE                            222 BRTN
IIIYYG                                      PIC X(1)        VALUE 'C'.  222 BRTN
IIIYYG         10  DBLINK-S-6117-6157-E-CODE                            222 BRTN
IIIYYG                                      PIC X(1)        VALUE 'C'.  222 BRTN
IIIYYG         10  DBLINK-S-6117-6274-F-CODE                            222 BRTN
IIIYYG                                      PIC X(1)        VALUE 'C'.  222 BRTN
IIIYYG         10  DBLINK-S-6117-6274-E-CODE                            222 BRTN
IIIYYG                                      PIC X(1)        VALUE 'C'.  222 BRTN
IIIYYG         10  DBLINK-S-6117-6313-F-CODE                            222 BRTN
IIIYYG                                      PIC X(1)        VALUE 'C'.  222 BRTN
IIIYYG         10  DBLINK-S-6117-6313-E-CODE                            222 BRTN
IIIYYG                                      PIC X(1)        VALUE 'C'.  222 BRTN
IIIYYG         10  DBLINK-S-6117-6139-N-CODE                            325 BRTN
IIIYYG                                      PIC X(1)        VALUE 'C'.  325 BRTN
IIIYYG         10  DBLINK-S-6117-6156-N-CODE                            325 BRTN
IIIYYG                                      PIC X(1)        VALUE 'C'.  325 BRTN
IIIYYG         10  DBLINK-S-6117-6157-N-CODE                            325 BRTN
IIIYYG                                      PIC X(1)        VALUE 'C'.  325 BRTN
IIIYYG         10  DBLINK-S-6117-6274-N-CODE                            325 BRTN
IIIYYG                                      PIC X(1)        VALUE 'C'.  325 BRTN
IIIYYG         10  DBLINK-S-6117-6313-N-CODE                            325 BRTN
IIIYYG                                      PIC X(1)        VALUE 'C'.  325 BRTN
IIIYYG         10  DBLINK-S-6117-6139-P-CODE                            325 BRTN
IIIYYG                                      PIC X(1)        VALUE 'C'.  325 BRTN
IIIYYG         10  DBLINK-S-6117-6156-P-CODE                            325 BRTN
IIIYYG                                      PIC X(1)        VALUE 'C'.  325 BRTN
IIIYYG         10  DBLINK-S-6117-6157-P-CODE                            325 BRTN
IIIYYG                                      PIC X(1)        VALUE 'C'.  325 BRTN
IIIYYG         10  DBLINK-S-6117-6274-P-CODE                            325 BRTN
IIIYYG                                      PIC X(1)        VALUE 'C'.  325 BRTN
IIIYYG         10  DBLINK-S-6117-6313-P-CODE                            325 BRTN
IIIYYG                                      PIC X(1)        VALUE 'C'.  325 BRTN
IIIYYG         10  DBLINK-S-6200-6201-F-CODE                            222 BRTN
IIIYYG                                      PIC X(1)        VALUE 'C'.  222 BRTN
IIIYYG         10  DBLINK-S-6200-6201-E-CODE                            222 BRTN
IIIYYG                                      PIC X(1)        VALUE 'C'.  222 BRTN
IIIYYG         10  DBLINK-S-6200-6202-F-CODE                            222 BRTN
IIIYYG                                      PIC X(1)        VALUE 'C'.  222 BRTN
IIIYYG         10  DBLINK-S-6200-6202-E-CODE                            222 BRTN
IIIYYG                                      PIC X(1)        VALUE 'C'.  222 BRTN
IIIYYG         10  DBLINK-S-6200-6201-N-CODE                            325 BRTN
IIIYYG                                      PIC X(1)        VALUE 'C'.  325 BRTN
IIIYYG         10  DBLINK-S-6200-6202-N-CODE                            325 BRTN
IIIYYG                                      PIC X(1)        VALUE 'C'.  325 BRTN
IIIYYG         10  DBLINK-S-6200-6201-P-CODE                            325 BRTN
IIIYYG                                      PIC X(1)        VALUE 'C'.  325 BRTN
IIIYYG         10  DBLINK-S-6200-6202-P-CODE                            325 BRTN
IIIYYG                                      PIC X(1)        VALUE 'C'.  325 BRTN
IIIYYG         10  DBLINK-S-6311-6185-F-CODE                            222 BRTN
IIIYYG                                      PIC X(1)        VALUE 'C'.  222 BRTN
IIIYYG         10  DBLINK-S-6311-6185-E-CODE                            222 BRTN
IIIYYG                                      PIC X(1)        VALUE 'C'.  222 BRTN
IIIYYG         10  DBLINK-S-6311-6186-F-CODE                            222 BRTN
IIIYYG                                      PIC X(1)        VALUE 'C'.  222 BRTN
IIIYYG         10  DBLINK-S-6311-6186-E-CODE                            222 BRTN
IIIYYG                                      PIC X(1)        VALUE 'C'.  222 BRTN
IIIYYG         10  DBLINK-S-6311-6274-F-CODE                            222 BRTN
IIIYYG                                      PIC X(1)        VALUE 'C'.  222 BRTN
IIIYYG         10  DBLINK-S-6311-6274-E-CODE                            222 BRTN
IIIYYG                                      PIC X(1)        VALUE 'C'.  222 BRTN
IIIYYG         10  DBLINK-S-6311-6350-F-CODE                            222 BRTN
IIIYYG                                      PIC X(1)        VALUE 'C'.  222 BRTN
IIIYYG         10  DBLINK-S-6311-6350-E-CODE                            222 BRTN
IIIYYG                                      PIC X(1)        VALUE 'C'.  222 BRTN
IIIYYG         10  DBLINK-S-6311-6352-F-CODE                            222 BRTN
IIIYYG                                      PIC X(1)        VALUE 'C'.  222 BRTN
IIIYYG         10  DBLINK-S-6311-6352-E-CODE                            222 BRTN
IIIYYG                                      PIC X(1)        VALUE 'C'.  222 BRTN
IIIYYG         10  DBLINK-S-6311-6353-F-CODE                            222 BRTN
IIIYYG                                      PIC X(1)        VALUE 'C'.  222 BRTN
IIIYYG         10  DBLINK-S-6311-6353-E-CODE                            222 BRTN
IIIYYG                                      PIC X(1)        VALUE 'C'.  222 BRTN
IIIYYG         10  DBLINK-S-6311-6185-N-CODE                            325 BRTN
IIIYYG                                      PIC X(1)        VALUE 'C'.  325 BRTN
IIIYYG         10  DBLINK-S-6311-6186-N-CODE                            325 BRTN
IIIYYG                                      PIC X(1)        VALUE 'C'.  325 BRTN
IIIYYG         10  DBLINK-S-6311-6274-N-CODE                            325 BRTN
IIIYYG                                      PIC X(1)        VALUE 'C'.  325 BRTN
IIIYYG         10  DBLINK-S-6311-6350-N-CODE                            325 BRTN
IIIYYG                                      PIC X(1)        VALUE 'C'.  325 BRTN
IIIYYG         10  DBLINK-S-6311-6352-N-CODE                            325 BRTN
IIIYYG                                      PIC X(1)        VALUE 'C'.  325 BRTN
IIIYYG         10  DBLINK-S-6311-6353-N-CODE                            325 BRTN
IIIYYG                                      PIC X(1)        VALUE 'C'.  325 BRTN
IIIYYG         10  DBLINK-S-6311-6185-P-CODE                            325 BRTN
IIIYYG                                      PIC X(1)        VALUE 'C'.  325 BRTN
IIIYYG         10  DBLINK-S-6311-6186-P-CODE                            325 BRTN
IIIYYG                                      PIC X(1)        VALUE 'C'.  325 BRTN
IIIYYG         10  DBLINK-S-6311-6274-P-CODE                            325 BRTN
IIIYYG                                      PIC X(1)        VALUE 'C'.  325 BRTN
IIIYYG         10  DBLINK-S-6311-6350-P-CODE                            325 BRTN
IIIYYG                                      PIC X(1)        VALUE 'C'.  325 BRTN
IIIYYG         10  DBLINK-S-6311-6352-P-CODE                            325 BRTN
IIIYYG                                      PIC X(1)        VALUE 'C'.  325 BRTN
IIIYYG         10  DBLINK-S-6311-6353-P-CODE                            325 BRTN
IIIYYG                                      PIC X(1)        VALUE 'C'.  325 BRTN
IIIYYG         10  DBLINK-S-4120-4121-F-CODE                            222 BRTN
IIIYYG                                      PIC X(1)        VALUE 'C'.  222 BRTN
IIIYYG         10  DBLINK-S-4120-4121-E-CODE                            222 BRTN
IIIYYG                                      PIC X(1)        VALUE 'C'.  222 BRTN
IIIYYG         10  DBLINK-S-4120-4121-N-CODE                            325 BRTN
IIIYYG                                      PIC X(1)        VALUE 'C'.  325 BRTN
IIIYYG         10  DBLINK-S-4120-4121-P-CODE                            325 BRTN
IIIYYG                                      PIC X(1)        VALUE 'C'.  325 BRTN
