               10  DBLINK-S-4000-4076-F-CODE
                                            PIC X(1)        VALUE 'C'.
               10  DBLINK-S-4000-4076-E-CODE
                                            PIC X(1)        VALUE 'C'.
               10  DBLINK-S-4000-4076-N-CODE
                                            PIC X(1)        VALUE 'C'.
               10  DBLINK-S-4000-4076-P-CODE
                                            PIC X(1)        VALUE 'C'.
               10  DBLINK-S-4001-4005-O-F-CODE
                                            PIC X(1)        VALUE 'C'.
               10  DBLINK-S-4001-4005-O-E-CODE
                                            PIC X(1)        VALUE 'C'.
               10  DBLINK-S-4001-4005-P-F-CODE
                                            PIC X(1)        VALUE 'C'.
               10  DBLINK-S-4001-4005-P-E-CODE
                                            PIC X(1)        VALUE 'C'.
               10  DBLINK-S-4001-4185-F-CODE
                                            PIC X(1)        VALUE 'C'.
               10  DBLINK-S-4001-4185-E-CODE
                                            PIC X(1)        VALUE 'C'.
               10  DBLINK-S-4001-4005-O-N-CODE
                                            PIC X(1)        VALUE 'C'.
               10  DBLINK-S-4001-4005-P-N-CODE
                                            PIC X(1)        VALUE 'C'.
               10  DBLINK-S-4001-4185-N-CODE
                                            PIC X(1)        VALUE 'C'.
               10  DBLINK-S-4001-4005-O-P-CODE
                                            PIC X(1)        VALUE 'C'.
               10  DBLINK-S-4001-4005-P-P-CODE
                                            PIC X(1)        VALUE 'C'.
               10  DBLINK-S-4001-4185-P-CODE
                                            PIC X(1)        VALUE 'C'.
               10  DBLINK-S-4002-4010-O-F-CODE
                                            PIC X(1)        VALUE 'C'.
               10  DBLINK-S-4002-4010-O-E-CODE
                                            PIC X(1)        VALUE 'C'.
               10  DBLINK-S-4002-4010-P-F-CODE
                                            PIC X(1)        VALUE 'C'.
               10  DBLINK-S-4002-4010-P-E-CODE
                                            PIC X(1)        VALUE 'C'.
               10  DBLINK-S-4002-4100-F-CODE
                                            PIC X(1)        VALUE 'C'.
               10  DBLINK-S-4002-4100-E-CODE
                                            PIC X(1)        VALUE 'C'.
               10  DBLINK-S-4002-4010-O-N-CODE
                                            PIC X(1)        VALUE 'C'.
               10  DBLINK-S-4002-4010-P-N-CODE
                                            PIC X(1)        VALUE 'C'.
               10  DBLINK-S-4002-4100-N-CODE
                                            PIC X(1)        VALUE 'C'.
               10  DBLINK-S-4002-4010-O-P-CODE
                                            PIC X(1)        VALUE 'C'.
               10  DBLINK-S-4002-4010-P-P-CODE
                                            PIC X(1)        VALUE 'C'.
               10  DBLINK-S-4002-4100-P-CODE
                                            PIC X(1)        VALUE 'C'.
               10  DBLINK-S-4003-4034-O-F-CODE
                                            PIC X(1)        VALUE 'C'.
               10  DBLINK-S-4003-4034-O-E-CODE
                                            PIC X(1)        VALUE 'C'.
               10  DBLINK-S-4003-4034-P-F-CODE
                                            PIC X(1)        VALUE 'C'.
               10  DBLINK-S-4003-4034-P-E-CODE
                                            PIC X(1)        VALUE 'C'.
               10  DBLINK-S-4003-4034-O-N-CODE
                                            PIC X(1)        VALUE 'C'.
               10  DBLINK-S-4003-4034-P-N-CODE
                                            PIC X(1)        VALUE 'C'.
               10  DBLINK-S-4003-4034-O-P-CODE
                                            PIC X(1)        VALUE 'C'.
               10  DBLINK-S-4003-4034-P-P-CODE
                                            PIC X(1)        VALUE 'C'.
               10  DBLINK-S-4004-4105-O-F-CODE
                                            PIC X(1)        VALUE 'C'.
               10  DBLINK-S-4004-4105-O-E-CODE
                                            PIC X(1)        VALUE 'C'.
               10  DBLINK-S-4004-4105-P-F-CODE
                                            PIC X(1)        VALUE 'C'.
               10  DBLINK-S-4004-4105-P-E-CODE
                                            PIC X(1)        VALUE 'C'.
               10  DBLINK-S-4004-4105-O-N-CODE
                                            PIC X(1)        VALUE 'C'.
               10  DBLINK-S-4004-4105-P-N-CODE
                                            PIC X(1)        VALUE 'C'.
               10  DBLINK-S-4004-4105-O-P-CODE
                                            PIC X(1)        VALUE 'C'.
               10  DBLINK-S-4004-4105-P-P-CODE
                                            PIC X(1)        VALUE 'C'.
               10  DBLINK-S-4006-4007-O-F-CODE
                                            PIC X(1)        VALUE 'C'.
               10  DBLINK-S-4006-4007-O-E-CODE
                                            PIC X(1)        VALUE 'C'.
               10  DBLINK-S-4006-4007-P-F-CODE
                                            PIC X(1)        VALUE 'C'.
               10  DBLINK-S-4006-4007-P-E-CODE
                                            PIC X(1)        VALUE 'C'.
               10  DBLINK-S-4006-4007-O-N-CODE
                                            PIC X(1)        VALUE 'C'.
               10  DBLINK-S-4006-4007-P-N-CODE
                                            PIC X(1)        VALUE 'C'.
               10  DBLINK-S-4006-4007-O-P-CODE
                                            PIC X(1)        VALUE 'C'.
               10  DBLINK-S-4006-4007-P-P-CODE
                                            PIC X(1)        VALUE 'C'.
               10  DBLINK-S-4008-4005-F-CODE
                                            PIC X(1)        VALUE 'C'.
               10  DBLINK-S-4008-4005-E-CODE
                                            PIC X(1)        VALUE 'C'.
               10  DBLINK-S-4008-4009-O-F-CODE
                                            PIC X(1)        VALUE 'C'.
               10  DBLINK-S-4008-4009-O-E-CODE
                                            PIC X(1)        VALUE 'C'.
               10  DBLINK-S-4008-4009-P-F-CODE
                                            PIC X(1)        VALUE 'C'.
               10  DBLINK-S-4008-4009-P-E-CODE
                                            PIC X(1)        VALUE 'C'.
               10  DBLINK-S-4008-4005-N-CODE
                                            PIC X(1)        VALUE 'C'.
               10  DBLINK-S-4008-4009-O-N-CODE
                                            PIC X(1)        VALUE 'C'.
               10  DBLINK-S-4008-4009-P-N-CODE
                                            PIC X(1)        VALUE 'C'.
               10  DBLINK-S-4008-4005-P-CODE
                                            PIC X(1)        VALUE 'C'.
               10  DBLINK-S-4008-4009-O-P-CODE
                                            PIC X(1)        VALUE 'C'.
               10  DBLINK-S-4008-4009-P-P-CODE
                                            PIC X(1)        VALUE 'C'.
               10  DBLINK-S-4011-4012-F-CODE
                                            PIC X(1)        VALUE 'C'.
               10  DBLINK-S-4011-4012-E-CODE
                                            PIC X(1)        VALUE 'C'.
               10  DBLINK-S-4011-4018-F-CODE
                                            PIC X(1)        VALUE 'C'.
               10  DBLINK-S-4011-4018-E-CODE
                                            PIC X(1)        VALUE 'C'.
               10  DBLINK-S-4011-4012-N-CODE
                                            PIC X(1)        VALUE 'C'.
               10  DBLINK-S-4011-4018-N-CODE
                                            PIC X(1)        VALUE 'C'.
               10  DBLINK-S-4011-4012-P-CODE
                                            PIC X(1)        VALUE 'C'.
               10  DBLINK-S-4011-4018-P-CODE
                                            PIC X(1)        VALUE 'C'.
               10  DBLINK-S-4014-4015-O-F-CODE
                                            PIC X(1)        VALUE 'C'.
               10  DBLINK-S-4014-4015-O-E-CODE
                                            PIC X(1)        VALUE 'C'.
               10  DBLINK-S-4014-4015-P-F-CODE
                                            PIC X(1)        VALUE 'C'.
               10  DBLINK-S-4014-4015-P-E-CODE
                                            PIC X(1)        VALUE 'C'.
               10  DBLINK-S-4014-4034-F-CODE
                                            PIC X(1)        VALUE 'C'.
               10  DBLINK-S-4014-4034-E-CODE
                                            PIC X(1)        VALUE 'C'.
               10  DBLINK-S-4014-4015-O-N-CODE
                                            PIC X(1)        VALUE 'C'.
               10  DBLINK-S-4014-4015-P-N-CODE
                                            PIC X(1)        VALUE 'C'.
               10  DBLINK-S-4014-4034-N-CODE
                                            PIC X(1)        VALUE 'C'.
               10  DBLINK-S-4014-4015-O-P-CODE
                                            PIC X(1)        VALUE 'C'.
               10  DBLINK-S-4014-4015-P-P-CODE
                                            PIC X(1)        VALUE 'C'.
               10  DBLINK-S-4014-4034-P-CODE
                                            PIC X(1)        VALUE 'C'.
               10  DBLINK-S-4045-4067-F-CODE
                                            PIC X(1)        VALUE 'C'.
               10  DBLINK-S-4045-4067-E-CODE
                                            PIC X(1)        VALUE 'C'.
               10  DBLINK-S-4045-4067-N-CODE
                                            PIC X(1)        VALUE 'C'.
               10  DBLINK-S-4045-4067-P-CODE
                                            PIC X(1)        VALUE 'C'.
               10  DBLINK-S-4050-4066-F-CODE
                                            PIC X(1)        VALUE 'C'.
               10  DBLINK-S-4050-4066-E-CODE
                                            PIC X(1)        VALUE 'C'.
               10  DBLINK-S-4050-4066-N-CODE
                                            PIC X(1)        VALUE 'C'.
               10  DBLINK-S-4050-4066-P-CODE
                                            PIC X(1)        VALUE 'C'.
               10  DBLINK-S-4052-4054-F-CODE                            222 BRTN
                                            PIC X(1)        VALUE 'C'.  222 BRTN
               10  DBLINK-S-4052-4054-E-CODE                            222 BRTN
                                            PIC X(1)        VALUE 'C'.  222 BRTN
               10  DBLINK-S-4052-4054-N-CODE                            325 BRTN
                                            PIC X(1)        VALUE 'C'.  325 BRTN
               10  DBLINK-S-4052-4054-P-CODE                            325 BRTN
                                            PIC X(1)        VALUE 'C'.  325 BRTN
               10  DBLINK-S-4053-4054-F-CODE
                                            PIC X(1)        VALUE 'C'.
               10  DBLINK-S-4053-4054-E-CODE
                                            PIC X(1)        VALUE 'C'.
               10  DBLINK-S-4053-4054-N-CODE
                                            PIC X(1)        VALUE 'C'.
               10  DBLINK-S-4053-4054-P-CODE
                                            PIC X(1)        VALUE 'C'.
               10  DBLINK-S-4054-4055-F-CODE
                                            PIC X(1)        VALUE 'C'.
               10  DBLINK-S-4054-4055-E-CODE
                                            PIC X(1)        VALUE 'C'.
               10  DBLINK-S-4054-4055-N-CODE
                                            PIC X(1)        VALUE 'C'.
               10  DBLINK-S-4054-4055-P-CODE
                                            PIC X(1)        VALUE 'C'.
               10  DBLINK-S-4192-4013-F-CODE
                                            PIC X(1)        VALUE 'C'.
               10  DBLINK-S-4192-4013-E-CODE
                                            PIC X(1)        VALUE 'C'.
               10  DBLINK-S-4192-4020-F-CODE
                                            PIC X(1)        VALUE 'C'.
               10  DBLINK-S-4192-4020-E-CODE
                                            PIC X(1)        VALUE 'C'.
               10  DBLINK-S-4192-4204-F-CODE
                                            PIC X(1)        VALUE 'C'.
               10  DBLINK-S-4192-4204-E-CODE
                                            PIC X(1)        VALUE 'C'.
               10  DBLINK-S-4192-4013-N-CODE
                                            PIC X(1)        VALUE 'C'.
               10  DBLINK-S-4192-4020-N-CODE
                                            PIC X(1)        VALUE 'C'.
               10  DBLINK-S-4192-4204-N-CODE
                                            PIC X(1)        VALUE 'C'.
               10  DBLINK-S-4192-4013-P-CODE
                                            PIC X(1)        VALUE 'C'.
               10  DBLINK-S-4192-4020-P-CODE
                                            PIC X(1)        VALUE 'C'.
               10  DBLINK-S-4192-4204-P-CODE
                                            PIC X(1)        VALUE 'C'.
