               10  DBLINK-S-INDX-FSCL-N-CODE                            325 BRTN
                                            PIC X(1)        VALUE 'C'.  222 BRTN
               10  DBLINK-S-4002-4010-P-P-CODE                          325 BRTN
                                            PIC X(1)        VALUE 'C'.  222 BRTN
               10  DBLINK-S-4002-4010-P-N-CODE                          325 BRTN
                                            PIC X(1)        VALUE 'C'.  222 BRTN
               10  DBLINK-S-4074-4202-P-N-CODE                          325 BRTN
                                            PIC X(1)        VALUE 'C'.  222 BRTN
IIIYYG         10  DBLINK-S-4011-4012-F-CODE                            222 BRTN
IIIYYG                                      PIC X(1)        VALUE 'C'.  222 BRTN
IIIYYG         10  DBLINK-S-4011-4012-E-CODE                            222 BRTN
IIIYYG                                      PIC X(1)        VALUE 'C'.  222 BRTN
IIIYYG         10  DBLINK-S-4011-4018-F-CODE                            222 BRTN
IIIYYG                                      PIC X(1)        VALUE 'C'.  222 BRTN
IIIYYG         10  DBLINK-S-4011-4018-E-CODE                            222 BRTN
IIIYYG                                      PIC X(1)        VALUE 'C'.  222 BRTN
IIIYYG         10  DBLINK-S-4011-4012-N-CODE                            325 BRTN
IIIYYG                                      PIC X(1)        VALUE 'C'.  325 BRTN
IIIYYG         10  DBLINK-S-4011-4018-N-CODE                            325 BRTN
IIIYYG                                      PIC X(1)        VALUE 'C'.  325 BRTN
IIIYYG         10  DBLINK-S-4011-4012-P-CODE                            325 BRTN
IIIYYG                                      PIC X(1)        VALUE 'C'.  325 BRTN
IIIYYG         10  DBLINK-S-4011-4018-P-CODE                            325 BRTN
IIIYYG                                      PIC X(1)        VALUE 'C'.  325 BRTN
IIIYYG         10  DBLINK-S-4072-4071-F-CODE                            222 BRTN
IIIYYG                                      PIC X(1)        VALUE 'C'.  222 BRTN
IIIYYG         10  DBLINK-S-4072-4071-E-CODE                            222 BRTN
IIIYYG                                      PIC X(1)        VALUE 'C'.  222 BRTN
IIIYYG         10  DBLINK-S-4072-4083-F-CODE                            222 BRTN
IIIYYG                                      PIC X(1)        VALUE 'C'.  222 BRTN
IIIYYG         10  DBLINK-S-4072-4083-E-CODE                            222 BRTN
IIIYYG                                      PIC X(1)        VALUE 'C'.  222 BRTN
IIIYYG         10  DBLINK-S-4072-4088-F-CODE                            222 BRTN
IIIYYG                                      PIC X(1)        VALUE 'C'.  222 BRTN
IIIYYG         10  DBLINK-S-4072-4088-E-CODE                            222 BRTN
IIIYYG                                      PIC X(1)        VALUE 'C'.  222 BRTN
IIIYYG         10  DBLINK-S-4072-4100-F-CODE                            222 BRTN
IIIYYG                                      PIC X(1)        VALUE 'C'.  222 BRTN
IIIYYG         10  DBLINK-S-4072-4100-E-CODE                            222 BRTN
IIIYYG                                      PIC X(1)        VALUE 'C'.  222 BRTN
IIIYYG         10  DBLINK-S-4072-4101-F-CODE                            222 BRTN
IIIYYG                                      PIC X(1)        VALUE 'C'.  222 BRTN
IIIYYG         10  DBLINK-S-4072-4101-E-CODE                            222 BRTN
IIIYYG                                      PIC X(1)        VALUE 'C'.  222 BRTN
IIIYYG         10  DBLINK-S-4072-4138-F-CODE                            222 BRTN
IIIYYG                                      PIC X(1)        VALUE 'C'.  222 BRTN
IIIYYG         10  DBLINK-S-4072-4138-E-CODE                            222 BRTN
IIIYYG                                      PIC X(1)        VALUE 'C'.  222 BRTN
IIIYYG         10  DBLINK-S-4072-4071-N-CODE                            325 BRTN
IIIYYG                                      PIC X(1)        VALUE 'C'.  325 BRTN
IIIYYG         10  DBLINK-S-4072-4083-N-CODE                            325 BRTN
IIIYYG                                      PIC X(1)        VALUE 'C'.  325 BRTN
IIIYYG         10  DBLINK-S-4072-4088-N-CODE                            325 BRTN
IIIYYG                                      PIC X(1)        VALUE 'C'.  325 BRTN
IIIYYG         10  DBLINK-S-4072-4100-N-CODE                            325 BRTN
IIIYYG                                      PIC X(1)        VALUE 'C'.  325 BRTN
IIIYYG         10  DBLINK-S-4072-4101-N-CODE                            325 BRTN
IIIYYG                                      PIC X(1)        VALUE 'C'.  325 BRTN
IIIYYG         10  DBLINK-S-4072-4138-N-CODE                            325 BRTN
IIIYYG                                      PIC X(1)        VALUE 'C'.  325 BRTN
IIIYYG         10  DBLINK-S-4072-4071-P-CODE                            325 BRTN
IIIYYG                                      PIC X(1)        VALUE 'C'.  325 BRTN
IIIYYG         10  DBLINK-S-4072-4083-P-CODE                            325 BRTN
IIIYYG                                      PIC X(1)        VALUE 'C'.  325 BRTN
IIIYYG         10  DBLINK-S-4072-4088-P-CODE                            325 BRTN
IIIYYG                                      PIC X(1)        VALUE 'C'.  325 BRTN
IIIYYG         10  DBLINK-S-4072-4100-P-CODE                            325 BRTN
IIIYYG                                      PIC X(1)        VALUE 'C'.  325 BRTN
IIIYYG         10  DBLINK-S-4072-4101-P-CODE                            325 BRTN
IIIYYG                                      PIC X(1)        VALUE 'C'.  325 BRTN
IIIYYG         10  DBLINK-S-4072-4138-P-CODE                            325 BRTN
IIIYYG                                      PIC X(1)        VALUE 'C'.  325 BRTN
IIIYYG         10  DBLINK-S-4073-4081-F-CODE                            222 BRTN
IIIYYG                                      PIC X(1)        VALUE 'C'.  222 BRTN
IIIYYG         10  DBLINK-S-4073-4081-E-CODE                            222 BRTN
IIIYYG                                      PIC X(1)        VALUE 'C'.  222 BRTN
IIIYYG         10  DBLINK-S-4073-4083-F-CODE                            222 BRTN
IIIYYG                                      PIC X(1)        VALUE 'C'.  222 BRTN
IIIYYG         10  DBLINK-S-4073-4083-E-CODE                            222 BRTN
IIIYYG                                      PIC X(1)        VALUE 'C'.  222 BRTN
IIIYYG         10  DBLINK-S-4073-4091-F-CODE                            222 BRTN
IIIYYG                                      PIC X(1)        VALUE 'C'.  222 BRTN
IIIYYG         10  DBLINK-S-4073-4091-E-CODE                            222 BRTN
IIIYYG                                      PIC X(1)        VALUE 'C'.  222 BRTN
IIIYYG         10  DBLINK-S-4073-4104-F-CODE                            222 BRTN
IIIYYG                                      PIC X(1)        VALUE 'C'.  222 BRTN
IIIYYG         10  DBLINK-S-4073-4104-E-CODE                            222 BRTN
IIIYYG                                      PIC X(1)        VALUE 'C'.  222 BRTN
IIIYYG         10  DBLINK-S-4073-4150-I-F-CODE                          222 BRTN
IIIYYG                                      PIC X(1)        VALUE 'C'.  222 BRTN
IIIYYG         10  DBLINK-S-4073-4150-I-E-CODE                          222 BRTN
IIIYYG                                      PIC X(1)        VALUE 'C'.  222 BRTN
IIIYYG         10  DBLINK-S-4073-4150-V-F-CODE                          222 BRTN
IIIYYG                                      PIC X(1)        VALUE 'C'.  222 BRTN
IIIYYG         10  DBLINK-S-4073-4150-V-E-CODE                          222 BRTN
IIIYYG                                      PIC X(1)        VALUE 'C'.  222 BRTN
IIIYYG         10  DBLINK-S-4073-4153-F-CODE                            222 BRTN
IIIYYG                                      PIC X(1)        VALUE 'C'.  222 BRTN
IIIYYG         10  DBLINK-S-4073-4153-E-CODE                            222 BRTN
IIIYYG                                      PIC X(1)        VALUE 'C'.  222 BRTN
IIIYYG         10  DBLINK-S-4073-4165-F-CODE                            222 BRTN
IIIYYG                                      PIC X(1)        VALUE 'C'.  222 BRTN
IIIYYG         10  DBLINK-S-4073-4165-E-CODE                            222 BRTN
IIIYYG                                      PIC X(1)        VALUE 'C'.  222 BRTN
IIIYYG         10  DBLINK-S-4073-4410-F-CODE                            222 BRTN
IIIYYG                                      PIC X(1)        VALUE 'C'.  222 BRTN
IIIYYG         10  DBLINK-S-4073-4410-E-CODE                            222 BRTN
IIIYYG                                      PIC X(1)        VALUE 'C'.  222 BRTN
IIIYYG         10  DBLINK-S-4073-4410-I-F-CODE                          222 BRTN
IIIYYG                                      PIC X(1)        VALUE 'C'.  222 BRTN
IIIYYG         10  DBLINK-S-4073-4410-I-E-CODE                          222 BRTN
IIIYYG                                      PIC X(1)        VALUE 'C'.  222 BRTN
IIIYYG         10  DBLINK-S-4073-4081-N-CODE                            325 BRTN
IIIYYG                                      PIC X(1)        VALUE 'C'.  325 BRTN
IIIYYG         10  DBLINK-S-4073-4083-N-CODE                            325 BRTN
IIIYYG                                      PIC X(1)        VALUE 'C'.  325 BRTN
IIIYYG         10  DBLINK-S-4073-4091-N-CODE                            325 BRTN
IIIYYG                                      PIC X(1)        VALUE 'C'.  325 BRTN
IIIYYG         10  DBLINK-S-4073-4104-N-CODE                            325 BRTN
IIIYYG                                      PIC X(1)        VALUE 'C'.  325 BRTN
IIIYYG         10  DBLINK-S-4073-4150-I-N-CODE                          325 BRTN
IIIYYG                                      PIC X(1)        VALUE 'C'.  325 BRTN
IIIYYG         10  DBLINK-S-4073-4150-V-N-CODE                          325 BRTN
IIIYYG                                      PIC X(1)        VALUE 'C'.  325 BRTN
IIIYYG         10  DBLINK-S-4073-4153-N-CODE                            325 BRTN
IIIYYG                                      PIC X(1)        VALUE 'C'.  325 BRTN
IIIYYG         10  DBLINK-S-4073-4165-N-CODE                            325 BRTN
IIIYYG                                      PIC X(1)        VALUE 'C'.  325 BRTN
IIIYYG         10  DBLINK-S-4073-4410-N-CODE                            325 BRTN
IIIYYG                                      PIC X(1)        VALUE 'C'.  325 BRTN
IIIYYG         10  DBLINK-S-4073-4410-I-N-CODE                          325 BRTN
IIIYYG                                      PIC X(1)        VALUE 'C'.  325 BRTN
IIIYYG         10  DBLINK-S-4073-4081-P-CODE                            325 BRTN
IIIYYG                                      PIC X(1)        VALUE 'C'.  325 BRTN
IIIYYG         10  DBLINK-S-4073-4083-P-CODE                            325 BRTN
IIIYYG                                      PIC X(1)        VALUE 'C'.  325 BRTN
IIIYYG         10  DBLINK-S-4073-4091-P-CODE                            325 BRTN
IIIYYG                                      PIC X(1)        VALUE 'C'.  325 BRTN
IIIYYG         10  DBLINK-S-4073-4104-P-CODE                            325 BRTN
IIIYYG                                      PIC X(1)        VALUE 'C'.  325 BRTN
IIIYYG         10  DBLINK-S-4073-4150-I-P-CODE                          325 BRTN
IIIYYG                                      PIC X(1)        VALUE 'C'.  325 BRTN
IIIYYG         10  DBLINK-S-4073-4150-V-P-CODE                          325 BRTN
IIIYYG                                      PIC X(1)        VALUE 'C'.  325 BRTN
IIIYYG         10  DBLINK-S-4073-4153-P-CODE                            325 BRTN
IIIYYG                                      PIC X(1)        VALUE 'C'.  325 BRTN
IIIYYG         10  DBLINK-S-4073-4165-P-CODE                            325 BRTN
IIIYYG                                      PIC X(1)        VALUE 'C'.  325 BRTN
IIIYYG         10  DBLINK-S-4073-4410-P-CODE                            325 BRTN
IIIYYG                                      PIC X(1)        VALUE 'C'.  325 BRTN
IIIYYG         10  DBLINK-S-4073-4410-I-P-CODE                          325 BRTN
IIIYYG                                      PIC X(1)        VALUE 'C'.  325 BRTN
IIIYYG         10  DBLINK-S-4083-4093-F-CODE                            222 BRTN
IIIYYG                                      PIC X(1)        VALUE 'C'.  222 BRTN
IIIYYG         10  DBLINK-S-4083-4093-E-CODE                            222 BRTN
IIIYYG                                      PIC X(1)        VALUE 'C'.  222 BRTN
IIIYYG         10  DBLINK-S-4083-4096-F-CODE                            222 BRTN
IIIYYG                                      PIC X(1)        VALUE 'C'.  222 BRTN
IIIYYG         10  DBLINK-S-4083-4096-E-CODE                            222 BRTN
IIIYYG                                      PIC X(1)        VALUE 'C'.  222 BRTN
IIIYYG         10  DBLINK-S-4083-4093-N-CODE                            325 BRTN
IIIYYG                                      PIC X(1)        VALUE 'C'.  325 BRTN
IIIYYG         10  DBLINK-S-4083-4096-N-CODE                            325 BRTN
IIIYYG                                      PIC X(1)        VALUE 'C'.  325 BRTN
IIIYYG         10  DBLINK-S-4083-4093-P-CODE                            325 BRTN
IIIYYG                                      PIC X(1)        VALUE 'C'.  325 BRTN
IIIYYG         10  DBLINK-S-4083-4096-P-CODE                            325 BRTN
IIIYYG                                      PIC X(1)        VALUE 'C'.  325 BRTN
IIIYYG         10  DBLINK-S-4085-4061-F-CODE                            222 BRTN
IIIYYG                                      PIC X(1)        VALUE 'C'.  222 BRTN
IIIYYG         10  DBLINK-S-4085-4061-E-CODE                            222 BRTN
IIIYYG                                      PIC X(1)        VALUE 'C'.  222 BRTN
IIIYYG         10  DBLINK-S-4085-4071-F-CODE                            222 BRTN
IIIYYG                                      PIC X(1)        VALUE 'C'.  222 BRTN
IIIYYG         10  DBLINK-S-4085-4071-E-CODE                            222 BRTN
IIIYYG                                      PIC X(1)        VALUE 'C'.  222 BRTN
IIIYYG         10  DBLINK-S-4085-4089-F-CODE                            222 BRTN
IIIYYG                                      PIC X(1)        VALUE 'C'.  222 BRTN
IIIYYG         10  DBLINK-S-4085-4089-E-CODE                            222 BRTN
IIIYYG                                      PIC X(1)        VALUE 'C'.  222 BRTN
IIIYYG         10  DBLINK-S-4085-4094-F-CODE                            222 BRTN
IIIYYG                                      PIC X(1)        VALUE 'C'.  222 BRTN
IIIYYG         10  DBLINK-S-4085-4094-E-CODE                            222 BRTN
IIIYYG                                      PIC X(1)        VALUE 'C'.  222 BRTN
IIIYYG         10  DBLINK-S-4085-4095-F-CODE                            222 BRTN
IIIYYG                                      PIC X(1)        VALUE 'C'.  222 BRTN
IIIYYG         10  DBLINK-S-4085-4095-E-CODE                            222 BRTN
IIIYYG                                      PIC X(1)        VALUE 'C'.  222 BRTN
IIIYYG         10  DBLINK-S-4085-4151-F-CODE                            222 BRTN
IIIYYG                                      PIC X(1)        VALUE 'C'.  222 BRTN
IIIYYG         10  DBLINK-S-4085-4151-E-CODE                            222 BRTN
IIIYYG                                      PIC X(1)        VALUE 'C'.  222 BRTN
IIIYYG         10  DBLINK-S-4085-4300-F-CODE                            222 BRTN
IIIYYG                                      PIC X(1)        VALUE 'C'.  222 BRTN
IIIYYG         10  DBLINK-S-4085-4300-E-CODE                            222 BRTN
IIIYYG                                      PIC X(1)        VALUE 'C'.  222 BRTN
IIIYYG         10  DBLINK-S-4085-4061-N-CODE                            325 BRTN
IIIYYG                                      PIC X(1)        VALUE 'C'.  325 BRTN
IIIYYG         10  DBLINK-S-4085-4071-N-CODE                            325 BRTN
IIIYYG                                      PIC X(1)        VALUE 'C'.  325 BRTN
IIIYYG         10  DBLINK-S-4085-4089-N-CODE                            325 BRTN
IIIYYG                                      PIC X(1)        VALUE 'C'.  325 BRTN
IIIYYG         10  DBLINK-S-4085-4094-N-CODE                            325 BRTN
IIIYYG                                      PIC X(1)        VALUE 'C'.  325 BRTN
IIIYYG         10  DBLINK-S-4085-4095-N-CODE                            325 BRTN
IIIYYG                                      PIC X(1)        VALUE 'C'.  325 BRTN
IIIYYG         10  DBLINK-S-4085-4151-N-CODE                            325 BRTN
IIIYYG                                      PIC X(1)        VALUE 'C'.  325 BRTN
IIIYYG         10  DBLINK-S-4085-4300-N-CODE                            325 BRTN
IIIYYG                                      PIC X(1)        VALUE 'C'.  325 BRTN
IIIYYG         10  DBLINK-S-4085-4061-P-CODE                            325 BRTN
IIIYYG                                      PIC X(1)        VALUE 'C'.  325 BRTN
IIIYYG         10  DBLINK-S-4085-4071-P-CODE                            325 BRTN
IIIYYG                                      PIC X(1)        VALUE 'C'.  325 BRTN
IIIYYG         10  DBLINK-S-4085-4089-P-CODE                            325 BRTN
IIIYYG                                      PIC X(1)        VALUE 'C'.  325 BRTN
IIIYYG         10  DBLINK-S-4085-4094-P-CODE                            325 BRTN
IIIYYG                                      PIC X(1)        VALUE 'C'.  325 BRTN
IIIYYG         10  DBLINK-S-4085-4095-P-CODE                            325 BRTN
IIIYYG                                      PIC X(1)        VALUE 'C'.  325 BRTN
IIIYYG         10  DBLINK-S-4085-4151-P-CODE                            325 BRTN
IIIYYG                                      PIC X(1)        VALUE 'C'.  325 BRTN
IIIYYG         10  DBLINK-S-4085-4300-P-CODE                            325 BRTN
IIIYYG                                      PIC X(1)        VALUE 'C'.  325 BRTN
IIIYYG         10  DBLINK-S-4096-4085-F-CODE                            222 BRTN
IIIYYG                                      PIC X(1)        VALUE 'C'.  222 BRTN
IIIYYG         10  DBLINK-S-4096-4085-E-CODE                            222 BRTN
IIIYYG                                      PIC X(1)        VALUE 'C'.  222 BRTN
IIIYYG         10  DBLINK-S-4096-4085-N-CODE                            325 BRTN
IIIYYG                                      PIC X(1)        VALUE 'C'.  325 BRTN
IIIYYG         10  DBLINK-S-4096-4085-P-CODE                            325 BRTN
IIIYYG                                      PIC X(1)        VALUE 'C'.  325 BRTN
IIIYYG         10  DBLINK-S-4120-4121-F-CODE                            222 BRTN
IIIYYG                                      PIC X(1)        VALUE 'C'.  222 BRTN
IIIYYG         10  DBLINK-S-4120-4121-E-CODE                            222 BRTN
IIIYYG                                      PIC X(1)        VALUE 'C'.  222 BRTN
IIIYYG         10  DBLINK-S-4120-4121-N-CODE                            325 BRTN
IIIYYG                                      PIC X(1)        VALUE 'C'.  325 BRTN
IIIYYG         10  DBLINK-S-4120-4121-P-CODE                            325 BRTN
IIIYYG                                      PIC X(1)        VALUE 'C'.  325 BRTN
IIIYYG         10  DBLINK-S-4150-4151-F-CODE                            222 BRTN
IIIYYG                                      PIC X(1)        VALUE 'C'.  222 BRTN
IIIYYG         10  DBLINK-S-4150-4151-E-CODE                            222 BRTN
IIIYYG                                      PIC X(1)        VALUE 'C'.  222 BRTN
IIIYYG         10  DBLINK-S-4150-4151-N-CODE                            325 BRTN
IIIYYG                                      PIC X(1)        VALUE 'C'.  325 BRTN
IIIYYG         10  DBLINK-S-4150-4151-P-CODE                            325 BRTN
IIIYYG                                      PIC X(1)        VALUE 'C'.  325 BRTN
IIIYYG         10  DBLINK-S-4151-4152-F-CODE                            222 BRTN
IIIYYG                                      PIC X(1)        VALUE 'C'.  222 BRTN
IIIYYG         10  DBLINK-S-4151-4152-E-CODE                            222 BRTN
IIIYYG                                      PIC X(1)        VALUE 'C'.  222 BRTN
IIIYYG         10  DBLINK-S-4151-4306-F-CODE                            222 BRTN
IIIYYG                                      PIC X(1)        VALUE 'C'.  222 BRTN
IIIYYG         10  DBLINK-S-4151-4306-E-CODE                            222 BRTN
IIIYYG                                      PIC X(1)        VALUE 'C'.  222 BRTN
IIIYYG         10  DBLINK-S-4151-4152-N-CODE                            325 BRTN
IIIYYG                                      PIC X(1)        VALUE 'C'.  325 BRTN
IIIYYG         10  DBLINK-S-4151-4306-N-CODE                            325 BRTN
IIIYYG                                      PIC X(1)        VALUE 'C'.  325 BRTN
IIIYYG         10  DBLINK-S-4151-4152-P-CODE                            325 BRTN
IIIYYG                                      PIC X(1)        VALUE 'C'.  325 BRTN
IIIYYG         10  DBLINK-S-4151-4306-P-CODE                            325 BRTN
IIIYYG                                      PIC X(1)        VALUE 'C'.  325 BRTN
IIIYYG         10  DBLINK-S-4158-4159-F-CODE                            222 BRTN
IIIYYG                                      PIC X(1)        VALUE 'C'.  222 BRTN
IIIYYG         10  DBLINK-S-4158-4159-E-CODE                            222 BRTN
IIIYYG                                      PIC X(1)        VALUE 'C'.  222 BRTN
IIIYYG         10  DBLINK-S-4158-4159-N-CODE                            325 BRTN
IIIYYG                                      PIC X(1)        VALUE 'C'.  325 BRTN
IIIYYG         10  DBLINK-S-4158-4159-P-CODE                            325 BRTN
IIIYYG                                      PIC X(1)        VALUE 'C'.  325 BRTN
IIIYYG         10  DBLINK-S-4163-4150-F-CODE                            222 BRTN
IIIYYG                                      PIC X(1)        VALUE 'C'.  222 BRTN
IIIYYG         10  DBLINK-S-4163-4150-E-CODE                            222 BRTN
IIIYYG                                      PIC X(1)        VALUE 'C'.  222 BRTN
IIIYYG         10  DBLINK-S-4163-4150-N-CODE                            325 BRTN
IIIYYG                                      PIC X(1)        VALUE 'C'.  325 BRTN
IIIYYG         10  DBLINK-S-4163-4150-P-CODE                            325 BRTN
IIIYYG                                      PIC X(1)        VALUE 'C'.  325 BRTN
IIIYYG         10  DBLINK-S-4180-4181-F-CODE                            222 BRTN
IIIYYG                                      PIC X(1)        VALUE 'C'.  222 BRTN
IIIYYG         10  DBLINK-S-4180-4181-E-CODE                            222 BRTN
IIIYYG                                      PIC X(1)        VALUE 'C'.  222 BRTN
IIIYYG         10  DBLINK-S-4180-4181-N-CODE                            325 BRTN
IIIYYG                                      PIC X(1)        VALUE 'C'.  325 BRTN
IIIYYG         10  DBLINK-S-4180-4181-P-CODE                            325 BRTN
IIIYYG                                      PIC X(1)        VALUE 'C'.  325 BRTN
IIIYYG         10  DBLINK-S-4181-4182-F-CODE                            222 BRTN
IIIYYG                                      PIC X(1)        VALUE 'C'.  222 BRTN
IIIYYG         10  DBLINK-S-4181-4182-E-CODE                            222 BRTN
IIIYYG                                      PIC X(1)        VALUE 'C'.  222 BRTN
IIIYYG         10  DBLINK-S-4181-4184-F-CODE                            222 BRTN
IIIYYG                                      PIC X(1)        VALUE 'C'.  222 BRTN
IIIYYG         10  DBLINK-S-4181-4184-E-CODE                            222 BRTN
IIIYYG                                      PIC X(1)        VALUE 'C'.  222 BRTN
IIIYYG         10  DBLINK-S-4181-4182-N-CODE                            325 BRTN
IIIYYG                                      PIC X(1)        VALUE 'C'.  325 BRTN
IIIYYG         10  DBLINK-S-4181-4184-N-CODE                            325 BRTN
IIIYYG                                      PIC X(1)        VALUE 'C'.  325 BRTN
IIIYYG         10  DBLINK-S-4181-4182-P-CODE                            325 BRTN
IIIYYG                                      PIC X(1)        VALUE 'C'.  325 BRTN
IIIYYG         10  DBLINK-S-4181-4184-P-CODE                            325 BRTN
IIIYYG                                      PIC X(1)        VALUE 'C'.  325 BRTN
IIIYYG         10  DBLINK-S-4192-4013-F-CODE                            222 BRTN
IIIYYG                                      PIC X(1)        VALUE 'C'.  222 BRTN
IIIYYG         10  DBLINK-S-4192-4013-E-CODE                            222 BRTN
IIIYYG                                      PIC X(1)        VALUE 'C'.  222 BRTN
IIIYYG         10  DBLINK-S-4192-4020-F-CODE                            222 BRTN
IIIYYG                                      PIC X(1)        VALUE 'C'.  222 BRTN
IIIYYG         10  DBLINK-S-4192-4020-E-CODE                            222 BRTN
IIIYYG                                      PIC X(1)        VALUE 'C'.  222 BRTN
IIIYYG         10  DBLINK-S-4192-4204-F-CODE                            222 BRTN
IIIYYG                                      PIC X(1)        VALUE 'C'.  222 BRTN
IIIYYG         10  DBLINK-S-4192-4204-E-CODE                            222 BRTN
IIIYYG                                      PIC X(1)        VALUE 'C'.  222 BRTN
IIIYYG         10  DBLINK-S-4192-4013-N-CODE                            325 BRTN
IIIYYG                                      PIC X(1)        VALUE 'C'.  325 BRTN
IIIYYG         10  DBLINK-S-4192-4020-N-CODE                            325 BRTN
IIIYYG                                      PIC X(1)        VALUE 'C'.  325 BRTN
IIIYYG         10  DBLINK-S-4192-4204-N-CODE                            325 BRTN
IIIYYG                                      PIC X(1)        VALUE 'C'.  325 BRTN
IIIYYG         10  DBLINK-S-4192-4013-P-CODE                            325 BRTN
IIIYYG                                      PIC X(1)        VALUE 'C'.  325 BRTN
IIIYYG         10  DBLINK-S-4192-4020-P-CODE                            325 BRTN
IIIYYG                                      PIC X(1)        VALUE 'C'.  325 BRTN
IIIYYG         10  DBLINK-S-4192-4204-P-CODE                            325 BRTN
IIIYYG                                      PIC X(1)        VALUE 'C'.  325 BRTN
IIIYYG         10  DBLINK-S-4203-4204-F-CODE                            222 BRTN
IIIYYG                                      PIC X(1)        VALUE 'C'.  222 BRTN
IIIYYG         10  DBLINK-S-4203-4204-E-CODE                            222 BRTN
IIIYYG                                      PIC X(1)        VALUE 'C'.  222 BRTN
IIIYYG         10  DBLINK-S-4203-4204-N-CODE                            325 BRTN
IIIYYG                                      PIC X(1)        VALUE 'C'.  325 BRTN
IIIYYG         10  DBLINK-S-4203-4204-P-CODE                            325 BRTN
IIIYYG                                      PIC X(1)        VALUE 'C'.  325 BRTN
IIIYYG         10  DBLINK-S-4204-4215-F-CODE                            222 BRTN
IIIYYG                                      PIC X(1)        VALUE 'C'.  222 BRTN
IIIYYG         10  DBLINK-S-4204-4215-E-CODE                            222 BRTN
IIIYYG                                      PIC X(1)        VALUE 'C'.  222 BRTN
IIIYYG         10  DBLINK-S-4204-4215-N-CODE                            325 BRTN
IIIYYG                                      PIC X(1)        VALUE 'C'.  325 BRTN
IIIYYG         10  DBLINK-S-4204-4215-P-CODE                            325 BRTN
IIIYYG                                      PIC X(1)        VALUE 'C'.  325 BRTN
IIIYYG         10  DBLINK-S-4205-4211-F-CODE                            222 BRTN
IIIYYG                                      PIC X(1)        VALUE 'C'.  222 BRTN
IIIYYG         10  DBLINK-S-4205-4211-E-CODE                            222 BRTN
IIIYYG                                      PIC X(1)        VALUE 'C'.  222 BRTN
IIIYYG         10  DBLINK-S-4205-4212-F-CODE                            222 BRTN
IIIYYG                                      PIC X(1)        VALUE 'C'.  222 BRTN
IIIYYG         10  DBLINK-S-4205-4212-E-CODE                            222 BRTN
IIIYYG                                      PIC X(1)        VALUE 'C'.  222 BRTN
IIIYYG         10  DBLINK-S-4205-4211-N-CODE                            325 BRTN
IIIYYG                                      PIC X(1)        VALUE 'C'.  325 BRTN
IIIYYG         10  DBLINK-S-4205-4212-N-CODE                            325 BRTN
IIIYYG                                      PIC X(1)        VALUE 'C'.  325 BRTN
IIIYYG         10  DBLINK-S-4205-4211-P-CODE                            325 BRTN
IIIYYG                                      PIC X(1)        VALUE 'C'.  325 BRTN
IIIYYG         10  DBLINK-S-4205-4212-P-CODE                            325 BRTN
IIIYYG                                      PIC X(1)        VALUE 'C'.  325 BRTN
IIIYYG         10  DBLINK-S-4212-4214-F-CODE                            222 BRTN
IIIYYG                                      PIC X(1)        VALUE 'C'.  222 BRTN
IIIYYG         10  DBLINK-S-4212-4214-E-CODE                            222 BRTN
IIIYYG                                      PIC X(1)        VALUE 'C'.  222 BRTN
IIIYYG         10  DBLINK-S-4212-4214-N-CODE                            325 BRTN
IIIYYG                                      PIC X(1)        VALUE 'C'.  325 BRTN
IIIYYG         10  DBLINK-S-4212-4214-P-CODE                            325 BRTN
IIIYYG                                      PIC X(1)        VALUE 'C'.  325 BRTN
IIIYYG         10  DBLINK-S-4215-4205-F-CODE                            222 BRTN
IIIYYG                                      PIC X(1)        VALUE 'C'.  222 BRTN
IIIYYG         10  DBLINK-S-4215-4205-E-CODE                            222 BRTN
IIIYYG                                      PIC X(1)        VALUE 'C'.  222 BRTN
IIIYYG         10  DBLINK-S-4215-4205-N-CODE                            325 BRTN
IIIYYG                                      PIC X(1)        VALUE 'C'.  325 BRTN
IIIYYG         10  DBLINK-S-4215-4205-P-CODE                            325 BRTN
IIIYYG                                      PIC X(1)        VALUE 'C'.  325 BRTN
IIIYYG         10  DBLINK-S-6001-6117-F-CODE                            222 BRTN
IIIYYG                                      PIC X(1)        VALUE 'C'.  222 BRTN
IIIYYG         10  DBLINK-S-6001-6117-E-CODE                            222 BRTN
IIIYYG                                      PIC X(1)        VALUE 'C'.  222 BRTN
IIIYYG         10  DBLINK-S-6001-6151-F-CODE                            222 BRTN
IIIYYG                                      PIC X(1)        VALUE 'C'.  222 BRTN
IIIYYG         10  DBLINK-S-6001-6151-E-CODE                            222 BRTN
IIIYYG                                      PIC X(1)        VALUE 'C'.  222 BRTN
IIIYYG         10  DBLINK-S-6001-6152-F-CODE                            222 BRTN
IIIYYG                                      PIC X(1)        VALUE 'C'.  222 BRTN
IIIYYG         10  DBLINK-S-6001-6152-E-CODE                            222 BRTN
IIIYYG                                      PIC X(1)        VALUE 'C'.  222 BRTN
IIIYYG         10  DBLINK-S-6001-6153-F-CODE                            222 BRTN
IIIYYG                                      PIC X(1)        VALUE 'C'.  222 BRTN
IIIYYG         10  DBLINK-S-6001-6153-E-CODE                            222 BRTN
IIIYYG                                      PIC X(1)        VALUE 'C'.  222 BRTN
IIIYYG         10  DBLINK-S-6001-6343-F-CODE                            222 BRTN
IIIYYG                                      PIC X(1)        VALUE 'C'.  222 BRTN
IIIYYG         10  DBLINK-S-6001-6343-E-CODE                            222 BRTN
IIIYYG                                      PIC X(1)        VALUE 'C'.  222 BRTN
IIIYYG         10  DBLINK-S-6001-6117-N-CODE                            325 BRTN
IIIYYG                                      PIC X(1)        VALUE 'C'.  325 BRTN
IIIYYG         10  DBLINK-S-6001-6151-N-CODE                            325 BRTN
IIIYYG                                      PIC X(1)        VALUE 'C'.  325 BRTN
IIIYYG         10  DBLINK-S-6001-6152-N-CODE                            325 BRTN
IIIYYG                                      PIC X(1)        VALUE 'C'.  325 BRTN
IIIYYG         10  DBLINK-S-6001-6153-N-CODE                            325 BRTN
IIIYYG                                      PIC X(1)        VALUE 'C'.  325 BRTN
IIIYYG         10  DBLINK-S-6001-6343-N-CODE                            325 BRTN
IIIYYG                                      PIC X(1)        VALUE 'C'.  325 BRTN
IIIYYG         10  DBLINK-S-6001-6117-P-CODE                            325 BRTN
IIIYYG                                      PIC X(1)        VALUE 'C'.  325 BRTN
IIIYYG         10  DBLINK-S-6001-6151-P-CODE                            325 BRTN
IIIYYG                                      PIC X(1)        VALUE 'C'.  325 BRTN
IIIYYG         10  DBLINK-S-6001-6152-P-CODE                            325 BRTN
IIIYYG                                      PIC X(1)        VALUE 'C'.  325 BRTN
IIIYYG         10  DBLINK-S-6001-6153-P-CODE                            325 BRTN
IIIYYG                                      PIC X(1)        VALUE 'C'.  325 BRTN
IIIYYG         10  DBLINK-S-6001-6343-P-CODE                            325 BRTN
IIIYYG                                      PIC X(1)        VALUE 'C'.  325 BRTN
IIIYYG         10  DBLINK-S-6117-6139-F-CODE                            222 BRTN
IIIYYG                                      PIC X(1)        VALUE 'C'.  222 BRTN
IIIYYG         10  DBLINK-S-6117-6139-E-CODE                            222 BRTN
IIIYYG                                      PIC X(1)        VALUE 'C'.  222 BRTN
IIIYYG         10  DBLINK-S-6117-6156-F-CODE                            222 BRTN
IIIYYG                                      PIC X(1)        VALUE 'C'.  222 BRTN
IIIYYG         10  DBLINK-S-6117-6156-E-CODE                            222 BRTN
IIIYYG                                      PIC X(1)        VALUE 'C'.  222 BRTN
IIIYYG         10  DBLINK-S-6117-6157-F-CODE                            222 BRTN
IIIYYG                                      PIC X(1)        VALUE 'C'.  222 BRTN
IIIYYG         10  DBLINK-S-6117-6157-E-CODE                            222 BRTN
IIIYYG                                      PIC X(1)        VALUE 'C'.  222 BRTN
IIIYYG         10  DBLINK-S-6117-6274-F-CODE                            222 BRTN
IIIYYG                                      PIC X(1)        VALUE 'C'.  222 BRTN
IIIYYG         10  DBLINK-S-6117-6274-E-CODE                            222 BRTN
IIIYYG                                      PIC X(1)        VALUE 'C'.  222 BRTN
IIIYYG         10  DBLINK-S-6117-6313-F-CODE                            222 BRTN
IIIYYG                                      PIC X(1)        VALUE 'C'.  222 BRTN
IIIYYG         10  DBLINK-S-6117-6313-E-CODE                            222 BRTN
IIIYYG                                      PIC X(1)        VALUE 'C'.  222 BRTN
IIIYYG         10  DBLINK-S-6117-6139-N-CODE                            325 BRTN
IIIYYG                                      PIC X(1)        VALUE 'C'.  325 BRTN
IIIYYG         10  DBLINK-S-6117-6156-N-CODE                            325 BRTN
IIIYYG                                      PIC X(1)        VALUE 'C'.  325 BRTN
IIIYYG         10  DBLINK-S-6117-6157-N-CODE                            325 BRTN
IIIYYG                                      PIC X(1)        VALUE 'C'.  325 BRTN
IIIYYG         10  DBLINK-S-6117-6274-N-CODE                            325 BRTN
IIIYYG                                      PIC X(1)        VALUE 'C'.  325 BRTN
IIIYYG         10  DBLINK-S-6117-6313-N-CODE                            325 BRTN
IIIYYG                                      PIC X(1)        VALUE 'C'.  325 BRTN
IIIYYG         10  DBLINK-S-6117-6139-P-CODE                            325 BRTN
IIIYYG                                      PIC X(1)        VALUE 'C'.  325 BRTN
IIIYYG         10  DBLINK-S-6117-6156-P-CODE                            325 BRTN
IIIYYG                                      PIC X(1)        VALUE 'C'.  325 BRTN
IIIYYG         10  DBLINK-S-6117-6157-P-CODE                            325 BRTN
IIIYYG                                      PIC X(1)        VALUE 'C'.  325 BRTN
IIIYYG         10  DBLINK-S-6117-6274-P-CODE                            325 BRTN
IIIYYG                                      PIC X(1)        VALUE 'C'.  325 BRTN
IIIYYG         10  DBLINK-S-6117-6313-P-CODE                            325 BRTN
IIIYYG                                      PIC X(1)        VALUE 'C'.  325 BRTN
IIIYYG         10  DBLINK-S-6311-6185-F-CODE                            222 BRTN
IIIYYG                                      PIC X(1)        VALUE 'C'.  222 BRTN
IIIYYG         10  DBLINK-S-6311-6185-E-CODE                            222 BRTN
IIIYYG                                      PIC X(1)        VALUE 'C'.  222 BRTN
IIIYYG         10  DBLINK-S-6311-6186-F-CODE                            222 BRTN
IIIYYG                                      PIC X(1)        VALUE 'C'.  222 BRTN
IIIYYG         10  DBLINK-S-6311-6186-E-CODE                            222 BRTN
IIIYYG                                      PIC X(1)        VALUE 'C'.  222 BRTN
IIIYYG         10  DBLINK-S-6311-6274-F-CODE                            222 BRTN
IIIYYG                                      PIC X(1)        VALUE 'C'.  222 BRTN
IIIYYG         10  DBLINK-S-6311-6274-E-CODE                            222 BRTN
IIIYYG                                      PIC X(1)        VALUE 'C'.  222 BRTN
IIIYYG         10  DBLINK-S-6311-6350-F-CODE                            222 BRTN
IIIYYG                                      PIC X(1)        VALUE 'C'.  222 BRTN
IIIYYG         10  DBLINK-S-6311-6350-E-CODE                            222 BRTN
IIIYYG                                      PIC X(1)        VALUE 'C'.  222 BRTN
IIIYYG         10  DBLINK-S-6311-6352-F-CODE                            222 BRTN
IIIYYG                                      PIC X(1)        VALUE 'C'.  222 BRTN
IIIYYG         10  DBLINK-S-6311-6352-E-CODE                            222 BRTN
IIIYYG                                      PIC X(1)        VALUE 'C'.  222 BRTN
IIIYYG         10  DBLINK-S-6311-6353-F-CODE                            222 BRTN
IIIYYG                                      PIC X(1)        VALUE 'C'.  222 BRTN
IIIYYG         10  DBLINK-S-6311-6353-E-CODE                            222 BRTN
IIIYYG                                      PIC X(1)        VALUE 'C'.  222 BRTN
IIIYYG         10  DBLINK-S-6311-6185-N-CODE                            325 BRTN
IIIYYG                                      PIC X(1)        VALUE 'C'.  325 BRTN
IIIYYG         10  DBLINK-S-6311-6186-N-CODE                            325 BRTN
IIIYYG                                      PIC X(1)        VALUE 'C'.  325 BRTN
IIIYYG         10  DBLINK-S-6311-6274-N-CODE                            325 BRTN
IIIYYG                                      PIC X(1)        VALUE 'C'.  325 BRTN
IIIYYG         10  DBLINK-S-6311-6350-N-CODE                            325 BRTN
IIIYYG                                      PIC X(1)        VALUE 'C'.  325 BRTN
IIIYYG         10  DBLINK-S-6311-6352-N-CODE                            325 BRTN
IIIYYG                                      PIC X(1)        VALUE 'C'.  325 BRTN
IIIYYG         10  DBLINK-S-6311-6353-N-CODE                            325 BRTN
IIIYYG                                      PIC X(1)        VALUE 'C'.  325 BRTN
IIIYYG         10  DBLINK-S-6311-6185-P-CODE                            325 BRTN
IIIYYG                                      PIC X(1)        VALUE 'C'.  325 BRTN
IIIYYG         10  DBLINK-S-6311-6186-P-CODE                            325 BRTN
IIIYYG                                      PIC X(1)        VALUE 'C'.  325 BRTN
IIIYYG         10  DBLINK-S-6311-6274-P-CODE                            325 BRTN
IIIYYG                                      PIC X(1)        VALUE 'C'.  325 BRTN
IIIYYG         10  DBLINK-S-6311-6350-P-CODE                            325 BRTN
IIIYYG                                      PIC X(1)        VALUE 'C'.  325 BRTN
IIIYYG         10  DBLINK-S-6311-6352-P-CODE                            325 BRTN
IIIYYG                                      PIC X(1)        VALUE 'C'.  325 BRTN
IIIYYG         10  DBLINK-S-6311-6353-P-CODE                            325 BRTN
IIIYYG                                      PIC X(1)        VALUE 'C'.  325 BRTN
