           LABEL RECORDS STANDARD                                       CPFDXBGX
           RECORDING MODE F                                             CPFDXBGX
           RECORD CONTAINS 406 CHARACTERS                               CPFDXBGX
           BLOCK CONTAINS 0 RECORDS                                     CPFDXBGX
           DATA RECORD IS XBGX-BUDGET-RECORD.                           CPFDXBGX
       01  XBGX-BUDGET-RECORD                  PIC X(406).              CPFDXBGX
