           LABEL RECORDS STANDARD                                       CPFDXPVM
           RECORDING MODE F                                             CPFDXPVM
           RECORD CONTAINS 503 CHARACTERS                               CPFDXPVM
           BLOCK CONTAINS 0 RECORDS                                     CPFDXPVM
           DATA RECORD IS XPVM-PROVISION-RECORD.                        CPFDXPVM
       01  XPVM-PROVISION-RECORD               PIC X(503).              CPFDXPVM
