      *      CREATED BY CONVERT/DB V8R01 ON 05/03/00 AT 10:54         *
YYY991     MOVE '985-CURR-MSG-LINE-144' TO DBLINK-CURR-PARAGRAPH.       276 BRTN
YYY991                                                                  276 BRTN
YYY991*%****************************** *                                276 BRTN
YYY991*%INITIALIZE DBLINK SUBSCHEMA-CTRL                                276 BRTN
YYY991*%****************************** *                                276 BRTN
YYY991     MOVE ZERO TO ERROR-STATUS.                                   276 BRTN
YYY991     MOVE SPACES TO ERROR-AREA.                                   276 BRTN
YYY991     MOVE SPACES TO ERROR-SET.                                    276 BRTN
YYY991     MOVE SPACES TO ERROR-RECORD.                                 276 BRTN
YYY991     MOVE 'MSG-LINE-144' TO RECORD-NAME.                          276 BRTN
YYY991                                                                  276 BRTN
YYY991*%****************************** *                                276 BRTN
YYY991*%CLOSE ALL RECORD-RELATED CURSORS                                276 BRTN
YYY991*%****************************** *                                276 BRTN
YYY991     MOVE DBLINK-MSG-LINE-144 TO DBLINK-RECORD-MADE-CURRENT.      276 BRTN
YYY991     MOVE ' ' TO DBLINK-CURSOR-NAME-WORK.                         276 BRTN
YYY991     PERFORM 991-CLOSE-CURSORS                                    276 BRTN
YYY991        THRU 991-CLOSE-CURSORS-EXIT.                              276 BRTN
YYY991     IF ERROR-STATUS = DBLINK-DB2-ERROR                           276 BRTN
YYY991         GO TO 985-CURR-MSG-LINE-144-EXIT                         276 BRTN
YYY991     END-IF.                                                      276 BRTN
YYY991     MOVE ' ' TO DBLINK-RECORD-MADE-CURRENT.                      276 BRTN
YYY991                                                                  276 BRTN
YYY991*%****************************** *                                276 BRTN
YYY991*%SET RECORD KEY                                                  276 BRTN
YYY991*%****************************** *                                276 BRTN
YYY991     IF DBLINK-TYPE-GET NOT = DBLINK-CURR                         276 BRTN
YYY991         MOVE MSL-FK-MSG-MSG-KEY TO DBLINK-MSG-LINE-144-01        276 BRTN
YYY991         MOVE MSL-MSG-TS TO DBLINK-MSG-LINE-144-02                276 BRTN
YYY991     END-IF.                                                      276 BRTN
YYY991                                                                  276 BRTN
YYY991*%****************************** *                                276 BRTN
YYY991*%SET CURRENT OF RUN-UNIT                                         276 BRTN
YYY991*%****************************** *                                276 BRTN
YYY991     MOVE DBLINK-MSG-LINE-144 TO DBLINK-VIEW-NAME-CURRENT.        276 BRTN
YYY991     MOVE DBLINK-MSG-LINE-144-KEY TO DBLINK-VIEW-200-CURRENT.     276 BRTN
YYY991                                                                  276 BRTN
YYY991*%****************************** *                                276 BRTN
YYY991*%SET KEYS FOR SETS WHICH RECORD OWNS                             276 BRTN
YYY991*%****************************** *                                276 BRTN
YYY991                                                                  276 BRTN
YYY991*%****************************** *                                276 BRTN
YYY991*%SET KEYS FOR SETS IN WHICH RECORD IS MEMBER                     276 BRTN
YYY991*%****************************** *                                276 BRTN
YYY991                                                                  276 BRTN
YYY991*%****************************** *                                276 BRTN
YYY991*%SET MESSAGE-MSGLINE                                             276 BRTN
YYY991*%****************************** *                                276 BRTN
YYY991     MOVE MSL-FK-MSG-MSG-KEY TO DBLINK-MESSAGE-MSGLINE-01.        276 BRTN
YYY991     MOVE MSL-MSG-TS TO DBLINK-MESSAGE-MSGLINE-02.                276 BRTN
