    ***Created by Convert/DC version V8R03 on 12/05/00 at 11:00***

      *%--------------------------------------------------------------%*
           MOVE DCLINK-MESSAGE  TO WK01-ZZMESSAGE.
      *%--------------------------------------------------------------%*
           MOVE AGR-DATE OF ADSO-APPLICATION-GLOBAL-RECORD TO WK01-DATE.
      *%--------------------------------------------------------------%*
           MOVE AGR-USER-ID OF ADSO-APPLICATION-GLOBAL-RECORD TO
                WK01-USER-ID.
      *%--------------------------------------------------------------%*
           MOVE AGR-FUNC-DESCRIPTION OF ADSO-APPLICATION-GLOBAL-RECORD
                TO WK01-FUNC-DESCRIPTION.
      *%--------------------------------------------------------------%*
           MOVE AGR-PASSED-ONE OF ADSO-APPLICATION-GLOBAL-RECORD TO
                WK01-PASSED-ONE.
      *%--------------------------------------------------------------%*
           MOVE AGR-MAP-RESPONSE OF ADSO-APPLICATION-GLOBAL-RECORD TO
                WK01-MAP-RESPONSE.
      *%--------------------------------------------------------------%*
           MOVE TRMNL-ID-SY00 OF FSYWG00M TO WK01-ID-SY00.
      *%--------------------------------------------------------------%*
           MOVE FULL-NAME-6001-SY00 OF FSYWG00M TO WK01-NAME-6001-SY00.
      *%--------------------------------------------------------------%*
           MOVE AM-PM-FLAG-SY00 OF FSYWG00M TO WK01-PM-FLAG-SY00.
      *%--------------------------------------------------------------%*
           MOVE CURR-RSPNS-ID-SY00 OF FSYWG00M TO WK01-RSPNS-ID-SY00.
      *%--------------------------------------------------------------%*
           MOVE ERROR-TEXT-SY00 OF FSYWG00M TO WK01-TEXT-SY00.
      *%--------------------------------------------------------------%*
           MOVE PAGE-STATUS-CODE-SY00 OF FSYWG00M TO
                WK01-STATUS-CODE-SY00.
      *%--------------------------------------------------------------%*
           MOVE WORK-HH-MM-TIME-SY00 OF FSYWG00M TO
                WK01-HH-MM-TIME-SY00.
      *%--------------------------------------------------------------%*
           MOVE DCSD-TEXT-SY01 OF FSYWG01M TO WK01-TEXT-SY01.
      *%--------------------------------------------------------------%*
           MOVE CNFDL-TEXT-SY01 OF FSYWG01M TO WK01-TEXT-SY0A.
      *%--------------------------------------------------------------%*
           MOVE HOLDS-TEXT-SY01 OF FSYWG01M TO WK01-TEXT-SY0B.
      *%--------------------------------------------------------------%*
           MOVE SLCTN-STATUS-AP24 OF FAPWK24 TO WK01-STATUS-AP24.
      *%--------------------------------------------------------------%*
           MOVE RQST-DSCNT-CODE-AP24 OF FAPWK24 TO WK01-DSCNT-CODE-AP24.
      *%--------------------------------------------------------------%*
           MOVE ACTN-CODE-AP24 OF FAPWM24(0001) TO WK01-CODE-AP241.
      *%--------------------------------------------------------------%*
           MOVE ACTN-CODE-AP24 OF FAPWM24(0002) TO WK01-CODE-AP242.
      *%--------------------------------------------------------------%*
           MOVE ACTN-CODE-AP24 OF FAPWM24(0003) TO WK01-CODE-AP243.
      *%--------------------------------------------------------------%*
           MOVE ACTN-CODE-AP24 OF FAPWM24(0004) TO WK01-CODE-AP244.
      *%--------------------------------------------------------------%*
           MOVE ACTN-CODE-AP24 OF FAPWM24(0005) TO WK01-CODE-AP245.
      *%--------------------------------------------------------------%*
           MOVE ACTN-CODE-AP24 OF FAPWM24(0006) TO WK01-CODE-AP246.
      *%--------------------------------------------------------------%*
           MOVE ACTN-CODE-AP24 OF FAPWM24(0007) TO WK01-CODE-AP247.
      *%--------------------------------------------------------------%*
           MOVE ACTN-CODE-AP24 OF FAPWM24(0008) TO WK01-CODE-AP248.
      *%--------------------------------------------------------------%*
           MOVE ACTN-CODE-AP24 OF FAPWM24(0009) TO WK01-CODE-AP249.
      *%--------------------------------------------------------------%*
           MOVE ACTN-CODE-AP24 OF FAPWM24(0010) TO WK01-CODE-AP2410.
      *%--------------------------------------------------------------%*
           MOVE ACTN-CODE-AP24 OF FAPWM24(0011) TO WK01-CODE-AP2411.
      *%--------------------------------------------------------------%*
           MOVE DSCNT-DESC-4172-AP24 OF FAPWM24(0001) TO
                WK01-DESC-4172-AP241.
      *%--------------------------------------------------------------%*
           MOVE DSCNT-DESC-4172-AP24 OF FAPWM24(0002) TO
                WK01-DESC-4172-AP242.
      *%--------------------------------------------------------------%*
           MOVE DSCNT-DESC-4172-AP24 OF FAPWM24(0003) TO
                WK01-DESC-4172-AP243.
      *%--------------------------------------------------------------%*
           MOVE DSCNT-DESC-4172-AP24 OF FAPWM24(0004) TO
                WK01-DESC-4172-AP244.
      *%--------------------------------------------------------------%*
           MOVE DSCNT-DESC-4172-AP24 OF FAPWM24(0005) TO
                WK01-DESC-4172-AP245.
      *%--------------------------------------------------------------%*
           MOVE DSCNT-DESC-4172-AP24 OF FAPWM24(0006) TO
                WK01-DESC-4172-AP246.
      *%--------------------------------------------------------------%*
           MOVE DSCNT-DESC-4172-AP24 OF FAPWM24(0007) TO
                WK01-DESC-4172-AP247.
      *%--------------------------------------------------------------%*
           MOVE DSCNT-DESC-4172-AP24 OF FAPWM24(0008) TO
                WK01-DESC-4172-AP248.
      *%--------------------------------------------------------------%*
           MOVE DSCNT-DESC-4172-AP24 OF FAPWM24(0009) TO
                WK01-DESC-4172-AP249.
      *%--------------------------------------------------------------%*
           MOVE DSCNT-DESC-4172-AP24 OF FAPWM24(0010) TO
                WK01-DESC-4172-AP2410.
      *%--------------------------------------------------------------%*
           MOVE DSCNT-DESC-4172-AP24 OF FAPWM24(0011) TO
                WK01-DESC-4172-AP2411.
      *%--------------------------------------------------------------%*
           MOVE END-OF-MONTH-IND-4172-AP24 OF FAPWM24(0001) TO
                WK01-OF-MNTH-IND-4172-AP241.
      *%--------------------------------------------------------------%*
           MOVE END-OF-MONTH-IND-4172-AP24 OF FAPWM24(0002) TO
                WK01-OF-MNTH-IND-4172-AP242.
      *%--------------------------------------------------------------%*
           MOVE END-OF-MONTH-IND-4172-AP24 OF FAPWM24(0003) TO
                WK01-OF-MNTH-IND-4172-AP243.
      *%--------------------------------------------------------------%*
           MOVE END-OF-MONTH-IND-4172-AP24 OF FAPWM24(0004) TO
                WK01-OF-MNTH-IND-4172-AP244.
      *%--------------------------------------------------------------%*
           MOVE END-OF-MONTH-IND-4172-AP24 OF FAPWM24(0005) TO
                WK01-OF-MNTH-IND-4172-AP245.
      *%--------------------------------------------------------------%*
           MOVE END-OF-MONTH-IND-4172-AP24 OF FAPWM24(0006) TO
                WK01-OF-MNTH-IND-4172-AP246.
      *%--------------------------------------------------------------%*
           MOVE END-OF-MONTH-IND-4172-AP24 OF FAPWM24(0007) TO
                WK01-OF-MNTH-IND-4172-AP247.
      *%--------------------------------------------------------------%*
           MOVE END-OF-MONTH-IND-4172-AP24 OF FAPWM24(0008) TO
                WK01-OF-MNTH-IND-4172-AP248.
      *%--------------------------------------------------------------%*
           MOVE END-OF-MONTH-IND-4172-AP24 OF FAPWM24(0009) TO
                WK01-OF-MNTH-IND-4172-AP249.
      *%--------------------------------------------------------------%*
           MOVE END-OF-MONTH-IND-4172-AP24 OF FAPWM24(0010) TO
                WK01-OF-MNTH-IND-4172-AP2410.
      *%--------------------------------------------------------------%*
           MOVE END-OF-MONTH-IND-4172-AP24 OF FAPWM24(0011) TO
                WK01-OF-MNTH-IND-4172-AP2411.
      *%--------------------------------------------------------------%*
           MOVE DSCNT-DAYS-4172-AP24 OF FAPWM24(0001) TO
                WK01-DAYS-4172-AP241.
      *%--------------------------------------------------------------%*
           MOVE DSCNT-DAYS-4172-AP24 OF FAPWM24(0002) TO
                WK01-DAYS-4172-AP242.
      *%--------------------------------------------------------------%*
           MOVE DSCNT-DAYS-4172-AP24 OF FAPWM24(0003) TO
                WK01-DAYS-4172-AP243.
      *%--------------------------------------------------------------%*
           MOVE DSCNT-DAYS-4172-AP24 OF FAPWM24(0004) TO
                WK01-DAYS-4172-AP244.
      *%--------------------------------------------------------------%*
           MOVE DSCNT-DAYS-4172-AP24 OF FAPWM24(0005) TO
                WK01-DAYS-4172-AP245.
      *%--------------------------------------------------------------%*
           MOVE DSCNT-DAYS-4172-AP24 OF FAPWM24(0006) TO
                WK01-DAYS-4172-AP246.
      *%--------------------------------------------------------------%*
           MOVE DSCNT-DAYS-4172-AP24 OF FAPWM24(0007) TO
                WK01-DAYS-4172-AP247.
      *%--------------------------------------------------------------%*
           MOVE DSCNT-DAYS-4172-AP24 OF FAPWM24(0008) TO
                WK01-DAYS-4172-AP248.
      *%--------------------------------------------------------------%*
           MOVE DSCNT-DAYS-4172-AP24 OF FAPWM24(0009) TO
                WK01-DAYS-4172-AP249.
      *%--------------------------------------------------------------%*
           MOVE DSCNT-DAYS-4172-AP24 OF FAPWM24(0010) TO
                WK01-DAYS-4172-AP2410.
      *%--------------------------------------------------------------%*
           MOVE DSCNT-DAYS-4172-AP24 OF FAPWM24(0011) TO
                WK01-DAYS-4172-AP2411.
      *%--------------------------------------------------------------%*
           MOVE DSCNT-PCT-4172-AP24 OF FAPWM24(0001) TO
                WK01-PCT-4172-AP241.
      *%--------------------------------------------------------------%*
           MOVE DSCNT-PCT-4172-AP24 OF FAPWM24(0002) TO
                WK01-PCT-4172-AP242.
      *%--------------------------------------------------------------%*
           MOVE DSCNT-PCT-4172-AP24 OF FAPWM24(0003) TO
                WK01-PCT-4172-AP243.
      *%--------------------------------------------------------------%*
           MOVE DSCNT-PCT-4172-AP24 OF FAPWM24(0004) TO
                WK01-PCT-4172-AP244.
      *%--------------------------------------------------------------%*
           MOVE DSCNT-PCT-4172-AP24 OF FAPWM24(0005) TO
                WK01-PCT-4172-AP245.
      *%--------------------------------------------------------------%*
           MOVE DSCNT-PCT-4172-AP24 OF FAPWM24(0006) TO
                WK01-PCT-4172-AP246.
      *%--------------------------------------------------------------%*
           MOVE DSCNT-PCT-4172-AP24 OF FAPWM24(0007) TO
                WK01-PCT-4172-AP247.
      *%--------------------------------------------------------------%*
           MOVE DSCNT-PCT-4172-AP24 OF FAPWM24(0008) TO
                WK01-PCT-4172-AP248.
      *%--------------------------------------------------------------%*
           MOVE DSCNT-PCT-4172-AP24 OF FAPWM24(0009) TO
                WK01-PCT-4172-AP249.
      *%--------------------------------------------------------------%*
           MOVE DSCNT-PCT-4172-AP24 OF FAPWM24(0010) TO
                WK01-PCT-4172-AP2410.
      *%--------------------------------------------------------------%*
           MOVE DSCNT-PCT-4172-AP24 OF FAPWM24(0011) TO
                WK01-PCT-4172-AP2411.
      *%--------------------------------------------------------------%*
           MOVE EFCTV-DATE-4172-AP24 OF FAPWM24(0001) TO
                WK01-DATE-4172-AP241.
      *%--------------------------------------------------------------%*
           MOVE EFCTV-DATE-4172-AP24 OF FAPWM24(0002) TO
                WK01-DATE-4172-AP242.
      *%--------------------------------------------------------------%*
           MOVE EFCTV-DATE-4172-AP24 OF FAPWM24(0003) TO
                WK01-DATE-4172-AP243.
      *%--------------------------------------------------------------%*
           MOVE EFCTV-DATE-4172-AP24 OF FAPWM24(0004) TO
                WK01-DATE-4172-AP244.
      *%--------------------------------------------------------------%*
           MOVE EFCTV-DATE-4172-AP24 OF FAPWM24(0005) TO
                WK01-DATE-4172-AP245.
      *%--------------------------------------------------------------%*
           MOVE EFCTV-DATE-4172-AP24 OF FAPWM24(0006) TO
                WK01-DATE-4172-AP246.
      *%--------------------------------------------------------------%*
           MOVE EFCTV-DATE-4172-AP24 OF FAPWM24(0007) TO
                WK01-DATE-4172-AP247.
      *%--------------------------------------------------------------%*
           MOVE EFCTV-DATE-4172-AP24 OF FAPWM24(0008) TO
                WK01-DATE-4172-AP248.
      *%--------------------------------------------------------------%*
           MOVE EFCTV-DATE-4172-AP24 OF FAPWM24(0009) TO
                WK01-DATE-4172-AP249.
      *%--------------------------------------------------------------%*
           MOVE EFCTV-DATE-4172-AP24 OF FAPWM24(0010) TO
                WK01-DATE-4172-AP2410.
      *%--------------------------------------------------------------%*
           MOVE EFCTV-DATE-4172-AP24 OF FAPWM24(0011) TO
                WK01-DATE-4172-AP2411.
      *%--------------------------------------------------------------%*
           MOVE ACTVY-DATE-4172-AP24 OF FAPWM24(0001) TO
                WK01-DATE-4172-AP2A1.
      *%--------------------------------------------------------------%*
           MOVE ACTVY-DATE-4172-AP24 OF FAPWM24(0002) TO
                WK01-DATE-4172-AP2A2.
      *%--------------------------------------------------------------%*
           MOVE ACTVY-DATE-4172-AP24 OF FAPWM24(0003) TO
                WK01-DATE-4172-AP2A3.
      *%--------------------------------------------------------------%*
           MOVE ACTVY-DATE-4172-AP24 OF FAPWM24(0004) TO
                WK01-DATE-4172-AP2A4.
      *%--------------------------------------------------------------%*
           MOVE ACTVY-DATE-4172-AP24 OF FAPWM24(0005) TO
                WK01-DATE-4172-AP2A5.
      *%--------------------------------------------------------------%*
           MOVE ACTVY-DATE-4172-AP24 OF FAPWM24(0006) TO
                WK01-DATE-4172-AP2A6.
      *%--------------------------------------------------------------%*
           MOVE ACTVY-DATE-4172-AP24 OF FAPWM24(0007) TO
                WK01-DATE-4172-AP2A7.
      *%--------------------------------------------------------------%*
           MOVE ACTVY-DATE-4172-AP24 OF FAPWM24(0008) TO
                WK01-DATE-4172-AP2A8.
      *%--------------------------------------------------------------%*
           MOVE ACTVY-DATE-4172-AP24 OF FAPWM24(0009) TO
                WK01-DATE-4172-AP2A9.
      *%--------------------------------------------------------------%*
           MOVE ACTVY-DATE-4172-AP24 OF FAPWM24(0010) TO
                WK01-DATE-4172-AP2A10.
      *%--------------------------------------------------------------%*
           MOVE ACTVY-DATE-4172-AP24 OF FAPWM24(0011) TO
                WK01-DATE-4172-AP2A11.
      *%--------------------------------------------------------------%*
           MOVE DSCNT-CODE-4161-AP24 OF FAPWM24(0001) TO
                WK01-CODE-4161-AP241.
      *%--------------------------------------------------------------%*
           MOVE DSCNT-CODE-4161-AP24 OF FAPWM24(0002) TO
                WK01-CODE-4161-AP242.
      *%--------------------------------------------------------------%*
           MOVE DSCNT-CODE-4161-AP24 OF FAPWM24(0003) TO
                WK01-CODE-4161-AP243.
      *%--------------------------------------------------------------%*
           MOVE DSCNT-CODE-4161-AP24 OF FAPWM24(0004) TO
                WK01-CODE-4161-AP244.
      *%--------------------------------------------------------------%*
           MOVE DSCNT-CODE-4161-AP24 OF FAPWM24(0005) TO
                WK01-CODE-4161-AP245.
      *%--------------------------------------------------------------%*
           MOVE DSCNT-CODE-4161-AP24 OF FAPWM24(0006) TO
                WK01-CODE-4161-AP246.
      *%--------------------------------------------------------------%*
           MOVE DSCNT-CODE-4161-AP24 OF FAPWM24(0007) TO
                WK01-CODE-4161-AP247.
      *%--------------------------------------------------------------%*
           MOVE DSCNT-CODE-4161-AP24 OF FAPWM24(0008) TO
                WK01-CODE-4161-AP248.
      *%--------------------------------------------------------------%*
           MOVE DSCNT-CODE-4161-AP24 OF FAPWM24(0009) TO
                WK01-CODE-4161-AP249.
      *%--------------------------------------------------------------%*
           MOVE DSCNT-CODE-4161-AP24 OF FAPWM24(0010) TO
                WK01-CODE-4161-AP2410.
      *%--------------------------------------------------------------%*
           MOVE DSCNT-CODE-4161-AP24 OF FAPWM24(0011) TO
                WK01-CODE-4161-AP2411.
