       01  MAP-CONTROL.

    ***Created by Convert/DC version V8R03 on 12/05/00 at 08:00***

           02  FAPMI31-MAP-CONTROL.
           03  FAPMI31T.
           04  WK01-DCXMAPL-PARMS.
               10  WK01-MAPNAME                  PIC X(8)
                                                 VALUE 'FAPMI31I'.
               10  WK01-IKE-LENGTH               PIC S9(8)  COMP
                                                 VALUE 27066.
               10  WK01-TINA-LENGTH              PIC S9(4)  COMP
                                                 VALUE 1649.
           05  WK01-ATTRIBUTES                   PIC X(60)
                                                 VALUE SPACE.
           05  WK01-ATTRIBUTES-ERROR             PIC X(60) VALUE
               'U  BIF'.
           05  WK01-CURSOR-DFLD                  PIC X(36)
                                                 VALUE SPACES.
           05  WK01-CURSOR-DFLD-QUAL             PIC X(30)
                                                 VALUE SPACES.
           05  WK01-ROW                          PIC S9(4) COMP
                                                 VALUE ZERO.
           05  WK01-COLUMN                       PIC S9(4) COMP
                                                 VALUE ZERO.
           05  WK01-ERROR-MSG                    PIC X(80)
                                                 VALUE SPACES.
           05  WK01-MAP-DATA-LEN                 PIC S9(6)
                                                 VALUE ZERO.
           05  WK01-1ST-FLAG                     PIC X(1)
                                                 VALUE 'Y'.
           05  WK01-FLAG-OUTPUT-DATA             PIC X(1)
                                                 VALUE 'Y'.
      *    05  WK01-STATUS-RETURN-FLAG           PIC X(1)
      *                                          VALUE SPACES.
           05  WK01-ALL-BUT-FLAG                 PIC X(1)
                                                 VALUE SPACES.
           05  WK01-FLAG-ALL-FIELDS-CHANGED      PIC X(1)  VALUE 'Y'.
           05  WK01-FLAG-ANY-FIELDS-CHANGED      PIC X(1)  VALUE 'N'.
           05  WK01-FLAG-ALL-FIELDS-ERROR        PIC X(1)  VALUE 'Y'.
           05  WK01-FLAG-ANY-FIELDS-ERROR        PIC X(1)  VALUE 'N'.
           05  WK01-FLAG-ALL-FIELDS-ERASE        PIC X(1)  VALUE 'Y'.
           05  WK01-FLAG-ANY-FIELDS-ERASE        PIC X(1)  VALUE 'Y'.

           05  WK01-VARDATA                      PIC X(11880)
                                                 VALUE SPACES.
           05  FILLER                            PIC X(100)
                                                 VALUE SPACES.
           04  WK01-ELEMENT-AREA.

               10  WK01-ID-SY00-Z              PIC X(1)
                                               VALUE SPACE.
               10  WK01-ID-SY00-F              PIC X(1)
                                               VALUE SPACE.
               10  WK01-ID-SY00-A              PIC X(1)
                                               VALUE SPACE.
               10  WK01-ID-SY00-V              PIC X(1)
                                               VALUE SPACE.
               10  WK01-ID-SY00-O              PIC X(1)
                                               VALUE SPACE.
               10  WK01-ID-SY00       PIC X(8)
                                               VALUE SPACES.
               10  WK01-NAME-6001-SY00-Z              PIC X(1)
                                               VALUE SPACE.
               10  WK01-NAME-6001-SY00-F              PIC X(1)
                                               VALUE SPACE.
               10  WK01-NAME-6001-SY00-A              PIC X(1)
                                               VALUE SPACE.
               10  WK01-NAME-6001-SY00-V              PIC X(1)
                                               VALUE SPACE.
               10  WK01-NAME-6001-SY00-O              PIC X(1)
                                               VALUE SPACE.
               10  WK01-NAME-6001-SY00       PIC X(35)
                                               VALUE SPACES.
               10  WK01-DATE-Z              PIC X(1)
                                               VALUE SPACE.
               10  WK01-DATE-F              PIC X(1)
                                               VALUE SPACE.
               10  WK01-DATE-A              PIC X(1)
                                               VALUE SPACE.
               10  WK01-DATE-V              PIC X(1)
                                               VALUE SPACE.
               10  WK01-DATE-O              PIC X(1)
                                               VALUE SPACE.
               10  WK01-DATE       PIC X(8)
                                               VALUE SPACES.
               10  WK01-HH-MM-TIME-SY00-Z              PIC X(1)
                                               VALUE SPACE.
               10  WK01-HH-MM-TIME-SY00-F              PIC X(1)
                                               VALUE SPACE.
               10  WK01-HH-MM-TIME-SY00-A              PIC X(1)
                                               VALUE SPACE.
               10  WK01-HH-MM-TIME-SY00-V              PIC X(1)
                                               VALUE SPACE.
               10  WK01-HH-MM-TIME-SY00-O              PIC X(1)
                                               VALUE SPACE.
               10  WK01-HH-MM-TIME-SY00       PIC X(4)
                                               VALUE SPACES.
               10  WK01-PM-FLAG-SY00-Z              PIC X(1)
                                               VALUE SPACE.
               10  WK01-PM-FLAG-SY00-F              PIC X(1)
                                               VALUE SPACE.
               10  WK01-PM-FLAG-SY00-A              PIC X(1)
                                               VALUE SPACE.
               10  WK01-PM-FLAG-SY00-V              PIC X(1)
                                               VALUE SPACE.
               10  WK01-PM-FLAG-SY00-O              PIC X(1)
                                               VALUE SPACE.
               10  WK01-PM-FLAG-SY00       PIC X(1)
                                               VALUE SPACES.
               10  WK01-USER-ID-Z              PIC X(1)
                                               VALUE SPACE.
               10  WK01-USER-ID-F              PIC X(1)
                                               VALUE SPACE.
               10  WK01-USER-ID-A              PIC X(1)
                                               VALUE SPACE.
               10  WK01-USER-ID-V              PIC X(1)
                                               VALUE SPACE.
               10  WK01-USER-ID-O              PIC X(1)
                                               VALUE SPACE.
               10  WK01-USER-ID       PIC X(32)
                                               VALUE SPACES.
               10  WK01-RSPNS-ID-SY00-Z              PIC X(1)
                                               VALUE SPACE.
               10  WK01-RSPNS-ID-SY00-F              PIC X(1)
                                               VALUE SPACE.
               10  WK01-RSPNS-ID-SY00-A              PIC X(1)
                                               VALUE SPACE.
               10  WK01-RSPNS-ID-SY00-V              PIC X(1)
                                               VALUE SPACE.
               10  WK01-RSPNS-ID-SY00-O              PIC X(1)
                                               VALUE SPACE.
               10  WK01-RSPNS-ID-SY00       PIC X(8)
                                               VALUE SPACES.
               10  WK01-FUNC-DESCRIPTION-Z              PIC X(1)
                                               VALUE SPACE.
               10  WK01-FUNC-DESCRIPTION-F              PIC X(1)
                                               VALUE SPACE.
               10  WK01-FUNC-DESCRIPTION-A              PIC X(1)
                                               VALUE SPACE.
               10  WK01-FUNC-DESCRIPTION-V              PIC X(1)
                                               VALUE SPACE.
               10  WK01-FUNC-DESCRIPTION-O              PIC X(1)
                                               VALUE SPACE.
               10  WK01-FUNC-DESCRIPTION       PIC X(28)
                                               VALUE SPACES.
               10  WK01-STATUS-CODE-SY00-Z              PIC X(1)
                                               VALUE SPACE.
               10  WK01-STATUS-CODE-SY00-F              PIC X(1)
                                               VALUE SPACE.
               10  WK01-STATUS-CODE-SY00-A              PIC X(1)
                                               VALUE SPACE.
               10  WK01-STATUS-CODE-SY00-V              PIC X(1)
                                               VALUE SPACE.
               10  WK01-STATUS-CODE-SY00-O              PIC X(1)
                                               VALUE SPACE.
               10  WK01-STATUS-CODE-SY00       PIC X(1)
                                               VALUE SPACES.
               10  WK01-TEXT-SY01-Z              PIC X(1)
                                               VALUE SPACE.
               10  WK01-TEXT-SY01-F              PIC X(1)
                                               VALUE SPACE.
               10  WK01-TEXT-SY01-A              PIC X(1)
                                               VALUE SPACE.
               10  WK01-TEXT-SY01-V              PIC X(1)
                                               VALUE SPACE.
               10  WK01-TEXT-SY01-O              PIC X(1)
                                               VALUE SPACE.
               10  WK01-TEXT-SY01       PIC X(8)
                                               VALUE SPACES.
               10  WK01-TEXT-SY0A-Z              PIC X(1)
                                               VALUE SPACE.
               10  WK01-TEXT-SY0A-F              PIC X(1)
                                               VALUE SPACE.
               10  WK01-TEXT-SY0A-A              PIC X(1)
                                               VALUE SPACE.
               10  WK01-TEXT-SY0A-V              PIC X(1)
                                               VALUE SPACE.
               10  WK01-TEXT-SY0A-O              PIC X(1)
                                               VALUE SPACE.
               10  WK01-TEXT-SY0A       PIC X(11)
                                               VALUE SPACES.
               10  WK01-TEXT-SY0B-Z              PIC X(1)
                                               VALUE SPACE.
               10  WK01-TEXT-SY0B-F              PIC X(1)
                                               VALUE SPACE.
               10  WK01-TEXT-SY0B-A              PIC X(1)
                                               VALUE SPACE.
               10  WK01-TEXT-SY0B-V              PIC X(1)
                                               VALUE SPACE.
               10  WK01-TEXT-SY0B-O              PIC X(1)
                                               VALUE SPACE.
               10  WK01-TEXT-SY0B       PIC X(5)
                                               VALUE SPACES.
               10  WK01-ID-LAST-NN-4157-AP31-Z              PIC X(1)
                                               VALUE SPACE.
               10  WK01-ID-LAST-NN-4157-AP31-F              PIC X(1)
                                               VALUE SPACE.
               10  WK01-ID-LAST-NN-4157-AP31-A              PIC X(1)
                                               VALUE SPACE.
               10  WK01-ID-LAST-NN-4157-AP31-V              PIC X(1)
                                               VALUE SPACE.
               10  WK01-ID-LAST-NN-4157-AP31-O              PIC X(1)
                                               VALUE SPACE.
               10  WK01-ID-LAST-NN-4157-AP31       PIC X(9)
                                               VALUE SPACES.
               10  WK01-NAME-6311-6117-AP31-Z              PIC X(1)
                                               VALUE SPACE.
               10  WK01-NAME-6311-6117-AP31-F              PIC X(1)
                                               VALUE SPACE.
               10  WK01-NAME-6311-6117-AP31-A              PIC X(1)
                                               VALUE SPACE.
               10  WK01-NAME-6311-6117-AP31-V              PIC X(1)
                                               VALUE SPACE.
               10  WK01-NAME-6311-6117-AP31-O              PIC X(1)
                                               VALUE SPACE.
               10  WK01-NAME-6311-6117-AP31       PIC X(35)
                                               VALUE SPACES.
               10  WK01-CODE-AP311-Z              PIC X(1)
                                               VALUE SPACE.
               10  WK01-CODE-AP311-F              PIC X(1)
                                               VALUE SPACE.
               10  WK01-CODE-AP311-A              PIC X(1)
                                               VALUE SPACE.
               10  WK01-CODE-AP311-V              PIC X(1)
                                               VALUE SPACE.
               10  WK01-CODE-AP311-O              PIC X(1)
                                               VALUE SPACE.
               10  WK01-CODE-AP311       PIC X(1)
                                               VALUE SPACES.
               10  WK01-NMBR-4158-AP311-Z              PIC X(1)
                                               VALUE SPACE.
               10  WK01-NMBR-4158-AP311-F              PIC X(1)
                                               VALUE SPACE.
               10  WK01-NMBR-4158-AP311-A              PIC X(1)
                                               VALUE SPACE.
               10  WK01-NMBR-4158-AP311-V              PIC X(1)
                                               VALUE SPACE.
               10  WK01-NMBR-4158-AP311-O              PIC X(1)
                                               VALUE SPACE.
               10  WK01-NMBR-4158-AP311       PIC X(8)
                                               VALUE SPACES.
               10  WK01-DATE-4158-AP311-Z              PIC X(1)
                                               VALUE SPACE.
               10  WK01-DATE-4158-AP311-F              PIC X(1)
                                               VALUE SPACE.
               10  WK01-DATE-4158-AP311-A              PIC X(1)
                                               VALUE SPACE.
               10  WK01-DATE-4158-AP311-V              PIC X(1)
                                               VALUE SPACE.
               10  WK01-DATE-4158-AP311-O              PIC X(1)
                                               VALUE SPACE.
               10  WK01-DATE-4158-AP311       PIC X(8)
                                               VALUE SPACES.
               10  WK01-AMT-4158-AP311-Z              PIC X(1)
                                               VALUE SPACE.
               10  WK01-AMT-4158-AP311-F              PIC X(1)
                                               VALUE SPACE.
               10  WK01-AMT-4158-AP311-A              PIC X(1)
                                               VALUE SPACE.
               10  WK01-AMT-4158-AP311-V              PIC X(1)
                                               VALUE SPACE.
               10  WK01-AMT-4158-AP311-O              PIC X(1)
                                               VALUE SPACE.
               10  WK01-AMT-4158-AP311       PIC X(17)
                                               VALUE SPACES.
               10  WK01-CODE-DSC-S-4012-AP311-Z              PIC X(1)
                                               VALUE SPACE.
               10  WK01-CODE-DSC-S-4012-AP311-F              PIC X(1)
                                               VALUE SPACE.
               10  WK01-CODE-DSC-S-4012-AP311-A              PIC X(1)
                                               VALUE SPACE.
               10  WK01-CODE-DSC-S-4012-AP311-V              PIC X(1)
                                               VALUE SPACE.
               10  WK01-CODE-DSC-S-4012-AP311-O              PIC X(1)
                                               VALUE SPACE.
               10  WK01-CODE-DSC-S-4012-AP311       PIC X(10)
                                               VALUE SPACES.
               10  WK01-DCMNT-NMBR-AP311-Z              PIC X(1)
                                               VALUE SPACE.
               10  WK01-DCMNT-NMBR-AP311-F              PIC X(1)
                                               VALUE SPACE.
               10  WK01-DCMNT-NMBR-AP311-A              PIC X(1)
                                               VALUE SPACE.
               10  WK01-DCMNT-NMBR-AP311-V              PIC X(1)
                                               VALUE SPACE.
               10  WK01-DCMNT-NMBR-AP311-O              PIC X(1)
                                               VALUE SPACE.
               10  WK01-DCMNT-NMBR-AP311       PIC X(14)
                                               VALUE SPACES.
               10  WK01-STATUS-IND-AP311-Z              PIC X(1)
                                               VALUE SPACE.
               10  WK01-STATUS-IND-AP311-F              PIC X(1)
                                               VALUE SPACE.
               10  WK01-STATUS-IND-AP311-A              PIC X(1)
                                               VALUE SPACE.
               10  WK01-STATUS-IND-AP311-V              PIC X(1)
                                               VALUE SPACE.
               10  WK01-STATUS-IND-AP311-O              PIC X(1)
                                               VALUE SPACE.
               10  WK01-STATUS-IND-AP311       PIC X(3)
                                               VALUE SPACES.
               10  WK01-CODE-AP312-Z              PIC X(1)
                                               VALUE SPACE.
               10  WK01-CODE-AP312-F              PIC X(1)
                                               VALUE SPACE.
               10  WK01-CODE-AP312-A              PIC X(1)
                                               VALUE SPACE.
               10  WK01-CODE-AP312-V              PIC X(1)
                                               VALUE SPACE.
               10  WK01-CODE-AP312-O              PIC X(1)
                                               VALUE SPACE.
               10  WK01-CODE-AP312       PIC X(1)
                                               VALUE SPACES.
               10  WK01-NMBR-4158-AP312-Z              PIC X(1)
                                               VALUE SPACE.
               10  WK01-NMBR-4158-AP312-F              PIC X(1)
                                               VALUE SPACE.
               10  WK01-NMBR-4158-AP312-A              PIC X(1)
                                               VALUE SPACE.
               10  WK01-NMBR-4158-AP312-V              PIC X(1)
                                               VALUE SPACE.
               10  WK01-NMBR-4158-AP312-O              PIC X(1)
                                               VALUE SPACE.
               10  WK01-NMBR-4158-AP312       PIC X(8)
                                               VALUE SPACES.
               10  WK01-DATE-4158-AP312-Z              PIC X(1)
                                               VALUE SPACE.
               10  WK01-DATE-4158-AP312-F              PIC X(1)
                                               VALUE SPACE.
               10  WK01-DATE-4158-AP312-A              PIC X(1)
                                               VALUE SPACE.
               10  WK01-DATE-4158-AP312-V              PIC X(1)
                                               VALUE SPACE.
               10  WK01-DATE-4158-AP312-O              PIC X(1)
                                               VALUE SPACE.
               10  WK01-DATE-4158-AP312       PIC X(8)
                                               VALUE SPACES.
               10  WK01-AMT-4158-AP312-Z              PIC X(1)
                                               VALUE SPACE.
               10  WK01-AMT-4158-AP312-F              PIC X(1)
                                               VALUE SPACE.
               10  WK01-AMT-4158-AP312-A              PIC X(1)
                                               VALUE SPACE.
               10  WK01-AMT-4158-AP312-V              PIC X(1)
                                               VALUE SPACE.
               10  WK01-AMT-4158-AP312-O              PIC X(1)
                                               VALUE SPACE.
               10  WK01-AMT-4158-AP312       PIC X(17)
                                               VALUE SPACES.
               10  WK01-CODE-DSC-S-4012-AP312-Z              PIC X(1)
                                               VALUE SPACE.
               10  WK01-CODE-DSC-S-4012-AP312-F              PIC X(1)
                                               VALUE SPACE.
               10  WK01-CODE-DSC-S-4012-AP312-A              PIC X(1)
                                               VALUE SPACE.
               10  WK01-CODE-DSC-S-4012-AP312-V              PIC X(1)
                                               VALUE SPACE.
               10  WK01-CODE-DSC-S-4012-AP312-O              PIC X(1)
                                               VALUE SPACE.
               10  WK01-CODE-DSC-S-4012-AP312       PIC X(10)
                                               VALUE SPACES.
               10  WK01-DCMNT-NMBR-AP312-Z              PIC X(1)
                                               VALUE SPACE.
               10  WK01-DCMNT-NMBR-AP312-F              PIC X(1)
                                               VALUE SPACE.
               10  WK01-DCMNT-NMBR-AP312-A              PIC X(1)
                                               VALUE SPACE.
               10  WK01-DCMNT-NMBR-AP312-V              PIC X(1)
                                               VALUE SPACE.
               10  WK01-DCMNT-NMBR-AP312-O              PIC X(1)
                                               VALUE SPACE.
               10  WK01-DCMNT-NMBR-AP312       PIC X(14)
                                               VALUE SPACES.
               10  WK01-STATUS-IND-AP312-Z              PIC X(1)
                                               VALUE SPACE.
               10  WK01-STATUS-IND-AP312-F              PIC X(1)
                                               VALUE SPACE.
               10  WK01-STATUS-IND-AP312-A              PIC X(1)
                                               VALUE SPACE.
               10  WK01-STATUS-IND-AP312-V              PIC X(1)
                                               VALUE SPACE.
               10  WK01-STATUS-IND-AP312-O              PIC X(1)
                                               VALUE SPACE.
               10  WK01-STATUS-IND-AP312       PIC X(3)
                                               VALUE SPACES.
               10  WK01-CODE-AP313-Z              PIC X(1)
                                               VALUE SPACE.
               10  WK01-CODE-AP313-F              PIC X(1)
                                               VALUE SPACE.
               10  WK01-CODE-AP313-A              PIC X(1)
                                               VALUE SPACE.
               10  WK01-CODE-AP313-V              PIC X(1)
                                               VALUE SPACE.
               10  WK01-CODE-AP313-O              PIC X(1)
                                               VALUE SPACE.
               10  WK01-CODE-AP313       PIC X(1)
                                               VALUE SPACES.
               10  WK01-NMBR-4158-AP313-Z              PIC X(1)
                                               VALUE SPACE.
               10  WK01-NMBR-4158-AP313-F              PIC X(1)
                                               VALUE SPACE.
               10  WK01-NMBR-4158-AP313-A              PIC X(1)
                                               VALUE SPACE.
               10  WK01-NMBR-4158-AP313-V              PIC X(1)
                                               VALUE SPACE.
               10  WK01-NMBR-4158-AP313-O              PIC X(1)
                                               VALUE SPACE.
               10  WK01-NMBR-4158-AP313       PIC X(8)
                                               VALUE SPACES.
               10  WK01-DATE-4158-AP313-Z              PIC X(1)
                                               VALUE SPACE.
               10  WK01-DATE-4158-AP313-F              PIC X(1)
                                               VALUE SPACE.
               10  WK01-DATE-4158-AP313-A              PIC X(1)
                                               VALUE SPACE.
               10  WK01-DATE-4158-AP313-V              PIC X(1)
                                               VALUE SPACE.
               10  WK01-DATE-4158-AP313-O              PIC X(1)
                                               VALUE SPACE.
               10  WK01-DATE-4158-AP313       PIC X(8)
                                               VALUE SPACES.
               10  WK01-AMT-4158-AP313-Z              PIC X(1)
                                               VALUE SPACE.
               10  WK01-AMT-4158-AP313-F              PIC X(1)
                                               VALUE SPACE.
               10  WK01-AMT-4158-AP313-A              PIC X(1)
                                               VALUE SPACE.
               10  WK01-AMT-4158-AP313-V              PIC X(1)
                                               VALUE SPACE.
               10  WK01-AMT-4158-AP313-O              PIC X(1)
                                               VALUE SPACE.
               10  WK01-AMT-4158-AP313       PIC X(17)
                                               VALUE SPACES.
               10  WK01-CODE-DSC-S-4012-AP313-Z              PIC X(1)
                                               VALUE SPACE.
               10  WK01-CODE-DSC-S-4012-AP313-F              PIC X(1)
                                               VALUE SPACE.
               10  WK01-CODE-DSC-S-4012-AP313-A              PIC X(1)
                                               VALUE SPACE.
               10  WK01-CODE-DSC-S-4012-AP313-V              PIC X(1)
                                               VALUE SPACE.
               10  WK01-CODE-DSC-S-4012-AP313-O              PIC X(1)
                                               VALUE SPACE.
               10  WK01-CODE-DSC-S-4012-AP313       PIC X(10)
                                               VALUE SPACES.
               10  WK01-DCMNT-NMBR-AP313-Z              PIC X(1)
                                               VALUE SPACE.
               10  WK01-DCMNT-NMBR-AP313-F              PIC X(1)
                                               VALUE SPACE.
               10  WK01-DCMNT-NMBR-AP313-A              PIC X(1)
                                               VALUE SPACE.
               10  WK01-DCMNT-NMBR-AP313-V              PIC X(1)
                                               VALUE SPACE.
               10  WK01-DCMNT-NMBR-AP313-O              PIC X(1)
                                               VALUE SPACE.
               10  WK01-DCMNT-NMBR-AP313       PIC X(14)
                                               VALUE SPACES.
               10  WK01-STATUS-IND-AP313-Z              PIC X(1)
                                               VALUE SPACE.
               10  WK01-STATUS-IND-AP313-F              PIC X(1)
                                               VALUE SPACE.
               10  WK01-STATUS-IND-AP313-A              PIC X(1)
                                               VALUE SPACE.
               10  WK01-STATUS-IND-AP313-V              PIC X(1)
                                               VALUE SPACE.
               10  WK01-STATUS-IND-AP313-O              PIC X(1)
                                               VALUE SPACE.
               10  WK01-STATUS-IND-AP313       PIC X(3)
                                               VALUE SPACES.
               10  WK01-CODE-AP314-Z              PIC X(1)
                                               VALUE SPACE.
               10  WK01-CODE-AP314-F              PIC X(1)
                                               VALUE SPACE.
               10  WK01-CODE-AP314-A              PIC X(1)
                                               VALUE SPACE.
               10  WK01-CODE-AP314-V              PIC X(1)
                                               VALUE SPACE.
               10  WK01-CODE-AP314-O              PIC X(1)
                                               VALUE SPACE.
               10  WK01-CODE-AP314       PIC X(1)
                                               VALUE SPACES.
               10  WK01-NMBR-4158-AP314-Z              PIC X(1)
                                               VALUE SPACE.
               10  WK01-NMBR-4158-AP314-F              PIC X(1)
                                               VALUE SPACE.
               10  WK01-NMBR-4158-AP314-A              PIC X(1)
                                               VALUE SPACE.
               10  WK01-NMBR-4158-AP314-V              PIC X(1)
                                               VALUE SPACE.
               10  WK01-NMBR-4158-AP314-O              PIC X(1)
                                               VALUE SPACE.
               10  WK01-NMBR-4158-AP314       PIC X(8)
                                               VALUE SPACES.
               10  WK01-DATE-4158-AP314-Z              PIC X(1)
                                               VALUE SPACE.
               10  WK01-DATE-4158-AP314-F              PIC X(1)
                                               VALUE SPACE.
               10  WK01-DATE-4158-AP314-A              PIC X(1)
                                               VALUE SPACE.
               10  WK01-DATE-4158-AP314-V              PIC X(1)
                                               VALUE SPACE.
               10  WK01-DATE-4158-AP314-O              PIC X(1)
                                               VALUE SPACE.
               10  WK01-DATE-4158-AP314       PIC X(8)
                                               VALUE SPACES.
               10  WK01-AMT-4158-AP314-Z              PIC X(1)
                                               VALUE SPACE.
               10  WK01-AMT-4158-AP314-F              PIC X(1)
                                               VALUE SPACE.
               10  WK01-AMT-4158-AP314-A              PIC X(1)
                                               VALUE SPACE.
               10  WK01-AMT-4158-AP314-V              PIC X(1)
                                               VALUE SPACE.
               10  WK01-AMT-4158-AP314-O              PIC X(1)
                                               VALUE SPACE.
               10  WK01-AMT-4158-AP314       PIC X(17)
                                               VALUE SPACES.
               10  WK01-CODE-DSC-S-4012-AP314-Z              PIC X(1)
                                               VALUE SPACE.
               10  WK01-CODE-DSC-S-4012-AP314-F              PIC X(1)
                                               VALUE SPACE.
               10  WK01-CODE-DSC-S-4012-AP314-A              PIC X(1)
                                               VALUE SPACE.
               10  WK01-CODE-DSC-S-4012-AP314-V              PIC X(1)
                                               VALUE SPACE.
               10  WK01-CODE-DSC-S-4012-AP314-O              PIC X(1)
                                               VALUE SPACE.
               10  WK01-CODE-DSC-S-4012-AP314       PIC X(10)
                                               VALUE SPACES.
               10  WK01-DCMNT-NMBR-AP314-Z              PIC X(1)
                                               VALUE SPACE.
               10  WK01-DCMNT-NMBR-AP314-F              PIC X(1)
                                               VALUE SPACE.
               10  WK01-DCMNT-NMBR-AP314-A              PIC X(1)
                                               VALUE SPACE.
               10  WK01-DCMNT-NMBR-AP314-V              PIC X(1)
                                               VALUE SPACE.
               10  WK01-DCMNT-NMBR-AP314-O              PIC X(1)
                                               VALUE SPACE.
               10  WK01-DCMNT-NMBR-AP314       PIC X(14)
                                               VALUE SPACES.
               10  WK01-STATUS-IND-AP314-Z              PIC X(1)
                                               VALUE SPACE.
               10  WK01-STATUS-IND-AP314-F              PIC X(1)
                                               VALUE SPACE.
               10  WK01-STATUS-IND-AP314-A              PIC X(1)
                                               VALUE SPACE.
               10  WK01-STATUS-IND-AP314-V              PIC X(1)
                                               VALUE SPACE.
               10  WK01-STATUS-IND-AP314-O              PIC X(1)
                                               VALUE SPACE.
               10  WK01-STATUS-IND-AP314       PIC X(3)
                                               VALUE SPACES.
               10  WK01-CODE-AP315-Z              PIC X(1)
                                               VALUE SPACE.
               10  WK01-CODE-AP315-F              PIC X(1)
                                               VALUE SPACE.
               10  WK01-CODE-AP315-A              PIC X(1)
                                               VALUE SPACE.
               10  WK01-CODE-AP315-V              PIC X(1)
                                               VALUE SPACE.
               10  WK01-CODE-AP315-O              PIC X(1)
                                               VALUE SPACE.
               10  WK01-CODE-AP315       PIC X(1)
                                               VALUE SPACES.
               10  WK01-NMBR-4158-AP315-Z              PIC X(1)
                                               VALUE SPACE.
               10  WK01-NMBR-4158-AP315-F              PIC X(1)
                                               VALUE SPACE.
               10  WK01-NMBR-4158-AP315-A              PIC X(1)
                                               VALUE SPACE.
               10  WK01-NMBR-4158-AP315-V              PIC X(1)
                                               VALUE SPACE.
               10  WK01-NMBR-4158-AP315-O              PIC X(1)
                                               VALUE SPACE.
               10  WK01-NMBR-4158-AP315       PIC X(8)
                                               VALUE SPACES.
               10  WK01-DATE-4158-AP315-Z              PIC X(1)
                                               VALUE SPACE.
               10  WK01-DATE-4158-AP315-F              PIC X(1)
                                               VALUE SPACE.
               10  WK01-DATE-4158-AP315-A              PIC X(1)
                                               VALUE SPACE.
               10  WK01-DATE-4158-AP315-V              PIC X(1)
                                               VALUE SPACE.
               10  WK01-DATE-4158-AP315-O              PIC X(1)
                                               VALUE SPACE.
               10  WK01-DATE-4158-AP315       PIC X(8)
                                               VALUE SPACES.
               10  WK01-AMT-4158-AP315-Z              PIC X(1)
                                               VALUE SPACE.
               10  WK01-AMT-4158-AP315-F              PIC X(1)
                                               VALUE SPACE.
               10  WK01-AMT-4158-AP315-A              PIC X(1)
                                               VALUE SPACE.
               10  WK01-AMT-4158-AP315-V              PIC X(1)
                                               VALUE SPACE.
               10  WK01-AMT-4158-AP315-O              PIC X(1)
                                               VALUE SPACE.
               10  WK01-AMT-4158-AP315       PIC X(17)
                                               VALUE SPACES.
               10  WK01-CODE-DSC-S-4012-AP315-Z              PIC X(1)
                                               VALUE SPACE.
               10  WK01-CODE-DSC-S-4012-AP315-F              PIC X(1)
                                               VALUE SPACE.
               10  WK01-CODE-DSC-S-4012-AP315-A              PIC X(1)
                                               VALUE SPACE.
               10  WK01-CODE-DSC-S-4012-AP315-V              PIC X(1)
                                               VALUE SPACE.
               10  WK01-CODE-DSC-S-4012-AP315-O              PIC X(1)
                                               VALUE SPACE.
               10  WK01-CODE-DSC-S-4012-AP315       PIC X(10)
                                               VALUE SPACES.
               10  WK01-DCMNT-NMBR-AP315-Z              PIC X(1)
                                               VALUE SPACE.
               10  WK01-DCMNT-NMBR-AP315-F              PIC X(1)
                                               VALUE SPACE.
               10  WK01-DCMNT-NMBR-AP315-A              PIC X(1)
                                               VALUE SPACE.
               10  WK01-DCMNT-NMBR-AP315-V              PIC X(1)
                                               VALUE SPACE.
               10  WK01-DCMNT-NMBR-AP315-O              PIC X(1)
                                               VALUE SPACE.
               10  WK01-DCMNT-NMBR-AP315       PIC X(14)
                                               VALUE SPACES.
               10  WK01-STATUS-IND-AP315-Z              PIC X(1)
                                               VALUE SPACE.
               10  WK01-STATUS-IND-AP315-F              PIC X(1)
                                               VALUE SPACE.
               10  WK01-STATUS-IND-AP315-A              PIC X(1)
                                               VALUE SPACE.
               10  WK01-STATUS-IND-AP315-V              PIC X(1)
                                               VALUE SPACE.
               10  WK01-STATUS-IND-AP315-O              PIC X(1)
                                               VALUE SPACE.
               10  WK01-STATUS-IND-AP315       PIC X(3)
                                               VALUE SPACES.
               10  WK01-CODE-AP316-Z              PIC X(1)
                                               VALUE SPACE.
               10  WK01-CODE-AP316-F              PIC X(1)
                                               VALUE SPACE.
               10  WK01-CODE-AP316-A              PIC X(1)
                                               VALUE SPACE.
               10  WK01-CODE-AP316-V              PIC X(1)
                                               VALUE SPACE.
               10  WK01-CODE-AP316-O              PIC X(1)
                                               VALUE SPACE.
               10  WK01-CODE-AP316       PIC X(1)
                                               VALUE SPACES.
               10  WK01-NMBR-4158-AP316-Z              PIC X(1)
                                               VALUE SPACE.
               10  WK01-NMBR-4158-AP316-F              PIC X(1)
                                               VALUE SPACE.
               10  WK01-NMBR-4158-AP316-A              PIC X(1)
                                               VALUE SPACE.
               10  WK01-NMBR-4158-AP316-V              PIC X(1)
                                               VALUE SPACE.
               10  WK01-NMBR-4158-AP316-O              PIC X(1)
                                               VALUE SPACE.
               10  WK01-NMBR-4158-AP316       PIC X(8)
                                               VALUE SPACES.
               10  WK01-DATE-4158-AP316-Z              PIC X(1)
                                               VALUE SPACE.
               10  WK01-DATE-4158-AP316-F              PIC X(1)
                                               VALUE SPACE.
               10  WK01-DATE-4158-AP316-A              PIC X(1)
                                               VALUE SPACE.
               10  WK01-DATE-4158-AP316-V              PIC X(1)
                                               VALUE SPACE.
               10  WK01-DATE-4158-AP316-O              PIC X(1)
                                               VALUE SPACE.
               10  WK01-DATE-4158-AP316       PIC X(8)
                                               VALUE SPACES.
               10  WK01-AMT-4158-AP316-Z              PIC X(1)
                                               VALUE SPACE.
               10  WK01-AMT-4158-AP316-F              PIC X(1)
                                               VALUE SPACE.
               10  WK01-AMT-4158-AP316-A              PIC X(1)
                                               VALUE SPACE.
               10  WK01-AMT-4158-AP316-V              PIC X(1)
                                               VALUE SPACE.
               10  WK01-AMT-4158-AP316-O              PIC X(1)
                                               VALUE SPACE.
               10  WK01-AMT-4158-AP316       PIC X(17)
                                               VALUE SPACES.
               10  WK01-CODE-DSC-S-4012-AP316-Z              PIC X(1)
                                               VALUE SPACE.
               10  WK01-CODE-DSC-S-4012-AP316-F              PIC X(1)
                                               VALUE SPACE.
               10  WK01-CODE-DSC-S-4012-AP316-A              PIC X(1)
                                               VALUE SPACE.
               10  WK01-CODE-DSC-S-4012-AP316-V              PIC X(1)
                                               VALUE SPACE.
               10  WK01-CODE-DSC-S-4012-AP316-O              PIC X(1)
                                               VALUE SPACE.
               10  WK01-CODE-DSC-S-4012-AP316       PIC X(10)
                                               VALUE SPACES.
               10  WK01-DCMNT-NMBR-AP316-Z              PIC X(1)
                                               VALUE SPACE.
               10  WK01-DCMNT-NMBR-AP316-F              PIC X(1)
                                               VALUE SPACE.
               10  WK01-DCMNT-NMBR-AP316-A              PIC X(1)
                                               VALUE SPACE.
               10  WK01-DCMNT-NMBR-AP316-V              PIC X(1)
                                               VALUE SPACE.
               10  WK01-DCMNT-NMBR-AP316-O              PIC X(1)
                                               VALUE SPACE.
               10  WK01-DCMNT-NMBR-AP316       PIC X(14)
                                               VALUE SPACES.
               10  WK01-STATUS-IND-AP316-Z              PIC X(1)
                                               VALUE SPACE.
               10  WK01-STATUS-IND-AP316-F              PIC X(1)
                                               VALUE SPACE.
               10  WK01-STATUS-IND-AP316-A              PIC X(1)
                                               VALUE SPACE.
               10  WK01-STATUS-IND-AP316-V              PIC X(1)
                                               VALUE SPACE.
               10  WK01-STATUS-IND-AP316-O              PIC X(1)
                                               VALUE SPACE.
               10  WK01-STATUS-IND-AP316       PIC X(3)
                                               VALUE SPACES.
               10  WK01-CODE-AP317-Z              PIC X(1)
                                               VALUE SPACE.
               10  WK01-CODE-AP317-F              PIC X(1)
                                               VALUE SPACE.
               10  WK01-CODE-AP317-A              PIC X(1)
                                               VALUE SPACE.
               10  WK01-CODE-AP317-V              PIC X(1)
                                               VALUE SPACE.
               10  WK01-CODE-AP317-O              PIC X(1)
                                               VALUE SPACE.
               10  WK01-CODE-AP317       PIC X(1)
                                               VALUE SPACES.
               10  WK01-NMBR-4158-AP317-Z              PIC X(1)
                                               VALUE SPACE.
               10  WK01-NMBR-4158-AP317-F              PIC X(1)
                                               VALUE SPACE.
               10  WK01-NMBR-4158-AP317-A              PIC X(1)
                                               VALUE SPACE.
               10  WK01-NMBR-4158-AP317-V              PIC X(1)
                                               VALUE SPACE.
               10  WK01-NMBR-4158-AP317-O              PIC X(1)
                                               VALUE SPACE.
               10  WK01-NMBR-4158-AP317       PIC X(8)
                                               VALUE SPACES.
               10  WK01-DATE-4158-AP317-Z              PIC X(1)
                                               VALUE SPACE.
               10  WK01-DATE-4158-AP317-F              PIC X(1)
                                               VALUE SPACE.
               10  WK01-DATE-4158-AP317-A              PIC X(1)
                                               VALUE SPACE.
               10  WK01-DATE-4158-AP317-V              PIC X(1)
                                               VALUE SPACE.
               10  WK01-DATE-4158-AP317-O              PIC X(1)
                                               VALUE SPACE.
               10  WK01-DATE-4158-AP317       PIC X(8)
                                               VALUE SPACES.
               10  WK01-AMT-4158-AP317-Z              PIC X(1)
                                               VALUE SPACE.
               10  WK01-AMT-4158-AP317-F              PIC X(1)
                                               VALUE SPACE.
               10  WK01-AMT-4158-AP317-A              PIC X(1)
                                               VALUE SPACE.
               10  WK01-AMT-4158-AP317-V              PIC X(1)
                                               VALUE SPACE.
               10  WK01-AMT-4158-AP317-O              PIC X(1)
                                               VALUE SPACE.
               10  WK01-AMT-4158-AP317       PIC X(17)
                                               VALUE SPACES.
               10  WK01-CODE-DSC-S-4012-AP317-Z              PIC X(1)
                                               VALUE SPACE.
               10  WK01-CODE-DSC-S-4012-AP317-F              PIC X(1)
                                               VALUE SPACE.
               10  WK01-CODE-DSC-S-4012-AP317-A              PIC X(1)
                                               VALUE SPACE.
               10  WK01-CODE-DSC-S-4012-AP317-V              PIC X(1)
                                               VALUE SPACE.
               10  WK01-CODE-DSC-S-4012-AP317-O              PIC X(1)
                                               VALUE SPACE.
               10  WK01-CODE-DSC-S-4012-AP317       PIC X(10)
                                               VALUE SPACES.
               10  WK01-DCMNT-NMBR-AP317-Z              PIC X(1)
                                               VALUE SPACE.
               10  WK01-DCMNT-NMBR-AP317-F              PIC X(1)
                                               VALUE SPACE.
               10  WK01-DCMNT-NMBR-AP317-A              PIC X(1)
                                               VALUE SPACE.
               10  WK01-DCMNT-NMBR-AP317-V              PIC X(1)
                                               VALUE SPACE.
               10  WK01-DCMNT-NMBR-AP317-O              PIC X(1)
                                               VALUE SPACE.
               10  WK01-DCMNT-NMBR-AP317       PIC X(14)
                                               VALUE SPACES.
               10  WK01-STATUS-IND-AP317-Z              PIC X(1)
                                               VALUE SPACE.
               10  WK01-STATUS-IND-AP317-F              PIC X(1)
                                               VALUE SPACE.
               10  WK01-STATUS-IND-AP317-A              PIC X(1)
                                               VALUE SPACE.
               10  WK01-STATUS-IND-AP317-V              PIC X(1)
                                               VALUE SPACE.
               10  WK01-STATUS-IND-AP317-O              PIC X(1)
                                               VALUE SPACE.
               10  WK01-STATUS-IND-AP317       PIC X(3)
                                               VALUE SPACES.
               10  WK01-CODE-AP318-Z              PIC X(1)
                                               VALUE SPACE.
               10  WK01-CODE-AP318-F              PIC X(1)
                                               VALUE SPACE.
               10  WK01-CODE-AP318-A              PIC X(1)
                                               VALUE SPACE.
               10  WK01-CODE-AP318-V              PIC X(1)
                                               VALUE SPACE.
               10  WK01-CODE-AP318-O              PIC X(1)
                                               VALUE SPACE.
               10  WK01-CODE-AP318       PIC X(1)
                                               VALUE SPACES.
               10  WK01-NMBR-4158-AP318-Z              PIC X(1)
                                               VALUE SPACE.
               10  WK01-NMBR-4158-AP318-F              PIC X(1)
                                               VALUE SPACE.
               10  WK01-NMBR-4158-AP318-A              PIC X(1)
                                               VALUE SPACE.
               10  WK01-NMBR-4158-AP318-V              PIC X(1)
                                               VALUE SPACE.
               10  WK01-NMBR-4158-AP318-O              PIC X(1)
                                               VALUE SPACE.
               10  WK01-NMBR-4158-AP318       PIC X(8)
                                               VALUE SPACES.
               10  WK01-DATE-4158-AP318-Z              PIC X(1)
                                               VALUE SPACE.
               10  WK01-DATE-4158-AP318-F              PIC X(1)
                                               VALUE SPACE.
               10  WK01-DATE-4158-AP318-A              PIC X(1)
                                               VALUE SPACE.
               10  WK01-DATE-4158-AP318-V              PIC X(1)
                                               VALUE SPACE.
               10  WK01-DATE-4158-AP318-O              PIC X(1)
                                               VALUE SPACE.
               10  WK01-DATE-4158-AP318       PIC X(8)
                                               VALUE SPACES.
               10  WK01-AMT-4158-AP318-Z              PIC X(1)
                                               VALUE SPACE.
               10  WK01-AMT-4158-AP318-F              PIC X(1)
                                               VALUE SPACE.
               10  WK01-AMT-4158-AP318-A              PIC X(1)
                                               VALUE SPACE.
               10  WK01-AMT-4158-AP318-V              PIC X(1)
                                               VALUE SPACE.
               10  WK01-AMT-4158-AP318-O              PIC X(1)
                                               VALUE SPACE.
               10  WK01-AMT-4158-AP318       PIC X(17)
                                               VALUE SPACES.
               10  WK01-CODE-DSC-S-4012-AP318-Z              PIC X(1)
                                               VALUE SPACE.
               10  WK01-CODE-DSC-S-4012-AP318-F              PIC X(1)
                                               VALUE SPACE.
               10  WK01-CODE-DSC-S-4012-AP318-A              PIC X(1)
                                               VALUE SPACE.
               10  WK01-CODE-DSC-S-4012-AP318-V              PIC X(1)
                                               VALUE SPACE.
               10  WK01-CODE-DSC-S-4012-AP318-O              PIC X(1)
                                               VALUE SPACE.
               10  WK01-CODE-DSC-S-4012-AP318       PIC X(10)
                                               VALUE SPACES.
               10  WK01-DCMNT-NMBR-AP318-Z              PIC X(1)
                                               VALUE SPACE.
               10  WK01-DCMNT-NMBR-AP318-F              PIC X(1)
                                               VALUE SPACE.
               10  WK01-DCMNT-NMBR-AP318-A              PIC X(1)
                                               VALUE SPACE.
               10  WK01-DCMNT-NMBR-AP318-V              PIC X(1)
                                               VALUE SPACE.
               10  WK01-DCMNT-NMBR-AP318-O              PIC X(1)
                                               VALUE SPACE.
               10  WK01-DCMNT-NMBR-AP318       PIC X(14)
                                               VALUE SPACES.
               10  WK01-STATUS-IND-AP318-Z              PIC X(1)
                                               VALUE SPACE.
               10  WK01-STATUS-IND-AP318-F              PIC X(1)
                                               VALUE SPACE.
               10  WK01-STATUS-IND-AP318-A              PIC X(1)
                                               VALUE SPACE.
               10  WK01-STATUS-IND-AP318-V              PIC X(1)
                                               VALUE SPACE.
               10  WK01-STATUS-IND-AP318-O              PIC X(1)
                                               VALUE SPACE.
               10  WK01-STATUS-IND-AP318       PIC X(3)
                                               VALUE SPACES.
               10  WK01-CODE-AP319-Z              PIC X(1)
                                               VALUE SPACE.
               10  WK01-CODE-AP319-F              PIC X(1)
                                               VALUE SPACE.
               10  WK01-CODE-AP319-A              PIC X(1)
                                               VALUE SPACE.
               10  WK01-CODE-AP319-V              PIC X(1)
                                               VALUE SPACE.
               10  WK01-CODE-AP319-O              PIC X(1)
                                               VALUE SPACE.
               10  WK01-CODE-AP319       PIC X(1)
                                               VALUE SPACES.
               10  WK01-NMBR-4158-AP319-Z              PIC X(1)
                                               VALUE SPACE.
               10  WK01-NMBR-4158-AP319-F              PIC X(1)
                                               VALUE SPACE.
               10  WK01-NMBR-4158-AP319-A              PIC X(1)
                                               VALUE SPACE.
               10  WK01-NMBR-4158-AP319-V              PIC X(1)
                                               VALUE SPACE.
               10  WK01-NMBR-4158-AP319-O              PIC X(1)
                                               VALUE SPACE.
               10  WK01-NMBR-4158-AP319       PIC X(8)
                                               VALUE SPACES.
               10  WK01-DATE-4158-AP319-Z              PIC X(1)
                                               VALUE SPACE.
               10  WK01-DATE-4158-AP319-F              PIC X(1)
                                               VALUE SPACE.
               10  WK01-DATE-4158-AP319-A              PIC X(1)
                                               VALUE SPACE.
               10  WK01-DATE-4158-AP319-V              PIC X(1)
                                               VALUE SPACE.
               10  WK01-DATE-4158-AP319-O              PIC X(1)
                                               VALUE SPACE.
               10  WK01-DATE-4158-AP319       PIC X(8)
                                               VALUE SPACES.
               10  WK01-AMT-4158-AP319-Z              PIC X(1)
                                               VALUE SPACE.
               10  WK01-AMT-4158-AP319-F              PIC X(1)
                                               VALUE SPACE.
               10  WK01-AMT-4158-AP319-A              PIC X(1)
                                               VALUE SPACE.
               10  WK01-AMT-4158-AP319-V              PIC X(1)
                                               VALUE SPACE.
               10  WK01-AMT-4158-AP319-O              PIC X(1)
                                               VALUE SPACE.
               10  WK01-AMT-4158-AP319       PIC X(17)
                                               VALUE SPACES.
               10  WK01-CODE-DSC-S-4012-AP319-Z              PIC X(1)
                                               VALUE SPACE.
               10  WK01-CODE-DSC-S-4012-AP319-F              PIC X(1)
                                               VALUE SPACE.
               10  WK01-CODE-DSC-S-4012-AP319-A              PIC X(1)
                                               VALUE SPACE.
               10  WK01-CODE-DSC-S-4012-AP319-V              PIC X(1)
                                               VALUE SPACE.
               10  WK01-CODE-DSC-S-4012-AP319-O              PIC X(1)
                                               VALUE SPACE.
               10  WK01-CODE-DSC-S-4012-AP319       PIC X(10)
                                               VALUE SPACES.
               10  WK01-DCMNT-NMBR-AP319-Z              PIC X(1)
                                               VALUE SPACE.
               10  WK01-DCMNT-NMBR-AP319-F              PIC X(1)
                                               VALUE SPACE.
               10  WK01-DCMNT-NMBR-AP319-A              PIC X(1)
                                               VALUE SPACE.
               10  WK01-DCMNT-NMBR-AP319-V              PIC X(1)
                                               VALUE SPACE.
               10  WK01-DCMNT-NMBR-AP319-O              PIC X(1)
                                               VALUE SPACE.
               10  WK01-DCMNT-NMBR-AP319       PIC X(14)
                                               VALUE SPACES.
               10  WK01-STATUS-IND-AP319-Z              PIC X(1)
                                               VALUE SPACE.
               10  WK01-STATUS-IND-AP319-F              PIC X(1)
                                               VALUE SPACE.
               10  WK01-STATUS-IND-AP319-A              PIC X(1)
                                               VALUE SPACE.
               10  WK01-STATUS-IND-AP319-V              PIC X(1)
                                               VALUE SPACE.
               10  WK01-STATUS-IND-AP319-O              PIC X(1)
                                               VALUE SPACE.
               10  WK01-STATUS-IND-AP319       PIC X(3)
                                               VALUE SPACES.
               10  WK01-CODE-AP3110-Z              PIC X(1)
                                               VALUE SPACE.
               10  WK01-CODE-AP3110-F              PIC X(1)
                                               VALUE SPACE.
               10  WK01-CODE-AP3110-A              PIC X(1)
                                               VALUE SPACE.
               10  WK01-CODE-AP3110-V              PIC X(1)
                                               VALUE SPACE.
               10  WK01-CODE-AP3110-O              PIC X(1)
                                               VALUE SPACE.
               10  WK01-CODE-AP3110       PIC X(1)
                                               VALUE SPACES.
               10  WK01-NMBR-4158-AP3110-Z              PIC X(1)
                                               VALUE SPACE.
               10  WK01-NMBR-4158-AP3110-F              PIC X(1)
                                               VALUE SPACE.
               10  WK01-NMBR-4158-AP3110-A              PIC X(1)
                                               VALUE SPACE.
               10  WK01-NMBR-4158-AP3110-V              PIC X(1)
                                               VALUE SPACE.
               10  WK01-NMBR-4158-AP3110-O              PIC X(1)
                                               VALUE SPACE.
               10  WK01-NMBR-4158-AP3110       PIC X(8)
                                               VALUE SPACES.
               10  WK01-DATE-4158-AP3110-Z              PIC X(1)
                                               VALUE SPACE.
               10  WK01-DATE-4158-AP3110-F              PIC X(1)
                                               VALUE SPACE.
               10  WK01-DATE-4158-AP3110-A              PIC X(1)
                                               VALUE SPACE.
               10  WK01-DATE-4158-AP3110-V              PIC X(1)
                                               VALUE SPACE.
               10  WK01-DATE-4158-AP3110-O              PIC X(1)
                                               VALUE SPACE.
               10  WK01-DATE-4158-AP3110       PIC X(8)
                                               VALUE SPACES.
               10  WK01-AMT-4158-AP3110-Z              PIC X(1)
                                               VALUE SPACE.
               10  WK01-AMT-4158-AP3110-F              PIC X(1)
                                               VALUE SPACE.
               10  WK01-AMT-4158-AP3110-A              PIC X(1)
                                               VALUE SPACE.
               10  WK01-AMT-4158-AP3110-V              PIC X(1)
                                               VALUE SPACE.
               10  WK01-AMT-4158-AP3110-O              PIC X(1)
                                               VALUE SPACE.
               10  WK01-AMT-4158-AP3110       PIC X(17)
                                               VALUE SPACES.
               10  WK01-CODE-DSC-S-4012-AP3110-Z              PIC X(1)
                                               VALUE SPACE.
               10  WK01-CODE-DSC-S-4012-AP3110-F              PIC X(1)
                                               VALUE SPACE.
               10  WK01-CODE-DSC-S-4012-AP3110-A              PIC X(1)
                                               VALUE SPACE.
               10  WK01-CODE-DSC-S-4012-AP3110-V              PIC X(1)
                                               VALUE SPACE.
               10  WK01-CODE-DSC-S-4012-AP3110-O              PIC X(1)
                                               VALUE SPACE.
               10  WK01-CODE-DSC-S-4012-AP3110       PIC X(10)
                                               VALUE SPACES.
               10  WK01-DCMNT-NMBR-AP3110-Z              PIC X(1)
                                               VALUE SPACE.
               10  WK01-DCMNT-NMBR-AP3110-F              PIC X(1)
                                               VALUE SPACE.
               10  WK01-DCMNT-NMBR-AP3110-A              PIC X(1)
                                               VALUE SPACE.
               10  WK01-DCMNT-NMBR-AP3110-V              PIC X(1)
                                               VALUE SPACE.
               10  WK01-DCMNT-NMBR-AP3110-O              PIC X(1)
                                               VALUE SPACE.
               10  WK01-DCMNT-NMBR-AP3110       PIC X(14)
                                               VALUE SPACES.
               10  WK01-STATUS-IND-AP3110-Z              PIC X(1)
                                               VALUE SPACE.
               10  WK01-STATUS-IND-AP3110-F              PIC X(1)
                                               VALUE SPACE.
               10  WK01-STATUS-IND-AP3110-A              PIC X(1)
                                               VALUE SPACE.
               10  WK01-STATUS-IND-AP3110-V              PIC X(1)
                                               VALUE SPACE.
               10  WK01-STATUS-IND-AP3110-O              PIC X(1)
                                               VALUE SPACE.
               10  WK01-STATUS-IND-AP3110       PIC X(3)
                                               VALUE SPACES.
               10  WK01-CODE-AP3111-Z              PIC X(1)
                                               VALUE SPACE.
               10  WK01-CODE-AP3111-F              PIC X(1)
                                               VALUE SPACE.
               10  WK01-CODE-AP3111-A              PIC X(1)
                                               VALUE SPACE.
               10  WK01-CODE-AP3111-V              PIC X(1)
                                               VALUE SPACE.
               10  WK01-CODE-AP3111-O              PIC X(1)
                                               VALUE SPACE.
               10  WK01-CODE-AP3111       PIC X(1)
                                               VALUE SPACES.
               10  WK01-NMBR-4158-AP3111-Z              PIC X(1)
                                               VALUE SPACE.
               10  WK01-NMBR-4158-AP3111-F              PIC X(1)
                                               VALUE SPACE.
               10  WK01-NMBR-4158-AP3111-A              PIC X(1)
                                               VALUE SPACE.
               10  WK01-NMBR-4158-AP3111-V              PIC X(1)
                                               VALUE SPACE.
               10  WK01-NMBR-4158-AP3111-O              PIC X(1)
                                               VALUE SPACE.
               10  WK01-NMBR-4158-AP3111       PIC X(8)
                                               VALUE SPACES.
               10  WK01-DATE-4158-AP3111-Z              PIC X(1)
                                               VALUE SPACE.
               10  WK01-DATE-4158-AP3111-F              PIC X(1)
                                               VALUE SPACE.
               10  WK01-DATE-4158-AP3111-A              PIC X(1)
                                               VALUE SPACE.
               10  WK01-DATE-4158-AP3111-V              PIC X(1)
                                               VALUE SPACE.
               10  WK01-DATE-4158-AP3111-O              PIC X(1)
                                               VALUE SPACE.
               10  WK01-DATE-4158-AP3111       PIC X(8)
                                               VALUE SPACES.
               10  WK01-AMT-4158-AP3111-Z              PIC X(1)
                                               VALUE SPACE.
               10  WK01-AMT-4158-AP3111-F              PIC X(1)
                                               VALUE SPACE.
               10  WK01-AMT-4158-AP3111-A              PIC X(1)
                                               VALUE SPACE.
               10  WK01-AMT-4158-AP3111-V              PIC X(1)
                                               VALUE SPACE.
               10  WK01-AMT-4158-AP3111-O              PIC X(1)
                                               VALUE SPACE.
               10  WK01-AMT-4158-AP3111       PIC X(17)
                                               VALUE SPACES.
               10  WK01-CODE-DSC-S-4012-AP3111-Z              PIC X(1)
                                               VALUE SPACE.
               10  WK01-CODE-DSC-S-4012-AP3111-F              PIC X(1)
                                               VALUE SPACE.
               10  WK01-CODE-DSC-S-4012-AP3111-A              PIC X(1)
                                               VALUE SPACE.
               10  WK01-CODE-DSC-S-4012-AP3111-V              PIC X(1)
                                               VALUE SPACE.
               10  WK01-CODE-DSC-S-4012-AP3111-O              PIC X(1)
                                               VALUE SPACE.
               10  WK01-CODE-DSC-S-4012-AP3111       PIC X(10)
                                               VALUE SPACES.
               10  WK01-DCMNT-NMBR-AP3111-Z              PIC X(1)
                                               VALUE SPACE.
               10  WK01-DCMNT-NMBR-AP3111-F              PIC X(1)
                                               VALUE SPACE.
               10  WK01-DCMNT-NMBR-AP3111-A              PIC X(1)
                                               VALUE SPACE.
               10  WK01-DCMNT-NMBR-AP3111-V              PIC X(1)
                                               VALUE SPACE.
               10  WK01-DCMNT-NMBR-AP3111-O              PIC X(1)
                                               VALUE SPACE.
               10  WK01-DCMNT-NMBR-AP3111       PIC X(14)
                                               VALUE SPACES.
               10  WK01-STATUS-IND-AP3111-Z              PIC X(1)
                                               VALUE SPACE.
               10  WK01-STATUS-IND-AP3111-F              PIC X(1)
                                               VALUE SPACE.
               10  WK01-STATUS-IND-AP3111-A              PIC X(1)
                                               VALUE SPACE.
               10  WK01-STATUS-IND-AP3111-V              PIC X(1)
                                               VALUE SPACE.
               10  WK01-STATUS-IND-AP3111-O              PIC X(1)
                                               VALUE SPACE.
               10  WK01-STATUS-IND-AP3111       PIC X(3)
                                               VALUE SPACES.
               10  WK01-CODE-AP3112-Z              PIC X(1)
                                               VALUE SPACE.
               10  WK01-CODE-AP3112-F              PIC X(1)
                                               VALUE SPACE.
               10  WK01-CODE-AP3112-A              PIC X(1)
                                               VALUE SPACE.
               10  WK01-CODE-AP3112-V              PIC X(1)
                                               VALUE SPACE.
               10  WK01-CODE-AP3112-O              PIC X(1)
                                               VALUE SPACE.
               10  WK01-CODE-AP3112       PIC X(1)
                                               VALUE SPACES.
               10  WK01-NMBR-4158-AP3112-Z              PIC X(1)
                                               VALUE SPACE.
               10  WK01-NMBR-4158-AP3112-F              PIC X(1)
                                               VALUE SPACE.
               10  WK01-NMBR-4158-AP3112-A              PIC X(1)
                                               VALUE SPACE.
               10  WK01-NMBR-4158-AP3112-V              PIC X(1)
                                               VALUE SPACE.
               10  WK01-NMBR-4158-AP3112-O              PIC X(1)
                                               VALUE SPACE.
               10  WK01-NMBR-4158-AP3112       PIC X(8)
                                               VALUE SPACES.
               10  WK01-DATE-4158-AP3112-Z              PIC X(1)
                                               VALUE SPACE.
               10  WK01-DATE-4158-AP3112-F              PIC X(1)
                                               VALUE SPACE.
               10  WK01-DATE-4158-AP3112-A              PIC X(1)
                                               VALUE SPACE.
               10  WK01-DATE-4158-AP3112-V              PIC X(1)
                                               VALUE SPACE.
               10  WK01-DATE-4158-AP3112-O              PIC X(1)
                                               VALUE SPACE.
               10  WK01-DATE-4158-AP3112       PIC X(8)
                                               VALUE SPACES.
               10  WK01-AMT-4158-AP3112-Z              PIC X(1)
                                               VALUE SPACE.
               10  WK01-AMT-4158-AP3112-F              PIC X(1)
                                               VALUE SPACE.
               10  WK01-AMT-4158-AP3112-A              PIC X(1)
                                               VALUE SPACE.
               10  WK01-AMT-4158-AP3112-V              PIC X(1)
                                               VALUE SPACE.
               10  WK01-AMT-4158-AP3112-O              PIC X(1)
                                               VALUE SPACE.
               10  WK01-AMT-4158-AP3112       PIC X(17)
                                               VALUE SPACES.
               10  WK01-CODE-DSC-S-4012-AP3112-Z              PIC X(1)
                                               VALUE SPACE.
               10  WK01-CODE-DSC-S-4012-AP3112-F              PIC X(1)
                                               VALUE SPACE.
               10  WK01-CODE-DSC-S-4012-AP3112-A              PIC X(1)
                                               VALUE SPACE.
               10  WK01-CODE-DSC-S-4012-AP3112-V              PIC X(1)
                                               VALUE SPACE.
               10  WK01-CODE-DSC-S-4012-AP3112-O              PIC X(1)
                                               VALUE SPACE.
               10  WK01-CODE-DSC-S-4012-AP3112       PIC X(10)
                                               VALUE SPACES.
               10  WK01-DCMNT-NMBR-AP3112-Z              PIC X(1)
                                               VALUE SPACE.
               10  WK01-DCMNT-NMBR-AP3112-F              PIC X(1)
                                               VALUE SPACE.
               10  WK01-DCMNT-NMBR-AP3112-A              PIC X(1)
                                               VALUE SPACE.
               10  WK01-DCMNT-NMBR-AP3112-V              PIC X(1)
                                               VALUE SPACE.
               10  WK01-DCMNT-NMBR-AP3112-O              PIC X(1)
                                               VALUE SPACE.
               10  WK01-DCMNT-NMBR-AP3112       PIC X(14)
                                               VALUE SPACES.
               10  WK01-STATUS-IND-AP3112-Z              PIC X(1)
                                               VALUE SPACE.
               10  WK01-STATUS-IND-AP3112-F              PIC X(1)
                                               VALUE SPACE.
               10  WK01-STATUS-IND-AP3112-A              PIC X(1)
                                               VALUE SPACE.
               10  WK01-STATUS-IND-AP3112-V              PIC X(1)
                                               VALUE SPACE.
               10  WK01-STATUS-IND-AP3112-O              PIC X(1)
                                               VALUE SPACE.
               10  WK01-STATUS-IND-AP3112       PIC X(3)
                                               VALUE SPACES.
               10  WK01-ZZMESSAGE-Z              PIC X(1)
                                               VALUE SPACE.
               10  WK01-ZZMESSAGE-F              PIC X(1)
                                               VALUE SPACE.
               10  WK01-ZZMESSAGE-A              PIC X(1)
                                               VALUE SPACE.
               10  WK01-ZZMESSAGE-V              PIC X(1)
                                               VALUE SPACE.
               10  WK01-ZZMESSAGE-O              PIC X(1)
                                               VALUE SPACE.
               10  WK01-ZZMESSAGE       PIC X(160)
                                               VALUE SPACES.
               10  WK01-PASSED-ONE-Z              PIC X(1)
                                               VALUE SPACE.
               10  WK01-PASSED-ONE-F              PIC X(1)
                                               VALUE SPACE.
               10  WK01-PASSED-ONE-A              PIC X(1)
                                               VALUE SPACE.
               10  WK01-PASSED-ONE-V              PIC X(1)
                                               VALUE SPACE.
               10  WK01-PASSED-ONE-O              PIC X(1)
                                               VALUE SPACE.
               10  WK01-PASSED-ONE       PIC X(32)
                                               VALUE SPACES.
               10  WK01-MAP-RESPONSE-Z              PIC X(1)
                                               VALUE SPACE.
               10  WK01-MAP-RESPONSE-F              PIC X(1)
                                               VALUE SPACE.
               10  WK01-MAP-RESPONSE-A              PIC X(1)
                                               VALUE SPACE.
               10  WK01-MAP-RESPONSE-V              PIC X(1)
                                               VALUE SPACE.
               10  WK01-MAP-RESPONSE-O              PIC X(1)
                                               VALUE SPACE.
               10  WK01-MAP-RESPONSE       PIC X(8)
                                               VALUE SPACES.
               10  WK01-TEXT-SY00-Z              PIC X(1)
                                               VALUE SPACE.
               10  WK01-TEXT-SY00-F              PIC X(1)
                                               VALUE SPACE.
               10  WK01-TEXT-SY00-A              PIC X(1)
                                               VALUE SPACE.
               10  WK01-TEXT-SY00-V              PIC X(1)
                                               VALUE SPACE.
               10  WK01-TEXT-SY00-O              PIC X(1)
                                               VALUE SPACE.
               10  WK01-TEXT-SY00       PIC X(14)
                                               VALUE SPACES.
           04  WK01-SUBSCRIPTED-WORK-AREA.
               05  FILLER                      PIC X(1).
               05  WK01-NMBR-4158-AP31-F             PIC X(1)
                                               OCCURS 12.
               05  WK01-DATE-4158-AP31-F             PIC X(1)
                                               OCCURS 12.
               05  WK01-AMT-4158-AP31-F             PIC X(1)
                                               OCCURS 12.
               05  WK01-CODE-DSC-S-4012-AP31-F             PIC X(1)
                                               OCCURS 12.
               05  WK01-DCMNT-NMBR-AP31-F             PIC X(1)
                                               OCCURS 12.
               05  WK01-STATUS-IND-AP31-F             PIC X(1)
                                               OCCURS 12.
               05  WK01-CODE-AP31-F             PIC X(1)
                                               OCCURS 12.
