       01  MAP-CONTROL.

    ***Created by Convert/DC version V8R03 on 12/04/00 at 15:00***

           02  FAPMU35-MAP-CONTROL.
           03  FAPMU35T.
           04  WK01-DCXMAPL-PARMS.
               10  WK01-MAPNAME                  PIC X(8)
                                                 VALUE 'FAPMU35I'.
               10  WK01-IKE-LENGTH               PIC S9(8)  COMP
                                                 VALUE 21253.
               10  WK01-TINA-LENGTH              PIC S9(4)  COMP
DMW001                                           VALUE 1215.
           05  WK01-ATTRIBUTES                   PIC X(60)
                                                 VALUE SPACE.
           05  WK01-ATTRIBUTES-ERROR             PIC X(60) VALUE
               'U  BIF'.
           05  WK01-CURSOR-DFLD                  PIC X(36)
                                                 VALUE SPACES.
           05  WK01-CURSOR-DFLD-QUAL             PIC X(30)
                                                 VALUE SPACES.
           05  WK01-ROW                          PIC S9(4) COMP
                                                 VALUE ZERO.
           05  WK01-COLUMN                       PIC S9(4) COMP
                                                 VALUE ZERO.
           05  WK01-ERROR-MSG                    PIC X(80)
                                                 VALUE SPACES.
           05  WK01-MAP-DATA-LEN                 PIC S9(6)
                                                 VALUE ZERO.
           05  WK01-1ST-FLAG                     PIC X(1)
                                                 VALUE 'Y'.
           05  WK01-FLAG-OUTPUT-DATA             PIC X(1)
                                                 VALUE 'Y'.
      *    05  WK01-STATUS-RETURN-FLAG           PIC X(1)
      *                                          VALUE SPACES.
           05  WK01-ALL-BUT-FLAG                 PIC X(1)
                                                 VALUE SPACES.
           05  WK01-FLAG-ALL-FIELDS-CHANGED      PIC X(1)  VALUE 'Y'.
           05  WK01-FLAG-ANY-FIELDS-CHANGED      PIC X(1)  VALUE 'N'.
           05  WK01-FLAG-ALL-FIELDS-ERROR        PIC X(1)  VALUE 'Y'.
           05  WK01-FLAG-ANY-FIELDS-ERROR        PIC X(1)  VALUE 'N'.
           05  WK01-FLAG-ALL-FIELDS-ERASE        PIC X(1)  VALUE 'Y'.
           05  WK01-FLAG-ANY-FIELDS-ERASE        PIC X(1)  VALUE 'Y'.

           05  WK01-VARDATA                      PIC X(11880)
                                                 VALUE SPACES.
           05  FILLER                            PIC X(100)
                                                 VALUE SPACES.
           04  WK01-ELEMENT-AREA.

               10  WK01-ID-SY00-Z              PIC X(1)
                                               VALUE SPACE.
               10  WK01-ID-SY00-F              PIC X(1)
                                               VALUE SPACE.
               10  WK01-ID-SY00-A              PIC X(1)
                                               VALUE SPACE.
               10  WK01-ID-SY00-V              PIC X(1)
                                               VALUE SPACE.
               10  WK01-ID-SY00-O              PIC X(1)
                                               VALUE SPACE.
               10  WK01-ID-SY00       PIC X(8)
                                               VALUE SPACES.
               10  WK01-NAME-6001-SY00-Z              PIC X(1)
                                               VALUE SPACE.
               10  WK01-NAME-6001-SY00-F              PIC X(1)
                                               VALUE SPACE.
               10  WK01-NAME-6001-SY00-A              PIC X(1)
                                               VALUE SPACE.
               10  WK01-NAME-6001-SY00-V              PIC X(1)
                                               VALUE SPACE.
               10  WK01-NAME-6001-SY00-O              PIC X(1)
                                               VALUE SPACE.
               10  WK01-NAME-6001-SY00       PIC X(35)
                                               VALUE SPACES.
               10  WK01-DATE-Z              PIC X(1)
                                               VALUE SPACE.
               10  WK01-DATE-F              PIC X(1)
                                               VALUE SPACE.
               10  WK01-DATE-A              PIC X(1)
                                               VALUE SPACE.
               10  WK01-DATE-V              PIC X(1)
                                               VALUE SPACE.
               10  WK01-DATE-O              PIC X(1)
                                               VALUE SPACE.
               10  WK01-DATE       PIC X(8)
                                               VALUE SPACES.
               10  WK01-HH-MM-TIME-SY00-Z              PIC X(1)
                                               VALUE SPACE.
               10  WK01-HH-MM-TIME-SY00-F              PIC X(1)
                                               VALUE SPACE.
               10  WK01-HH-MM-TIME-SY00-A              PIC X(1)
                                               VALUE SPACE.
               10  WK01-HH-MM-TIME-SY00-V              PIC X(1)
                                               VALUE SPACE.
               10  WK01-HH-MM-TIME-SY00-O              PIC X(1)
                                               VALUE SPACE.
               10  WK01-HH-MM-TIME-SY00       PIC X(4)
                                               VALUE SPACES.
               10  WK01-PM-FLAG-SY00-Z              PIC X(1)
                                               VALUE SPACE.
               10  WK01-PM-FLAG-SY00-F              PIC X(1)
                                               VALUE SPACE.
               10  WK01-PM-FLAG-SY00-A              PIC X(1)
                                               VALUE SPACE.
               10  WK01-PM-FLAG-SY00-V              PIC X(1)
                                               VALUE SPACE.
               10  WK01-PM-FLAG-SY00-O              PIC X(1)
                                               VALUE SPACE.
               10  WK01-PM-FLAG-SY00       PIC X(1)
                                               VALUE SPACES.
               10  WK01-USER-ID-Z              PIC X(1)
                                               VALUE SPACE.
               10  WK01-USER-ID-F              PIC X(1)
                                               VALUE SPACE.
               10  WK01-USER-ID-A              PIC X(1)
                                               VALUE SPACE.
               10  WK01-USER-ID-V              PIC X(1)
                                               VALUE SPACE.
               10  WK01-USER-ID-O              PIC X(1)
                                               VALUE SPACE.
               10  WK01-USER-ID       PIC X(32)
                                               VALUE SPACES.
               10  WK01-RSPNS-ID-SY00-Z              PIC X(1)
                                               VALUE SPACE.
               10  WK01-RSPNS-ID-SY00-F              PIC X(1)
                                               VALUE SPACE.
               10  WK01-RSPNS-ID-SY00-A              PIC X(1)
                                               VALUE SPACE.
               10  WK01-RSPNS-ID-SY00-V              PIC X(1)
                                               VALUE SPACE.
               10  WK01-RSPNS-ID-SY00-O              PIC X(1)
                                               VALUE SPACE.
               10  WK01-RSPNS-ID-SY00       PIC X(8)
                                               VALUE SPACES.
               10  WK01-FUNC-DESCRIPTION-Z              PIC X(1)
                                               VALUE SPACE.
               10  WK01-FUNC-DESCRIPTION-F              PIC X(1)
                                               VALUE SPACE.
               10  WK01-FUNC-DESCRIPTION-A              PIC X(1)
                                               VALUE SPACE.
               10  WK01-FUNC-DESCRIPTION-V              PIC X(1)
                                               VALUE SPACE.
               10  WK01-FUNC-DESCRIPTION-O              PIC X(1)
                                               VALUE SPACE.
               10  WK01-FUNC-DESCRIPTION       PIC X(28)
                                               VALUE SPACES.
               10  WK01-STATUS-CODE-SY00-Z              PIC X(1)
                                               VALUE SPACE.
               10  WK01-STATUS-CODE-SY00-F              PIC X(1)
                                               VALUE SPACE.
               10  WK01-STATUS-CODE-SY00-A              PIC X(1)
                                               VALUE SPACE.
               10  WK01-STATUS-CODE-SY00-V              PIC X(1)
                                               VALUE SPACE.
               10  WK01-STATUS-CODE-SY00-O              PIC X(1)
                                               VALUE SPACE.
               10  WK01-STATUS-CODE-SY00       PIC X(1)
                                               VALUE SPACES.
               10  WK01-TEXT-SY01-Z                     PIC X(1)
                                               VALUE SPACE.
               10  WK01-TEXT-SY01-F                     PIC X(1)
                                               VALUE SPACE.
               10  WK01-TEXT-SY01-A                     PIC X(1)
                                               VALUE SPACE.
               10  WK01-TEXT-SY01-V                     PIC X(1)
                                               VALUE SPACE.
               10  WK01-TEXT-SY01-O                     PIC X(1)
                                               VALUE SPACE.
               10  WK01-TEXT-SY01              PIC X(8)
                                               VALUE SPACES.
               10  WK01-TEXT-SY0A-Z                     PIC X(1)
                                               VALUE SPACE.
               10  WK01-TEXT-SY0A-F                     PIC X(1)
                                               VALUE SPACE.
               10  WK01-TEXT-SY0A-A                     PIC X(1)
                                               VALUE SPACE.
               10  WK01-TEXT-SY0A-V                     PIC X(1)
                                               VALUE SPACE.
               10  WK01-TEXT-SY0A-O                     PIC X(1)
                                               VALUE SPACE.
               10  WK01-TEXT-SY0A              PIC X(11)
                                               VALUE SPACES.
               10  WK01-TEXT-SY0B-Z                     PIC X(1)
                                               VALUE SPACE.
               10  WK01-TEXT-SY0B-F                     PIC X(1)
                                               VALUE SPACE.
               10  WK01-TEXT-SY0B-A                     PIC X(1)
                                               VALUE SPACE.
               10  WK01-TEXT-SY0B-V                     PIC X(1)
                                               VALUE SPACE.
               10  WK01-TEXT-SY0B-O                     PIC X(1)
                                               VALUE SPACE.
               10  WK01-TEXT-SY0B              PIC X(5)
                                               VALUE SPACES.
               10  WK01-CHECK-NMBR-AP35-Z        PIC X(1)
                                               VALUE SPACE.
               10  WK01-CHECK-NMBR-AP35-F        PIC X(1)
                                               VALUE SPACE.
               10  WK01-CHECK-NMBR-AP35-A        PIC X(1)
                                               VALUE SPACE.
               10  WK01-CHECK-NMBR-AP35-V        PIC X(1)
                                               VALUE SPACE.
               10  WK01-CHECK-NMBR-AP35-O        PIC X(1)
                                               VALUE SPACE.
               10  WK01-CHECK-NMBR-AP35          PIC X(8)
                                               VALUE SPACES.
               10  WK01-ORGN-CODE-AP35-Z              PIC X(1)
                                               VALUE SPACE.
               10  WK01-ORGN-CODE-AP35-F              PIC X(1)
                                               VALUE SPACE.
               10  WK01-ORGN-CODE-AP35-A              PIC X(1)
                                               VALUE SPACE.
               10  WK01-ORGN-CODE-AP35-V              PIC X(1)
                                               VALUE SPACE.
               10  WK01-ORGN-CODE-AP35-O              PIC X(1)
                                               VALUE SPACE.
               10  WK01-ORGN-CODE-AP35       PIC X(4)
                                               VALUE SPACES.
               10  WK01-CODE-DSC-L-4012-AP35-Z         PIC X(1)
                                               VALUE SPACE.
               10  WK01-CODE-DSC-L-4012-AP35-F         PIC X(1)
                                               VALUE SPACE.
               10  WK01-CODE-DSC-L-4012-AP35-A         PIC X(1)
                                               VALUE SPACE.
               10  WK01-CODE-DSC-L-4012-AP35-V         PIC X(1)
                                               VALUE SPACE.
               10  WK01-CODE-DSC-L-4012-AP35-O         PIC X(1)
                                               VALUE SPACE.
               10  WK01-CODE-DSC-L-4012-AP35  PIC X(35)
                                               VALUE SPACES.
               10  WK01-CODE-AP35-Z                   PIC X(1)
                                               VALUE SPACE.
               10  WK01-CODE-AP35-F                   PIC X(1)
                                               VALUE SPACE.
               10  WK01-CODE-AP35-A                   PIC X(1)
                                               VALUE SPACE.
               10  WK01-CODE-AP35-V                   PIC X(1)
                                               VALUE SPACE.
               10  WK01-CODE-AP35-O                   PIC X(1)
                                               VALUE SPACE.
               10  WK01-CODE-AP35            PIC X(1)
                                               VALUE SPACES.
               10  WK01-ID-R4157-AP35-Z         PIC X(1)
                                               VALUE SPACE.
               10  WK01-ID-R4157-AP35-F         PIC X(1)
                                               VALUE SPACE.
               10  WK01-ID-R4157-AP35-A         PIC X(1)
                                               VALUE SPACE.
               10  WK01-ID-R4157-AP35-V         PIC X(1)
                                               VALUE SPACE.
               10  WK01-ID-R4157-AP35-O         PIC X(1)
                                               VALUE SPACE.
               10  WK01-ID-R4157-AP35  PIC X(10)
                                               VALUE SPACES.
               10  WK01-RQSTR-NAME-AP35-Z          PIC X(1)
                                               VALUE SPACE.
               10  WK01-RQSTR-NAME-AP35-F          PIC X(1)
                                               VALUE SPACE.
               10  WK01-RQSTR-NAME-AP35-A          PIC X(1)
                                               VALUE SPACE.
               10  WK01-RQSTR-NAME-AP35-V          PIC X(1)
                                               VALUE SPACE.
               10  WK01-RQSTR-NAME-AP35-O          PIC X(1)
                                               VALUE SPACE.
               10  WK01-RQSTR-NAME-AP35   PIC X(35)
                                               VALUE SPACES.
               10  WK01-JRNL-AP35-Z                       PIC X(1)
                                               VALUE SPACE.
               10  WK01-JRNL-AP35-F                       PIC X(1)
                                               VALUE SPACE.
               10  WK01-JRNL-AP35-A                       PIC X(1)
                                               VALUE SPACE.
               10  WK01-JRNL-AP35-V                       PIC X(1)
                                               VALUE SPACE.
               10  WK01-JRNL-AP35-O                       PIC X(1)
                                               VALUE SPACE.
               10  WK01-JRNL-AP35                PIC X(8)
                                               VALUE SPACES.
               10  WK01-JRNL-DESC-AP35-Z                  PIC X(1)
                                               VALUE SPACE.
               10  WK01-JRNL-DESC-AP35-F                  PIC X(1)
                                               VALUE SPACE.
               10  WK01-JRNL-DESC-AP35-A                  PIC X(1)
                                               VALUE SPACE.
               10  WK01-JRNL-DESC-AP35-V                  PIC X(1)
                                               VALUE SPACE.
               10  WK01-JRNL-DESC-AP35-O                  PIC X(1)
                                               VALUE SPACE.
               10  WK01-JRNL-DESC-AP35           PIC X(35)
                                               VALUE SPACES.
               10  WK01-JRNL-DATE-AP35-Z             PIC X(1)
                                               VALUE SPACE.
               10  WK01-JRNL-DATE-AP35-F             PIC X(1)
                                               VALUE SPACE.
               10  WK01-JRNL-DATE-AP35-A             PIC X(1)
                                               VALUE SPACE.
               10  WK01-JRNL-DATE-AP35-V             PIC X(1)
                                               VALUE SPACE.
               10  WK01-JRNL-DATE-AP35-O             PIC X(1)
                                               VALUE SPACE.
               10  WK01-JRNL-DATE-AP35      PIC X(08)
                                               VALUE SPACES.
               10  WK01-JRNL-AMT-AP35-Z               PIC X(1)
                                               VALUE SPACE.
               10  WK01-JRNL-AMT-AP35-F               PIC X(1)
                                               VALUE SPACE.
               10  WK01-JRNL-AMT-AP35-A               PIC X(1)
                                               VALUE SPACE.
               10  WK01-JRNL-AMT-AP35-V               PIC X(1)
                                               VALUE SPACE.
               10  WK01-JRNL-AMT-AP35-O               PIC X(1)
                                               VALUE SPACE.
               10  WK01-JRNL-AMT-AP35        PIC X(13)
                                               VALUE SPACES.
               10  WK01-JRNL-TYPE-AP35-Z           PIC X(1)
                                               VALUE SPACE.
               10  WK01-JRNL-TYPE-AP35-F           PIC X(1)
                                               VALUE SPACE.
               10  WK01-JRNL-TYPE-AP35-A           PIC X(1)
                                               VALUE SPACE.
               10  WK01-JRNL-TYPE-AP35-V           PIC X(1)
                                               VALUE SPACE.
               10  WK01-JRNL-TYPE-AP35-O           PIC X(1)
                                               VALUE SPACE.
               10  WK01-JRNL-TYPE-AP35    PIC X(04)
                                               VALUE SPACES.
               10  WK01-ITEM-ACTN-CD-1-AP35-Z        PIC X(1)
                                               VALUE SPACE.
               10  WK01-ITEM-ACTN-CD-1-AP35-F        PIC X(1)
                                               VALUE SPACE.
               10  WK01-ITEM-ACTN-CD-1-AP35-A        PIC X(1)
                                               VALUE SPACE.
               10  WK01-ITEM-ACTN-CD-1-AP35-V        PIC X(1)
                                               VALUE SPACE.
               10  WK01-ITEM-ACTN-CD-1-AP35-O        PIC X(1)
                                               VALUE SPACE.
               10  WK01-ITEM-ACTN-CD-1-AP35 PIC X(01)
                                               VALUE SPACES.
               10  WK01-NMBR-4150-1-AP35-Z           PIC X(1)
                                               VALUE SPACE.
               10  WK01-NMBR-4150-1-AP35-F           PIC X(1)
                                               VALUE SPACE.
               10  WK01-NMBR-4150-1-AP35-A           PIC X(1)
                                               VALUE SPACE.
               10  WK01-NMBR-4150-1-AP35-V           PIC X(1)
                                               VALUE SPACE.
               10  WK01-NMBR-4150-1-AP35-O           PIC X(1)
                                               VALUE SPACE.
               10  WK01-NMBR-4150-1-AP35 PIC X(08)
                                               VALUE SPACES.
               10  WK01-ITEM-NMBR-1-AP35-Z                  PIC X(1)
                                               VALUE SPACE.
               10  WK01-ITEM-NMBR-1-AP35-F                  PIC X(1)
                                               VALUE SPACE.
               10  WK01-ITEM-NMBR-1-AP35-A                  PIC X(1)
                                               VALUE SPACE.
               10  WK01-ITEM-NMBR-1-AP35-V                  PIC X(1)
                                               VALUE SPACE.
               10  WK01-ITEM-NMBR-1-AP35-O                  PIC X(1)
                                               VALUE SPACE.
               10  WK01-ITEM-NMBR-1-AP35           PIC X(4)
                                               VALUE SPACES.
               10  WK01-SEQ-NMBR-1-AP35-Z           PIC X(1)
                                               VALUE SPACE.
               10  WK01-SEQ-NMBR-1-AP35-F           PIC X(1)
                                               VALUE SPACE.
               10  WK01-SEQ-NMBR-1-AP35-A           PIC X(1)
                                               VALUE SPACE.
               10  WK01-SEQ-NMBR-1-AP35-V           PIC X(1)
                                               VALUE SPACE.
               10  WK01-SEQ-NMBR-1-AP35-O           PIC X(1)
                                               VALUE SPACE.
               10  WK01-SEQ-NMBR-1-AP35    PIC X(04)
                                               VALUE SPACES.

               10  WK01-FUND-CODE-1-AP35-Z              PIC X(1)
                                               VALUE SPACE.
               10  WK01-FUND-CODE-1-AP35-F              PIC X(1)
                                               VALUE SPACE.
               10  WK01-FUND-CODE-1-AP35-A              PIC X(1)
                                               VALUE SPACE.
               10  WK01-FUND-CODE-1-AP35-V              PIC X(1)
                                               VALUE SPACE.
               10  WK01-FUND-CODE-1-AP35-O              PIC X(1)
                                               VALUE SPACE.
               10  WK01-FUND-CODE-1-AP35                PIC X(6)
                                               VALUE SPACES.

               10  WK01-ORG-CODE-1-AP35-Z               PIC X(1)
                                               VALUE SPACE.
               10  WK01-ORG-CODE-1-AP35-F               PIC X(1)
                                               VALUE SPACE.
               10  WK01-ORG-CODE-1-AP35-A               PIC X(1)
                                               VALUE SPACE.
               10  WK01-ORG-CODE-1-AP35-V               PIC X(1)
                                               VALUE SPACE.
               10  WK01-ORG-CODE-1-AP35-O               PIC X(1)
                                               VALUE SPACE.
               10  WK01-ORG-CODE-1-AP35                 PIC X(6)
                                               VALUE SPACES.

               10  WK01-ACCT-CODE-1-AP35-Z             PIC X(1)
                                               VALUE SPACE.
               10  WK01-ACCT-CODE-1-AP35-F             PIC X(1)
                                               VALUE SPACE.
               10  WK01-ACCT-CODE-1-AP35-A             PIC X(1)
                                               VALUE SPACE.
               10  WK01-ACCT-CODE-1-AP35-V             PIC X(1)
                                               VALUE SPACE.
               10  WK01-ACCT-CODE-1-AP35-O             PIC X(1)
                                               VALUE SPACE.
               10  WK01-ACCT-CODE-1-AP35               PIC X(6)
                                               VALUE SPACES.

               10  WK01-PROG-CODE-1-AP35-Z             PIC X(1)
                                               VALUE SPACE.
               10  WK01-PROG-CODE-1-AP35-F             PIC X(1)
                                               VALUE SPACE.
               10  WK01-PROG-CODE-1-AP35-A             PIC X(1)
                                               VALUE SPACE.
               10  WK01-PROG-CODE-1-AP35-V             PIC X(1)
                                               VALUE SPACE.
               10  WK01-PROG-CODE-1-AP35-O             PIC X(1)
                                               VALUE SPACE.
               10  WK01-PROG-CODE-1-AP35               PIC X(06)
                                               VALUE SPACES.

               10  WK01-TRAN-AMT-1-AP35-Z              PIC X(1)
                                               VALUE SPACE.
               10  WK01-TRAN-AMT-1-AP35-F              PIC X(1)
                                               VALUE SPACE.
               10  WK01-TRAN-AMT-1-AP35-A              PIC X(1)
                                               VALUE SPACE.
               10  WK01-TRAN-AMT-1-AP35-V              PIC X(1)
                                               VALUE SPACE.
               10  WK01-TRAN-AMT-1-AP35-O              PIC X(1)
                                               VALUE SPACE.
               10  WK01-TRAN-AMT-1-AP35                PIC X(13)
                                               VALUE SPACES.

               10  WK01-D-C-IND-1-AP35-Z               PIC X(1)
                                               VALUE SPACE.
               10  WK01-D-C-IND-1-AP35-F               PIC X(1)
                                               VALUE SPACE.
               10  WK01-D-C-IND-1-AP35-A               PIC X(1)
                                               VALUE SPACE.
               10  WK01-D-C-IND-1-AP35-V               PIC X(1)
                                               VALUE SPACE.
               10  WK01-D-C-IND-1-AP35-O               PIC X(1)
                                               VALUE SPACE.
               10  WK01-D-C-IND-1-AP35                 PIC X(01)
                                               VALUE SPACES.
*******************
               10  WK01-ITEM-ACTN-CD-2-AP35-Z        PIC X(1)
                                               VALUE SPACE.
               10  WK01-ITEM-ACTN-CD-2-AP35-F        PIC X(1)
                                               VALUE SPACE.
               10  WK01-ITEM-ACTN-CD-2-AP35-A        PIC X(1)
                                               VALUE SPACE.
               10  WK01-ITEM-ACTN-CD-2-AP35-V        PIC X(1)
                                               VALUE SPACE.
               10  WK01-ITEM-ACTN-CD-2-AP35-O        PIC X(1)
                                               VALUE SPACE.
               10  WK01-ITEM-ACTN-CD-2-AP35 PIC X(01)
                                               VALUE SPACES.
               10  WK01-NMBR-4150-2-AP35-Z           PIC X(1)
                                               VALUE SPACE.
               10  WK01-NMBR-4150-2-AP35-F           PIC X(1)
                                               VALUE SPACE.
               10  WK01-NMBR-4150-2-AP35-A           PIC X(1)
                                               VALUE SPACE.
               10  WK01-NMBR-4150-2-AP35-V           PIC X(1)
                                               VALUE SPACE.
               10  WK01-NMBR-4150-2-AP35-O           PIC X(1)
                                               VALUE SPACE.
               10  WK01-NMBR-4150-2-AP35 PIC X(08)
                                               VALUE SPACES.
               10  WK01-ITEM-NMBR-2-AP35-Z                  PIC X(1)
                                               VALUE SPACE.
               10  WK01-ITEM-NMBR-2-AP35-F                  PIC X(1)
                                               VALUE SPACE.
               10  WK01-ITEM-NMBR-2-AP35-A                  PIC X(1)
                                               VALUE SPACE.
               10  WK01-ITEM-NMBR-2-AP35-V                  PIC X(1)
                                               VALUE SPACE.
               10  WK01-ITEM-NMBR-2-AP35-O                  PIC X(1)
                                               VALUE SPACE.
               10  WK01-ITEM-NMBR-2-AP35           PIC X(4)
                                               VALUE SPACES.
               10  WK01-SEQ-NMBR-2-AP35-Z           PIC X(1)
                                               VALUE SPACE.
               10  WK01-SEQ-NMBR-2-AP35-F           PIC X(1)
                                               VALUE SPACE.
               10  WK01-SEQ-NMBR-2-AP35-A           PIC X(1)
                                               VALUE SPACE.
               10  WK01-SEQ-NMBR-2-AP35-V           PIC X(1)
                                               VALUE SPACE.
               10  WK01-SEQ-NMBR-2-AP35-O           PIC X(1)
                                               VALUE SPACE.
               10  WK01-SEQ-NMBR-2-AP35    PIC X(04)
                                               VALUE SPACES.

               10  WK01-FUND-CODE-2-AP35-Z              PIC X(1)
                                               VALUE SPACE.
               10  WK01-FUND-CODE-2-AP35-F              PIC X(1)
                                               VALUE SPACE.
               10  WK01-FUND-CODE-2-AP35-A              PIC X(1)
                                               VALUE SPACE.
               10  WK01-FUND-CODE-2-AP35-V              PIC X(1)
                                               VALUE SPACE.
               10  WK01-FUND-CODE-2-AP35-O              PIC X(1)
                                               VALUE SPACE.
               10  WK01-FUND-CODE-2-AP35                PIC X(6)
                                               VALUE SPACES.

               10  WK01-ORG-CODE-2-AP35-Z               PIC X(1)
                                               VALUE SPACE.
               10  WK01-ORG-CODE-2-AP35-F               PIC X(1)
                                               VALUE SPACE.
               10  WK01-ORG-CODE-2-AP35-A               PIC X(1)
                                               VALUE SPACE.
               10  WK01-ORG-CODE-2-AP35-V               PIC X(1)
                                               VALUE SPACE.
               10  WK01-ORG-CODE-2-AP35-O               PIC X(1)
                                               VALUE SPACE.
               10  WK01-ORG-CODE-2-AP35                 PIC X(6)
                                               VALUE SPACES.

               10  WK01-ACCT-CODE-2-AP35-Z             PIC X(1)
                                               VALUE SPACE.
               10  WK01-ACCT-CODE-2-AP35-F             PIC X(1)
                                               VALUE SPACE.
               10  WK01-ACCT-CODE-2-AP35-A             PIC X(1)
                                               VALUE SPACE.
               10  WK01-ACCT-CODE-2-AP35-V             PIC X(1)
                                               VALUE SPACE.
               10  WK01-ACCT-CODE-2-AP35-O             PIC X(1)
                                               VALUE SPACE.
               10  WK01-ACCT-CODE-2-AP35               PIC X(6)
                                               VALUE SPACES.

               10  WK01-PROG-CODE-2-AP35-Z             PIC X(1)
                                               VALUE SPACE.
               10  WK01-PROG-CODE-2-AP35-F             PIC X(1)
                                               VALUE SPACE.
               10  WK01-PROG-CODE-2-AP35-A             PIC X(1)
                                               VALUE SPACE.
               10  WK01-PROG-CODE-2-AP35-V             PIC X(1)
                                               VALUE SPACE.
               10  WK01-PROG-CODE-2-AP35-O             PIC X(1)
                                               VALUE SPACE.
               10  WK01-PROG-CODE-2-AP35               PIC X(06)
                                               VALUE SPACES.

               10  WK01-TRAN-AMT-2-AP35-Z              PIC X(1)
                                               VALUE SPACE.
               10  WK01-TRAN-AMT-2-AP35-F              PIC X(1)
                                               VALUE SPACE.
               10  WK01-TRAN-AMT-2-AP35-A              PIC X(1)
                                               VALUE SPACE.
               10  WK01-TRAN-AMT-2-AP35-V              PIC X(1)
                                               VALUE SPACE.
               10  WK01-TRAN-AMT-2-AP35-O              PIC X(1)
                                               VALUE SPACE.
               10  WK01-TRAN-AMT-2-AP35                PIC X(13)
                                               VALUE SPACES.

               10  WK01-D-C-IND-2-AP35-Z               PIC X(1)
                                               VALUE SPACE.
               10  WK01-D-C-IND-2-AP35-F               PIC X(1)
                                               VALUE SPACE.
               10  WK01-D-C-IND-2-AP35-A               PIC X(1)
                                               VALUE SPACE.
               10  WK01-D-C-IND-2-AP35-V               PIC X(1)
                                               VALUE SPACE.
               10  WK01-D-C-IND-2-AP35-O               PIC X(1)
                                               VALUE SPACE.
               10  WK01-D-C-IND-2-AP35                 PIC X(01)
                                               VALUE SPACES.
               10  WK01-ITEM-ACTN-CD-3-AP35-Z        PIC X(1)
                                               VALUE SPACE.
               10  WK01-ITEM-ACTN-CD-3-AP35-F        PIC X(1)
                                               VALUE SPACE.
               10  WK01-ITEM-ACTN-CD-3-AP35-A        PIC X(1)
                                               VALUE SPACE.
               10  WK01-ITEM-ACTN-CD-3-AP35-V        PIC X(1)
                                               VALUE SPACE.
               10  WK01-ITEM-ACTN-CD-3-AP35-O        PIC X(1)
                                               VALUE SPACE.
               10  WK01-ITEM-ACTN-CD-3-AP35 PIC X(01)
                                               VALUE SPACES.
               10  WK01-NMBR-4150-3-AP35-Z           PIC X(1)
                                               VALUE SPACE.
               10  WK01-NMBR-4150-3-AP35-F           PIC X(1)
                                               VALUE SPACE.
               10  WK01-NMBR-4150-3-AP35-A           PIC X(1)
                                               VALUE SPACE.
               10  WK01-NMBR-4150-3-AP35-V           PIC X(1)
                                               VALUE SPACE.
               10  WK01-NMBR-4150-3-AP35-O           PIC X(1)
                                               VALUE SPACE.
               10  WK01-NMBR-4150-3-AP35 PIC X(08)
                                               VALUE SPACES.
               10  WK01-ITEM-NMBR-3-AP35-Z                  PIC X(1)
                                               VALUE SPACE.
               10  WK01-ITEM-NMBR-3-AP35-F                  PIC X(1)
                                               VALUE SPACE.
               10  WK01-ITEM-NMBR-3-AP35-A                  PIC X(1)
                                               VALUE SPACE.
               10  WK01-ITEM-NMBR-3-AP35-V                  PIC X(1)
                                               VALUE SPACE.
               10  WK01-ITEM-NMBR-3-AP35-O                  PIC X(1)
                                               VALUE SPACE.
               10  WK01-ITEM-NMBR-3-AP35           PIC X(4)
                                               VALUE SPACES.
               10  WK01-SEQ-NMBR-3-AP35-Z           PIC X(1)
                                               VALUE SPACE.
               10  WK01-SEQ-NMBR-3-AP35-F           PIC X(1)
                                               VALUE SPACE.
               10  WK01-SEQ-NMBR-3-AP35-A           PIC X(1)
                                               VALUE SPACE.
               10  WK01-SEQ-NMBR-3-AP35-V           PIC X(1)
                                               VALUE SPACE.
               10  WK01-SEQ-NMBR-3-AP35-O           PIC X(1)
                                               VALUE SPACE.
               10  WK01-SEQ-NMBR-3-AP35    PIC X(04)
                                               VALUE SPACES.

               10  WK01-FUND-CODE-3-AP35-Z              PIC X(1)
                                               VALUE SPACE.
               10  WK01-FUND-CODE-3-AP35-F              PIC X(1)
                                               VALUE SPACE.
               10  WK01-FUND-CODE-3-AP35-A              PIC X(1)
                                               VALUE SPACE.
               10  WK01-FUND-CODE-3-AP35-V              PIC X(1)
                                               VALUE SPACE.
               10  WK01-FUND-CODE-3-AP35-O              PIC X(1)
                                               VALUE SPACE.
               10  WK01-FUND-CODE-3-AP35                PIC X(6)
                                               VALUE SPACES.

               10  WK01-ORG-CODE-3-AP35-Z               PIC X(1)
                                               VALUE SPACE.
               10  WK01-ORG-CODE-3-AP35-F               PIC X(1)
                                               VALUE SPACE.
               10  WK01-ORG-CODE-3-AP35-A               PIC X(1)
                                               VALUE SPACE.
               10  WK01-ORG-CODE-3-AP35-V               PIC X(1)
                                               VALUE SPACE.
               10  WK01-ORG-CODE-3-AP35-O               PIC X(1)
                                               VALUE SPACE.
               10  WK01-ORG-CODE-3-AP35                 PIC X(6)
                                               VALUE SPACES.

               10  WK01-ACCT-CODE-3-AP35-Z             PIC X(1)
                                               VALUE SPACE.
               10  WK01-ACCT-CODE-3-AP35-F             PIC X(1)
                                               VALUE SPACE.
               10  WK01-ACCT-CODE-3-AP35-A             PIC X(1)
                                               VALUE SPACE.
               10  WK01-ACCT-CODE-3-AP35-V             PIC X(1)
                                               VALUE SPACE.
               10  WK01-ACCT-CODE-3-AP35-O             PIC X(1)
                                               VALUE SPACE.
               10  WK01-ACCT-CODE-3-AP35               PIC X(6)
                                               VALUE SPACES.

               10  WK01-PROG-CODE-3-AP35-Z             PIC X(1)
                                               VALUE SPACE.
               10  WK01-PROG-CODE-3-AP35-F             PIC X(1)
                                               VALUE SPACE.
               10  WK01-PROG-CODE-3-AP35-A             PIC X(1)
                                               VALUE SPACE.
               10  WK01-PROG-CODE-3-AP35-V             PIC X(1)
                                               VALUE SPACE.
               10  WK01-PROG-CODE-3-AP35-O             PIC X(1)
                                               VALUE SPACE.
               10  WK01-PROG-CODE-3-AP35               PIC X(06)
                                               VALUE SPACES.

               10  WK01-TRAN-AMT-3-AP35-Z              PIC X(1)
                                               VALUE SPACE.
               10  WK01-TRAN-AMT-3-AP35-F              PIC X(1)
                                               VALUE SPACE.
               10  WK01-TRAN-AMT-3-AP35-A              PIC X(1)
                                               VALUE SPACE.
               10  WK01-TRAN-AMT-3-AP35-V              PIC X(1)
                                               VALUE SPACE.
               10  WK01-TRAN-AMT-3-AP35-O              PIC X(1)
                                               VALUE SPACE.
               10  WK01-TRAN-AMT-3-AP35                PIC X(13)
                                               VALUE SPACES.

               10  WK01-D-C-IND-3-AP35-Z               PIC X(1)
                                               VALUE SPACE.
               10  WK01-D-C-IND-3-AP35-F               PIC X(1)
                                               VALUE SPACE.
               10  WK01-D-C-IND-3-AP35-A               PIC X(1)
                                               VALUE SPACE.
               10  WK01-D-C-IND-3-AP35-V               PIC X(1)
                                               VALUE SPACE.
               10  WK01-D-C-IND-3-AP35-O               PIC X(1)
                                               VALUE SPACE.
               10  WK01-D-C-IND-3-AP35                 PIC X(01)
                                               VALUE SPACES.
               10  WK01-ITEM-ACTN-CD-4-AP35-Z        PIC X(1)
                                               VALUE SPACE.
               10  WK01-ITEM-ACTN-CD-4-AP35-F        PIC X(1)
                                               VALUE SPACE.
               10  WK01-ITEM-ACTN-CD-4-AP35-A        PIC X(1)
                                               VALUE SPACE.
               10  WK01-ITEM-ACTN-CD-4-AP35-V        PIC X(1)
                                               VALUE SPACE.
               10  WK01-ITEM-ACTN-CD-4-AP35-O        PIC X(1)
                                               VALUE SPACE.
               10  WK01-ITEM-ACTN-CD-4-AP35 PIC X(01)
                                               VALUE SPACES.
               10  WK01-NMBR-4150-4-AP35-Z           PIC X(1)
                                               VALUE SPACE.
               10  WK01-NMBR-4150-4-AP35-F           PIC X(1)
                                               VALUE SPACE.
               10  WK01-NMBR-4150-4-AP35-A           PIC X(1)
                                               VALUE SPACE.
               10  WK01-NMBR-4150-4-AP35-V           PIC X(1)
                                               VALUE SPACE.
               10  WK01-NMBR-4150-4-AP35-O           PIC X(1)
                                               VALUE SPACE.
               10  WK01-NMBR-4150-4-AP35 PIC X(08)
                                               VALUE SPACES.
               10  WK01-ITEM-NMBR-4-AP35-Z                  PIC X(1)
                                               VALUE SPACE.
               10  WK01-ITEM-NMBR-4-AP35-F                  PIC X(1)
                                               VALUE SPACE.
               10  WK01-ITEM-NMBR-4-AP35-A                  PIC X(1)
                                               VALUE SPACE.
               10  WK01-ITEM-NMBR-4-AP35-V                  PIC X(1)
                                               VALUE SPACE.
               10  WK01-ITEM-NMBR-4-AP35-O                  PIC X(1)
                                               VALUE SPACE.
               10  WK01-ITEM-NMBR-4-AP35           PIC X(4)
                                               VALUE SPACES.
               10  WK01-SEQ-NMBR-4-AP35-Z           PIC X(1)
                                               VALUE SPACE.
               10  WK01-SEQ-NMBR-4-AP35-F           PIC X(1)
                                               VALUE SPACE.
               10  WK01-SEQ-NMBR-4-AP35-A           PIC X(1)
                                               VALUE SPACE.
               10  WK01-SEQ-NMBR-4-AP35-V           PIC X(1)
                                               VALUE SPACE.
               10  WK01-SEQ-NMBR-4-AP35-O           PIC X(1)
                                               VALUE SPACE.
               10  WK01-SEQ-NMBR-4-AP35    PIC X(04)
                                               VALUE SPACES.

               10  WK01-FUND-CODE-4-AP35-Z              PIC X(1)
                                               VALUE SPACE.
               10  WK01-FUND-CODE-4-AP35-F              PIC X(1)
                                               VALUE SPACE.
               10  WK01-FUND-CODE-4-AP35-A              PIC X(1)
                                               VALUE SPACE.
               10  WK01-FUND-CODE-4-AP35-V              PIC X(1)
                                               VALUE SPACE.
               10  WK01-FUND-CODE-4-AP35-O              PIC X(1)
                                               VALUE SPACE.
               10  WK01-FUND-CODE-4-AP35                PIC X(6)
                                               VALUE SPACES.

               10  WK01-ORG-CODE-4-AP35-Z               PIC X(1)
                                               VALUE SPACE.
               10  WK01-ORG-CODE-4-AP35-F               PIC X(1)
                                               VALUE SPACE.
               10  WK01-ORG-CODE-4-AP35-A               PIC X(1)
                                               VALUE SPACE.
               10  WK01-ORG-CODE-4-AP35-V               PIC X(1)
                                               VALUE SPACE.
               10  WK01-ORG-CODE-4-AP35-O               PIC X(1)
                                               VALUE SPACE.
               10  WK01-ORG-CODE-4-AP35                 PIC X(6)
                                               VALUE SPACES.

               10  WK01-ACCT-CODE-4-AP35-Z             PIC X(1)
                                               VALUE SPACE.
               10  WK01-ACCT-CODE-4-AP35-F             PIC X(1)
                                               VALUE SPACE.
               10  WK01-ACCT-CODE-4-AP35-A             PIC X(1)
                                               VALUE SPACE.
               10  WK01-ACCT-CODE-4-AP35-V             PIC X(1)
                                               VALUE SPACE.
               10  WK01-ACCT-CODE-4-AP35-O             PIC X(1)
                                               VALUE SPACE.
               10  WK01-ACCT-CODE-4-AP35               PIC X(6)
                                               VALUE SPACES.

               10  WK01-PROG-CODE-4-AP35-Z             PIC X(1)
                                               VALUE SPACE.
               10  WK01-PROG-CODE-4-AP35-F             PIC X(1)
                                               VALUE SPACE.
               10  WK01-PROG-CODE-4-AP35-A             PIC X(1)
                                               VALUE SPACE.
               10  WK01-PROG-CODE-4-AP35-V             PIC X(1)
                                               VALUE SPACE.
               10  WK01-PROG-CODE-4-AP35-O             PIC X(1)
                                               VALUE SPACE.
               10  WK01-PROG-CODE-4-AP35               PIC X(06)
                                               VALUE SPACES.

               10  WK01-TRAN-AMT-4-AP35-Z              PIC X(1)
                                               VALUE SPACE.
               10  WK01-TRAN-AMT-4-AP35-F              PIC X(1)
                                               VALUE SPACE.
               10  WK01-TRAN-AMT-4-AP35-A              PIC X(1)
                                               VALUE SPACE.
               10  WK01-TRAN-AMT-4-AP35-V              PIC X(1)
                                               VALUE SPACE.
               10  WK01-TRAN-AMT-4-AP35-O              PIC X(1)
                                               VALUE SPACE.
               10  WK01-TRAN-AMT-4-AP35                PIC X(13)
                                               VALUE SPACES.

               10  WK01-D-C-IND-4-AP35-Z               PIC X(1)
                                               VALUE SPACE.
               10  WK01-D-C-IND-4-AP35-F               PIC X(1)
                                               VALUE SPACE.
               10  WK01-D-C-IND-4-AP35-A               PIC X(1)
                                               VALUE SPACE.
               10  WK01-D-C-IND-4-AP35-V               PIC X(1)
                                               VALUE SPACE.
               10  WK01-D-C-IND-4-AP35-O               PIC X(1)
                                               VALUE SPACE.
               10  WK01-D-C-IND-4-AP35                 PIC X(01)
                                               VALUE SPACES.
               10  WK01-ITEM-ACTN-CD-5-AP35-Z        PIC X(1)
                                               VALUE SPACE.
               10  WK01-ITEM-ACTN-CD-5-AP35-F        PIC X(1)
                                               VALUE SPACE.
               10  WK01-ITEM-ACTN-CD-5-AP35-A        PIC X(1)
                                               VALUE SPACE.
               10  WK01-ITEM-ACTN-CD-5-AP35-V        PIC X(1)
                                               VALUE SPACE.
               10  WK01-ITEM-ACTN-CD-5-AP35-O        PIC X(1)
                                               VALUE SPACE.
               10  WK01-ITEM-ACTN-CD-5-AP35 PIC X(01)
                                               VALUE SPACES.
               10  WK01-NMBR-4150-5-AP35-Z           PIC X(1)
                                               VALUE SPACE.
               10  WK01-NMBR-4150-5-AP35-F           PIC X(1)
                                               VALUE SPACE.
               10  WK01-NMBR-4150-5-AP35-A           PIC X(1)
                                               VALUE SPACE.
               10  WK01-NMBR-4150-5-AP35-V           PIC X(1)
                                               VALUE SPACE.
               10  WK01-NMBR-4150-5-AP35-O           PIC X(1)
                                               VALUE SPACE.
               10  WK01-NMBR-4150-5-AP35 PIC X(08)
                                               VALUE SPACES.
               10  WK01-ITEM-NMBR-5-AP35-Z                  PIC X(1)
                                               VALUE SPACE.
               10  WK01-ITEM-NMBR-5-AP35-F                  PIC X(1)
                                               VALUE SPACE.
               10  WK01-ITEM-NMBR-5-AP35-A                  PIC X(1)
                                               VALUE SPACE.
               10  WK01-ITEM-NMBR-5-AP35-V                  PIC X(1)
                                               VALUE SPACE.
               10  WK01-ITEM-NMBR-5-AP35-O                  PIC X(1)
                                               VALUE SPACE.
               10  WK01-ITEM-NMBR-5-AP35           PIC X(4)
                                               VALUE SPACES.
               10  WK01-SEQ-NMBR-5-AP35-Z           PIC X(1)
                                               VALUE SPACE.
               10  WK01-SEQ-NMBR-5-AP35-F           PIC X(1)
                                               VALUE SPACE.
               10  WK01-SEQ-NMBR-5-AP35-A           PIC X(1)
                                               VALUE SPACE.
               10  WK01-SEQ-NMBR-5-AP35-V           PIC X(1)
                                               VALUE SPACE.
               10  WK01-SEQ-NMBR-5-AP35-O           PIC X(1)
                                               VALUE SPACE.
               10  WK01-SEQ-NMBR-5-AP35    PIC X(04)
                                               VALUE SPACES.

               10  WK01-FUND-CODE-5-AP35-Z              PIC X(1)
                                               VALUE SPACE.
               10  WK01-FUND-CODE-5-AP35-F              PIC X(1)
                                               VALUE SPACE.
               10  WK01-FUND-CODE-5-AP35-A              PIC X(1)
                                               VALUE SPACE.
               10  WK01-FUND-CODE-5-AP35-V              PIC X(1)
                                               VALUE SPACE.
               10  WK01-FUND-CODE-5-AP35-O              PIC X(1)
                                               VALUE SPACE.
               10  WK01-FUND-CODE-5-AP35                PIC X(6)
                                               VALUE SPACES.

               10  WK01-ORG-CODE-5-AP35-Z               PIC X(1)
                                               VALUE SPACE.
               10  WK01-ORG-CODE-5-AP35-F               PIC X(1)
                                               VALUE SPACE.
               10  WK01-ORG-CODE-5-AP35-A               PIC X(1)
                                               VALUE SPACE.
               10  WK01-ORG-CODE-5-AP35-V               PIC X(1)
                                               VALUE SPACE.
               10  WK01-ORG-CODE-5-AP35-O               PIC X(1)
                                               VALUE SPACE.
               10  WK01-ORG-CODE-5-AP35                 PIC X(6)
                                               VALUE SPACES.

               10  WK01-ACCT-CODE-5-AP35-Z             PIC X(1)
                                               VALUE SPACE.
               10  WK01-ACCT-CODE-5-AP35-F             PIC X(1)
                                               VALUE SPACE.
               10  WK01-ACCT-CODE-5-AP35-A             PIC X(1)
                                               VALUE SPACE.
               10  WK01-ACCT-CODE-5-AP35-V             PIC X(1)
                                               VALUE SPACE.
               10  WK01-ACCT-CODE-5-AP35-O             PIC X(1)
                                               VALUE SPACE.
               10  WK01-ACCT-CODE-5-AP35               PIC X(6)
                                               VALUE SPACES.

               10  WK01-PROG-CODE-5-AP35-Z             PIC X(1)
                                               VALUE SPACE.
               10  WK01-PROG-CODE-5-AP35-F             PIC X(1)
                                               VALUE SPACE.
               10  WK01-PROG-CODE-5-AP35-A             PIC X(1)
                                               VALUE SPACE.
               10  WK01-PROG-CODE-5-AP35-V             PIC X(1)
                                               VALUE SPACE.
               10  WK01-PROG-CODE-5-AP35-O             PIC X(1)
                                               VALUE SPACE.
               10  WK01-PROG-CODE-5-AP35               PIC X(06)
                                               VALUE SPACES.

               10  WK01-TRAN-AMT-5-AP35-Z              PIC X(1)
                                               VALUE SPACE.
               10  WK01-TRAN-AMT-5-AP35-F              PIC X(1)
                                               VALUE SPACE.
               10  WK01-TRAN-AMT-5-AP35-A              PIC X(1)
                                               VALUE SPACE.
               10  WK01-TRAN-AMT-5-AP35-V              PIC X(1)
                                               VALUE SPACE.
               10  WK01-TRAN-AMT-5-AP35-O              PIC X(1)
                                               VALUE SPACE.
               10  WK01-TRAN-AMT-5-AP35                PIC X(13)
                                               VALUE SPACES.

               10  WK01-D-C-IND-5-AP35-Z               PIC X(1)
                                               VALUE SPACE.
               10  WK01-D-C-IND-5-AP35-F               PIC X(1)
                                               VALUE SPACE.
               10  WK01-D-C-IND-5-AP35-A               PIC X(1)
                                               VALUE SPACE.
               10  WK01-D-C-IND-5-AP35-V               PIC X(1)
                                               VALUE SPACE.
               10  WK01-D-C-IND-5-AP35-O               PIC X(1)
                                               VALUE SPACE.
               10  WK01-D-C-IND-5-AP35                 PIC X(01)
                                               VALUE SPACES.

               10  WK01-TEXT-IND-AP35-Z              PIC X(1)
                                               VALUE SPACE.
               10  WK01-TEXT-IND-AP35-F              PIC X(1)
                                               VALUE SPACE.
               10  WK01-TEXT-IND-AP35-A              PIC X(1)
                                               VALUE SPACE.
               10  WK01-TEXT-IND-AP35-V              PIC X(1)
                                               VALUE SPACE.
               10  WK01-TEXT-IND-AP35-O              PIC X(1)
                                               VALUE SPACE.
               10  WK01-TEXT-IND-AP35       PIC X(1)
                                               VALUE SPACES.
               10  WK01-IND-4150-AP0A-Z              PIC X(1)
                                               VALUE SPACE.
               10  WK01-IND-4150-AP0A-F              PIC X(1)
                                               VALUE SPACE.
               10  WK01-IND-4150-AP0A-A              PIC X(1)
                                               VALUE SPACE.
               10  WK01-IND-4150-AP0A-V              PIC X(1)
                                               VALUE SPACE.
               10  WK01-IND-4150-AP0A-O              PIC X(1)
                                               VALUE SPACE.
               10  WK01-IND-4150-AP0A       PIC X(1)
                                               VALUE SPACES.
               10  WK01-IND-4150-AP0B-Z              PIC X(1)
                                               VALUE SPACE.
               10  WK01-IND-4150-AP0B-F              PIC X(1)
                                               VALUE SPACE.
               10  WK01-IND-4150-AP0B-A              PIC X(1)
                                               VALUE SPACE.
               10  WK01-IND-4150-AP0B-V              PIC X(1)
                                               VALUE SPACE.
               10  WK01-IND-4150-AP0B-O              PIC X(1)
                                               VALUE SPACE.
               10  WK01-IND-4150-AP0B       PIC X(1)
                                               VALUE SPACES.
               10  WK01-ZZMESSAGE-Z              PIC X(1)
                                               VALUE SPACE.
               10  WK01-ZZMESSAGE-F              PIC X(1)
                                               VALUE SPACE.
               10  WK01-ZZMESSAGE-A              PIC X(1)
                                               VALUE SPACE.
               10  WK01-ZZMESSAGE-V              PIC X(1)
                                               VALUE SPACE.
               10  WK01-ZZMESSAGE-O              PIC X(1)
                                               VALUE SPACE.
               10  WK01-ZZMESSAGE       PIC X(160)
                                               VALUE SPACES.
               10  WK01-PASSED-ONE-Z              PIC X(1)
                                               VALUE SPACE.
               10  WK01-PASSED-ONE-F              PIC X(1)
                                               VALUE SPACE.
               10  WK01-PASSED-ONE-A              PIC X(1)
                                               VALUE SPACE.
               10  WK01-PASSED-ONE-V              PIC X(1)
                                               VALUE SPACE.
               10  WK01-PASSED-ONE-O              PIC X(1)
                                               VALUE SPACE.
               10  WK01-PASSED-ONE       PIC X(32)
                                               VALUE SPACES.
               10  WK01-MAP-RESPONSE-Z              PIC X(1)
                                               VALUE SPACE.
               10  WK01-MAP-RESPONSE-F              PIC X(1)
                                               VALUE SPACE.
               10  WK01-MAP-RESPONSE-A              PIC X(1)
                                               VALUE SPACE.
               10  WK01-MAP-RESPONSE-V              PIC X(1)
                                               VALUE SPACE.
               10  WK01-MAP-RESPONSE-O              PIC X(1)
                                               VALUE SPACE.
               10  WK01-MAP-RESPONSE       PIC X(8)
                                               VALUE SPACES.
               10  WK01-TEXT-SY00-Z              PIC X(1)
                                               VALUE SPACE.
               10  WK01-TEXT-SY00-F              PIC X(1)
                                               VALUE SPACE.
               10  WK01-TEXT-SY00-A              PIC X(1)
                                               VALUE SPACE.
               10  WK01-TEXT-SY00-V              PIC X(1)
                                               VALUE SPACE.
               10  WK01-TEXT-SY00-O              PIC X(1)
                                               VALUE SPACE.
               10  WK01-TEXT-SY00       PIC X(14)
                                               VALUE SPACES.
           04  WK01-SUBSCRIPTED-WORK-AREA.
               05  FILLER                      PIC X(1).
               05  WK01-ITEM-ACTN-AP35-F       PIC X(1)
                                               OCCURS 5.
               05  WK01-DCMT-NMBR-AP35-F       PIC X(8)
                                               OCCURS 5.
               05  WK01-ITEM-NMBR-AP35-F       PIC X(4)
                                               OCCURS 5.
               05  WK01-SEQ-NMBR-AP35-F        PIC X(4)
                                               OCCURS 5.
               05  WK01-FUND-CODE-AP35-F       PIC X(06)
                                               OCCURS 5.
               05  WK01-ORG-CODE-AP35-F        PIC X(06)
                                               OCCURS 5.
               05  WK01-ACCT-CODE-AP35-F      PIC X(06)
                                               OCCURS 5.
               05  WK01-PROG-CODE-AP35-F      PIC X(06)
                                               OCCURS 5.
               05  WK01-TRAN-AMT-AP35-F       PIC X(12)
                                               OCCURS 5.
               05  WK01-DEBIT-IN-AP35-F       PIC X(01)
                                               OCCURS 5.
