       01  MAP-CONTROL.

    ***Created by Convert/DC version V8R03 on 12/05/00 at 11:00***

           02  FAPMU16-MAP-CONTROL.
           03  FAPMU16T.
           04  WK01-DCXMAPL-PARMS.
               10  WK01-MAPNAME                  PIC X(8)
                                                 VALUE 'FAPMU16I'.
               10  WK01-IKE-LENGTH               PIC S9(8)  COMP
                                                 VALUE 22858.
               10  WK01-TINA-LENGTH              PIC S9(4)  COMP
                                                 VALUE 1443.
           05  WK01-ATTRIBUTES                   PIC X(60)
                                                 VALUE SPACE.
           05  WK01-ATTRIBUTES-ERROR             PIC X(60) VALUE
               'U  BIF'.
           05  WK01-CURSOR-DFLD                  PIC X(36)
                                                 VALUE SPACES.
           05  WK01-CURSOR-DFLD-QUAL             PIC X(30)
                                                 VALUE SPACES.
           05  WK01-ROW                          PIC S9(4) COMP
                                                 VALUE ZERO.
           05  WK01-COLUMN                       PIC S9(4) COMP
                                                 VALUE ZERO.
           05  WK01-ERROR-MSG                    PIC X(80)
                                                 VALUE SPACES.
           05  WK01-MAP-DATA-LEN                 PIC S9(6)
                                                 VALUE ZERO.
           05  WK01-1ST-FLAG                     PIC X(1)
                                                 VALUE 'Y'.
           05  WK01-FLAG-OUTPUT-DATA             PIC X(1)
                                                 VALUE 'Y'.
      *    05  WK01-STATUS-RETURN-FLAG           PIC X(1)
      *                                          VALUE SPACES.
           05  WK01-ALL-BUT-FLAG                 PIC X(1)
                                                 VALUE SPACES.
           05  WK01-FLAG-ALL-FIELDS-CHANGED      PIC X(1)  VALUE 'Y'.
           05  WK01-FLAG-ANY-FIELDS-CHANGED      PIC X(1)  VALUE 'N'.
           05  WK01-FLAG-ALL-FIELDS-ERROR        PIC X(1)  VALUE 'Y'.
           05  WK01-FLAG-ANY-FIELDS-ERROR        PIC X(1)  VALUE 'N'.
           05  WK01-FLAG-ALL-FIELDS-ERASE        PIC X(1)  VALUE 'Y'.
           05  WK01-FLAG-ANY-FIELDS-ERASE        PIC X(1)  VALUE 'Y'.

           05  WK01-VARDATA                      PIC X(11880)
                                                 VALUE SPACES.
           05  FILLER                            PIC X(100)
                                                 VALUE SPACES.
           04  WK01-ELEMENT-AREA.

               10  WK01-ID-SY00-Z              PIC X(1)
                                               VALUE SPACE.
               10  WK01-ID-SY00-F              PIC X(1)
                                               VALUE SPACE.
               10  WK01-ID-SY00-A              PIC X(1)
                                               VALUE SPACE.
               10  WK01-ID-SY00-V              PIC X(1)
                                               VALUE SPACE.
               10  WK01-ID-SY00-O              PIC X(1)
                                               VALUE SPACE.
               10  WK01-ID-SY00       PIC X(8)
                                               VALUE SPACES.
               10  WK01-NAME-6001-SY00-Z              PIC X(1)
                                               VALUE SPACE.
               10  WK01-NAME-6001-SY00-F              PIC X(1)
                                               VALUE SPACE.
               10  WK01-NAME-6001-SY00-A              PIC X(1)
                                               VALUE SPACE.
               10  WK01-NAME-6001-SY00-V              PIC X(1)
                                               VALUE SPACE.
               10  WK01-NAME-6001-SY00-O              PIC X(1)
                                               VALUE SPACE.
               10  WK01-NAME-6001-SY00       PIC X(35)
                                               VALUE SPACES.
               10  WK01-DATE-Z              PIC X(1)
                                               VALUE SPACE.
               10  WK01-DATE-F              PIC X(1)
                                               VALUE SPACE.
               10  WK01-DATE-A              PIC X(1)
                                               VALUE SPACE.
               10  WK01-DATE-V              PIC X(1)
                                               VALUE SPACE.
               10  WK01-DATE-O              PIC X(1)
                                               VALUE SPACE.
               10  WK01-DATE       PIC X(8)
                                               VALUE SPACES.
               10  WK01-HH-MM-TIME-SY00-Z              PIC X(1)
                                               VALUE SPACE.
               10  WK01-HH-MM-TIME-SY00-F              PIC X(1)
                                               VALUE SPACE.
               10  WK01-HH-MM-TIME-SY00-A              PIC X(1)
                                               VALUE SPACE.
               10  WK01-HH-MM-TIME-SY00-V              PIC X(1)
                                               VALUE SPACE.
               10  WK01-HH-MM-TIME-SY00-O              PIC X(1)
                                               VALUE SPACE.
               10  WK01-HH-MM-TIME-SY00       PIC X(4)
                                               VALUE SPACES.
               10  WK01-PM-FLAG-SY00-Z              PIC X(1)
                                               VALUE SPACE.
               10  WK01-PM-FLAG-SY00-F              PIC X(1)
                                               VALUE SPACE.
               10  WK01-PM-FLAG-SY00-A              PIC X(1)
                                               VALUE SPACE.
               10  WK01-PM-FLAG-SY00-V              PIC X(1)
                                               VALUE SPACE.
               10  WK01-PM-FLAG-SY00-O              PIC X(1)
                                               VALUE SPACE.
               10  WK01-PM-FLAG-SY00       PIC X(1)
                                               VALUE SPACES.
               10  WK01-USER-ID-Z              PIC X(1)
                                               VALUE SPACE.
               10  WK01-USER-ID-F              PIC X(1)
                                               VALUE SPACE.
               10  WK01-USER-ID-A              PIC X(1)
                                               VALUE SPACE.
               10  WK01-USER-ID-V              PIC X(1)
                                               VALUE SPACE.
               10  WK01-USER-ID-O              PIC X(1)
                                               VALUE SPACE.
               10  WK01-USER-ID       PIC X(32)
                                               VALUE SPACES.
               10  WK01-RSPNS-ID-SY00-Z              PIC X(1)
                                               VALUE SPACE.
               10  WK01-RSPNS-ID-SY00-F              PIC X(1)
                                               VALUE SPACE.
               10  WK01-RSPNS-ID-SY00-A              PIC X(1)
                                               VALUE SPACE.
               10  WK01-RSPNS-ID-SY00-V              PIC X(1)
                                               VALUE SPACE.
               10  WK01-RSPNS-ID-SY00-O              PIC X(1)
                                               VALUE SPACE.
               10  WK01-RSPNS-ID-SY00       PIC X(8)
                                               VALUE SPACES.
               10  WK01-FUNC-DESCRIPTION-Z              PIC X(1)
                                               VALUE SPACE.
               10  WK01-FUNC-DESCRIPTION-F              PIC X(1)
                                               VALUE SPACE.
               10  WK01-FUNC-DESCRIPTION-A              PIC X(1)
                                               VALUE SPACE.
               10  WK01-FUNC-DESCRIPTION-V              PIC X(1)
                                               VALUE SPACE.
               10  WK01-FUNC-DESCRIPTION-O              PIC X(1)
                                               VALUE SPACE.
               10  WK01-FUNC-DESCRIPTION       PIC X(28)
                                               VALUE SPACES.
               10  WK01-STATUS-CODE-SY00-Z              PIC X(1)
                                               VALUE SPACE.
               10  WK01-STATUS-CODE-SY00-F              PIC X(1)
                                               VALUE SPACE.
               10  WK01-STATUS-CODE-SY00-A              PIC X(1)
                                               VALUE SPACE.
               10  WK01-STATUS-CODE-SY00-V              PIC X(1)
                                               VALUE SPACE.
               10  WK01-STATUS-CODE-SY00-O              PIC X(1)
                                               VALUE SPACE.
               10  WK01-STATUS-CODE-SY00       PIC X(1)
                                               VALUE SPACES.
               10  WK01-CODE-AP161-Z              PIC X(1)
                                               VALUE SPACE.
               10  WK01-CODE-AP161-F              PIC X(1)
                                               VALUE SPACE.
               10  WK01-CODE-AP161-A              PIC X(1)
                                               VALUE SPACE.
               10  WK01-CODE-AP161-V              PIC X(1)
                                               VALUE SPACE.
               10  WK01-CODE-AP161-O              PIC X(1)
                                               VALUE SPACE.
               10  WK01-CODE-AP161       PIC X(1)
                                               VALUE SPACES.
               10  WK01-TYPE-CODE-4166-AP161-Z              PIC X(1)
                                               VALUE SPACE.
               10  WK01-TYPE-CODE-4166-AP161-F              PIC X(1)
                                               VALUE SPACE.
               10  WK01-TYPE-CODE-4166-AP161-A              PIC X(1)
                                               VALUE SPACE.
               10  WK01-TYPE-CODE-4166-AP161-V              PIC X(1)
                                               VALUE SPACE.
               10  WK01-TYPE-CODE-4166-AP161-O              PIC X(1)
                                               VALUE SPACE.
               10  WK01-TYPE-CODE-4166-AP161       PIC X(2)
                                               VALUE SPACES.
               10  WK01-TYPE-DESC-4166-AP161-Z              PIC X(1)
                                               VALUE SPACE.
               10  WK01-TYPE-DESC-4166-AP161-F              PIC X(1)
                                               VALUE SPACE.
               10  WK01-TYPE-DESC-4166-AP161-A              PIC X(1)
                                               VALUE SPACE.
               10  WK01-TYPE-DESC-4166-AP161-V              PIC X(1)
                                               VALUE SPACE.
               10  WK01-TYPE-DESC-4166-AP161-O              PIC X(1)
                                               VALUE SPACE.
               10  WK01-TYPE-DESC-4166-AP161       PIC X(35)
                                               VALUE SPACES.
               10  WK01-DATE-4166-AP161-Z              PIC X(1)
                                               VALUE SPACE.
               10  WK01-DATE-4166-AP161-F              PIC X(1)
                                               VALUE SPACE.
               10  WK01-DATE-4166-AP161-A              PIC X(1)
                                               VALUE SPACE.
               10  WK01-DATE-4166-AP161-V              PIC X(1)
                                               VALUE SPACE.
               10  WK01-DATE-4166-AP161-O              PIC X(1)
                                               VALUE SPACE.
               10  WK01-DATE-4166-AP161       PIC X(6)
                                               VALUE SPACES.
               10  WK01-DATE-4166-AP1A1-Z              PIC X(1)
                                               VALUE SPACE.
               10  WK01-DATE-4166-AP1A1-F              PIC X(1)
                                               VALUE SPACE.
               10  WK01-DATE-4166-AP1A1-A              PIC X(1)
                                               VALUE SPACE.
               10  WK01-DATE-4166-AP1A1-V              PIC X(1)
                                               VALUE SPACE.
               10  WK01-DATE-4166-AP1A1-O              PIC X(1)
                                               VALUE SPACE.
               10  WK01-DATE-4166-AP1A1       PIC X(6)
                                               VALUE SPACES.
               10  WK01-DATE-4166-AP1B1-Z              PIC X(1)
                                               VALUE SPACE.
               10  WK01-DATE-4166-AP1B1-F              PIC X(1)
                                               VALUE SPACE.
               10  WK01-DATE-4166-AP1B1-A              PIC X(1)
                                               VALUE SPACE.
               10  WK01-DATE-4166-AP1B1-V              PIC X(1)
                                               VALUE SPACE.
               10  WK01-DATE-4166-AP1B1-O              PIC X(1)
                                               VALUE SPACE.
               10  WK01-DATE-4166-AP1B1       PIC X(6)
                                               VALUE SPACES.
               10  WK01-CODE-AP162-Z              PIC X(1)
                                               VALUE SPACE.
               10  WK01-CODE-AP162-F              PIC X(1)
                                               VALUE SPACE.
               10  WK01-CODE-AP162-A              PIC X(1)
                                               VALUE SPACE.
               10  WK01-CODE-AP162-V              PIC X(1)
                                               VALUE SPACE.
               10  WK01-CODE-AP162-O              PIC X(1)
                                               VALUE SPACE.
               10  WK01-CODE-AP162       PIC X(1)
                                               VALUE SPACES.
               10  WK01-TYPE-CODE-4166-AP162-Z              PIC X(1)
                                               VALUE SPACE.
               10  WK01-TYPE-CODE-4166-AP162-F              PIC X(1)
                                               VALUE SPACE.
               10  WK01-TYPE-CODE-4166-AP162-A              PIC X(1)
                                               VALUE SPACE.
               10  WK01-TYPE-CODE-4166-AP162-V              PIC X(1)
                                               VALUE SPACE.
               10  WK01-TYPE-CODE-4166-AP162-O              PIC X(1)
                                               VALUE SPACE.
               10  WK01-TYPE-CODE-4166-AP162       PIC X(2)
                                               VALUE SPACES.
               10  WK01-TYPE-DESC-4166-AP162-Z              PIC X(1)
                                               VALUE SPACE.
               10  WK01-TYPE-DESC-4166-AP162-F              PIC X(1)
                                               VALUE SPACE.
               10  WK01-TYPE-DESC-4166-AP162-A              PIC X(1)
                                               VALUE SPACE.
               10  WK01-TYPE-DESC-4166-AP162-V              PIC X(1)
                                               VALUE SPACE.
               10  WK01-TYPE-DESC-4166-AP162-O              PIC X(1)
                                               VALUE SPACE.
               10  WK01-TYPE-DESC-4166-AP162       PIC X(35)
                                               VALUE SPACES.
               10  WK01-DATE-4166-AP162-Z              PIC X(1)
                                               VALUE SPACE.
               10  WK01-DATE-4166-AP162-F              PIC X(1)
                                               VALUE SPACE.
               10  WK01-DATE-4166-AP162-A              PIC X(1)
                                               VALUE SPACE.
               10  WK01-DATE-4166-AP162-V              PIC X(1)
                                               VALUE SPACE.
               10  WK01-DATE-4166-AP162-O              PIC X(1)
                                               VALUE SPACE.
               10  WK01-DATE-4166-AP162       PIC X(6)
                                               VALUE SPACES.
               10  WK01-DATE-4166-AP1A2-Z              PIC X(1)
                                               VALUE SPACE.
               10  WK01-DATE-4166-AP1A2-F              PIC X(1)
                                               VALUE SPACE.
               10  WK01-DATE-4166-AP1A2-A              PIC X(1)
                                               VALUE SPACE.
               10  WK01-DATE-4166-AP1A2-V              PIC X(1)
                                               VALUE SPACE.
               10  WK01-DATE-4166-AP1A2-O              PIC X(1)
                                               VALUE SPACE.
               10  WK01-DATE-4166-AP1A2       PIC X(6)
                                               VALUE SPACES.
               10  WK01-DATE-4166-AP1B2-Z              PIC X(1)
                                               VALUE SPACE.
               10  WK01-DATE-4166-AP1B2-F              PIC X(1)
                                               VALUE SPACE.
               10  WK01-DATE-4166-AP1B2-A              PIC X(1)
                                               VALUE SPACE.
               10  WK01-DATE-4166-AP1B2-V              PIC X(1)
                                               VALUE SPACE.
               10  WK01-DATE-4166-AP1B2-O              PIC X(1)
                                               VALUE SPACE.
               10  WK01-DATE-4166-AP1B2       PIC X(6)
                                               VALUE SPACES.
               10  WK01-CODE-AP163-Z              PIC X(1)
                                               VALUE SPACE.
               10  WK01-CODE-AP163-F              PIC X(1)
                                               VALUE SPACE.
               10  WK01-CODE-AP163-A              PIC X(1)
                                               VALUE SPACE.
               10  WK01-CODE-AP163-V              PIC X(1)
                                               VALUE SPACE.
               10  WK01-CODE-AP163-O              PIC X(1)
                                               VALUE SPACE.
               10  WK01-CODE-AP163       PIC X(1)
                                               VALUE SPACES.
               10  WK01-TYPE-CODE-4166-AP163-Z              PIC X(1)
                                               VALUE SPACE.
               10  WK01-TYPE-CODE-4166-AP163-F              PIC X(1)
                                               VALUE SPACE.
               10  WK01-TYPE-CODE-4166-AP163-A              PIC X(1)
                                               VALUE SPACE.
               10  WK01-TYPE-CODE-4166-AP163-V              PIC X(1)
                                               VALUE SPACE.
               10  WK01-TYPE-CODE-4166-AP163-O              PIC X(1)
                                               VALUE SPACE.
               10  WK01-TYPE-CODE-4166-AP163       PIC X(2)
                                               VALUE SPACES.
               10  WK01-TYPE-DESC-4166-AP163-Z              PIC X(1)
                                               VALUE SPACE.
               10  WK01-TYPE-DESC-4166-AP163-F              PIC X(1)
                                               VALUE SPACE.
               10  WK01-TYPE-DESC-4166-AP163-A              PIC X(1)
                                               VALUE SPACE.
               10  WK01-TYPE-DESC-4166-AP163-V              PIC X(1)
                                               VALUE SPACE.
               10  WK01-TYPE-DESC-4166-AP163-O              PIC X(1)
                                               VALUE SPACE.
               10  WK01-TYPE-DESC-4166-AP163       PIC X(35)
                                               VALUE SPACES.
               10  WK01-DATE-4166-AP163-Z              PIC X(1)
                                               VALUE SPACE.
               10  WK01-DATE-4166-AP163-F              PIC X(1)
                                               VALUE SPACE.
               10  WK01-DATE-4166-AP163-A              PIC X(1)
                                               VALUE SPACE.
               10  WK01-DATE-4166-AP163-V              PIC X(1)
                                               VALUE SPACE.
               10  WK01-DATE-4166-AP163-O              PIC X(1)
                                               VALUE SPACE.
               10  WK01-DATE-4166-AP163       PIC X(6)
                                               VALUE SPACES.
               10  WK01-DATE-4166-AP1A3-Z              PIC X(1)
                                               VALUE SPACE.
               10  WK01-DATE-4166-AP1A3-F              PIC X(1)
                                               VALUE SPACE.
               10  WK01-DATE-4166-AP1A3-A              PIC X(1)
                                               VALUE SPACE.
               10  WK01-DATE-4166-AP1A3-V              PIC X(1)
                                               VALUE SPACE.
               10  WK01-DATE-4166-AP1A3-O              PIC X(1)
                                               VALUE SPACE.
               10  WK01-DATE-4166-AP1A3       PIC X(6)
                                               VALUE SPACES.
               10  WK01-DATE-4166-AP1B3-Z              PIC X(1)
                                               VALUE SPACE.
               10  WK01-DATE-4166-AP1B3-F              PIC X(1)
                                               VALUE SPACE.
               10  WK01-DATE-4166-AP1B3-A              PIC X(1)
                                               VALUE SPACE.
               10  WK01-DATE-4166-AP1B3-V              PIC X(1)
                                               VALUE SPACE.
               10  WK01-DATE-4166-AP1B3-O              PIC X(1)
                                               VALUE SPACE.
               10  WK01-DATE-4166-AP1B3       PIC X(6)
                                               VALUE SPACES.
               10  WK01-CODE-AP164-Z              PIC X(1)
                                               VALUE SPACE.
               10  WK01-CODE-AP164-F              PIC X(1)
                                               VALUE SPACE.
               10  WK01-CODE-AP164-A              PIC X(1)
                                               VALUE SPACE.
               10  WK01-CODE-AP164-V              PIC X(1)
                                               VALUE SPACE.
               10  WK01-CODE-AP164-O              PIC X(1)
                                               VALUE SPACE.
               10  WK01-CODE-AP164       PIC X(1)
                                               VALUE SPACES.
               10  WK01-TYPE-CODE-4166-AP164-Z              PIC X(1)
                                               VALUE SPACE.
               10  WK01-TYPE-CODE-4166-AP164-F              PIC X(1)
                                               VALUE SPACE.
               10  WK01-TYPE-CODE-4166-AP164-A              PIC X(1)
                                               VALUE SPACE.
               10  WK01-TYPE-CODE-4166-AP164-V              PIC X(1)
                                               VALUE SPACE.
               10  WK01-TYPE-CODE-4166-AP164-O              PIC X(1)
                                               VALUE SPACE.
               10  WK01-TYPE-CODE-4166-AP164       PIC X(2)
                                               VALUE SPACES.
               10  WK01-TYPE-DESC-4166-AP164-Z              PIC X(1)
                                               VALUE SPACE.
               10  WK01-TYPE-DESC-4166-AP164-F              PIC X(1)
                                               VALUE SPACE.
               10  WK01-TYPE-DESC-4166-AP164-A              PIC X(1)
                                               VALUE SPACE.
               10  WK01-TYPE-DESC-4166-AP164-V              PIC X(1)
                                               VALUE SPACE.
               10  WK01-TYPE-DESC-4166-AP164-O              PIC X(1)
                                               VALUE SPACE.
               10  WK01-TYPE-DESC-4166-AP164       PIC X(35)
                                               VALUE SPACES.
               10  WK01-DATE-4166-AP164-Z              PIC X(1)
                                               VALUE SPACE.
               10  WK01-DATE-4166-AP164-F              PIC X(1)
                                               VALUE SPACE.
               10  WK01-DATE-4166-AP164-A              PIC X(1)
                                               VALUE SPACE.
               10  WK01-DATE-4166-AP164-V              PIC X(1)
                                               VALUE SPACE.
               10  WK01-DATE-4166-AP164-O              PIC X(1)
                                               VALUE SPACE.
               10  WK01-DATE-4166-AP164       PIC X(6)
                                               VALUE SPACES.
               10  WK01-DATE-4166-AP1A4-Z              PIC X(1)
                                               VALUE SPACE.
               10  WK01-DATE-4166-AP1A4-F              PIC X(1)
                                               VALUE SPACE.
               10  WK01-DATE-4166-AP1A4-A              PIC X(1)
                                               VALUE SPACE.
               10  WK01-DATE-4166-AP1A4-V              PIC X(1)
                                               VALUE SPACE.
               10  WK01-DATE-4166-AP1A4-O              PIC X(1)
                                               VALUE SPACE.
               10  WK01-DATE-4166-AP1A4       PIC X(6)
                                               VALUE SPACES.
               10  WK01-DATE-4166-AP1B4-Z              PIC X(1)
                                               VALUE SPACE.
               10  WK01-DATE-4166-AP1B4-F              PIC X(1)
                                               VALUE SPACE.
               10  WK01-DATE-4166-AP1B4-A              PIC X(1)
                                               VALUE SPACE.
               10  WK01-DATE-4166-AP1B4-V              PIC X(1)
                                               VALUE SPACE.
               10  WK01-DATE-4166-AP1B4-O              PIC X(1)
                                               VALUE SPACE.
               10  WK01-DATE-4166-AP1B4       PIC X(6)
                                               VALUE SPACES.
               10  WK01-CODE-AP165-Z              PIC X(1)
                                               VALUE SPACE.
               10  WK01-CODE-AP165-F              PIC X(1)
                                               VALUE SPACE.
               10  WK01-CODE-AP165-A              PIC X(1)
                                               VALUE SPACE.
               10  WK01-CODE-AP165-V              PIC X(1)
                                               VALUE SPACE.
               10  WK01-CODE-AP165-O              PIC X(1)
                                               VALUE SPACE.
               10  WK01-CODE-AP165       PIC X(1)
                                               VALUE SPACES.
               10  WK01-TYPE-CODE-4166-AP165-Z              PIC X(1)
                                               VALUE SPACE.
               10  WK01-TYPE-CODE-4166-AP165-F              PIC X(1)
                                               VALUE SPACE.
               10  WK01-TYPE-CODE-4166-AP165-A              PIC X(1)
                                               VALUE SPACE.
               10  WK01-TYPE-CODE-4166-AP165-V              PIC X(1)
                                               VALUE SPACE.
               10  WK01-TYPE-CODE-4166-AP165-O              PIC X(1)
                                               VALUE SPACE.
               10  WK01-TYPE-CODE-4166-AP165       PIC X(2)
                                               VALUE SPACES.
               10  WK01-TYPE-DESC-4166-AP165-Z              PIC X(1)
                                               VALUE SPACE.
               10  WK01-TYPE-DESC-4166-AP165-F              PIC X(1)
                                               VALUE SPACE.
               10  WK01-TYPE-DESC-4166-AP165-A              PIC X(1)
                                               VALUE SPACE.
               10  WK01-TYPE-DESC-4166-AP165-V              PIC X(1)
                                               VALUE SPACE.
               10  WK01-TYPE-DESC-4166-AP165-O              PIC X(1)
                                               VALUE SPACE.
               10  WK01-TYPE-DESC-4166-AP165       PIC X(35)
                                               VALUE SPACES.
               10  WK01-DATE-4166-AP165-Z              PIC X(1)
                                               VALUE SPACE.
               10  WK01-DATE-4166-AP165-F              PIC X(1)
                                               VALUE SPACE.
               10  WK01-DATE-4166-AP165-A              PIC X(1)
                                               VALUE SPACE.
               10  WK01-DATE-4166-AP165-V              PIC X(1)
                                               VALUE SPACE.
               10  WK01-DATE-4166-AP165-O              PIC X(1)
                                               VALUE SPACE.
               10  WK01-DATE-4166-AP165       PIC X(6)
                                               VALUE SPACES.
               10  WK01-DATE-4166-AP1A5-Z              PIC X(1)
                                               VALUE SPACE.
               10  WK01-DATE-4166-AP1A5-F              PIC X(1)
                                               VALUE SPACE.
               10  WK01-DATE-4166-AP1A5-A              PIC X(1)
                                               VALUE SPACE.
               10  WK01-DATE-4166-AP1A5-V              PIC X(1)
                                               VALUE SPACE.
               10  WK01-DATE-4166-AP1A5-O              PIC X(1)
                                               VALUE SPACE.
               10  WK01-DATE-4166-AP1A5       PIC X(6)
                                               VALUE SPACES.
               10  WK01-DATE-4166-AP1B5-Z              PIC X(1)
                                               VALUE SPACE.
               10  WK01-DATE-4166-AP1B5-F              PIC X(1)
                                               VALUE SPACE.
               10  WK01-DATE-4166-AP1B5-A              PIC X(1)
                                               VALUE SPACE.
               10  WK01-DATE-4166-AP1B5-V              PIC X(1)
                                               VALUE SPACE.
               10  WK01-DATE-4166-AP1B5-O              PIC X(1)
                                               VALUE SPACE.
               10  WK01-DATE-4166-AP1B5       PIC X(6)
                                               VALUE SPACES.
               10  WK01-CODE-AP166-Z              PIC X(1)
                                               VALUE SPACE.
               10  WK01-CODE-AP166-F              PIC X(1)
                                               VALUE SPACE.
               10  WK01-CODE-AP166-A              PIC X(1)
                                               VALUE SPACE.
               10  WK01-CODE-AP166-V              PIC X(1)
                                               VALUE SPACE.
               10  WK01-CODE-AP166-O              PIC X(1)
                                               VALUE SPACE.
               10  WK01-CODE-AP166       PIC X(1)
                                               VALUE SPACES.
               10  WK01-TYPE-CODE-4166-AP166-Z              PIC X(1)
                                               VALUE SPACE.
               10  WK01-TYPE-CODE-4166-AP166-F              PIC X(1)
                                               VALUE SPACE.
               10  WK01-TYPE-CODE-4166-AP166-A              PIC X(1)
                                               VALUE SPACE.
               10  WK01-TYPE-CODE-4166-AP166-V              PIC X(1)
                                               VALUE SPACE.
               10  WK01-TYPE-CODE-4166-AP166-O              PIC X(1)
                                               VALUE SPACE.
               10  WK01-TYPE-CODE-4166-AP166       PIC X(2)
                                               VALUE SPACES.
               10  WK01-TYPE-DESC-4166-AP166-Z              PIC X(1)
                                               VALUE SPACE.
               10  WK01-TYPE-DESC-4166-AP166-F              PIC X(1)
                                               VALUE SPACE.
               10  WK01-TYPE-DESC-4166-AP166-A              PIC X(1)
                                               VALUE SPACE.
               10  WK01-TYPE-DESC-4166-AP166-V              PIC X(1)
                                               VALUE SPACE.
               10  WK01-TYPE-DESC-4166-AP166-O              PIC X(1)
                                               VALUE SPACE.
               10  WK01-TYPE-DESC-4166-AP166       PIC X(35)
                                               VALUE SPACES.
               10  WK01-DATE-4166-AP166-Z              PIC X(1)
                                               VALUE SPACE.
               10  WK01-DATE-4166-AP166-F              PIC X(1)
                                               VALUE SPACE.
               10  WK01-DATE-4166-AP166-A              PIC X(1)
                                               VALUE SPACE.
               10  WK01-DATE-4166-AP166-V              PIC X(1)
                                               VALUE SPACE.
               10  WK01-DATE-4166-AP166-O              PIC X(1)
                                               VALUE SPACE.
               10  WK01-DATE-4166-AP166       PIC X(6)
                                               VALUE SPACES.
               10  WK01-DATE-4166-AP1A6-Z              PIC X(1)
                                               VALUE SPACE.
               10  WK01-DATE-4166-AP1A6-F              PIC X(1)
                                               VALUE SPACE.
               10  WK01-DATE-4166-AP1A6-A              PIC X(1)
                                               VALUE SPACE.
               10  WK01-DATE-4166-AP1A6-V              PIC X(1)
                                               VALUE SPACE.
               10  WK01-DATE-4166-AP1A6-O              PIC X(1)
                                               VALUE SPACE.
               10  WK01-DATE-4166-AP1A6       PIC X(6)
                                               VALUE SPACES.
               10  WK01-DATE-4166-AP1B6-Z              PIC X(1)
                                               VALUE SPACE.
               10  WK01-DATE-4166-AP1B6-F              PIC X(1)
                                               VALUE SPACE.
               10  WK01-DATE-4166-AP1B6-A              PIC X(1)
                                               VALUE SPACE.
               10  WK01-DATE-4166-AP1B6-V              PIC X(1)
                                               VALUE SPACE.
               10  WK01-DATE-4166-AP1B6-O              PIC X(1)
                                               VALUE SPACE.
               10  WK01-DATE-4166-AP1B6       PIC X(6)
                                               VALUE SPACES.
               10  WK01-CODE-AP167-Z              PIC X(1)
                                               VALUE SPACE.
               10  WK01-CODE-AP167-F              PIC X(1)
                                               VALUE SPACE.
               10  WK01-CODE-AP167-A              PIC X(1)
                                               VALUE SPACE.
               10  WK01-CODE-AP167-V              PIC X(1)
                                               VALUE SPACE.
               10  WK01-CODE-AP167-O              PIC X(1)
                                               VALUE SPACE.
               10  WK01-CODE-AP167       PIC X(1)
                                               VALUE SPACES.
               10  WK01-TYPE-CODE-4166-AP167-Z              PIC X(1)
                                               VALUE SPACE.
               10  WK01-TYPE-CODE-4166-AP167-F              PIC X(1)
                                               VALUE SPACE.
               10  WK01-TYPE-CODE-4166-AP167-A              PIC X(1)
                                               VALUE SPACE.
               10  WK01-TYPE-CODE-4166-AP167-V              PIC X(1)
                                               VALUE SPACE.
               10  WK01-TYPE-CODE-4166-AP167-O              PIC X(1)
                                               VALUE SPACE.
               10  WK01-TYPE-CODE-4166-AP167       PIC X(2)
                                               VALUE SPACES.
               10  WK01-TYPE-DESC-4166-AP167-Z              PIC X(1)
                                               VALUE SPACE.
               10  WK01-TYPE-DESC-4166-AP167-F              PIC X(1)
                                               VALUE SPACE.
               10  WK01-TYPE-DESC-4166-AP167-A              PIC X(1)
                                               VALUE SPACE.
               10  WK01-TYPE-DESC-4166-AP167-V              PIC X(1)
                                               VALUE SPACE.
               10  WK01-TYPE-DESC-4166-AP167-O              PIC X(1)
                                               VALUE SPACE.
               10  WK01-TYPE-DESC-4166-AP167       PIC X(35)
                                               VALUE SPACES.
               10  WK01-DATE-4166-AP167-Z              PIC X(1)
                                               VALUE SPACE.
               10  WK01-DATE-4166-AP167-F              PIC X(1)
                                               VALUE SPACE.
               10  WK01-DATE-4166-AP167-A              PIC X(1)
                                               VALUE SPACE.
               10  WK01-DATE-4166-AP167-V              PIC X(1)
                                               VALUE SPACE.
               10  WK01-DATE-4166-AP167-O              PIC X(1)
                                               VALUE SPACE.
               10  WK01-DATE-4166-AP167       PIC X(6)
                                               VALUE SPACES.
               10  WK01-DATE-4166-AP1A7-Z              PIC X(1)
                                               VALUE SPACE.
               10  WK01-DATE-4166-AP1A7-F              PIC X(1)
                                               VALUE SPACE.
               10  WK01-DATE-4166-AP1A7-A              PIC X(1)
                                               VALUE SPACE.
               10  WK01-DATE-4166-AP1A7-V              PIC X(1)
                                               VALUE SPACE.
               10  WK01-DATE-4166-AP1A7-O              PIC X(1)
                                               VALUE SPACE.
               10  WK01-DATE-4166-AP1A7       PIC X(6)
                                               VALUE SPACES.
               10  WK01-DATE-4166-AP1B7-Z              PIC X(1)
                                               VALUE SPACE.
               10  WK01-DATE-4166-AP1B7-F              PIC X(1)
                                               VALUE SPACE.
               10  WK01-DATE-4166-AP1B7-A              PIC X(1)
                                               VALUE SPACE.
               10  WK01-DATE-4166-AP1B7-V              PIC X(1)
                                               VALUE SPACE.
               10  WK01-DATE-4166-AP1B7-O              PIC X(1)
                                               VALUE SPACE.
               10  WK01-DATE-4166-AP1B7       PIC X(6)
                                               VALUE SPACES.
               10  WK01-CODE-AP168-Z              PIC X(1)
                                               VALUE SPACE.
               10  WK01-CODE-AP168-F              PIC X(1)
                                               VALUE SPACE.
               10  WK01-CODE-AP168-A              PIC X(1)
                                               VALUE SPACE.
               10  WK01-CODE-AP168-V              PIC X(1)
                                               VALUE SPACE.
               10  WK01-CODE-AP168-O              PIC X(1)
                                               VALUE SPACE.
               10  WK01-CODE-AP168       PIC X(1)
                                               VALUE SPACES.
               10  WK01-TYPE-CODE-4166-AP168-Z              PIC X(1)
                                               VALUE SPACE.
               10  WK01-TYPE-CODE-4166-AP168-F              PIC X(1)
                                               VALUE SPACE.
               10  WK01-TYPE-CODE-4166-AP168-A              PIC X(1)
                                               VALUE SPACE.
               10  WK01-TYPE-CODE-4166-AP168-V              PIC X(1)
                                               VALUE SPACE.
               10  WK01-TYPE-CODE-4166-AP168-O              PIC X(1)
                                               VALUE SPACE.
               10  WK01-TYPE-CODE-4166-AP168       PIC X(2)
                                               VALUE SPACES.
               10  WK01-TYPE-DESC-4166-AP168-Z              PIC X(1)
                                               VALUE SPACE.
               10  WK01-TYPE-DESC-4166-AP168-F              PIC X(1)
                                               VALUE SPACE.
               10  WK01-TYPE-DESC-4166-AP168-A              PIC X(1)
                                               VALUE SPACE.
               10  WK01-TYPE-DESC-4166-AP168-V              PIC X(1)
                                               VALUE SPACE.
               10  WK01-TYPE-DESC-4166-AP168-O              PIC X(1)
                                               VALUE SPACE.
               10  WK01-TYPE-DESC-4166-AP168       PIC X(35)
                                               VALUE SPACES.
               10  WK01-DATE-4166-AP168-Z              PIC X(1)
                                               VALUE SPACE.
               10  WK01-DATE-4166-AP168-F              PIC X(1)
                                               VALUE SPACE.
               10  WK01-DATE-4166-AP168-A              PIC X(1)
                                               VALUE SPACE.
               10  WK01-DATE-4166-AP168-V              PIC X(1)
                                               VALUE SPACE.
               10  WK01-DATE-4166-AP168-O              PIC X(1)
                                               VALUE SPACE.
               10  WK01-DATE-4166-AP168       PIC X(6)
                                               VALUE SPACES.
               10  WK01-DATE-4166-AP1A8-Z              PIC X(1)
                                               VALUE SPACE.
               10  WK01-DATE-4166-AP1A8-F              PIC X(1)
                                               VALUE SPACE.
               10  WK01-DATE-4166-AP1A8-A              PIC X(1)
                                               VALUE SPACE.
               10  WK01-DATE-4166-AP1A8-V              PIC X(1)
                                               VALUE SPACE.
               10  WK01-DATE-4166-AP1A8-O              PIC X(1)
                                               VALUE SPACE.
               10  WK01-DATE-4166-AP1A8       PIC X(6)
                                               VALUE SPACES.
               10  WK01-DATE-4166-AP1B8-Z              PIC X(1)
                                               VALUE SPACE.
               10  WK01-DATE-4166-AP1B8-F              PIC X(1)
                                               VALUE SPACE.
               10  WK01-DATE-4166-AP1B8-A              PIC X(1)
                                               VALUE SPACE.
               10  WK01-DATE-4166-AP1B8-V              PIC X(1)
                                               VALUE SPACE.
               10  WK01-DATE-4166-AP1B8-O              PIC X(1)
                                               VALUE SPACE.
               10  WK01-DATE-4166-AP1B8       PIC X(6)
                                               VALUE SPACES.
               10  WK01-CODE-AP169-Z              PIC X(1)
                                               VALUE SPACE.
               10  WK01-CODE-AP169-F              PIC X(1)
                                               VALUE SPACE.
               10  WK01-CODE-AP169-A              PIC X(1)
                                               VALUE SPACE.
               10  WK01-CODE-AP169-V              PIC X(1)
                                               VALUE SPACE.
               10  WK01-CODE-AP169-O              PIC X(1)
                                               VALUE SPACE.
               10  WK01-CODE-AP169       PIC X(1)
                                               VALUE SPACES.
               10  WK01-TYPE-CODE-4166-AP169-Z              PIC X(1)
                                               VALUE SPACE.
               10  WK01-TYPE-CODE-4166-AP169-F              PIC X(1)
                                               VALUE SPACE.
               10  WK01-TYPE-CODE-4166-AP169-A              PIC X(1)
                                               VALUE SPACE.
               10  WK01-TYPE-CODE-4166-AP169-V              PIC X(1)
                                               VALUE SPACE.
               10  WK01-TYPE-CODE-4166-AP169-O              PIC X(1)
                                               VALUE SPACE.
               10  WK01-TYPE-CODE-4166-AP169       PIC X(2)
                                               VALUE SPACES.
               10  WK01-TYPE-DESC-4166-AP169-Z              PIC X(1)
                                               VALUE SPACE.
               10  WK01-TYPE-DESC-4166-AP169-F              PIC X(1)
                                               VALUE SPACE.
               10  WK01-TYPE-DESC-4166-AP169-A              PIC X(1)
                                               VALUE SPACE.
               10  WK01-TYPE-DESC-4166-AP169-V              PIC X(1)
                                               VALUE SPACE.
               10  WK01-TYPE-DESC-4166-AP169-O              PIC X(1)
                                               VALUE SPACE.
               10  WK01-TYPE-DESC-4166-AP169       PIC X(35)
                                               VALUE SPACES.
               10  WK01-DATE-4166-AP169-Z              PIC X(1)
                                               VALUE SPACE.
               10  WK01-DATE-4166-AP169-F              PIC X(1)
                                               VALUE SPACE.
               10  WK01-DATE-4166-AP169-A              PIC X(1)
                                               VALUE SPACE.
               10  WK01-DATE-4166-AP169-V              PIC X(1)
                                               VALUE SPACE.
               10  WK01-DATE-4166-AP169-O              PIC X(1)
                                               VALUE SPACE.
               10  WK01-DATE-4166-AP169       PIC X(6)
                                               VALUE SPACES.
               10  WK01-DATE-4166-AP1A9-Z              PIC X(1)
                                               VALUE SPACE.
               10  WK01-DATE-4166-AP1A9-F              PIC X(1)
                                               VALUE SPACE.
               10  WK01-DATE-4166-AP1A9-A              PIC X(1)
                                               VALUE SPACE.
               10  WK01-DATE-4166-AP1A9-V              PIC X(1)
                                               VALUE SPACE.
               10  WK01-DATE-4166-AP1A9-O              PIC X(1)
                                               VALUE SPACE.
               10  WK01-DATE-4166-AP1A9       PIC X(6)
                                               VALUE SPACES.
               10  WK01-DATE-4166-AP1B9-Z              PIC X(1)
                                               VALUE SPACE.
               10  WK01-DATE-4166-AP1B9-F              PIC X(1)
                                               VALUE SPACE.
               10  WK01-DATE-4166-AP1B9-A              PIC X(1)
                                               VALUE SPACE.
               10  WK01-DATE-4166-AP1B9-V              PIC X(1)
                                               VALUE SPACE.
               10  WK01-DATE-4166-AP1B9-O              PIC X(1)
                                               VALUE SPACE.
               10  WK01-DATE-4166-AP1B9       PIC X(6)
                                               VALUE SPACES.
               10  WK01-CODE-AP1610-Z              PIC X(1)
                                               VALUE SPACE.
               10  WK01-CODE-AP1610-F              PIC X(1)
                                               VALUE SPACE.
               10  WK01-CODE-AP1610-A              PIC X(1)
                                               VALUE SPACE.
               10  WK01-CODE-AP1610-V              PIC X(1)
                                               VALUE SPACE.
               10  WK01-CODE-AP1610-O              PIC X(1)
                                               VALUE SPACE.
               10  WK01-CODE-AP1610       PIC X(1)
                                               VALUE SPACES.
               10  WK01-TYPE-CODE-4166-AP1610-Z              PIC X(1)
                                               VALUE SPACE.
               10  WK01-TYPE-CODE-4166-AP1610-F              PIC X(1)
                                               VALUE SPACE.
               10  WK01-TYPE-CODE-4166-AP1610-A              PIC X(1)
                                               VALUE SPACE.
               10  WK01-TYPE-CODE-4166-AP1610-V              PIC X(1)
                                               VALUE SPACE.
               10  WK01-TYPE-CODE-4166-AP1610-O              PIC X(1)
                                               VALUE SPACE.
               10  WK01-TYPE-CODE-4166-AP1610       PIC X(2)
                                               VALUE SPACES.
               10  WK01-TYPE-DESC-4166-AP1610-Z              PIC X(1)
                                               VALUE SPACE.
               10  WK01-TYPE-DESC-4166-AP1610-F              PIC X(1)
                                               VALUE SPACE.
               10  WK01-TYPE-DESC-4166-AP1610-A              PIC X(1)
                                               VALUE SPACE.
               10  WK01-TYPE-DESC-4166-AP1610-V              PIC X(1)
                                               VALUE SPACE.
               10  WK01-TYPE-DESC-4166-AP1610-O              PIC X(1)
                                               VALUE SPACE.
               10  WK01-TYPE-DESC-4166-AP1610       PIC X(35)
                                               VALUE SPACES.
               10  WK01-DATE-4166-AP1610-Z              PIC X(1)
                                               VALUE SPACE.
               10  WK01-DATE-4166-AP1610-F              PIC X(1)
                                               VALUE SPACE.
               10  WK01-DATE-4166-AP1610-A              PIC X(1)
                                               VALUE SPACE.
               10  WK01-DATE-4166-AP1610-V              PIC X(1)
                                               VALUE SPACE.
               10  WK01-DATE-4166-AP1610-O              PIC X(1)
                                               VALUE SPACE.
               10  WK01-DATE-4166-AP1610       PIC X(6)
                                               VALUE SPACES.
               10  WK01-DATE-4166-AP1A10-Z              PIC X(1)
                                               VALUE SPACE.
               10  WK01-DATE-4166-AP1A10-F              PIC X(1)
                                               VALUE SPACE.
               10  WK01-DATE-4166-AP1A10-A              PIC X(1)
                                               VALUE SPACE.
               10  WK01-DATE-4166-AP1A10-V              PIC X(1)
                                               VALUE SPACE.
               10  WK01-DATE-4166-AP1A10-O              PIC X(1)
                                               VALUE SPACE.
               10  WK01-DATE-4166-AP1A10       PIC X(6)
                                               VALUE SPACES.
               10  WK01-DATE-4166-AP1B10-Z              PIC X(1)
                                               VALUE SPACE.
               10  WK01-DATE-4166-AP1B10-F              PIC X(1)
                                               VALUE SPACE.
               10  WK01-DATE-4166-AP1B10-A              PIC X(1)
                                               VALUE SPACE.
               10  WK01-DATE-4166-AP1B10-V              PIC X(1)
                                               VALUE SPACE.
               10  WK01-DATE-4166-AP1B10-O              PIC X(1)
                                               VALUE SPACE.
               10  WK01-DATE-4166-AP1B10       PIC X(6)
                                               VALUE SPACES.
               10  WK01-CODE-AP1611-Z              PIC X(1)
                                               VALUE SPACE.
               10  WK01-CODE-AP1611-F              PIC X(1)
                                               VALUE SPACE.
               10  WK01-CODE-AP1611-A              PIC X(1)
                                               VALUE SPACE.
               10  WK01-CODE-AP1611-V              PIC X(1)
                                               VALUE SPACE.
               10  WK01-CODE-AP1611-O              PIC X(1)
                                               VALUE SPACE.
               10  WK01-CODE-AP1611       PIC X(1)
                                               VALUE SPACES.
               10  WK01-TYPE-CODE-4166-AP1611-Z              PIC X(1)
                                               VALUE SPACE.
               10  WK01-TYPE-CODE-4166-AP1611-F              PIC X(1)
                                               VALUE SPACE.
               10  WK01-TYPE-CODE-4166-AP1611-A              PIC X(1)
                                               VALUE SPACE.
               10  WK01-TYPE-CODE-4166-AP1611-V              PIC X(1)
                                               VALUE SPACE.
               10  WK01-TYPE-CODE-4166-AP1611-O              PIC X(1)
                                               VALUE SPACE.
               10  WK01-TYPE-CODE-4166-AP1611       PIC X(2)
                                               VALUE SPACES.
               10  WK01-TYPE-DESC-4166-AP1611-Z              PIC X(1)
                                               VALUE SPACE.
               10  WK01-TYPE-DESC-4166-AP1611-F              PIC X(1)
                                               VALUE SPACE.
               10  WK01-TYPE-DESC-4166-AP1611-A              PIC X(1)
                                               VALUE SPACE.
               10  WK01-TYPE-DESC-4166-AP1611-V              PIC X(1)
                                               VALUE SPACE.
               10  WK01-TYPE-DESC-4166-AP1611-O              PIC X(1)
                                               VALUE SPACE.
               10  WK01-TYPE-DESC-4166-AP1611       PIC X(35)
                                               VALUE SPACES.
               10  WK01-DATE-4166-AP1611-Z              PIC X(1)
                                               VALUE SPACE.
               10  WK01-DATE-4166-AP1611-F              PIC X(1)
                                               VALUE SPACE.
               10  WK01-DATE-4166-AP1611-A              PIC X(1)
                                               VALUE SPACE.
               10  WK01-DATE-4166-AP1611-V              PIC X(1)
                                               VALUE SPACE.
               10  WK01-DATE-4166-AP1611-O              PIC X(1)
                                               VALUE SPACE.
               10  WK01-DATE-4166-AP1611       PIC X(6)
                                               VALUE SPACES.
               10  WK01-DATE-4166-AP1A11-Z              PIC X(1)
                                               VALUE SPACE.
               10  WK01-DATE-4166-AP1A11-F              PIC X(1)
                                               VALUE SPACE.
               10  WK01-DATE-4166-AP1A11-A              PIC X(1)
                                               VALUE SPACE.
               10  WK01-DATE-4166-AP1A11-V              PIC X(1)
                                               VALUE SPACE.
               10  WK01-DATE-4166-AP1A11-O              PIC X(1)
                                               VALUE SPACE.
               10  WK01-DATE-4166-AP1A11       PIC X(6)
                                               VALUE SPACES.
               10  WK01-DATE-4166-AP1B11-Z              PIC X(1)
                                               VALUE SPACE.
               10  WK01-DATE-4166-AP1B11-F              PIC X(1)
                                               VALUE SPACE.
               10  WK01-DATE-4166-AP1B11-A              PIC X(1)
                                               VALUE SPACE.
               10  WK01-DATE-4166-AP1B11-V              PIC X(1)
                                               VALUE SPACE.
               10  WK01-DATE-4166-AP1B11-O              PIC X(1)
                                               VALUE SPACE.
               10  WK01-DATE-4166-AP1B11       PIC X(6)
                                               VALUE SPACES.
               10  WK01-CODE-AP1612-Z              PIC X(1)
                                               VALUE SPACE.
               10  WK01-CODE-AP1612-F              PIC X(1)
                                               VALUE SPACE.
               10  WK01-CODE-AP1612-A              PIC X(1)
                                               VALUE SPACE.
               10  WK01-CODE-AP1612-V              PIC X(1)
                                               VALUE SPACE.
               10  WK01-CODE-AP1612-O              PIC X(1)
                                               VALUE SPACE.
               10  WK01-CODE-AP1612       PIC X(1)
                                               VALUE SPACES.
               10  WK01-TYPE-CODE-4166-AP1612-Z              PIC X(1)
                                               VALUE SPACE.
               10  WK01-TYPE-CODE-4166-AP1612-F              PIC X(1)
                                               VALUE SPACE.
               10  WK01-TYPE-CODE-4166-AP1612-A              PIC X(1)
                                               VALUE SPACE.
               10  WK01-TYPE-CODE-4166-AP1612-V              PIC X(1)
                                               VALUE SPACE.
               10  WK01-TYPE-CODE-4166-AP1612-O              PIC X(1)
                                               VALUE SPACE.
               10  WK01-TYPE-CODE-4166-AP1612       PIC X(2)
                                               VALUE SPACES.
               10  WK01-TYPE-DESC-4166-AP1612-Z              PIC X(1)
                                               VALUE SPACE.
               10  WK01-TYPE-DESC-4166-AP1612-F              PIC X(1)
                                               VALUE SPACE.
               10  WK01-TYPE-DESC-4166-AP1612-A              PIC X(1)
                                               VALUE SPACE.
               10  WK01-TYPE-DESC-4166-AP1612-V              PIC X(1)
                                               VALUE SPACE.
               10  WK01-TYPE-DESC-4166-AP1612-O              PIC X(1)
                                               VALUE SPACE.
               10  WK01-TYPE-DESC-4166-AP1612       PIC X(35)
                                               VALUE SPACES.
               10  WK01-DATE-4166-AP1612-Z              PIC X(1)
                                               VALUE SPACE.
               10  WK01-DATE-4166-AP1612-F              PIC X(1)
                                               VALUE SPACE.
               10  WK01-DATE-4166-AP1612-A              PIC X(1)
                                               VALUE SPACE.
               10  WK01-DATE-4166-AP1612-V              PIC X(1)
                                               VALUE SPACE.
               10  WK01-DATE-4166-AP1612-O              PIC X(1)
                                               VALUE SPACE.
               10  WK01-DATE-4166-AP1612       PIC X(6)
                                               VALUE SPACES.
               10  WK01-DATE-4166-AP1A12-Z              PIC X(1)
                                               VALUE SPACE.
               10  WK01-DATE-4166-AP1A12-F              PIC X(1)
                                               VALUE SPACE.
               10  WK01-DATE-4166-AP1A12-A              PIC X(1)
                                               VALUE SPACE.
               10  WK01-DATE-4166-AP1A12-V              PIC X(1)
                                               VALUE SPACE.
               10  WK01-DATE-4166-AP1A12-O              PIC X(1)
                                               VALUE SPACE.
               10  WK01-DATE-4166-AP1A12       PIC X(6)
                                               VALUE SPACES.
               10  WK01-DATE-4166-AP1B12-Z              PIC X(1)
                                               VALUE SPACE.
               10  WK01-DATE-4166-AP1B12-F              PIC X(1)
                                               VALUE SPACE.
               10  WK01-DATE-4166-AP1B12-A              PIC X(1)
                                               VALUE SPACE.
               10  WK01-DATE-4166-AP1B12-V              PIC X(1)
                                               VALUE SPACE.
               10  WK01-DATE-4166-AP1B12-O              PIC X(1)
                                               VALUE SPACE.
               10  WK01-DATE-4166-AP1B12       PIC X(6)
                                               VALUE SPACES.
               10  WK01-VNDR-TYPE-AP16-Z              PIC X(1)
                                               VALUE SPACE.
               10  WK01-VNDR-TYPE-AP16-F              PIC X(1)
                                               VALUE SPACE.
               10  WK01-VNDR-TYPE-AP16-A              PIC X(1)
                                               VALUE SPACE.
               10  WK01-VNDR-TYPE-AP16-V              PIC X(1)
                                               VALUE SPACE.
               10  WK01-VNDR-TYPE-AP16-O              PIC X(1)
                                               VALUE SPACE.
               10  WK01-VNDR-TYPE-AP16       PIC X(2)
                                               VALUE SPACES.
               10  WK01-ZZMESSAGE-Z              PIC X(1)
                                               VALUE SPACE.
               10  WK01-ZZMESSAGE-F              PIC X(1)
                                               VALUE SPACE.
               10  WK01-ZZMESSAGE-A              PIC X(1)
                                               VALUE SPACE.
               10  WK01-ZZMESSAGE-V              PIC X(1)
                                               VALUE SPACE.
               10  WK01-ZZMESSAGE-O              PIC X(1)
                                               VALUE SPACE.
               10  WK01-ZZMESSAGE       PIC X(160)
                                               VALUE SPACES.
               10  WK01-PASSED-ONE-Z              PIC X(1)
                                               VALUE SPACE.
               10  WK01-PASSED-ONE-F              PIC X(1)
                                               VALUE SPACE.
               10  WK01-PASSED-ONE-A              PIC X(1)
                                               VALUE SPACE.
               10  WK01-PASSED-ONE-V              PIC X(1)
                                               VALUE SPACE.
               10  WK01-PASSED-ONE-O              PIC X(1)
                                               VALUE SPACE.
               10  WK01-PASSED-ONE       PIC X(32)
                                               VALUE SPACES.
               10  WK01-MAP-RESPONSE-Z              PIC X(1)
                                               VALUE SPACE.
               10  WK01-MAP-RESPONSE-F              PIC X(1)
                                               VALUE SPACE.
               10  WK01-MAP-RESPONSE-A              PIC X(1)
                                               VALUE SPACE.
               10  WK01-MAP-RESPONSE-V              PIC X(1)
                                               VALUE SPACE.
               10  WK01-MAP-RESPONSE-O              PIC X(1)
                                               VALUE SPACE.
               10  WK01-MAP-RESPONSE       PIC X(8)
                                               VALUE SPACES.
               10  WK01-TEXT-SY00-Z              PIC X(1)
                                               VALUE SPACE.
               10  WK01-TEXT-SY00-F              PIC X(1)
                                               VALUE SPACE.
               10  WK01-TEXT-SY00-A              PIC X(1)
                                               VALUE SPACE.
               10  WK01-TEXT-SY00-V              PIC X(1)
                                               VALUE SPACE.
               10  WK01-TEXT-SY00-O              PIC X(1)
                                               VALUE SPACE.
               10  WK01-TEXT-SY00       PIC X(14)
                                               VALUE SPACES.
           04  WK01-SUBSCRIPTED-WORK-AREA.
               05  FILLER                      PIC X(1).
               05  WK01-CODE-AP16-F             PIC X(1)
                                               OCCURS 12.
               05  WK01-TYPE-CODE-4166-AP16-F             PIC X(1)
                                               OCCURS 12.
               05  WK01-TYPE-DESC-4166-AP16-F             PIC X(1)
                                               OCCURS 12.
               05  WK01-DATE-4166-AP16-F             PIC X(1)
                                               OCCURS 12.
               05  WK01-DATE-4166-AP1A-F             PIC X(1)
                                               OCCURS 12.
               05  WK01-DATE-4166-AP1B-F             PIC X(1)
                                               OCCURS 12.
