    ***Created by Convert/DC version V8R03 on 12/05/00 at 12:00***

      *%--------------------------------------------------------------%*
           MOVE DCLINK-MESSAGE  TO WK01-ZZMESSAGE.
      *%--------------------------------------------------------------%*
           MOVE AGR-DATE OF ADSO-APPLICATION-GLOBAL-RECORD TO WK01-DATE.
      *%--------------------------------------------------------------%*
           MOVE AGR-USER-ID OF ADSO-APPLICATION-GLOBAL-RECORD TO
                WK01-USER-ID.
      *%--------------------------------------------------------------%*
           MOVE AGR-FUNC-DESCRIPTION OF ADSO-APPLICATION-GLOBAL-RECORD
                TO WK01-FUNC-DESCRIPTION.
      *%--------------------------------------------------------------%*
           MOVE AGR-PASSED-ONE OF ADSO-APPLICATION-GLOBAL-RECORD TO
                WK01-PASSED-ONE.
      *%--------------------------------------------------------------%*
           MOVE AGR-MAP-RESPONSE OF ADSO-APPLICATION-GLOBAL-RECORD TO
                WK01-MAP-RESPONSE.
      *%--------------------------------------------------------------%*
           MOVE TRMNL-ID-SY00 OF FSYWG00M TO WK01-ID-SY00.
      *%--------------------------------------------------------------%*
           MOVE FULL-NAME-6001-SY00 OF FSYWG00M TO WK01-NAME-6001-SY00.
      *%--------------------------------------------------------------%*
           MOVE AM-PM-FLAG-SY00 OF FSYWG00M TO WK01-PM-FLAG-SY00.
      *%--------------------------------------------------------------%*
           MOVE CURR-RSPNS-ID-SY00 OF FSYWG00M TO WK01-RSPNS-ID-SY00.
      *%--------------------------------------------------------------%*
           MOVE ERROR-TEXT-SY00 OF FSYWG00M TO WK01-TEXT-SY00.
      *%--------------------------------------------------------------%*
           MOVE PAGE-STATUS-CODE-SY00 OF FSYWG00M TO
                WK01-STATUS-CODE-SY00.
      *%--------------------------------------------------------------%*
           MOVE WORK-HH-MM-TIME-SY00 OF FSYWG00M TO
                WK01-HH-MM-TIME-SY00.
      *%--------------------------------------------------------------%*
           MOVE RQST-ADJMT-CODE-AP10 OF FAPWK10 TO WK01-ADJMT-CODE-AP10.
      *%--------------------------------------------------------------%*
           MOVE ACTN-CODE-AP10 OF FAPWM10(0001) TO WK01-CODE-AP101.
      *%--------------------------------------------------------------%*
           MOVE ACTN-CODE-AP10 OF FAPWM10(0002) TO WK01-CODE-AP102.
      *%--------------------------------------------------------------%*
           MOVE ACTN-CODE-AP10 OF FAPWM10(0003) TO WK01-CODE-AP103.
      *%--------------------------------------------------------------%*
           MOVE ACTN-CODE-AP10 OF FAPWM10(0004) TO WK01-CODE-AP104.
      *%--------------------------------------------------------------%*
           MOVE ACTN-CODE-AP10 OF FAPWM10(0005) TO WK01-CODE-AP105.
      *%--------------------------------------------------------------%*
           MOVE ACTN-CODE-AP10 OF FAPWM10(0006) TO WK01-CODE-AP106.
      *%--------------------------------------------------------------%*
           MOVE ACTN-CODE-AP10 OF FAPWM10(0007) TO WK01-CODE-AP107.
      *%--------------------------------------------------------------%*
           MOVE ACTN-CODE-AP10 OF FAPWM10(0008) TO WK01-CODE-AP108.
      *%--------------------------------------------------------------%*
           MOVE ACTN-CODE-AP10 OF FAPWM10(0009) TO WK01-CODE-AP109.
      *%--------------------------------------------------------------%*
           MOVE ACTN-CODE-AP10 OF FAPWM10(0010) TO WK01-CODE-AP1010.
      *%--------------------------------------------------------------%*
           MOVE ACTN-CODE-AP10 OF FAPWM10(0011) TO WK01-CODE-AP1011.
      *%--------------------------------------------------------------%*
           MOVE ACTN-CODE-AP10 OF FAPWM10(0012) TO WK01-CODE-AP1012.
      *%--------------------------------------------------------------%*
           MOVE ACTN-CODE-AP10 OF FAPWM10(0013) TO WK01-CODE-AP1013.
      *%--------------------------------------------------------------%*
           MOVE ADJMT-DESC-4156-AP10 OF FAPWM10(0001) TO
                WK01-DESC-4156-AP101.
      *%--------------------------------------------------------------%*
           MOVE ADJMT-DESC-4156-AP10 OF FAPWM10(0002) TO
                WK01-DESC-4156-AP102.
      *%--------------------------------------------------------------%*
           MOVE ADJMT-DESC-4156-AP10 OF FAPWM10(0003) TO
                WK01-DESC-4156-AP103.
      *%--------------------------------------------------------------%*
           MOVE ADJMT-DESC-4156-AP10 OF FAPWM10(0004) TO
                WK01-DESC-4156-AP104.
      *%--------------------------------------------------------------%*
           MOVE ADJMT-DESC-4156-AP10 OF FAPWM10(0005) TO
                WK01-DESC-4156-AP105.
      *%--------------------------------------------------------------%*
           MOVE ADJMT-DESC-4156-AP10 OF FAPWM10(0006) TO
                WK01-DESC-4156-AP106.
      *%--------------------------------------------------------------%*
           MOVE ADJMT-DESC-4156-AP10 OF FAPWM10(0007) TO
                WK01-DESC-4156-AP107.
      *%--------------------------------------------------------------%*
           MOVE ADJMT-DESC-4156-AP10 OF FAPWM10(0008) TO
                WK01-DESC-4156-AP108.
      *%--------------------------------------------------------------%*
           MOVE ADJMT-DESC-4156-AP10 OF FAPWM10(0009) TO
                WK01-DESC-4156-AP109.
      *%--------------------------------------------------------------%*
           MOVE ADJMT-DESC-4156-AP10 OF FAPWM10(0010) TO
                WK01-DESC-4156-AP1010.
      *%--------------------------------------------------------------%*
           MOVE ADJMT-DESC-4156-AP10 OF FAPWM10(0011) TO
                WK01-DESC-4156-AP1011.
      *%--------------------------------------------------------------%*
           MOVE ADJMT-DESC-4156-AP10 OF FAPWM10(0012) TO
                WK01-DESC-4156-AP1012.
      *%--------------------------------------------------------------%*
           MOVE ADJMT-DESC-4156-AP10 OF FAPWM10(0013) TO
                WK01-DESC-4156-AP1013.
      *%--------------------------------------------------------------%*
           MOVE START-DATE-4156-AP10 OF FAPWM10(0001) TO
                WK01-DATE-4156-AP101.
      *%--------------------------------------------------------------%*
           MOVE START-DATE-4156-AP10 OF FAPWM10(0002) TO
                WK01-DATE-4156-AP102.
      *%--------------------------------------------------------------%*
           MOVE START-DATE-4156-AP10 OF FAPWM10(0003) TO
                WK01-DATE-4156-AP103.
      *%--------------------------------------------------------------%*
           MOVE START-DATE-4156-AP10 OF FAPWM10(0004) TO
                WK01-DATE-4156-AP104.
      *%--------------------------------------------------------------%*
           MOVE START-DATE-4156-AP10 OF FAPWM10(0005) TO
                WK01-DATE-4156-AP105.
      *%--------------------------------------------------------------%*
           MOVE START-DATE-4156-AP10 OF FAPWM10(0006) TO
                WK01-DATE-4156-AP106.
      *%--------------------------------------------------------------%*
           MOVE START-DATE-4156-AP10 OF FAPWM10(0007) TO
                WK01-DATE-4156-AP107.
      *%--------------------------------------------------------------%*
           MOVE START-DATE-4156-AP10 OF FAPWM10(0008) TO
                WK01-DATE-4156-AP108.
      *%--------------------------------------------------------------%*
           MOVE START-DATE-4156-AP10 OF FAPWM10(0009) TO
                WK01-DATE-4156-AP109.
      *%--------------------------------------------------------------%*
           MOVE START-DATE-4156-AP10 OF FAPWM10(0010) TO
                WK01-DATE-4156-AP1010.
      *%--------------------------------------------------------------%*
           MOVE START-DATE-4156-AP10 OF FAPWM10(0011) TO
                WK01-DATE-4156-AP1011.
      *%--------------------------------------------------------------%*
           MOVE START-DATE-4156-AP10 OF FAPWM10(0012) TO
                WK01-DATE-4156-AP1012.
      *%--------------------------------------------------------------%*
           MOVE START-DATE-4156-AP10 OF FAPWM10(0013) TO
                WK01-DATE-4156-AP1013.
      *%--------------------------------------------------------------%*
           MOVE END-DATE-4156-AP10 OF FAPWM10(0001) TO
                WK01-DATE-4156-AP1A1.
      *%--------------------------------------------------------------%*
           MOVE END-DATE-4156-AP10 OF FAPWM10(0002) TO
                WK01-DATE-4156-AP1A2.
      *%--------------------------------------------------------------%*
           MOVE END-DATE-4156-AP10 OF FAPWM10(0003) TO
                WK01-DATE-4156-AP1A3.
      *%--------------------------------------------------------------%*
           MOVE END-DATE-4156-AP10 OF FAPWM10(0004) TO
                WK01-DATE-4156-AP1A4.
      *%--------------------------------------------------------------%*
           MOVE END-DATE-4156-AP10 OF FAPWM10(0005) TO
                WK01-DATE-4156-AP1A5.
      *%--------------------------------------------------------------%*
           MOVE END-DATE-4156-AP10 OF FAPWM10(0006) TO
                WK01-DATE-4156-AP1A6.
      *%--------------------------------------------------------------%*
           MOVE END-DATE-4156-AP10 OF FAPWM10(0007) TO
                WK01-DATE-4156-AP1A7.
      *%--------------------------------------------------------------%*
           MOVE END-DATE-4156-AP10 OF FAPWM10(0008) TO
                WK01-DATE-4156-AP1A8.
      *%--------------------------------------------------------------%*
           MOVE END-DATE-4156-AP10 OF FAPWM10(0009) TO
                WK01-DATE-4156-AP1A9.
      *%--------------------------------------------------------------%*
           MOVE END-DATE-4156-AP10 OF FAPWM10(0010) TO
                WK01-DATE-4156-AP1A10.
      *%--------------------------------------------------------------%*
           MOVE END-DATE-4156-AP10 OF FAPWM10(0011) TO
                WK01-DATE-4156-AP1A11.
      *%--------------------------------------------------------------%*
           MOVE END-DATE-4156-AP10 OF FAPWM10(0012) TO
                WK01-DATE-4156-AP1A12.
      *%--------------------------------------------------------------%*
           MOVE END-DATE-4156-AP10 OF FAPWM10(0013) TO
                WK01-DATE-4156-AP1A13.
      *%--------------------------------------------------------------%*
           MOVE ACTVY-DATE-4156-AP10 OF FAPWM10(0001) TO
                WK01-DATE-4156-AP1B1.
      *%--------------------------------------------------------------%*
           MOVE ACTVY-DATE-4156-AP10 OF FAPWM10(0002) TO
                WK01-DATE-4156-AP1B2.
      *%--------------------------------------------------------------%*
           MOVE ACTVY-DATE-4156-AP10 OF FAPWM10(0003) TO
                WK01-DATE-4156-AP1B3.
      *%--------------------------------------------------------------%*
           MOVE ACTVY-DATE-4156-AP10 OF FAPWM10(0004) TO
                WK01-DATE-4156-AP1B4.
      *%--------------------------------------------------------------%*
           MOVE ACTVY-DATE-4156-AP10 OF FAPWM10(0005) TO
                WK01-DATE-4156-AP1B5.
      *%--------------------------------------------------------------%*
           MOVE ACTVY-DATE-4156-AP10 OF FAPWM10(0006) TO
                WK01-DATE-4156-AP1B6.
      *%--------------------------------------------------------------%*
           MOVE ACTVY-DATE-4156-AP10 OF FAPWM10(0007) TO
                WK01-DATE-4156-AP1B7.
      *%--------------------------------------------------------------%*
           MOVE ACTVY-DATE-4156-AP10 OF FAPWM10(0008) TO
                WK01-DATE-4156-AP1B8.
      *%--------------------------------------------------------------%*
           MOVE ACTVY-DATE-4156-AP10 OF FAPWM10(0009) TO
                WK01-DATE-4156-AP1B9.
      *%--------------------------------------------------------------%*
           MOVE ACTVY-DATE-4156-AP10 OF FAPWM10(0010) TO
                WK01-DATE-4156-AP1B10.
      *%--------------------------------------------------------------%*
           MOVE ACTVY-DATE-4156-AP10 OF FAPWM10(0011) TO
                WK01-DATE-4156-AP1B11.
      *%--------------------------------------------------------------%*
           MOVE ACTVY-DATE-4156-AP10 OF FAPWM10(0012) TO
                WK01-DATE-4156-AP1B12.
      *%--------------------------------------------------------------%*
           MOVE ACTVY-DATE-4156-AP10 OF FAPWM10(0013) TO
                WK01-DATE-4156-AP1B13.
      *%--------------------------------------------------------------%*
           MOVE ADJMT-CODE-4156-AP10 OF FAPWM10(0001) TO
                WK01-CODE-4156-AP101.
      *%--------------------------------------------------------------%*
           MOVE ADJMT-CODE-4156-AP10 OF FAPWM10(0002) TO
                WK01-CODE-4156-AP102.
      *%--------------------------------------------------------------%*
           MOVE ADJMT-CODE-4156-AP10 OF FAPWM10(0003) TO
                WK01-CODE-4156-AP103.
      *%--------------------------------------------------------------%*
           MOVE ADJMT-CODE-4156-AP10 OF FAPWM10(0004) TO
                WK01-CODE-4156-AP104.
      *%--------------------------------------------------------------%*
           MOVE ADJMT-CODE-4156-AP10 OF FAPWM10(0005) TO
                WK01-CODE-4156-AP105.
      *%--------------------------------------------------------------%*
           MOVE ADJMT-CODE-4156-AP10 OF FAPWM10(0006) TO
                WK01-CODE-4156-AP106.
      *%--------------------------------------------------------------%*
           MOVE ADJMT-CODE-4156-AP10 OF FAPWM10(0007) TO
                WK01-CODE-4156-AP107.
      *%--------------------------------------------------------------%*
           MOVE ADJMT-CODE-4156-AP10 OF FAPWM10(0008) TO
                WK01-CODE-4156-AP108.
      *%--------------------------------------------------------------%*
           MOVE ADJMT-CODE-4156-AP10 OF FAPWM10(0009) TO
                WK01-CODE-4156-AP109.
      *%--------------------------------------------------------------%*
           MOVE ADJMT-CODE-4156-AP10 OF FAPWM10(0010) TO
                WK01-CODE-4156-AP1010.
      *%--------------------------------------------------------------%*
           MOVE ADJMT-CODE-4156-AP10 OF FAPWM10(0011) TO
                WK01-CODE-4156-AP1011.
      *%--------------------------------------------------------------%*
           MOVE ADJMT-CODE-4156-AP10 OF FAPWM10(0012) TO
                WK01-CODE-4156-AP1012.
      *%--------------------------------------------------------------%*
           MOVE ADJMT-CODE-4156-AP10 OF FAPWM10(0013) TO
                WK01-CODE-4156-AP1013.
