    ***Created by Convert/DC version V8R03 on 12/04/00 at 15:00***

      *%--------------------------------------------------------------%*
           MOVE DCLINK-MESSAGE  TO WK01-ZZMESSAGE.
      *%--------------------------------------------------------------%*
           MOVE AGR-DATE OF ADSO-APPLICATION-GLOBAL-RECORD TO WK01-DATE.
      *%--------------------------------------------------------------%*
           MOVE AGR-USER-ID OF ADSO-APPLICATION-GLOBAL-RECORD TO
                WK01-USER-ID.
      *%--------------------------------------------------------------%*
           MOVE AGR-FUNC-DESCRIPTION OF ADSO-APPLICATION-GLOBAL-RECORD
                TO WK01-FUNC-DESCRIPTION.
      *%--------------------------------------------------------------%*
           MOVE AGR-PASSED-ONE OF ADSO-APPLICATION-GLOBAL-RECORD TO
                WK01-PASSED-ONE.
      *%--------------------------------------------------------------%*
           MOVE AGR-MAP-RESPONSE OF ADSO-APPLICATION-GLOBAL-RECORD TO
                WK01-MAP-RESPONSE.
      *%--------------------------------------------------------------%*
           MOVE TRMNL-ID-SY00 OF FSYWG00M TO WK01-ID-SY00.
      *%--------------------------------------------------------------%*
           MOVE FULL-NAME-6001-SY00 OF FSYWG00M TO WK01-NAME-6001-SY00.
      *%--------------------------------------------------------------%*
           MOVE AM-PM-FLAG-SY00 OF FSYWG00M TO WK01-PM-FLAG-SY00.
      *%--------------------------------------------------------------%*
           MOVE CURR-RSPNS-ID-SY00 OF FSYWG00M TO WK01-RSPNS-ID-SY00.
      *%--------------------------------------------------------------%*
           MOVE ERROR-TEXT-SY00 OF FSYWG00M TO WK01-TEXT-SY00.
      *%--------------------------------------------------------------%*
           MOVE PAGE-STATUS-CODE-SY00 OF FSYWG00M TO
                WK01-STATUS-CODE-SY00.
      *%--------------------------------------------------------------%*
           MOVE WORK-HH-MM-TIME-SY00 OF FSYWG00M TO
                WK01-HH-MM-TIME-SY00.
      *%--------------------------------------------------------------%*
           MOVE ACTN-CODE-AP35 OF FAPWM35 TO WK01-CODE-AP35.
      *%--------------------------------------------------------------%*
           MOVE CHECK-NMBR-4158-AP35 TO WK01-CHECK-NMBR-AP35
      *%--------------------------------------------------------------%*
           MOVE ORGN-CODE-4157-AP35 TO  WK01-ORGN-CODE-AP35
      *%--------------------------------------------------------------%*
           MOVE ORGN-CODE-DESC-L-4012-AP35 TO
                 WK01-CODE-DSC-L-4012-AP35
      *%--------------------------------------------------------------%*
           MOVE RQSTR-ID-4157-AP35 TO   WK01-ID-R4157-AP35
      *%--------------------------------------------------------------%*
           MOVE RQSTR-NAME-AP35    TO   WK01-RQSTR-NAME-AP35

      *%--------------------------------------------------------------%*
           MOVE JRNL-AP35          TO  WK01-JRNL-AP35
      *%--------------------------------------------------------------%*
           MOVE JRNL-DESC-AP35  TO WK01-JRNL-DESC-AP35
      *%--------------------------------------------------------------%*
           MOVE JRNL-AMT-AP35   TO WK01-JRNL-AMT-AP35
      *%--------------------------------------------------------------%*
           MOVE TEXT-IND-AP35   TO WK01-TEXT-IND-AP35
      *%--------------------------------------------------------------%*
           MOVE JRNL-TYPE-AP35  TO WK01-JRNL-TYPE-AP35
      *%--------------------------------------------------------------%*
           MOVE JRNL-DATE-AP35  TO  WK01-JRNL-DATE-AP35
      *%--------------------------------------------------------------%*
           MOVE CMPLT-IND-AP35   TO  WK01-IND-4150-AP0A
      *%--------------------------------------------------------------%*
           MOVE APRVL-IND-AP35   TO WK01-IND-4150-AP0B
      *%--------------------------------------------------------------%*
           MOVE DCMNT-NMBR-4150-AP35 (001) TO  WK01-NMBR-4150-1-AP35
      *%--------------------------------------------------------------%*
           MOVE DCMNT-NMBR-4150-AP35 (002) TO  WK01-NMBR-4150-2-AP35
      *%--------------------------------------------------------------%*
           MOVE DCMNT-NMBR-4150-AP35 (003) TO  WK01-NMBR-4150-3-AP35
      *%--------------------------------------------------------------%*
           MOVE DCMNT-NMBR-4150-AP35 (004) TO  WK01-NMBR-4150-4-AP35
      *%--------------------------------------------------------------%*
           MOVE DCMNT-NMBR-4150-AP35 (005) TO  WK01-NMBR-4150-5-AP35
      *%--------------------------------------------------------------%*
           MOVE ITEM-NMBR-AP35  OF FAPWM35 (001) TO
                                  WK01-ITEM-NMBR-1-AP35.
      *%--------------------------------------------------------------%*
           MOVE ITEM-NMBR-AP35  OF FAPWM35 (002) TO
                                  WK01-ITEM-NMBR-2-AP35.
      *%--------------------------------------------------------------%*
           MOVE ITEM-NMBR-AP35  OF FAPWM35 (003) TO
                                  WK01-ITEM-NMBR-3-AP35.
      *%--------------------------------------------------------------%*
           MOVE ITEM-NMBR-AP35  OF FAPWM35 (004) TO
                                  WK01-ITEM-NMBR-4-AP35.
      *%--------------------------------------------------------------%*
           MOVE ITEM-NMBR-AP35  OF FAPWM35 (005) TO
                                  WK01-ITEM-NMBR-5-AP35.
      *%--------------------------------------------------------------%*
           MOVE SEQ-NMBR-AP35 OF FAPWM35 (001) TO
                                  WK01-SEQ-NMBR-1-AP35.
      *%--------------------------------------------------------------%*
           MOVE SEQ-NMBR-AP35 OF FAPWM35 (002) TO
                                  WK01-SEQ-NMBR-2-AP35.
      *%--------------------------------------------------------------%*
           MOVE SEQ-NMBR-AP35 OF FAPWM35 (003) TO
                                  WK01-SEQ-NMBR-3-AP35.
      *%--------------------------------------------------------------%*
           MOVE SEQ-NMBR-AP35 OF FAPWM35 (004) TO
                                  WK01-SEQ-NMBR-4-AP35.
      *%--------------------------------------------------------------%*
           MOVE SEQ-NMBR-AP35 OF FAPWM35 (005) TO
                                  WK01-SEQ-NMBR-5-AP35.
      *%--------------------------------------------------------------%*
           MOVE TEXT-IND-AP35 OF FAPWM35 TO WK01-TEXT-IND-AP35.
      *%--------------------------------------------------------------%*
           MOVE ITEM-ACTN-CODE-AP35  OF FAPWM35 (001) TO
                                  WK01-ITEM-ACTN-CD-1-AP35.
      *%--------------------------------------------------------------%*
           MOVE ITEM-ACTN-CODE-AP35  OF FAPWM35 (002) TO
                                  WK01-ITEM-ACTN-CD-2-AP35.
      *%--------------------------------------------------------------%*
           MOVE ITEM-ACTN-CODE-AP35  OF FAPWM35 (003) TO
                                  WK01-ITEM-ACTN-CD-3-AP35.
      *%--------------------------------------------------------------%*
           MOVE ITEM-ACTN-CODE-AP35  OF FAPWM35 (004) TO
                                  WK01-ITEM-ACTN-CD-4-AP35.
      *%--------------------------------------------------------------%*
           MOVE ITEM-ACTN-CODE-AP35  OF FAPWM35 (005) TO
                                  WK01-ITEM-ACTN-CD-5-AP35.
      *%--------------------------------------------------------------%*
           MOVE  FUND-CODE-AP35 OF FAPWM35 (001) TO
                                  WK01-FUND-CODE-1-AP35.
      *%--------------------------------------------------------------%*
           MOVE  FUND-CODE-AP35 OF FAPWM35 (002) TO
                                  WK01-FUND-CODE-2-AP35.
      *%--------------------------------------------------------------%*
           MOVE  FUND-CODE-AP35 OF FAPWM35 (003) TO
                                  WK01-FUND-CODE-3-AP35.
      *%--------------------------------------------------------------%*
           MOVE  FUND-CODE-AP35 OF FAPWM35 (004) TO
                                  WK01-FUND-CODE-4-AP35.
      *%--------------------------------------------------------------%*
           MOVE  FUND-CODE-AP35 OF FAPWM35 (005) TO
                                  WK01-FUND-CODE-5-AP35.
      *%--------------------------------------------------------------%*
           MOVE  ORGZN-CODE-AP35 OF FAPWM35 (001) TO
                                  WK01-ORG-CODE-1-AP35.
      *%--------------------------------------------------------------%*
           MOVE  ORGZN-CODE-AP35 OF FAPWM35 (002) TO
                                  WK01-ORG-CODE-2-AP35.
      *%--------------------------------------------------------------%*
           MOVE  ORGZN-CODE-AP35 OF FAPWM35 (003) TO
                                  WK01-ORG-CODE-3-AP35.
      *%--------------------------------------------------------------%*
           MOVE  ORGZN-CODE-AP35 OF FAPWM35 (004) TO
                                  WK01-ORG-CODE-4-AP35.
      *%--------------------------------------------------------------%*
           MOVE  ORGZN-CODE-AP35 OF FAPWM35 (005) TO
                                  WK01-ORG-CODE-5-AP35.
      *%--------------------------------------------------------------%*
           MOVE  ACCT-CODE-AP35 OF FAPWM35 (001)  TO
                                  WK01-ACCT-CODE-1-AP35.
      *%--------------------------------------------------------------%*
           MOVE  ACCT-CODE-AP35 OF FAPWM35 (002)  TO
                                  WK01-ACCT-CODE-2-AP35.
      *%--------------------------------------------------------------%*
           MOVE  ACCT-CODE-AP35 OF FAPWM35 (003)  TO
                                  WK01-ACCT-CODE-3-AP35.
      *%--------------------------------------------------------------%*
           MOVE  ACCT-CODE-AP35 OF FAPWM35 (004)  TO
                                  WK01-ACCT-CODE-4-AP35.
      *%--------------------------------------------------------------%*
           MOVE  ACCT-CODE-AP35 OF FAPWM35 (005)  TO
                                  WK01-ACCT-CODE-5-AP35.
      *%--------------------------------------------------------------%*
           MOVE  PROG-CODE-AP35 OF FAPWM35 (001)  TO
                                  WK01-PROG-CODE-1-AP35.
      *%--------------------------------------------------------------%*
           MOVE  PROG-CODE-AP35 OF FAPWM35 (002)  TO
                                  WK01-PROG-CODE-2-AP35.
      *%--------------------------------------------------------------%*
           MOVE  PROG-CODE-AP35 OF FAPWM35 (003)  TO
                                  WK01-PROG-CODE-3-AP35.
      *%--------------------------------------------------------------%*
           MOVE  PROG-CODE-AP35 OF FAPWM35 (004)  TO
                                  WK01-PROG-CODE-4-AP35.
      *%--------------------------------------------------------------%*
           MOVE  PROG-CODE-AP35 OF FAPWM35 (005)  TO
                                  WK01-PROG-CODE-5-AP35.
      *%--------------------------------------------------------------%*
      *%--------------------------------------------------------------%*
           MOVE  TRAN-AMT-AP35 OF FAPWM35 (001)  TO
                                  WK01-TRAN-AMT-1-AP35.
      *%--------------------------------------------------------------%*
           MOVE  TRAN-AMT-AP35 OF FAPWM35 (002)  TO
                                  WK01-TRAN-AMT-2-AP35.
      *%--------------------------------------------------------------%*
           MOVE  TRAN-AMT-AP35 OF FAPWM35 (003)  TO
                                  WK01-TRAN-AMT-3-AP35.
      *%--------------------------------------------------------------%*
           MOVE  TRAN-AMT-AP35 OF FAPWM35 (004)  TO
                                  WK01-TRAN-AMT-4-AP35.
      *%--------------------------------------------------------------%*
           MOVE  TRAN-AMT-AP35 OF FAPWM35 (005)  TO
                                  WK01-TRAN-AMT-5-AP35.
      *%--------------------------------------------------------------%*
           MOVE  DEBIT-CREDIT-IND-AP35 OF FAPWM35 (001) TO
                                  WK01-D-C-IND-1-AP35.
      *%--------------------------------------------------------------%*
           MOVE  DEBIT-CREDIT-IND-AP35 OF FAPWM35 (002) TO
                                  WK01-D-C-IND-2-AP35.
      *%--------------------------------------------------------------%*
           MOVE  DEBIT-CREDIT-IND-AP35 OF FAPWM35 (003) TO
                                  WK01-D-C-IND-3-AP35.
      *%--------------------------------------------------------------%*
           MOVE  DEBIT-CREDIT-IND-AP35 OF FAPWM35 (004) TO
                                  WK01-D-C-IND-4-AP35.
      *%--------------------------------------------------------------%*
           MOVE  DEBIT-CREDIT-IND-AP35 OF FAPWM35 (005) TO
                                  WK01-D-C-IND-5-AP35.
      *%--------------------------------------------------------------%*
