    ***Created by Convert/DC version V8R03 on 12/01/00 at 17:00***

      *%--------------------------------------------------------------%*
           MOVE DCLINK-MESSAGE  TO WK01-ZZMESSAGE.
      *%--------------------------------------------------------------%*
           MOVE AGR-DATE OF ADSO-APPLICATION-GLOBAL-RECORD TO WK01-DATE.
      *%--------------------------------------------------------------%*
           MOVE AGR-USER-ID OF ADSO-APPLICATION-GLOBAL-RECORD TO
                WK01-USER-ID.
      *%--------------------------------------------------------------%*
           MOVE AGR-FUNC-DESCRIPTION OF ADSO-APPLICATION-GLOBAL-RECORD
                TO WK01-FUNC-DESCRIPTION.
      *%--------------------------------------------------------------%*
           MOVE AGR-PASSED-ONE OF ADSO-APPLICATION-GLOBAL-RECORD TO
                WK01-PASSED-ONE.
      *%--------------------------------------------------------------%*
           MOVE AGR-MAP-RESPONSE OF ADSO-APPLICATION-GLOBAL-RECORD TO
                WK01-MAP-RESPONSE.
      *%--------------------------------------------------------------%*
           MOVE TRMNL-ID-SY00 OF FSYWG00M TO WK01-ID-SY00.
      *%--------------------------------------------------------------%*
           MOVE FULL-NAME-6001-SY00 OF FSYWG00M TO WK01-NAME-6001-SY00.
      *%--------------------------------------------------------------%*
           MOVE AM-PM-FLAG-SY00 OF FSYWG00M TO WK01-PM-FLAG-SY00.
      *%--------------------------------------------------------------%*
           MOVE CURR-RSPNS-ID-SY00 OF FSYWG00M TO WK01-RSPNS-ID-SY00.
      *%--------------------------------------------------------------%*
           MOVE ERROR-TEXT-SY00 OF FSYWG00M TO WK01-TEXT-SY00.
      *%--------------------------------------------------------------%*
           MOVE PAGE-STATUS-CODE-SY00 OF FSYWG00M TO
                WK01-STATUS-CODE-SY00.
      *%--------------------------------------------------------------%*
           MOVE WORK-HH-MM-TIME-SY00 OF FSYWG00M TO
                WK01-HH-MM-TIME-SY00.
      *%--------------------------------------------------------------%*
           MOVE RQST-RQST-CODE-AP21 OF FAPWK21 TO WK01-RQST-CODE-AP21.
      *%--------------------------------------------------------------%*
           MOVE DCMNT-NMBR-4150-AP21 OF FAPWM21(0001) TO
                WK01-NMBR-4150-AP211.
      *%--------------------------------------------------------------%*
           MOVE DCMNT-NMBR-4150-AP21 OF FAPWM21(0002) TO
                WK01-NMBR-4150-AP212.
      *%--------------------------------------------------------------%*
           MOVE DCMNT-NMBR-4150-AP21 OF FAPWM21(0003) TO
                WK01-NMBR-4150-AP213.
      *%--------------------------------------------------------------%*
           MOVE DCMNT-NMBR-4150-AP21 OF FAPWM21(0004) TO
                WK01-NMBR-4150-AP214.
      *%--------------------------------------------------------------%*
           MOVE DCMNT-NMBR-4150-AP21 OF FAPWM21(0005) TO
                WK01-NMBR-4150-AP215.
      *%--------------------------------------------------------------%*
           MOVE DCMNT-NMBR-4150-AP21 OF FAPWM21(0006) TO
                WK01-NMBR-4150-AP216.
      *%--------------------------------------------------------------%*
           MOVE DCMNT-NMBR-4150-AP21 OF FAPWM21(0007) TO
                WK01-NMBR-4150-AP217.
      *%--------------------------------------------------------------%*
           MOVE DCMNT-NMBR-4150-AP21 OF FAPWM21(0008) TO
                WK01-NMBR-4150-AP218.
      *%--------------------------------------------------------------%*
           MOVE DCMNT-NMBR-4150-AP21 OF FAPWM21(0009) TO
                WK01-NMBR-4150-AP219.
      *%--------------------------------------------------------------%*
           MOVE DCMNT-NMBR-4150-AP21 OF FAPWM21(0010) TO
                WK01-NMBR-4150-AP2110.
      *%--------------------------------------------------------------%*
           MOVE DCMNT-NMBR-4150-AP21 OF FAPWM21(0011) TO
                WK01-NMBR-4150-AP2111.
      *%--------------------------------------------------------------%*
           MOVE APRVD-AMT-4150-AP21 OF FAPWM21(0001) TO
                WK01-AMT-4150-AP211.
      *%--------------------------------------------------------------%*
           MOVE APRVD-AMT-4150-AP21 OF FAPWM21(0002) TO
                WK01-AMT-4150-AP212.
      *%--------------------------------------------------------------%*
           MOVE APRVD-AMT-4150-AP21 OF FAPWM21(0003) TO
                WK01-AMT-4150-AP213.
      *%--------------------------------------------------------------%*
           MOVE APRVD-AMT-4150-AP21 OF FAPWM21(0004) TO
                WK01-AMT-4150-AP214.
      *%--------------------------------------------------------------%*
           MOVE APRVD-AMT-4150-AP21 OF FAPWM21(0005) TO
                WK01-AMT-4150-AP215.
      *%--------------------------------------------------------------%*
           MOVE APRVD-AMT-4150-AP21 OF FAPWM21(0006) TO
                WK01-AMT-4150-AP216.
      *%--------------------------------------------------------------%*
           MOVE APRVD-AMT-4150-AP21 OF FAPWM21(0007) TO
                WK01-AMT-4150-AP217.
      *%--------------------------------------------------------------%*
           MOVE APRVD-AMT-4150-AP21 OF FAPWM21(0008) TO
                WK01-AMT-4150-AP218.
      *%--------------------------------------------------------------%*
           MOVE APRVD-AMT-4150-AP21 OF FAPWM21(0009) TO
                WK01-AMT-4150-AP219.
      *%--------------------------------------------------------------%*
           MOVE APRVD-AMT-4150-AP21 OF FAPWM21(0010) TO
                WK01-AMT-4150-AP2110.
      *%--------------------------------------------------------------%*
           MOVE APRVD-AMT-4150-AP21 OF FAPWM21(0011) TO
                WK01-AMT-4150-AP2111.
      *%--------------------------------------------------------------%*
           MOVE INVD-AMT-4150-AP21 OF FAPWM21(0001) TO
                WK01-AMT-4150-AP2A1.
      *%--------------------------------------------------------------%*
           MOVE INVD-AMT-4150-AP21 OF FAPWM21(0002) TO
                WK01-AMT-4150-AP2A2.
      *%--------------------------------------------------------------%*
           MOVE INVD-AMT-4150-AP21 OF FAPWM21(0003) TO
                WK01-AMT-4150-AP2A3.
      *%--------------------------------------------------------------%*
           MOVE INVD-AMT-4150-AP21 OF FAPWM21(0004) TO
                WK01-AMT-4150-AP2A4.
      *%--------------------------------------------------------------%*
           MOVE INVD-AMT-4150-AP21 OF FAPWM21(0005) TO
                WK01-AMT-4150-AP2A5.
      *%--------------------------------------------------------------%*
           MOVE INVD-AMT-4150-AP21 OF FAPWM21(0006) TO
                WK01-AMT-4150-AP2A6.
      *%--------------------------------------------------------------%*
           MOVE INVD-AMT-4150-AP21 OF FAPWM21(0007) TO
                WK01-AMT-4150-AP2A7.
      *%--------------------------------------------------------------%*
           MOVE INVD-AMT-4150-AP21 OF FAPWM21(0008) TO
                WK01-AMT-4150-AP2A8.
      *%--------------------------------------------------------------%*
           MOVE INVD-AMT-4150-AP21 OF FAPWM21(0009) TO
                WK01-AMT-4150-AP2A9.
      *%--------------------------------------------------------------%*
           MOVE INVD-AMT-4150-AP21 OF FAPWM21(0010) TO
                WK01-AMT-4150-AP2A10.
      *%--------------------------------------------------------------%*
           MOVE INVD-AMT-4150-AP21 OF FAPWM21(0011) TO
                WK01-AMT-4150-AP2A11.
      *%--------------------------------------------------------------%*
           MOVE LAST-ACTVY-DATE-4150-AP21 OF FAPWM21(0001) TO
                WK01-ACTVY-DATE-4150-AP211.
      *%--------------------------------------------------------------%*
           MOVE LAST-ACTVY-DATE-4150-AP21 OF FAPWM21(0002) TO
                WK01-ACTVY-DATE-4150-AP212.
      *%--------------------------------------------------------------%*
           MOVE LAST-ACTVY-DATE-4150-AP21 OF FAPWM21(0003) TO
                WK01-ACTVY-DATE-4150-AP213.
      *%--------------------------------------------------------------%*
           MOVE LAST-ACTVY-DATE-4150-AP21 OF FAPWM21(0004) TO
                WK01-ACTVY-DATE-4150-AP214.
      *%--------------------------------------------------------------%*
           MOVE LAST-ACTVY-DATE-4150-AP21 OF FAPWM21(0005) TO
                WK01-ACTVY-DATE-4150-AP215.
      *%--------------------------------------------------------------%*
           MOVE LAST-ACTVY-DATE-4150-AP21 OF FAPWM21(0006) TO
                WK01-ACTVY-DATE-4150-AP216.
      *%--------------------------------------------------------------%*
           MOVE LAST-ACTVY-DATE-4150-AP21 OF FAPWM21(0007) TO
                WK01-ACTVY-DATE-4150-AP217.
      *%--------------------------------------------------------------%*
           MOVE LAST-ACTVY-DATE-4150-AP21 OF FAPWM21(0008) TO
                WK01-ACTVY-DATE-4150-AP218.
      *%--------------------------------------------------------------%*
           MOVE LAST-ACTVY-DATE-4150-AP21 OF FAPWM21(0009) TO
                WK01-ACTVY-DATE-4150-AP219.
      *%--------------------------------------------------------------%*
           MOVE LAST-ACTVY-DATE-4150-AP21 OF FAPWM21(0010) TO
                WK01-ACTVY-DATE-4150-AP2110.
      *%--------------------------------------------------------------%*
           MOVE LAST-ACTVY-DATE-4150-AP21 OF FAPWM21(0011) TO
                WK01-ACTVY-DATE-4150-AP2111.
      *%--------------------------------------------------------------%*
           MOVE APRVL-IND-4150-AP21 OF FAPWM21(0001) TO
                WK01-IND-4150-AP211.
      *%--------------------------------------------------------------%*
           MOVE APRVL-IND-4150-AP21 OF FAPWM21(0002) TO
                WK01-IND-4150-AP212.
      *%--------------------------------------------------------------%*
           MOVE APRVL-IND-4150-AP21 OF FAPWM21(0003) TO
                WK01-IND-4150-AP213.
      *%--------------------------------------------------------------%*
           MOVE APRVL-IND-4150-AP21 OF FAPWM21(0004) TO
                WK01-IND-4150-AP214.
      *%--------------------------------------------------------------%*
           MOVE APRVL-IND-4150-AP21 OF FAPWM21(0005) TO
                WK01-IND-4150-AP215.
      *%--------------------------------------------------------------%*
           MOVE APRVL-IND-4150-AP21 OF FAPWM21(0006) TO
                WK01-IND-4150-AP216.
      *%--------------------------------------------------------------%*
           MOVE APRVL-IND-4150-AP21 OF FAPWM21(0007) TO
                WK01-IND-4150-AP217.
      *%--------------------------------------------------------------%*
           MOVE APRVL-IND-4150-AP21 OF FAPWM21(0008) TO
                WK01-IND-4150-AP218.
      *%--------------------------------------------------------------%*
           MOVE APRVL-IND-4150-AP21 OF FAPWM21(0009) TO
                WK01-IND-4150-AP219.
      *%--------------------------------------------------------------%*
           MOVE APRVL-IND-4150-AP21 OF FAPWM21(0010) TO
                WK01-IND-4150-AP2110.
      *%--------------------------------------------------------------%*
           MOVE APRVL-IND-4150-AP21 OF FAPWM21(0011) TO
                WK01-IND-4150-AP2111.
      *%--------------------------------------------------------------%*
           MOVE OPEN-PAID-IND-4150-AP21 OF FAPWM21(0001) TO
                WK01-PAID-IND-4150-AP211.
      *%--------------------------------------------------------------%*
           MOVE OPEN-PAID-IND-4150-AP21 OF FAPWM21(0002) TO
                WK01-PAID-IND-4150-AP212.
      *%--------------------------------------------------------------%*
           MOVE OPEN-PAID-IND-4150-AP21 OF FAPWM21(0003) TO
                WK01-PAID-IND-4150-AP213.
      *%--------------------------------------------------------------%*
           MOVE OPEN-PAID-IND-4150-AP21 OF FAPWM21(0004) TO
                WK01-PAID-IND-4150-AP214.
      *%--------------------------------------------------------------%*
           MOVE OPEN-PAID-IND-4150-AP21 OF FAPWM21(0005) TO
                WK01-PAID-IND-4150-AP215.
      *%--------------------------------------------------------------%*
           MOVE OPEN-PAID-IND-4150-AP21 OF FAPWM21(0006) TO
                WK01-PAID-IND-4150-AP216.
      *%--------------------------------------------------------------%*
           MOVE OPEN-PAID-IND-4150-AP21 OF FAPWM21(0007) TO
                WK01-PAID-IND-4150-AP217.
      *%--------------------------------------------------------------%*
           MOVE OPEN-PAID-IND-4150-AP21 OF FAPWM21(0008) TO
                WK01-PAID-IND-4150-AP218.
      *%--------------------------------------------------------------%*
           MOVE OPEN-PAID-IND-4150-AP21 OF FAPWM21(0009) TO
                WK01-PAID-IND-4150-AP219.
      *%--------------------------------------------------------------%*
           MOVE OPEN-PAID-IND-4150-AP21 OF FAPWM21(0010) TO
                WK01-PAID-IND-4150-AP2110.
      *%--------------------------------------------------------------%*
           MOVE OPEN-PAID-IND-4150-AP21 OF FAPWM21(0011) TO
                WK01-PAID-IND-4150-AP2111.
      *%--------------------------------------------------------------%*
           MOVE CRDT-MEMO-4150-AP21 OF FAPWM21(0001) TO
                WK01-MEMO-4150-AP211.
      *%--------------------------------------------------------------%*
           MOVE CRDT-MEMO-4150-AP21 OF FAPWM21(0002) TO
                WK01-MEMO-4150-AP212.
      *%--------------------------------------------------------------%*
           MOVE CRDT-MEMO-4150-AP21 OF FAPWM21(0003) TO
                WK01-MEMO-4150-AP213.
      *%--------------------------------------------------------------%*
           MOVE CRDT-MEMO-4150-AP21 OF FAPWM21(0004) TO
                WK01-MEMO-4150-AP214.
      *%--------------------------------------------------------------%*
           MOVE CRDT-MEMO-4150-AP21 OF FAPWM21(0005) TO
                WK01-MEMO-4150-AP215.
      *%--------------------------------------------------------------%*
           MOVE CRDT-MEMO-4150-AP21 OF FAPWM21(0006) TO
                WK01-MEMO-4150-AP216.
      *%--------------------------------------------------------------%*
           MOVE CRDT-MEMO-4150-AP21 OF FAPWM21(0007) TO
                WK01-MEMO-4150-AP217.
      *%--------------------------------------------------------------%*
           MOVE CRDT-MEMO-4150-AP21 OF FAPWM21(0008) TO
                WK01-MEMO-4150-AP218.
      *%--------------------------------------------------------------%*
           MOVE CRDT-MEMO-4150-AP21 OF FAPWM21(0009) TO
                WK01-MEMO-4150-AP219.
      *%--------------------------------------------------------------%*
           MOVE CRDT-MEMO-4150-AP21 OF FAPWM21(0010) TO
                WK01-MEMO-4150-AP2110.
      *%--------------------------------------------------------------%*
           MOVE CRDT-MEMO-4150-AP21 OF FAPWM21(0011) TO
                WK01-MEMO-4150-AP2111.
      *%--------------------------------------------------------------%*
           MOVE SELECT-FLAG-AP21 OF FAPWK21 TO WK01-FLAG-AP21.
      *%--------------------------------------------------------------%*
           MOVE ACTN-CODE-AP21 OF FAPWM21(0001) TO WK01-CODE-AP211.
      *%--------------------------------------------------------------%*
           MOVE ACTN-CODE-AP21 OF FAPWM21(0002) TO WK01-CODE-AP212.
      *%--------------------------------------------------------------%*
           MOVE ACTN-CODE-AP21 OF FAPWM21(0003) TO WK01-CODE-AP213.
      *%--------------------------------------------------------------%*
           MOVE ACTN-CODE-AP21 OF FAPWM21(0004) TO WK01-CODE-AP214.
      *%--------------------------------------------------------------%*
           MOVE ACTN-CODE-AP21 OF FAPWM21(0005) TO WK01-CODE-AP215.
      *%--------------------------------------------------------------%*
           MOVE ACTN-CODE-AP21 OF FAPWM21(0006) TO WK01-CODE-AP216.
      *%--------------------------------------------------------------%*
           MOVE ACTN-CODE-AP21 OF FAPWM21(0007) TO WK01-CODE-AP217.
      *%--------------------------------------------------------------%*
           MOVE ACTN-CODE-AP21 OF FAPWM21(0008) TO WK01-CODE-AP218.
      *%--------------------------------------------------------------%*
           MOVE ACTN-CODE-AP21 OF FAPWM21(0009) TO WK01-CODE-AP219.
      *%--------------------------------------------------------------%*
           MOVE ACTN-CODE-AP21 OF FAPWM21(0010) TO WK01-CODE-AP2110.
      *%--------------------------------------------------------------%*
           MOVE ACTN-CODE-AP21 OF FAPWM21(0011) TO WK01-CODE-AP2111.
