       01  MAP-CONTROL.

    ***Created by Convert/DC version V8R03 on 12/05/00 at 13:00***

           02  FAPMU05-MAP-CONTROL.
           03  FAPMU05T.
           04  WK01-DCXMAPL-PARMS.
               10  WK01-MAPNAME                  PIC X(8)
                                                 VALUE 'FAPMU05I'.
               10  WK01-IKE-LENGTH               PIC S9(8)  COMP
                                                 VALUE 14179.
               10  WK01-TINA-LENGTH              PIC S9(4)  COMP
                                                 VALUE 1292.
           05  WK01-ATTRIBUTES                   PIC X(60)
                                                 VALUE SPACE.
           05  WK01-ATTRIBUTES-ERROR             PIC X(60) VALUE
               'U  BIF'.
           05  WK01-CURSOR-DFLD                  PIC X(36)
                                                 VALUE SPACES.
           05  WK01-CURSOR-DFLD-QUAL             PIC X(30)
                                                 VALUE SPACES.
           05  WK01-ROW                          PIC S9(4) COMP
                                                 VALUE ZERO.
           05  WK01-COLUMN                       PIC S9(4) COMP
                                                 VALUE ZERO.
           05  WK01-ERROR-MSG                    PIC X(80)
                                                 VALUE SPACES.
           05  WK01-MAP-DATA-LEN                 PIC S9(6)
                                                 VALUE ZERO.
           05  WK01-1ST-FLAG                     PIC X(1)
                                                 VALUE 'Y'.
           05  WK01-FLAG-OUTPUT-DATA             PIC X(1)
                                                 VALUE 'Y'.
      *    05  WK01-STATUS-RETURN-FLAG           PIC X(1)
      *                                          VALUE SPACES.
           05  WK01-ALL-BUT-FLAG                 PIC X(1)
                                                 VALUE SPACES.
           05  WK01-FLAG-ALL-FIELDS-CHANGED      PIC X(1)  VALUE 'Y'.
           05  WK01-FLAG-ANY-FIELDS-CHANGED      PIC X(1)  VALUE 'N'.
           05  WK01-FLAG-ALL-FIELDS-ERROR        PIC X(1)  VALUE 'Y'.
           05  WK01-FLAG-ANY-FIELDS-ERROR        PIC X(1)  VALUE 'N'.
           05  WK01-FLAG-ALL-FIELDS-ERASE        PIC X(1)  VALUE 'Y'.
           05  WK01-FLAG-ANY-FIELDS-ERASE        PIC X(1)  VALUE 'Y'.

           05  WK01-VARDATA                      PIC X(11880)
                                                 VALUE SPACES.
           05  FILLER                            PIC X(100)
                                                 VALUE SPACES.
           04  WK01-ELEMENT-AREA.

               10  WK01-ID-SY00-Z              PIC X(1)
                                               VALUE SPACE.
               10  WK01-ID-SY00-F              PIC X(1)
                                               VALUE SPACE.
               10  WK01-ID-SY00-A              PIC X(1)
                                               VALUE SPACE.
               10  WK01-ID-SY00-V              PIC X(1)
                                               VALUE SPACE.
               10  WK01-ID-SY00-O              PIC X(1)
                                               VALUE SPACE.
               10  WK01-ID-SY00       PIC X(8)
                                               VALUE SPACES.
               10  WK01-NAME-6001-SY00-Z              PIC X(1)
                                               VALUE SPACE.
               10  WK01-NAME-6001-SY00-F              PIC X(1)
                                               VALUE SPACE.
               10  WK01-NAME-6001-SY00-A              PIC X(1)
                                               VALUE SPACE.
               10  WK01-NAME-6001-SY00-V              PIC X(1)
                                               VALUE SPACE.
               10  WK01-NAME-6001-SY00-O              PIC X(1)
                                               VALUE SPACE.
               10  WK01-NAME-6001-SY00       PIC X(35)
                                               VALUE SPACES.
               10  WK01-DATE-Z              PIC X(1)
                                               VALUE SPACE.
               10  WK01-DATE-F              PIC X(1)
                                               VALUE SPACE.
               10  WK01-DATE-A              PIC X(1)
                                               VALUE SPACE.
               10  WK01-DATE-V              PIC X(1)
                                               VALUE SPACE.
               10  WK01-DATE-O              PIC X(1)
                                               VALUE SPACE.
               10  WK01-DATE       PIC X(8)
                                               VALUE SPACES.
               10  WK01-HH-MM-TIME-SY00-Z              PIC X(1)
                                               VALUE SPACE.
               10  WK01-HH-MM-TIME-SY00-F              PIC X(1)
                                               VALUE SPACE.
               10  WK01-HH-MM-TIME-SY00-A              PIC X(1)
                                               VALUE SPACE.
               10  WK01-HH-MM-TIME-SY00-V              PIC X(1)
                                               VALUE SPACE.
               10  WK01-HH-MM-TIME-SY00-O              PIC X(1)
                                               VALUE SPACE.
               10  WK01-HH-MM-TIME-SY00       PIC X(4)
                                               VALUE SPACES.
               10  WK01-PM-FLAG-SY00-Z              PIC X(1)
                                               VALUE SPACE.
               10  WK01-PM-FLAG-SY00-F              PIC X(1)
                                               VALUE SPACE.
               10  WK01-PM-FLAG-SY00-A              PIC X(1)
                                               VALUE SPACE.
               10  WK01-PM-FLAG-SY00-V              PIC X(1)
                                               VALUE SPACE.
               10  WK01-PM-FLAG-SY00-O              PIC X(1)
                                               VALUE SPACE.
               10  WK01-PM-FLAG-SY00       PIC X(1)
                                               VALUE SPACES.
               10  WK01-USER-ID-Z              PIC X(1)
                                               VALUE SPACE.
               10  WK01-USER-ID-F              PIC X(1)
                                               VALUE SPACE.
               10  WK01-USER-ID-A              PIC X(1)
                                               VALUE SPACE.
               10  WK01-USER-ID-V              PIC X(1)
                                               VALUE SPACE.
               10  WK01-USER-ID-O              PIC X(1)
                                               VALUE SPACE.
               10  WK01-USER-ID       PIC X(32)
                                               VALUE SPACES.
               10  WK01-RSPNS-ID-SY00-Z              PIC X(1)
                                               VALUE SPACE.
               10  WK01-RSPNS-ID-SY00-F              PIC X(1)
                                               VALUE SPACE.
               10  WK01-RSPNS-ID-SY00-A              PIC X(1)
                                               VALUE SPACE.
               10  WK01-RSPNS-ID-SY00-V              PIC X(1)
                                               VALUE SPACE.
               10  WK01-RSPNS-ID-SY00-O              PIC X(1)
                                               VALUE SPACE.
               10  WK01-RSPNS-ID-SY00       PIC X(8)
                                               VALUE SPACES.
               10  WK01-FUNC-DESCRIPTION-Z              PIC X(1)
                                               VALUE SPACE.
               10  WK01-FUNC-DESCRIPTION-F              PIC X(1)
                                               VALUE SPACE.
               10  WK01-FUNC-DESCRIPTION-A              PIC X(1)
                                               VALUE SPACE.
               10  WK01-FUNC-DESCRIPTION-V              PIC X(1)
                                               VALUE SPACE.
               10  WK01-FUNC-DESCRIPTION-O              PIC X(1)
                                               VALUE SPACE.
               10  WK01-FUNC-DESCRIPTION       PIC X(28)
                                               VALUE SPACES.
               10  WK01-STATUS-CODE-SY00-Z              PIC X(1)
                                               VALUE SPACE.
               10  WK01-STATUS-CODE-SY00-F              PIC X(1)
                                               VALUE SPACE.
               10  WK01-STATUS-CODE-SY00-A              PIC X(1)
                                               VALUE SPACE.
               10  WK01-STATUS-CODE-SY00-V              PIC X(1)
                                               VALUE SPACE.
               10  WK01-STATUS-CODE-SY00-O              PIC X(1)
                                               VALUE SPACE.
               10  WK01-STATUS-CODE-SY00       PIC X(1)
                                               VALUE SPACES.
               10  WK01-VNDR-ID-LAST-NN-AP05-Z              PIC X(1)
                                               VALUE SPACE.
               10  WK01-VNDR-ID-LAST-NN-AP05-F              PIC X(1)
                                               VALUE SPACE.
               10  WK01-VNDR-ID-LAST-NN-AP05-A              PIC X(1)
                                               VALUE SPACE.
               10  WK01-VNDR-ID-LAST-NN-AP05-V              PIC X(1)
                                               VALUE SPACE.
               10  WK01-VNDR-ID-LAST-NN-AP05-O              PIC X(1)
                                               VALUE SPACE.
               10  WK01-VNDR-ID-LAST-NN-AP05       PIC X(9)
                                               VALUE SPACES.
               10  WK01-KEY-6117-R-6311-AP05-Z              PIC X(1)
                                               VALUE SPACE.
               10  WK01-KEY-6117-R-6311-AP05-F              PIC X(1)
                                               VALUE SPACE.
               10  WK01-KEY-6117-R-6311-AP05-A              PIC X(1)
                                               VALUE SPACE.
               10  WK01-KEY-6117-R-6311-AP05-V              PIC X(1)
                                               VALUE SPACE.
               10  WK01-KEY-6117-R-6311-AP05-O              PIC X(1)
                                               VALUE SPACE.
               10  WK01-KEY-6117-R-6311-AP05       PIC X(35)
                                               VALUE SPACES.
               10  WK01-FDRL-WTHLD-PCT-AP05-Z               PIC X(1)
                                               VALUE SPACE.
               10  WK01-FDRL-WTHLD-PCT-AP05-F               PIC X(1)
                                               VALUE SPACE.
               10  WK01-FDRL-WTHLD-PCT-AP05-A               PIC X(1)
                                               VALUE SPACE.
               10  WK01-FDRL-WTHLD-PCT-AP05-V               PIC X(1)
                                               VALUE SPACE.
               10  WK01-FDRL-WTHLD-PCT-AP05-O               PIC X(1)
                                               VALUE SPACE.
               10  WK01-FDRL-WTHLD-PCT-AP05        PIC X(02)
                                               VALUE SPACES.
               10  WK01-AD-TYPE-CODE-AP05-Z          PIC X(1)
                                               VALUE SPACE.
               10  WK01-AD-TYPE-CODE-AP05-F          PIC X(1)
                                               VALUE SPACE.
               10  WK01-AD-TYPE-CODE-AP05-A          PIC X(1)
                                               VALUE SPACE.
               10  WK01-AD-TYPE-CODE-AP05-V          PIC X(1)
                                               VALUE SPACE.
               10  WK01-AD-TYPE-CODE-AP05-O          PIC X(1)
                                               VALUE SPACE.
               10  WK01-AD-TYPE-CODE-AP05       PIC X(2)
                                               VALUE SPACES.
               10  WK01-AP051-Z              PIC X(1)
                                               VALUE SPACE.
               10  WK01-AP051-F              PIC X(1)
                                               VALUE SPACE.
               10  WK01-AP051-A              PIC X(1)
                                               VALUE SPACE.
               10  WK01-AP051-V              PIC X(1)
                                               VALUE SPACE.
               10  WK01-AP051-O              PIC X(1)
                                               VALUE SPACE.
               10  WK01-AP051       PIC X(35)
                                               VALUE SPACES.
               10  WK01-AP052-Z              PIC X(1)
                                               VALUE SPACE.
               10  WK01-AP052-F              PIC X(1)
                                               VALUE SPACE.
               10  WK01-AP052-A              PIC X(1)
                                               VALUE SPACE.
               10  WK01-AP052-V              PIC X(1)
                                               VALUE SPACE.
               10  WK01-AP052-O              PIC X(1)
                                               VALUE SPACE.
               10  WK01-AP052       PIC X(35)
                                               VALUE SPACES.
               10  WK01-AP053-Z              PIC X(1)
                                               VALUE SPACE.
               10  WK01-AP053-F              PIC X(1)
                                               VALUE SPACE.
               10  WK01-AP053-A              PIC X(1)
                                               VALUE SPACE.
               10  WK01-AP053-V              PIC X(1)
                                               VALUE SPACE.
               10  WK01-AP053-O              PIC X(1)
                                               VALUE SPACE.
               10  WK01-AP053       PIC X(35)
                                               VALUE SPACES.
               10  WK01-NAME-AP05-Z              PIC X(1)
                                               VALUE SPACE.
               10  WK01-NAME-AP05-F              PIC X(1)
                                               VALUE SPACE.
               10  WK01-NAME-AP05-A              PIC X(1)
                                               VALUE SPACE.
               10  WK01-NAME-AP05-V              PIC X(1)
                                               VALUE SPACE.
               10  WK01-NAME-AP05-O              PIC X(1)
                                               VALUE SPACE.
               10  WK01-NAME-AP05       PIC X(18)
                                               VALUE SPACES.
               10  WK01-CODE-AP0B-Z              PIC X(1)
                                               VALUE SPACE.
               10  WK01-CODE-AP0B-F              PIC X(1)
                                               VALUE SPACE.
               10  WK01-CODE-AP0B-A              PIC X(1)
                                               VALUE SPACE.
               10  WK01-CODE-AP0B-V              PIC X(1)
                                               VALUE SPACE.
               10  WK01-CODE-AP0B-O              PIC X(1)
                                               VALUE SPACE.
               10  WK01-CODE-AP0B       PIC X(2)
                                               VALUE SPACES.
               10  WK01-CODE-AP0C-Z              PIC X(1)
                                               VALUE SPACE.
               10  WK01-CODE-AP0C-F              PIC X(1)
                                               VALUE SPACE.
               10  WK01-CODE-AP0C-A              PIC X(1)
                                               VALUE SPACE.
               10  WK01-CODE-AP0C-V              PIC X(1)
                                               VALUE SPACE.
               10  WK01-CODE-AP0C-O              PIC X(1)
                                               VALUE SPACE.
               10  WK01-CODE-AP0C       PIC X(10)
                                               VALUE SPACES.
               10  WK01-POSTAL-CODE-AP05-Z           PIC X(1)
                                               VALUE SPACE.
               10  WK01-POSTAL-CODE-AP05-F           PIC X(1)
                                               VALUE SPACE.
               10  WK01-POSTAL-CODE-AP05-A           PIC X(1)
                                               VALUE SPACE.
               10  WK01-POSTAL-CODE-AP05-V           PIC X(1)
                                               VALUE SPACE.
               10  WK01-POSTAL-CODE-AP05-O           PIC X(1)
                                               VALUE SPACE.
               10  WK01-POSTAL-CODE-AP05    PIC X(10)
                                               VALUE SPACES.
               10  WK01-PROV-CODE-AP05-Z             PIC X(1)
                                               VALUE SPACE.
               10  WK01-PROV-CODE-AP05-F             PIC X(1)
                                               VALUE SPACE.
               10  WK01-PROV-CODE-AP05-A             PIC X(1)
                                               VALUE SPACE.
               10  WK01-PROV-CODE-AP05-V             PIC X(1)
                                               VALUE SPACE.
               10  WK01-PROV-CODE-AP05-O             PIC X(1)
                                               VALUE SPACE.
               10  WK01-PROV-CODE-AP05      PIC X(04)
                                               VALUE SPACES.
               10  WK01-CODE-AP05-Z              PIC X(1)
                                               VALUE SPACE.
               10  WK01-CODE-AP05-F              PIC X(1)
                                               VALUE SPACE.
               10  WK01-CODE-AP05-A              PIC X(1)
                                               VALUE SPACE.
               10  WK01-CODE-AP05-V              PIC X(1)
                                               VALUE SPACE.
               10  WK01-CODE-AP05-O              PIC X(1)
                                               VALUE SPACE.
               10  WK01-CODE-AP05       PIC X(1)
                                               VALUE SPACES.
DEVMJM* FP3175
               10  WK01-592-IND-AP05-Z         PIC X(1)
                                               VALUE SPACE.
               10  WK01-592-IND-AP05-F         PIC X(1)
                                               VALUE SPACE.
               10  WK01-592-IND-AP05-A         PIC X(1)
                                               VALUE SPACE.
               10  WK01-592-IND-AP05-V         PIC X(1)
                                               VALUE SPACE.
               10  WK01-592-IND-AP05-O         PIC X(1)
                                               VALUE SPACE.
               10  WK01-592-IND-AP05           PIC X(1)
                                               VALUE SPACES.
               10  WK01-592-IND-LIT-AP05-Z     PIC X(1)
                                               VALUE SPACE.
               10  WK01-592-IND-LIT-AP05-F     PIC X(1)
                                               VALUE SPACE.
               10  WK01-592-IND-LIT-AP05-A     PIC X(1)
                                               VALUE SPACE.
               10  WK01-592-IND-LIT-AP05-V     PIC X(1)
                                               VALUE SPACE.
               10  WK01-592-IND-LIT-AP05-O     PIC X(1)
                                               VALUE SPACE.
               10  WK01-592-IND-LIT-AP05       PIC X(40)
                                               VALUE SPACES.
DEVMJM* FP3175
               10  WK01-NMBR-AP05-Z              PIC X(1)
                                               VALUE SPACE.
               10  WK01-NMBR-AP05-F              PIC X(1)
                                               VALUE SPACE.
               10  WK01-NMBR-AP05-A              PIC X(1)
                                               VALUE SPACE.
               10  WK01-NMBR-AP05-V              PIC X(1)
                                               VALUE SPACE.
               10  WK01-NMBR-AP05-O              PIC X(1)
                                               VALUE SPACE.
               10  WK01-NMBR-AP05       PIC X(8)
                                               VALUE SPACES.
               10  WK01-DATE-AP05-Z              PIC X(1)
                                               VALUE SPACE.
               10  WK01-DATE-AP05-F              PIC X(1)
                                               VALUE SPACE.
               10  WK01-DATE-AP05-A              PIC X(1)
                                               VALUE SPACE.
               10  WK01-DATE-AP05-V              PIC X(1)
                                               VALUE SPACE.
               10  WK01-DATE-AP05-O              PIC X(1)
                                               VALUE SPACE.
               10  WK01-DATE-AP05       PIC X(6)
                                               VALUE SPACES.
               10  WK01-NMBR-4158-AP05-Z              PIC X(1)
                                               VALUE SPACE.
               10  WK01-NMBR-4158-AP05-F              PIC X(1)
                                               VALUE SPACE.
               10  WK01-NMBR-4158-AP05-A              PIC X(1)
                                               VALUE SPACE.
               10  WK01-NMBR-4158-AP05-V              PIC X(1)
                                               VALUE SPACE.
               10  WK01-NMBR-4158-AP05-O              PIC X(1)
                                               VALUE SPACE.
               10  WK01-NMBR-4158-AP05       PIC X(8)
                                               VALUE SPACES.
               10  WK01-TYPE-CODE-AP05-Z              PIC X(1)
                                               VALUE SPACE.
               10  WK01-TYPE-CODE-AP05-F              PIC X(1)
                                               VALUE SPACE.
               10  WK01-TYPE-CODE-AP05-A              PIC X(1)
                                               VALUE SPACE.
               10  WK01-TYPE-CODE-AP05-V              PIC X(1)
                                               VALUE SPACE.
               10  WK01-TYPE-CODE-AP05-O              PIC X(1)
                                               VALUE SPACE.
               10  WK01-TYPE-CODE-AP05       PIC X(2)
                                               VALUE SPACES.
               10  WK01-AMT-AP05-Z              PIC X(1)
                                               VALUE SPACE.
               10  WK01-AMT-AP05-F              PIC X(1)
                                               VALUE SPACE.
               10  WK01-AMT-AP05-A              PIC X(1)
                                               VALUE SPACE.
               10  WK01-AMT-AP05-V              PIC X(1)
                                               VALUE SPACE.
               10  WK01-AMT-AP05-O              PIC X(1)
                                               VALUE SPACE.
               10  WK01-AMT-AP05       PIC X(12)
                                               VALUE SPACES.
               10  WK01-WTHHLD-AP05-Z              PIC X(1)
                                               VALUE SPACE.
               10  WK01-WTHHLD-AP05-F              PIC X(1)
                                               VALUE SPACE.
               10  WK01-WTHHLD-AP05-A              PIC X(1)
                                               VALUE SPACE.
               10  WK01-WTHHLD-AP05-V              PIC X(1)
                                               VALUE SPACE.
               10  WK01-WTHHLD-AP05-O              PIC X(1)
                                               VALUE SPACE.
               10  WK01-WTHHLD-AP05       PIC X(12)
                                               VALUE SPACES.
               10  WK01-STATE-WTHHLD-AP05-Z        PIC X(1)
                                               VALUE SPACE.
               10  WK01-STATE-WTHHLD-AP05-F        PIC X(1)
                                               VALUE SPACE.
               10  WK01-STATE-WTHHLD-AP05-A        PIC X(1)
                                               VALUE SPACE.
               10  WK01-STATE-WTHHLD-AP05-V        PIC X(1)
                                               VALUE SPACE.
               10  WK01-STATE-WTHHLD-AP05-O        PIC X(1)
                                               VALUE SPACE.
               10  WK01-STATE-WTHHLD-AP05   PIC X(12)
                                               VALUE SPACES.
               10  WK01-RPRT-ID-AP05-Z              PIC X(1)
                                               VALUE SPACE.
               10  WK01-RPRT-ID-AP05-F              PIC X(1)
                                               VALUE SPACE.
               10  WK01-RPRT-ID-AP05-A              PIC X(1)
                                               VALUE SPACE.
               10  WK01-RPRT-ID-AP05-V              PIC X(1)
                                               VALUE SPACE.
               10  WK01-RPRT-ID-AP05-O              PIC X(1)
                                               VALUE SPACE.
               10  WK01-RPRT-ID-AP05       PIC X(11)
                                               VALUE SPACES.
               10  WK01-MEMO-AP05-Z              PIC X(1)
                                               VALUE SPACE.
               10  WK01-MEMO-AP05-F              PIC X(1)
                                               VALUE SPACE.
               10  WK01-MEMO-AP05-A              PIC X(1)
                                               VALUE SPACE.
               10  WK01-MEMO-AP05-V              PIC X(1)
                                               VALUE SPACE.
               10  WK01-MEMO-AP05-O              PIC X(1)
                                               VALUE SPACE.
               10  WK01-MEMO-AP05       PIC X(1)
                                               VALUE SPACES.
               10  WK01-YR-AP05-Z              PIC X(1)
                                               VALUE SPACE.
               10  WK01-YR-AP05-F              PIC X(1)
                                               VALUE SPACE.
               10  WK01-YR-AP05-A              PIC X(1)
                                               VALUE SPACE.
               10  WK01-YR-AP05-V              PIC X(1)
                                               VALUE SPACE.
               10  WK01-YR-AP05-O              PIC X(1)
                                               VALUE SPACE.
               10  WK01-YR-AP05       PIC X(2)
                                               VALUE SPACES.
               10  WK01-ACCT-CODE-4153-AP05-Z              PIC X(1)
                                               VALUE SPACE.
               10  WK01-ACCT-CODE-4153-AP05-F              PIC X(1)
                                               VALUE SPACE.
               10  WK01-ACCT-CODE-4153-AP05-A              PIC X(1)
                                               VALUE SPACE.
               10  WK01-ACCT-CODE-4153-AP05-V              PIC X(1)
                                               VALUE SPACE.
               10  WK01-ACCT-CODE-4153-AP05-O              PIC X(1)
                                               VALUE SPACE.
               10  WK01-ACCT-CODE-4153-AP05       PIC X(2)
                                               VALUE SPACES.
               10  WK01-ACCT-DESC-AP05-Z              PIC X(1)
                                               VALUE SPACE.
               10  WK01-ACCT-DESC-AP05-F              PIC X(1)
                                               VALUE SPACE.
               10  WK01-ACCT-DESC-AP05-A              PIC X(1)
                                               VALUE SPACE.
               10  WK01-ACCT-DESC-AP05-V              PIC X(1)
                                               VALUE SPACE.
               10  WK01-ACCT-DESC-AP05-O              PIC X(1)
                                               VALUE SPACE.
               10  WK01-ACCT-DESC-AP05       PIC X(35)
                                               VALUE SPACES.
FP7157         10  WK01-TAX-TREATY-IND-AP05-Z         PIC X(1)
                                               VALUE SPACE.
FP7157         10  WK01-TAX-TREATY-IND-AP05-F         PIC X(1)
                                               VALUE SPACE.
FP7157         10  WK01-TAX-TREATY-IND-AP05-A         PIC X(1)
                                               VALUE SPACE.
FP7157         10  WK01-TAX-TREATY-IND-AP05-V         PIC X(1)
                                               VALUE SPACE.
FP7157         10  WK01-TAX-TREATY-IND-AP05-O         PIC X(1)
                                               VALUE SPACE.
FP7157         10  WK01-TAX-TREATY-IND-AP05  PIC X(01)
                                               VALUE SPACES.
               10  WK01-ORGN-CODE-AP05-Z         PIC X(1)
                                               VALUE SPACE.
               10  WK01-ORGN-CODE-AP05-F         PIC X(1)
                                               VALUE SPACE.
               10  WK01-ORGN-CODE-AP05-A         PIC X(1)
                                               VALUE SPACE.
               10  WK01-ORGN-CODE-AP05-V         PIC X(1)
                                               VALUE SPACE.
               10  WK01-ORGN-CODE-AP05-O         PIC X(1)
                                               VALUE SPACE.
               10  WK01-ORGN-CODE-AP05      PIC X(4)
                                               VALUE SPACES.
               10  WK01-DESC-AP05-Z              PIC X(1)
                                               VALUE SPACE.
               10  WK01-DESC-AP05-F              PIC X(1)
                                               VALUE SPACE.
               10  WK01-DESC-AP05-A              PIC X(1)
                                               VALUE SPACE.
               10  WK01-DESC-AP05-V              PIC X(1)
                                               VALUE SPACE.
               10  WK01-DESC-AP05-O              PIC X(1)
                                               VALUE SPACE.
               10  WK01-DESC-AP05       PIC X(30)
                                               VALUE SPACES.
MLJ001         10  WK01-IRS-INCOME-CD-AP05-Z          PIC X(1)
                                               VALUE SPACE.
               10  WK01-IRS-INCOME-CD-AP05-F          PIC X(1)
                                               VALUE SPACE.
               10  WK01-IRS-INCOME-CD-AP05-A          PIC X(1)
                                               VALUE SPACE.
               10  WK01-IRS-INCOME-CD-AP05-V          PIC X(1)
                                               VALUE SPACE.
               10  WK01-IRS-INCOME-CD-AP05-O          PIC X(1)
                                               VALUE SPACE.
               10  WK01-IRS-INCOME-CD-AP05     PIC X(02)
                                               VALUE SPACES.
               10  WK01-ADR-TYPE-CODE-AP05-Z              PIC X(1)
                                               VALUE SPACE.
               10  WK01-ADR-TYPE-CODE-AP05-F              PIC X(1)
                                               VALUE SPACE.
               10  WK01-ADR-TYPE-CODE-AP05-A              PIC X(1)
                                               VALUE SPACE.
               10  WK01-ADR-TYPE-CODE-AP05-V              PIC X(1)
                                               VALUE SPACE.
               10  WK01-ADR-TYPE-CODE-AP05-O              PIC X(1)
                                               VALUE SPACE.
               10  WK01-ADR-TYPE-CODE-AP05       PIC X(2)
                                               VALUE SPACES.
DMW002         10  WK01-CNTRY-ORIGIN-CD-AP05-Z    PIC X(1)
                                               VALUE SPACE.
               10  WK01-CNTRY-ORIGIN-CD-AP05-F        PIC X(1)
                                               VALUE SPACE.
               10  WK01-CNTRY-ORIGIN-CD-AP05-A        PIC X(1)
                                               VALUE SPACE.
               10  WK01-CNTRY-ORIGIN-CD-AP05-V        PIC X(1)
                                               VALUE SPACE.
               10  WK01-CNTRY-ORIGIN-CD-AP05-O        PIC X(1)
                                               VALUE SPACE.
               10  WK01-CNTRY-ORIGIN-CD-AP05   PIC X(02)
DMW002                                         VALUE SPACES.
MLJ002         10  WK01-CNTRY-FULL-NAME-AP05-Z    PIC X(1)
                                               VALUE SPACE.
               10  WK01-CNTRY-FULL-NAME-AP05-F        PIC X(1)
                                               VALUE SPACE.
               10  WK01-CNTRY-FULL-NAME-AP05-A        PIC X(1)
                                               VALUE SPACE.
               10  WK01-CNTRY-FULL-NAME-AP05-V        PIC X(1)
                                               VALUE SPACE.
               10  WK01-CNTRY-FULL-NAME-AP05-O        PIC X(1)
                                               VALUE SPACE.
               10  WK01-CNTRY-FULL-NAME-AP05   PIC X(35)
MLJ002                                         VALUE SPACES.
               10  WK01-TOT-RPT-AMT-AP05-Z              PIC X(1)
                                               VALUE SPACE.
               10  WK01-TOT-RPT-AMT-AP05-F              PIC X(1)
                                               VALUE SPACE.
               10  WK01-TOT-RPT-AMT-AP05-A              PIC X(1)
                                               VALUE SPACE.
               10  WK01-TOT-RPT-AMT-AP05-V              PIC X(1)
                                               VALUE SPACE.
               10  WK01-TOT-RPT-AMT-AP05-O              PIC X(1)
                                               VALUE SPACE.
               10  WK01-TOT-RPT-AMT-AP05       PIC X(13)
                                               VALUE SPACES.
               10  WK01-TOT-FDRL-WTHHLD-AP05-Z              PIC X(1)
                                               VALUE SPACE.
               10  WK01-TOT-FDRL-WTHHLD-AP05-F              PIC X(1)
                                               VALUE SPACE.
               10  WK01-TOT-FDRL-WTHHLD-AP05-A              PIC X(1)
                                               VALUE SPACE.
               10  WK01-TOT-FDRL-WTHHLD-AP05-V              PIC X(1)
                                               VALUE SPACE.
               10  WK01-TOT-FDRL-WTHHLD-AP05-O              PIC X(1)
                                               VALUE SPACE.
               10  WK01-TOT-FDRL-WTHHLD-AP05       PIC X(13)
                                               VALUE SPACES.
               10  WK01-TOT-STAT-WTHHLD-AP05-Z              PIC X(1)
                                               VALUE SPACE.
               10  WK01-TOT-STAT-WTHHLD-AP05-F              PIC X(1)
                                               VALUE SPACE.
               10  WK01-TOT-STAT-WTHHLD-AP05-A              PIC X(1)
                                               VALUE SPACE.
               10  WK01-TOT-STAT-WTHHLD-AP05-V              PIC X(1)
                                               VALUE SPACE.
               10  WK01-TOT-STAT-WTHHLD-AP05-O              PIC X(1)
                                               VALUE SPACE.
               10  WK01-TOT-STAT-WTHHLD-AP05       PIC X(13)
                                               VALUE SPACES.
               10  WK01-TOT-FDRL-PD-OVR-AP05-Z              PIC X(1)
                                               VALUE SPACE.
               10  WK01-TOT-FDRL-PD-OVR-AP05-F              PIC X(1)
                                               VALUE SPACE.
               10  WK01-TOT-FDRL-PD-OVR-AP05-A              PIC X(1)
                                               VALUE SPACE.
               10  WK01-TOT-FDRL-PD-OVR-AP05-V              PIC X(1)
                                               VALUE SPACE.
               10  WK01-TOT-FDRL-PD-OVR-AP05-O              PIC X(1)
                                               VALUE SPACE.
               10  WK01-TOT-FDRL-PD-OVR-AP05       PIC X(13)
                                               VALUE SPACES.
               10  WK01-TOT-STAT-PD-OVR-AP05-Z              PIC X(1)
                                               VALUE SPACE.
               10  WK01-TOT-STAT-PD-OVR-AP05-F              PIC X(1)
                                               VALUE SPACE.
               10  WK01-TOT-STAT-PD-OVR-AP05-A              PIC X(1)
                                               VALUE SPACE.
               10  WK01-TOT-STAT-PD-OVR-AP05-V              PIC X(1)
                                               VALUE SPACE.
               10  WK01-TOT-STAT-PD-OVR-AP05-O              PIC X(1)
                                               VALUE SPACE.
               10  WK01-TOT-STAT-PD-OVR-AP05       PIC X(13)
                                               VALUE SPACES.
               10  WK01-DCMNT-NMBR-AP05-Z              PIC X(1)
                                               VALUE SPACE.
               10  WK01-DCMNT-NMBR-AP05-F              PIC X(1)
                                               VALUE SPACE.
               10  WK01-DCMNT-NMBR-AP05-A              PIC X(1)
                                               VALUE SPACE.
               10  WK01-DCMNT-NMBR-AP05-V              PIC X(1)
                                               VALUE SPACE.
               10  WK01-DCMNT-NMBR-AP05-O              PIC X(1)
                                               VALUE SPACE.
               10  WK01-DCMNT-NMBR-AP05       PIC X(8)
                                               VALUE SPACES.
               10  WK01-ZZMESSAGE-Z              PIC X(1)
                                               VALUE SPACE.
               10  WK01-ZZMESSAGE-F              PIC X(1)
                                               VALUE SPACE.
               10  WK01-ZZMESSAGE-A              PIC X(1)
                                               VALUE SPACE.
               10  WK01-ZZMESSAGE-V              PIC X(1)
                                               VALUE SPACE.
               10  WK01-ZZMESSAGE-O              PIC X(1)
                                               VALUE SPACE.
               10  WK01-ZZMESSAGE       PIC X(160)
                                               VALUE SPACES.
               10  WK01-PASSED-ONE-Z              PIC X(1)
                                               VALUE SPACE.
               10  WK01-PASSED-ONE-F              PIC X(1)
                                               VALUE SPACE.
               10  WK01-PASSED-ONE-A              PIC X(1)
                                               VALUE SPACE.
               10  WK01-PASSED-ONE-V              PIC X(1)
                                               VALUE SPACE.
               10  WK01-PASSED-ONE-O              PIC X(1)
                                               VALUE SPACE.
               10  WK01-PASSED-ONE       PIC X(32)
                                               VALUE SPACES.
               10  WK01-MAP-RESPONSE-Z              PIC X(1)
                                               VALUE SPACE.
               10  WK01-MAP-RESPONSE-F              PIC X(1)
                                               VALUE SPACE.
               10  WK01-MAP-RESPONSE-A              PIC X(1)
                                               VALUE SPACE.
               10  WK01-MAP-RESPONSE-V              PIC X(1)
                                               VALUE SPACE.
               10  WK01-MAP-RESPONSE-O              PIC X(1)
                                               VALUE SPACE.
               10  WK01-MAP-RESPONSE       PIC X(8)
                                               VALUE SPACES.
               10  WK01-TEXT-SY00-Z              PIC X(1)
                                               VALUE SPACE.
               10  WK01-TEXT-SY00-F              PIC X(1)
                                               VALUE SPACE.
               10  WK01-TEXT-SY00-A              PIC X(1)
                                               VALUE SPACE.
               10  WK01-TEXT-SY00-V              PIC X(1)
                                               VALUE SPACE.
               10  WK01-TEXT-SY00-O              PIC X(1)
                                               VALUE SPACE.
               10  WK01-TEXT-SY00       PIC X(14)
                                               VALUE SPACES.
           04  WK01-SUBSCRIPTED-WORK-AREA.
               05  FILLER                      PIC X(1).
               05  WK01-AP05-F             PIC X(1)
                                               OCCURS 3.
