      *---------------------------------------------------------------*
      *                                                               *
      *  RECORD FAPWK30                              04/24/00  12:16  *
      *                                                               *
      *---------------------------------------------------------------*
       01  FAPWK30.
           02  CHECK-NMBR-4158-AP30                     PIC X(8).
           02  BANK-ACCT-CODE-4158-AP30                 PIC X(2).
