      *---------------------------------------------------------------*
      *                                                               *
      *  RECORD FAPWD07A                             04/24/00  12:54  *
      *                                                               *
      *---------------------------------------------------------------*
       01  FAPWD07A.
           02  CHCK-DIGIT-ARGMNT-AP07.
               03  CHCK-BASE-NMBR-AP07                  PIC 9(10).
               03  CHCK-DIGIT-AP07                      PIC 9(1).
               03  CHCK-RTRN-CODE-AP07                  PIC X(1).
