      *---------------------------------------------------------------*
      *                                                               *
      *  RECORD FAPWK42                              04/24/00  12:17  *
      *                                                               *
      *---------------------------------------------------------------*
       01  FAPWK42.
           02  RQST-SUB-DCMNT-AP42                      PIC X(3).
