      *---------------------------------------------------------------*
      *                                                               *
      *  RECORD FAPWK21                              04/24/00  12:06  *
      *                                                               *
      *---------------------------------------------------------------*
       01  FAPWK21.
           02  RQST-RQST-CODE-AP21                      PIC X(8).
           02  SELECT-FLAG-AP21                         PIC X(1).
