      *---------------------------------------------------------------*
      *                                                               *
      *  RECORD FAPWK24                              04/24/00  12:14  *
      *                                                               *
      *---------------------------------------------------------------*
       01  FAPWK24.
           02  SLCTN-DATE-AP24                COMP-3    PIC S9(8).
           02  SLCTN-STATUS-AP24                        PIC X(1).
           02  RQST-DSCNT-CODE-AP24                     PIC X(2).
