       01  MAP-CONTROL.

    ***Created by Convert/DC version V8R03 on 11/20/00 at 13:00***

           02  FCHMI68-MAP-CONTROL.
           03  FCHMI68T.
           04  WK01-DCXMAPL-PARMS.
               10  WK01-MAPNAME                  PIC X(8)
                                                 VALUE 'FCHMI68I'.
               10  WK01-IKE-LENGTH               PIC S9(8)  COMP
                                                 VALUE 24962.
               10  WK01-TINA-LENGTH              PIC S9(4)  COMP
                                                 VALUE 1439.
           05  WK01-ATTRIBUTES                   PIC X(60)
                                                 VALUE SPACE.
           05  WK01-ATTRIBUTES-ERROR             PIC X(60) VALUE
               'U  BIF'.
           05  WK01-CURSOR-DFLD                  PIC X(36)
                                                 VALUE SPACES.
           05  WK01-CURSOR-DFLD-QUAL             PIC X(30)
                                                 VALUE SPACES.
           05  WK01-ROW                          PIC S9(4) COMP
                                                 VALUE ZERO.
           05  WK01-COLUMN                       PIC S9(4) COMP
                                                 VALUE ZERO.
           05  WK01-ERROR-MSG                    PIC X(80)
                                                 VALUE SPACES.
           05  WK01-MAP-DATA-LEN                 PIC S9(6)
                                                 VALUE ZERO.
           05  WK01-1ST-FLAG                     PIC X(1)
                                                 VALUE 'Y'.
           05  WK01-FLAG-OUTPUT-DATA             PIC X(1)
                                                 VALUE 'Y'.
      *    05  WK01-STATUS-RETURN-FLAG           PIC X(1)
      *                                          VALUE SPACES.
           05  WK01-ALL-BUT-FLAG                 PIC X(1)
                                                 VALUE SPACES.
           05  WK01-FLAG-ALL-FIELDS-CHANGED      PIC X(1)  VALUE 'Y'.
           05  WK01-FLAG-ANY-FIELDS-CHANGED      PIC X(1)  VALUE 'N'.
           05  WK01-FLAG-ALL-FIELDS-ERROR        PIC X(1)  VALUE 'Y'.
           05  WK01-FLAG-ANY-FIELDS-ERROR        PIC X(1)  VALUE 'N'.
           05  WK01-FLAG-ALL-FIELDS-ERASE        PIC X(1)  VALUE 'Y'.
           05  WK01-FLAG-ANY-FIELDS-ERASE        PIC X(1)  VALUE 'Y'.

           05  WK01-VARDATA                      PIC X(11880)
                                                 VALUE SPACES.
           05  FILLER                            PIC X(100)
                                                 VALUE SPACES.
           04  WK01-ELEMENT-AREA.

               10  WK01-ID-SY00-Z              PIC X(1)
                                               VALUE SPACE.
               10  WK01-ID-SY00-F              PIC X(1)
                                               VALUE SPACE.
               10  WK01-ID-SY00-A              PIC X(1)
                                               VALUE SPACE.
               10  WK01-ID-SY00-V              PIC X(1)
                                               VALUE SPACE.
               10  WK01-ID-SY00-O              PIC X(1)
                                               VALUE SPACE.
               10  WK01-ID-SY00       PIC X(8)
                                               VALUE SPACES.
               10  WK01-NAME-6001-SY00-Z              PIC X(1)
                                               VALUE SPACE.
               10  WK01-NAME-6001-SY00-F              PIC X(1)
                                               VALUE SPACE.
               10  WK01-NAME-6001-SY00-A              PIC X(1)
                                               VALUE SPACE.
               10  WK01-NAME-6001-SY00-V              PIC X(1)
                                               VALUE SPACE.
               10  WK01-NAME-6001-SY00-O              PIC X(1)
                                               VALUE SPACE.
               10  WK01-NAME-6001-SY00       PIC X(35)
                                               VALUE SPACES.
               10  WK01-DATE-Z              PIC X(1)
                                               VALUE SPACE.
               10  WK01-DATE-F              PIC X(1)
                                               VALUE SPACE.
               10  WK01-DATE-A              PIC X(1)
                                               VALUE SPACE.
               10  WK01-DATE-V              PIC X(1)
                                               VALUE SPACE.
               10  WK01-DATE-O              PIC X(1)
                                               VALUE SPACE.
               10  WK01-DATE       PIC X(8)
                                               VALUE SPACES.
               10  WK01-HH-MM-TIME-SY00-Z              PIC X(1)
                                               VALUE SPACE.
               10  WK01-HH-MM-TIME-SY00-F              PIC X(1)
                                               VALUE SPACE.
               10  WK01-HH-MM-TIME-SY00-A              PIC X(1)
                                               VALUE SPACE.
               10  WK01-HH-MM-TIME-SY00-V              PIC X(1)
                                               VALUE SPACE.
               10  WK01-HH-MM-TIME-SY00-O              PIC X(1)
                                               VALUE SPACE.
               10  WK01-HH-MM-TIME-SY00       PIC X(4)
                                               VALUE SPACES.
               10  WK01-PM-FLAG-SY00-Z              PIC X(1)
                                               VALUE SPACE.
               10  WK01-PM-FLAG-SY00-F              PIC X(1)
                                               VALUE SPACE.
               10  WK01-PM-FLAG-SY00-A              PIC X(1)
                                               VALUE SPACE.
               10  WK01-PM-FLAG-SY00-V              PIC X(1)
                                               VALUE SPACE.
               10  WK01-PM-FLAG-SY00-O              PIC X(1)
                                               VALUE SPACE.
               10  WK01-PM-FLAG-SY00       PIC X(1)
                                               VALUE SPACES.
               10  WK01-USER-ID-Z              PIC X(1)
                                               VALUE SPACE.
               10  WK01-USER-ID-F              PIC X(1)
                                               VALUE SPACE.
               10  WK01-USER-ID-A              PIC X(1)
                                               VALUE SPACE.
               10  WK01-USER-ID-V              PIC X(1)
                                               VALUE SPACE.
               10  WK01-USER-ID-O              PIC X(1)
                                               VALUE SPACE.
               10  WK01-USER-ID       PIC X(32)
                                               VALUE SPACES.
               10  WK01-RSPNS-ID-SY00-Z              PIC X(1)
                                               VALUE SPACE.
               10  WK01-RSPNS-ID-SY00-F              PIC X(1)
                                               VALUE SPACE.
               10  WK01-RSPNS-ID-SY00-A              PIC X(1)
                                               VALUE SPACE.
               10  WK01-RSPNS-ID-SY00-V              PIC X(1)
                                               VALUE SPACE.
               10  WK01-RSPNS-ID-SY00-O              PIC X(1)
                                               VALUE SPACE.
               10  WK01-RSPNS-ID-SY00       PIC X(8)
                                               VALUE SPACES.
               10  WK01-FUNC-DESCRIPTION-Z              PIC X(1)
                                               VALUE SPACE.
               10  WK01-FUNC-DESCRIPTION-F              PIC X(1)
                                               VALUE SPACE.
               10  WK01-FUNC-DESCRIPTION-A              PIC X(1)
                                               VALUE SPACE.
               10  WK01-FUNC-DESCRIPTION-V              PIC X(1)
                                               VALUE SPACE.
               10  WK01-FUNC-DESCRIPTION-O              PIC X(1)
                                               VALUE SPACE.
               10  WK01-FUNC-DESCRIPTION       PIC X(28)
                                               VALUE SPACES.
               10  WK01-STATUS-CODE-SY00-Z              PIC X(1)
                                               VALUE SPACE.
               10  WK01-STATUS-CODE-SY00-F              PIC X(1)
                                               VALUE SPACE.
               10  WK01-STATUS-CODE-SY00-A              PIC X(1)
                                               VALUE SPACE.
               10  WK01-STATUS-CODE-SY00-V              PIC X(1)
                                               VALUE SPACE.
               10  WK01-STATUS-CODE-SY00-O              PIC X(1)
                                               VALUE SPACE.
               10  WK01-STATUS-CODE-SY00       PIC X(1)
                                               VALUE SPACES.
               10  WK01-DATE-CH68-Z              PIC X(1)
                                               VALUE SPACE.
               10  WK01-DATE-CH68-F              PIC X(1)
                                               VALUE SPACE.
               10  WK01-DATE-CH68-A              PIC X(1)
                                               VALUE SPACE.
               10  WK01-DATE-CH68-V              PIC X(1)
                                               VALUE SPACE.
               10  WK01-DATE-CH68-O              PIC X(1)
                                               VALUE SPACE.
               10  WK01-DATE-CH68       PIC X(6)
                                               VALUE SPACES.
               10  WK01-STATUS-CH68-Z              PIC X(1)
                                               VALUE SPACE.
               10  WK01-STATUS-CH68-F              PIC X(1)
                                               VALUE SPACE.
               10  WK01-STATUS-CH68-A              PIC X(1)
                                               VALUE SPACE.
               10  WK01-STATUS-CH68-V              PIC X(1)
                                               VALUE SPACE.
               10  WK01-STATUS-CH68-O              PIC X(1)
                                               VALUE SPACE.
               10  WK01-STATUS-CH68       PIC X(1)
                                               VALUE SPACES.
               10  WK01-CODE-CH681-Z              PIC X(1)
                                               VALUE SPACE.
               10  WK01-CODE-CH681-F              PIC X(1)
                                               VALUE SPACE.
               10  WK01-CODE-CH681-A              PIC X(1)
                                               VALUE SPACE.
               10  WK01-CODE-CH681-V              PIC X(1)
                                               VALUE SPACE.
               10  WK01-CODE-CH681-O              PIC X(1)
                                               VALUE SPACE.
               10  WK01-CODE-CH681       PIC X(1)
                                               VALUE SPACES.
               10  WK01-CODE-4002-CH681-Z              PIC X(1)
                                               VALUE SPACE.
               10  WK01-CODE-4002-CH681-F              PIC X(1)
                                               VALUE SPACE.
               10  WK01-CODE-4002-CH681-A              PIC X(1)
                                               VALUE SPACE.
               10  WK01-CODE-4002-CH681-V              PIC X(1)
                                               VALUE SPACE.
               10  WK01-CODE-4002-CH681-O              PIC X(1)
                                               VALUE SPACE.
               10  WK01-CODE-4002-CH681       PIC X(1)
                                               VALUE SPACES.
               10  WK01-CODE-4002-CH6A1-Z              PIC X(1)
                                               VALUE SPACE.
               10  WK01-CODE-4002-CH6A1-F              PIC X(1)
                                               VALUE SPACE.
               10  WK01-CODE-4002-CH6A1-A              PIC X(1)
                                               VALUE SPACE.
               10  WK01-CODE-4002-CH6A1-V              PIC X(1)
                                               VALUE SPACE.
               10  WK01-CODE-4002-CH6A1-O              PIC X(1)
                                               VALUE SPACE.
               10  WK01-CODE-4002-CH6A1       PIC X(6)
                                               VALUE SPACES.
               10  WK01-TITLE-4010-CH681-Z              PIC X(1)
                                               VALUE SPACE.
               10  WK01-TITLE-4010-CH681-F              PIC X(1)
                                               VALUE SPACE.
               10  WK01-TITLE-4010-CH681-A              PIC X(1)
                                               VALUE SPACE.
               10  WK01-TITLE-4010-CH681-V              PIC X(1)
                                               VALUE SPACE.
               10  WK01-TITLE-4010-CH681-O              PIC X(1)
                                               VALUE SPACE.
               10  WK01-TITLE-4010-CH681       PIC X(35)
                                               VALUE SPACES.
               10  WK01-4010-CH681-Z              PIC X(1)
                                               VALUE SPACE.
               10  WK01-4010-CH681-F              PIC X(1)
                                               VALUE SPACE.
               10  WK01-4010-CH681-A              PIC X(1)
                                               VALUE SPACE.
               10  WK01-4010-CH681-V              PIC X(1)
                                               VALUE SPACE.
               10  WK01-4010-CH681-O              PIC X(1)
                                               VALUE SPACE.
               10  WK01-4010-CH681       PIC X(1)
                                               VALUE SPACES.
               10  WK01-DATE-4010-CH681-Z              PIC X(1)
                                               VALUE SPACE.
               10  WK01-DATE-4010-CH681-F              PIC X(1)
                                               VALUE SPACE.
               10  WK01-DATE-4010-CH681-A              PIC X(1)
                                               VALUE SPACE.
               10  WK01-DATE-4010-CH681-V              PIC X(1)
                                               VALUE SPACE.
               10  WK01-DATE-4010-CH681-O              PIC X(1)
                                               VALUE SPACE.
               10  WK01-DATE-4010-CH681       PIC X(6)
                                               VALUE SPACES.
               10  WK01-DATE-4010-CH6A1-Z              PIC X(1)
                                               VALUE SPACE.
               10  WK01-DATE-4010-CH6A1-F              PIC X(1)
                                               VALUE SPACE.
               10  WK01-DATE-4010-CH6A1-A              PIC X(1)
                                               VALUE SPACE.
               10  WK01-DATE-4010-CH6A1-V              PIC X(1)
                                               VALUE SPACE.
               10  WK01-DATE-4010-CH6A1-O              PIC X(1)
                                               VALUE SPACE.
               10  WK01-DATE-4010-CH6A1       PIC X(6)
                                               VALUE SPACES.
               10  WK01-CODE-CH682-Z              PIC X(1)
                                               VALUE SPACE.
               10  WK01-CODE-CH682-F              PIC X(1)
                                               VALUE SPACE.
               10  WK01-CODE-CH682-A              PIC X(1)
                                               VALUE SPACE.
               10  WK01-CODE-CH682-V              PIC X(1)
                                               VALUE SPACE.
               10  WK01-CODE-CH682-O              PIC X(1)
                                               VALUE SPACE.
               10  WK01-CODE-CH682       PIC X(1)
                                               VALUE SPACES.
               10  WK01-CODE-4002-CH682-Z              PIC X(1)
                                               VALUE SPACE.
               10  WK01-CODE-4002-CH682-F              PIC X(1)
                                               VALUE SPACE.
               10  WK01-CODE-4002-CH682-A              PIC X(1)
                                               VALUE SPACE.
               10  WK01-CODE-4002-CH682-V              PIC X(1)
                                               VALUE SPACE.
               10  WK01-CODE-4002-CH682-O              PIC X(1)
                                               VALUE SPACE.
               10  WK01-CODE-4002-CH682       PIC X(1)
                                               VALUE SPACES.
               10  WK01-CODE-4002-CH6A2-Z              PIC X(1)
                                               VALUE SPACE.
               10  WK01-CODE-4002-CH6A2-F              PIC X(1)
                                               VALUE SPACE.
               10  WK01-CODE-4002-CH6A2-A              PIC X(1)
                                               VALUE SPACE.
               10  WK01-CODE-4002-CH6A2-V              PIC X(1)
                                               VALUE SPACE.
               10  WK01-CODE-4002-CH6A2-O              PIC X(1)
                                               VALUE SPACE.
               10  WK01-CODE-4002-CH6A2       PIC X(6)
                                               VALUE SPACES.
               10  WK01-TITLE-4010-CH682-Z              PIC X(1)
                                               VALUE SPACE.
               10  WK01-TITLE-4010-CH682-F              PIC X(1)
                                               VALUE SPACE.
               10  WK01-TITLE-4010-CH682-A              PIC X(1)
                                               VALUE SPACE.
               10  WK01-TITLE-4010-CH682-V              PIC X(1)
                                               VALUE SPACE.
               10  WK01-TITLE-4010-CH682-O              PIC X(1)
                                               VALUE SPACE.
               10  WK01-TITLE-4010-CH682       PIC X(35)
                                               VALUE SPACES.
               10  WK01-4010-CH682-Z              PIC X(1)
                                               VALUE SPACE.
               10  WK01-4010-CH682-F              PIC X(1)
                                               VALUE SPACE.
               10  WK01-4010-CH682-A              PIC X(1)
                                               VALUE SPACE.
               10  WK01-4010-CH682-V              PIC X(1)
                                               VALUE SPACE.
               10  WK01-4010-CH682-O              PIC X(1)
                                               VALUE SPACE.
               10  WK01-4010-CH682       PIC X(1)
                                               VALUE SPACES.
               10  WK01-DATE-4010-CH682-Z              PIC X(1)
                                               VALUE SPACE.
               10  WK01-DATE-4010-CH682-F              PIC X(1)
                                               VALUE SPACE.
               10  WK01-DATE-4010-CH682-A              PIC X(1)
                                               VALUE SPACE.
               10  WK01-DATE-4010-CH682-V              PIC X(1)
                                               VALUE SPACE.
               10  WK01-DATE-4010-CH682-O              PIC X(1)
                                               VALUE SPACE.
               10  WK01-DATE-4010-CH682       PIC X(6)
                                               VALUE SPACES.
               10  WK01-DATE-4010-CH6A2-Z              PIC X(1)
                                               VALUE SPACE.
               10  WK01-DATE-4010-CH6A2-F              PIC X(1)
                                               VALUE SPACE.
               10  WK01-DATE-4010-CH6A2-A              PIC X(1)
                                               VALUE SPACE.
               10  WK01-DATE-4010-CH6A2-V              PIC X(1)
                                               VALUE SPACE.
               10  WK01-DATE-4010-CH6A2-O              PIC X(1)
                                               VALUE SPACE.
               10  WK01-DATE-4010-CH6A2       PIC X(6)
                                               VALUE SPACES.
               10  WK01-CODE-CH683-Z              PIC X(1)
                                               VALUE SPACE.
               10  WK01-CODE-CH683-F              PIC X(1)
                                               VALUE SPACE.
               10  WK01-CODE-CH683-A              PIC X(1)
                                               VALUE SPACE.
               10  WK01-CODE-CH683-V              PIC X(1)
                                               VALUE SPACE.
               10  WK01-CODE-CH683-O              PIC X(1)
                                               VALUE SPACE.
               10  WK01-CODE-CH683       PIC X(1)
                                               VALUE SPACES.
               10  WK01-CODE-4002-CH683-Z              PIC X(1)
                                               VALUE SPACE.
               10  WK01-CODE-4002-CH683-F              PIC X(1)
                                               VALUE SPACE.
               10  WK01-CODE-4002-CH683-A              PIC X(1)
                                               VALUE SPACE.
               10  WK01-CODE-4002-CH683-V              PIC X(1)
                                               VALUE SPACE.
               10  WK01-CODE-4002-CH683-O              PIC X(1)
                                               VALUE SPACE.
               10  WK01-CODE-4002-CH683       PIC X(1)
                                               VALUE SPACES.
               10  WK01-CODE-4002-CH6A3-Z              PIC X(1)
                                               VALUE SPACE.
               10  WK01-CODE-4002-CH6A3-F              PIC X(1)
                                               VALUE SPACE.
               10  WK01-CODE-4002-CH6A3-A              PIC X(1)
                                               VALUE SPACE.
               10  WK01-CODE-4002-CH6A3-V              PIC X(1)
                                               VALUE SPACE.
               10  WK01-CODE-4002-CH6A3-O              PIC X(1)
                                               VALUE SPACE.
               10  WK01-CODE-4002-CH6A3       PIC X(6)
                                               VALUE SPACES.
               10  WK01-TITLE-4010-CH683-Z              PIC X(1)
                                               VALUE SPACE.
               10  WK01-TITLE-4010-CH683-F              PIC X(1)
                                               VALUE SPACE.
               10  WK01-TITLE-4010-CH683-A              PIC X(1)
                                               VALUE SPACE.
               10  WK01-TITLE-4010-CH683-V              PIC X(1)
                                               VALUE SPACE.
               10  WK01-TITLE-4010-CH683-O              PIC X(1)
                                               VALUE SPACE.
               10  WK01-TITLE-4010-CH683       PIC X(35)
                                               VALUE SPACES.
               10  WK01-4010-CH683-Z              PIC X(1)
                                               VALUE SPACE.
               10  WK01-4010-CH683-F              PIC X(1)
                                               VALUE SPACE.
               10  WK01-4010-CH683-A              PIC X(1)
                                               VALUE SPACE.
               10  WK01-4010-CH683-V              PIC X(1)
                                               VALUE SPACE.
               10  WK01-4010-CH683-O              PIC X(1)
                                               VALUE SPACE.
               10  WK01-4010-CH683       PIC X(1)
                                               VALUE SPACES.
               10  WK01-DATE-4010-CH683-Z              PIC X(1)
                                               VALUE SPACE.
               10  WK01-DATE-4010-CH683-F              PIC X(1)
                                               VALUE SPACE.
               10  WK01-DATE-4010-CH683-A              PIC X(1)
                                               VALUE SPACE.
               10  WK01-DATE-4010-CH683-V              PIC X(1)
                                               VALUE SPACE.
               10  WK01-DATE-4010-CH683-O              PIC X(1)
                                               VALUE SPACE.
               10  WK01-DATE-4010-CH683       PIC X(6)
                                               VALUE SPACES.
               10  WK01-DATE-4010-CH6A3-Z              PIC X(1)
                                               VALUE SPACE.
               10  WK01-DATE-4010-CH6A3-F              PIC X(1)
                                               VALUE SPACE.
               10  WK01-DATE-4010-CH6A3-A              PIC X(1)
                                               VALUE SPACE.
               10  WK01-DATE-4010-CH6A3-V              PIC X(1)
                                               VALUE SPACE.
               10  WK01-DATE-4010-CH6A3-O              PIC X(1)
                                               VALUE SPACE.
               10  WK01-DATE-4010-CH6A3       PIC X(6)
                                               VALUE SPACES.
               10  WK01-CODE-CH684-Z              PIC X(1)
                                               VALUE SPACE.
               10  WK01-CODE-CH684-F              PIC X(1)
                                               VALUE SPACE.
               10  WK01-CODE-CH684-A              PIC X(1)
                                               VALUE SPACE.
               10  WK01-CODE-CH684-V              PIC X(1)
                                               VALUE SPACE.
               10  WK01-CODE-CH684-O              PIC X(1)
                                               VALUE SPACE.
               10  WK01-CODE-CH684       PIC X(1)
                                               VALUE SPACES.
               10  WK01-CODE-4002-CH684-Z              PIC X(1)
                                               VALUE SPACE.
               10  WK01-CODE-4002-CH684-F              PIC X(1)
                                               VALUE SPACE.
               10  WK01-CODE-4002-CH684-A              PIC X(1)
                                               VALUE SPACE.
               10  WK01-CODE-4002-CH684-V              PIC X(1)
                                               VALUE SPACE.
               10  WK01-CODE-4002-CH684-O              PIC X(1)
                                               VALUE SPACE.
               10  WK01-CODE-4002-CH684       PIC X(1)
                                               VALUE SPACES.
               10  WK01-CODE-4002-CH6A4-Z              PIC X(1)
                                               VALUE SPACE.
               10  WK01-CODE-4002-CH6A4-F              PIC X(1)
                                               VALUE SPACE.
               10  WK01-CODE-4002-CH6A4-A              PIC X(1)
                                               VALUE SPACE.
               10  WK01-CODE-4002-CH6A4-V              PIC X(1)
                                               VALUE SPACE.
               10  WK01-CODE-4002-CH6A4-O              PIC X(1)
                                               VALUE SPACE.
               10  WK01-CODE-4002-CH6A4       PIC X(6)
                                               VALUE SPACES.
               10  WK01-TITLE-4010-CH684-Z              PIC X(1)
                                               VALUE SPACE.
               10  WK01-TITLE-4010-CH684-F              PIC X(1)
                                               VALUE SPACE.
               10  WK01-TITLE-4010-CH684-A              PIC X(1)
                                               VALUE SPACE.
               10  WK01-TITLE-4010-CH684-V              PIC X(1)
                                               VALUE SPACE.
               10  WK01-TITLE-4010-CH684-O              PIC X(1)
                                               VALUE SPACE.
               10  WK01-TITLE-4010-CH684       PIC X(35)
                                               VALUE SPACES.
               10  WK01-4010-CH684-Z              PIC X(1)
                                               VALUE SPACE.
               10  WK01-4010-CH684-F              PIC X(1)
                                               VALUE SPACE.
               10  WK01-4010-CH684-A              PIC X(1)
                                               VALUE SPACE.
               10  WK01-4010-CH684-V              PIC X(1)
                                               VALUE SPACE.
               10  WK01-4010-CH684-O              PIC X(1)
                                               VALUE SPACE.
               10  WK01-4010-CH684       PIC X(1)
                                               VALUE SPACES.
               10  WK01-DATE-4010-CH684-Z              PIC X(1)
                                               VALUE SPACE.
               10  WK01-DATE-4010-CH684-F              PIC X(1)
                                               VALUE SPACE.
               10  WK01-DATE-4010-CH684-A              PIC X(1)
                                               VALUE SPACE.
               10  WK01-DATE-4010-CH684-V              PIC X(1)
                                               VALUE SPACE.
               10  WK01-DATE-4010-CH684-O              PIC X(1)
                                               VALUE SPACE.
               10  WK01-DATE-4010-CH684       PIC X(6)
                                               VALUE SPACES.
               10  WK01-DATE-4010-CH6A4-Z              PIC X(1)
                                               VALUE SPACE.
               10  WK01-DATE-4010-CH6A4-F              PIC X(1)
                                               VALUE SPACE.
               10  WK01-DATE-4010-CH6A4-A              PIC X(1)
                                               VALUE SPACE.
               10  WK01-DATE-4010-CH6A4-V              PIC X(1)
                                               VALUE SPACE.
               10  WK01-DATE-4010-CH6A4-O              PIC X(1)
                                               VALUE SPACE.
               10  WK01-DATE-4010-CH6A4       PIC X(6)
                                               VALUE SPACES.
               10  WK01-CODE-CH685-Z              PIC X(1)
                                               VALUE SPACE.
               10  WK01-CODE-CH685-F              PIC X(1)
                                               VALUE SPACE.
               10  WK01-CODE-CH685-A              PIC X(1)
                                               VALUE SPACE.
               10  WK01-CODE-CH685-V              PIC X(1)
                                               VALUE SPACE.
               10  WK01-CODE-CH685-O              PIC X(1)
                                               VALUE SPACE.
               10  WK01-CODE-CH685       PIC X(1)
                                               VALUE SPACES.
               10  WK01-CODE-4002-CH685-Z              PIC X(1)
                                               VALUE SPACE.
               10  WK01-CODE-4002-CH685-F              PIC X(1)
                                               VALUE SPACE.
               10  WK01-CODE-4002-CH685-A              PIC X(1)
                                               VALUE SPACE.
               10  WK01-CODE-4002-CH685-V              PIC X(1)
                                               VALUE SPACE.
               10  WK01-CODE-4002-CH685-O              PIC X(1)
                                               VALUE SPACE.
               10  WK01-CODE-4002-CH685       PIC X(1)
                                               VALUE SPACES.
               10  WK01-CODE-4002-CH6A5-Z              PIC X(1)
                                               VALUE SPACE.
               10  WK01-CODE-4002-CH6A5-F              PIC X(1)
                                               VALUE SPACE.
               10  WK01-CODE-4002-CH6A5-A              PIC X(1)
                                               VALUE SPACE.
               10  WK01-CODE-4002-CH6A5-V              PIC X(1)
                                               VALUE SPACE.
               10  WK01-CODE-4002-CH6A5-O              PIC X(1)
                                               VALUE SPACE.
               10  WK01-CODE-4002-CH6A5       PIC X(6)
                                               VALUE SPACES.
               10  WK01-TITLE-4010-CH685-Z              PIC X(1)
                                               VALUE SPACE.
               10  WK01-TITLE-4010-CH685-F              PIC X(1)
                                               VALUE SPACE.
               10  WK01-TITLE-4010-CH685-A              PIC X(1)
                                               VALUE SPACE.
               10  WK01-TITLE-4010-CH685-V              PIC X(1)
                                               VALUE SPACE.
               10  WK01-TITLE-4010-CH685-O              PIC X(1)
                                               VALUE SPACE.
               10  WK01-TITLE-4010-CH685       PIC X(35)
                                               VALUE SPACES.
               10  WK01-4010-CH685-Z              PIC X(1)
                                               VALUE SPACE.
               10  WK01-4010-CH685-F              PIC X(1)
                                               VALUE SPACE.
               10  WK01-4010-CH685-A              PIC X(1)
                                               VALUE SPACE.
               10  WK01-4010-CH685-V              PIC X(1)
                                               VALUE SPACE.
               10  WK01-4010-CH685-O              PIC X(1)
                                               VALUE SPACE.
               10  WK01-4010-CH685       PIC X(1)
                                               VALUE SPACES.
               10  WK01-DATE-4010-CH685-Z              PIC X(1)
                                               VALUE SPACE.
               10  WK01-DATE-4010-CH685-F              PIC X(1)
                                               VALUE SPACE.
               10  WK01-DATE-4010-CH685-A              PIC X(1)
                                               VALUE SPACE.
               10  WK01-DATE-4010-CH685-V              PIC X(1)
                                               VALUE SPACE.
               10  WK01-DATE-4010-CH685-O              PIC X(1)
                                               VALUE SPACE.
               10  WK01-DATE-4010-CH685       PIC X(6)
                                               VALUE SPACES.
               10  WK01-DATE-4010-CH6A5-Z              PIC X(1)
                                               VALUE SPACE.
               10  WK01-DATE-4010-CH6A5-F              PIC X(1)
                                               VALUE SPACE.
               10  WK01-DATE-4010-CH6A5-A              PIC X(1)
                                               VALUE SPACE.
               10  WK01-DATE-4010-CH6A5-V              PIC X(1)
                                               VALUE SPACE.
               10  WK01-DATE-4010-CH6A5-O              PIC X(1)
                                               VALUE SPACE.
               10  WK01-DATE-4010-CH6A5       PIC X(6)
                                               VALUE SPACES.
               10  WK01-CODE-CH686-Z              PIC X(1)
                                               VALUE SPACE.
               10  WK01-CODE-CH686-F              PIC X(1)
                                               VALUE SPACE.
               10  WK01-CODE-CH686-A              PIC X(1)
                                               VALUE SPACE.
               10  WK01-CODE-CH686-V              PIC X(1)
                                               VALUE SPACE.
               10  WK01-CODE-CH686-O              PIC X(1)
                                               VALUE SPACE.
               10  WK01-CODE-CH686       PIC X(1)
                                               VALUE SPACES.
               10  WK01-CODE-4002-CH686-Z              PIC X(1)
                                               VALUE SPACE.
               10  WK01-CODE-4002-CH686-F              PIC X(1)
                                               VALUE SPACE.
               10  WK01-CODE-4002-CH686-A              PIC X(1)
                                               VALUE SPACE.
               10  WK01-CODE-4002-CH686-V              PIC X(1)
                                               VALUE SPACE.
               10  WK01-CODE-4002-CH686-O              PIC X(1)
                                               VALUE SPACE.
               10  WK01-CODE-4002-CH686       PIC X(1)
                                               VALUE SPACES.
               10  WK01-CODE-4002-CH6A6-Z              PIC X(1)
                                               VALUE SPACE.
               10  WK01-CODE-4002-CH6A6-F              PIC X(1)
                                               VALUE SPACE.
               10  WK01-CODE-4002-CH6A6-A              PIC X(1)
                                               VALUE SPACE.
               10  WK01-CODE-4002-CH6A6-V              PIC X(1)
                                               VALUE SPACE.
               10  WK01-CODE-4002-CH6A6-O              PIC X(1)
                                               VALUE SPACE.
               10  WK01-CODE-4002-CH6A6       PIC X(6)
                                               VALUE SPACES.
               10  WK01-TITLE-4010-CH686-Z              PIC X(1)
                                               VALUE SPACE.
               10  WK01-TITLE-4010-CH686-F              PIC X(1)
                                               VALUE SPACE.
               10  WK01-TITLE-4010-CH686-A              PIC X(1)
                                               VALUE SPACE.
               10  WK01-TITLE-4010-CH686-V              PIC X(1)
                                               VALUE SPACE.
               10  WK01-TITLE-4010-CH686-O              PIC X(1)
                                               VALUE SPACE.
               10  WK01-TITLE-4010-CH686       PIC X(35)
                                               VALUE SPACES.
               10  WK01-4010-CH686-Z              PIC X(1)
                                               VALUE SPACE.
               10  WK01-4010-CH686-F              PIC X(1)
                                               VALUE SPACE.
               10  WK01-4010-CH686-A              PIC X(1)
                                               VALUE SPACE.
               10  WK01-4010-CH686-V              PIC X(1)
                                               VALUE SPACE.
               10  WK01-4010-CH686-O              PIC X(1)
                                               VALUE SPACE.
               10  WK01-4010-CH686       PIC X(1)
                                               VALUE SPACES.
               10  WK01-DATE-4010-CH686-Z              PIC X(1)
                                               VALUE SPACE.
               10  WK01-DATE-4010-CH686-F              PIC X(1)
                                               VALUE SPACE.
               10  WK01-DATE-4010-CH686-A              PIC X(1)
                                               VALUE SPACE.
               10  WK01-DATE-4010-CH686-V              PIC X(1)
                                               VALUE SPACE.
               10  WK01-DATE-4010-CH686-O              PIC X(1)
                                               VALUE SPACE.
               10  WK01-DATE-4010-CH686       PIC X(6)
                                               VALUE SPACES.
               10  WK01-DATE-4010-CH6A6-Z              PIC X(1)
                                               VALUE SPACE.
               10  WK01-DATE-4010-CH6A6-F              PIC X(1)
                                               VALUE SPACE.
               10  WK01-DATE-4010-CH6A6-A              PIC X(1)
                                               VALUE SPACE.
               10  WK01-DATE-4010-CH6A6-V              PIC X(1)
                                               VALUE SPACE.
               10  WK01-DATE-4010-CH6A6-O              PIC X(1)
                                               VALUE SPACE.
               10  WK01-DATE-4010-CH6A6       PIC X(6)
                                               VALUE SPACES.
               10  WK01-CODE-CH687-Z              PIC X(1)
                                               VALUE SPACE.
               10  WK01-CODE-CH687-F              PIC X(1)
                                               VALUE SPACE.
               10  WK01-CODE-CH687-A              PIC X(1)
                                               VALUE SPACE.
               10  WK01-CODE-CH687-V              PIC X(1)
                                               VALUE SPACE.
               10  WK01-CODE-CH687-O              PIC X(1)
                                               VALUE SPACE.
               10  WK01-CODE-CH687       PIC X(1)
                                               VALUE SPACES.
               10  WK01-CODE-4002-CH687-Z              PIC X(1)
                                               VALUE SPACE.
               10  WK01-CODE-4002-CH687-F              PIC X(1)
                                               VALUE SPACE.
               10  WK01-CODE-4002-CH687-A              PIC X(1)
                                               VALUE SPACE.
               10  WK01-CODE-4002-CH687-V              PIC X(1)
                                               VALUE SPACE.
               10  WK01-CODE-4002-CH687-O              PIC X(1)
                                               VALUE SPACE.
               10  WK01-CODE-4002-CH687       PIC X(1)
                                               VALUE SPACES.
               10  WK01-CODE-4002-CH6A7-Z              PIC X(1)
                                               VALUE SPACE.
               10  WK01-CODE-4002-CH6A7-F              PIC X(1)
                                               VALUE SPACE.
               10  WK01-CODE-4002-CH6A7-A              PIC X(1)
                                               VALUE SPACE.
               10  WK01-CODE-4002-CH6A7-V              PIC X(1)
                                               VALUE SPACE.
               10  WK01-CODE-4002-CH6A7-O              PIC X(1)
                                               VALUE SPACE.
               10  WK01-CODE-4002-CH6A7       PIC X(6)
                                               VALUE SPACES.
               10  WK01-TITLE-4010-CH687-Z              PIC X(1)
                                               VALUE SPACE.
               10  WK01-TITLE-4010-CH687-F              PIC X(1)
                                               VALUE SPACE.
               10  WK01-TITLE-4010-CH687-A              PIC X(1)
                                               VALUE SPACE.
               10  WK01-TITLE-4010-CH687-V              PIC X(1)
                                               VALUE SPACE.
               10  WK01-TITLE-4010-CH687-O              PIC X(1)
                                               VALUE SPACE.
               10  WK01-TITLE-4010-CH687       PIC X(35)
                                               VALUE SPACES.
               10  WK01-4010-CH687-Z              PIC X(1)
                                               VALUE SPACE.
               10  WK01-4010-CH687-F              PIC X(1)
                                               VALUE SPACE.
               10  WK01-4010-CH687-A              PIC X(1)
                                               VALUE SPACE.
               10  WK01-4010-CH687-V              PIC X(1)
                                               VALUE SPACE.
               10  WK01-4010-CH687-O              PIC X(1)
                                               VALUE SPACE.
               10  WK01-4010-CH687       PIC X(1)
                                               VALUE SPACES.
               10  WK01-DATE-4010-CH687-Z              PIC X(1)
                                               VALUE SPACE.
               10  WK01-DATE-4010-CH687-F              PIC X(1)
                                               VALUE SPACE.
               10  WK01-DATE-4010-CH687-A              PIC X(1)
                                               VALUE SPACE.
               10  WK01-DATE-4010-CH687-V              PIC X(1)
                                               VALUE SPACE.
               10  WK01-DATE-4010-CH687-O              PIC X(1)
                                               VALUE SPACE.
               10  WK01-DATE-4010-CH687       PIC X(6)
                                               VALUE SPACES.
               10  WK01-DATE-4010-CH6A7-Z              PIC X(1)
                                               VALUE SPACE.
               10  WK01-DATE-4010-CH6A7-F              PIC X(1)
                                               VALUE SPACE.
               10  WK01-DATE-4010-CH6A7-A              PIC X(1)
                                               VALUE SPACE.
               10  WK01-DATE-4010-CH6A7-V              PIC X(1)
                                               VALUE SPACE.
               10  WK01-DATE-4010-CH6A7-O              PIC X(1)
                                               VALUE SPACE.
               10  WK01-DATE-4010-CH6A7       PIC X(6)
                                               VALUE SPACES.
               10  WK01-CODE-CH688-Z              PIC X(1)
                                               VALUE SPACE.
               10  WK01-CODE-CH688-F              PIC X(1)
                                               VALUE SPACE.
               10  WK01-CODE-CH688-A              PIC X(1)
                                               VALUE SPACE.
               10  WK01-CODE-CH688-V              PIC X(1)
                                               VALUE SPACE.
               10  WK01-CODE-CH688-O              PIC X(1)
                                               VALUE SPACE.
               10  WK01-CODE-CH688       PIC X(1)
                                               VALUE SPACES.
               10  WK01-CODE-4002-CH688-Z              PIC X(1)
                                               VALUE SPACE.
               10  WK01-CODE-4002-CH688-F              PIC X(1)
                                               VALUE SPACE.
               10  WK01-CODE-4002-CH688-A              PIC X(1)
                                               VALUE SPACE.
               10  WK01-CODE-4002-CH688-V              PIC X(1)
                                               VALUE SPACE.
               10  WK01-CODE-4002-CH688-O              PIC X(1)
                                               VALUE SPACE.
               10  WK01-CODE-4002-CH688       PIC X(1)
                                               VALUE SPACES.
               10  WK01-CODE-4002-CH6A8-Z              PIC X(1)
                                               VALUE SPACE.
               10  WK01-CODE-4002-CH6A8-F              PIC X(1)
                                               VALUE SPACE.
               10  WK01-CODE-4002-CH6A8-A              PIC X(1)
                                               VALUE SPACE.
               10  WK01-CODE-4002-CH6A8-V              PIC X(1)
                                               VALUE SPACE.
               10  WK01-CODE-4002-CH6A8-O              PIC X(1)
                                               VALUE SPACE.
               10  WK01-CODE-4002-CH6A8       PIC X(6)
                                               VALUE SPACES.
               10  WK01-TITLE-4010-CH688-Z              PIC X(1)
                                               VALUE SPACE.
               10  WK01-TITLE-4010-CH688-F              PIC X(1)
                                               VALUE SPACE.
               10  WK01-TITLE-4010-CH688-A              PIC X(1)
                                               VALUE SPACE.
               10  WK01-TITLE-4010-CH688-V              PIC X(1)
                                               VALUE SPACE.
               10  WK01-TITLE-4010-CH688-O              PIC X(1)
                                               VALUE SPACE.
               10  WK01-TITLE-4010-CH688       PIC X(35)
                                               VALUE SPACES.
               10  WK01-4010-CH688-Z              PIC X(1)
                                               VALUE SPACE.
               10  WK01-4010-CH688-F              PIC X(1)
                                               VALUE SPACE.
               10  WK01-4010-CH688-A              PIC X(1)
                                               VALUE SPACE.
               10  WK01-4010-CH688-V              PIC X(1)
                                               VALUE SPACE.
               10  WK01-4010-CH688-O              PIC X(1)
                                               VALUE SPACE.
               10  WK01-4010-CH688       PIC X(1)
                                               VALUE SPACES.
               10  WK01-DATE-4010-CH688-Z              PIC X(1)
                                               VALUE SPACE.
               10  WK01-DATE-4010-CH688-F              PIC X(1)
                                               VALUE SPACE.
               10  WK01-DATE-4010-CH688-A              PIC X(1)
                                               VALUE SPACE.
               10  WK01-DATE-4010-CH688-V              PIC X(1)
                                               VALUE SPACE.
               10  WK01-DATE-4010-CH688-O              PIC X(1)
                                               VALUE SPACE.
               10  WK01-DATE-4010-CH688       PIC X(6)
                                               VALUE SPACES.
               10  WK01-DATE-4010-CH6A8-Z              PIC X(1)
                                               VALUE SPACE.
               10  WK01-DATE-4010-CH6A8-F              PIC X(1)
                                               VALUE SPACE.
               10  WK01-DATE-4010-CH6A8-A              PIC X(1)
                                               VALUE SPACE.
               10  WK01-DATE-4010-CH6A8-V              PIC X(1)
                                               VALUE SPACE.
               10  WK01-DATE-4010-CH6A8-O              PIC X(1)
                                               VALUE SPACE.
               10  WK01-DATE-4010-CH6A8       PIC X(6)
                                               VALUE SPACES.
               10  WK01-CODE-CH689-Z              PIC X(1)
                                               VALUE SPACE.
               10  WK01-CODE-CH689-F              PIC X(1)
                                               VALUE SPACE.
               10  WK01-CODE-CH689-A              PIC X(1)
                                               VALUE SPACE.
               10  WK01-CODE-CH689-V              PIC X(1)
                                               VALUE SPACE.
               10  WK01-CODE-CH689-O              PIC X(1)
                                               VALUE SPACE.
               10  WK01-CODE-CH689       PIC X(1)
                                               VALUE SPACES.
               10  WK01-CODE-4002-CH689-Z              PIC X(1)
                                               VALUE SPACE.
               10  WK01-CODE-4002-CH689-F              PIC X(1)
                                               VALUE SPACE.
               10  WK01-CODE-4002-CH689-A              PIC X(1)
                                               VALUE SPACE.
               10  WK01-CODE-4002-CH689-V              PIC X(1)
                                               VALUE SPACE.
               10  WK01-CODE-4002-CH689-O              PIC X(1)
                                               VALUE SPACE.
               10  WK01-CODE-4002-CH689       PIC X(1)
                                               VALUE SPACES.
               10  WK01-CODE-4002-CH6A9-Z              PIC X(1)
                                               VALUE SPACE.
               10  WK01-CODE-4002-CH6A9-F              PIC X(1)
                                               VALUE SPACE.
               10  WK01-CODE-4002-CH6A9-A              PIC X(1)
                                               VALUE SPACE.
               10  WK01-CODE-4002-CH6A9-V              PIC X(1)
                                               VALUE SPACE.
               10  WK01-CODE-4002-CH6A9-O              PIC X(1)
                                               VALUE SPACE.
               10  WK01-CODE-4002-CH6A9       PIC X(6)
                                               VALUE SPACES.
               10  WK01-TITLE-4010-CH689-Z              PIC X(1)
                                               VALUE SPACE.
               10  WK01-TITLE-4010-CH689-F              PIC X(1)
                                               VALUE SPACE.
               10  WK01-TITLE-4010-CH689-A              PIC X(1)
                                               VALUE SPACE.
               10  WK01-TITLE-4010-CH689-V              PIC X(1)
                                               VALUE SPACE.
               10  WK01-TITLE-4010-CH689-O              PIC X(1)
                                               VALUE SPACE.
               10  WK01-TITLE-4010-CH689       PIC X(35)
                                               VALUE SPACES.
               10  WK01-4010-CH689-Z              PIC X(1)
                                               VALUE SPACE.
               10  WK01-4010-CH689-F              PIC X(1)
                                               VALUE SPACE.
               10  WK01-4010-CH689-A              PIC X(1)
                                               VALUE SPACE.
               10  WK01-4010-CH689-V              PIC X(1)
                                               VALUE SPACE.
               10  WK01-4010-CH689-O              PIC X(1)
                                               VALUE SPACE.
               10  WK01-4010-CH689       PIC X(1)
                                               VALUE SPACES.
               10  WK01-DATE-4010-CH689-Z              PIC X(1)
                                               VALUE SPACE.
               10  WK01-DATE-4010-CH689-F              PIC X(1)
                                               VALUE SPACE.
               10  WK01-DATE-4010-CH689-A              PIC X(1)
                                               VALUE SPACE.
               10  WK01-DATE-4010-CH689-V              PIC X(1)
                                               VALUE SPACE.
               10  WK01-DATE-4010-CH689-O              PIC X(1)
                                               VALUE SPACE.
               10  WK01-DATE-4010-CH689       PIC X(6)
                                               VALUE SPACES.
               10  WK01-DATE-4010-CH6A9-Z              PIC X(1)
                                               VALUE SPACE.
               10  WK01-DATE-4010-CH6A9-F              PIC X(1)
                                               VALUE SPACE.
               10  WK01-DATE-4010-CH6A9-A              PIC X(1)
                                               VALUE SPACE.
               10  WK01-DATE-4010-CH6A9-V              PIC X(1)
                                               VALUE SPACE.
               10  WK01-DATE-4010-CH6A9-O              PIC X(1)
                                               VALUE SPACE.
               10  WK01-DATE-4010-CH6A9       PIC X(6)
                                               VALUE SPACES.
               10  WK01-CODE-CH6810-Z              PIC X(1)
                                               VALUE SPACE.
               10  WK01-CODE-CH6810-F              PIC X(1)
                                               VALUE SPACE.
               10  WK01-CODE-CH6810-A              PIC X(1)
                                               VALUE SPACE.
               10  WK01-CODE-CH6810-V              PIC X(1)
                                               VALUE SPACE.
               10  WK01-CODE-CH6810-O              PIC X(1)
                                               VALUE SPACE.
               10  WK01-CODE-CH6810       PIC X(1)
                                               VALUE SPACES.
               10  WK01-CODE-4002-CH6810-Z              PIC X(1)
                                               VALUE SPACE.
               10  WK01-CODE-4002-CH6810-F              PIC X(1)
                                               VALUE SPACE.
               10  WK01-CODE-4002-CH6810-A              PIC X(1)
                                               VALUE SPACE.
               10  WK01-CODE-4002-CH6810-V              PIC X(1)
                                               VALUE SPACE.
               10  WK01-CODE-4002-CH6810-O              PIC X(1)
                                               VALUE SPACE.
               10  WK01-CODE-4002-CH6810       PIC X(1)
                                               VALUE SPACES.
               10  WK01-CODE-4002-CH6A10-Z              PIC X(1)
                                               VALUE SPACE.
               10  WK01-CODE-4002-CH6A10-F              PIC X(1)
                                               VALUE SPACE.
               10  WK01-CODE-4002-CH6A10-A              PIC X(1)
                                               VALUE SPACE.
               10  WK01-CODE-4002-CH6A10-V              PIC X(1)
                                               VALUE SPACE.
               10  WK01-CODE-4002-CH6A10-O              PIC X(1)
                                               VALUE SPACE.
               10  WK01-CODE-4002-CH6A10       PIC X(6)
                                               VALUE SPACES.
               10  WK01-TITLE-4010-CH6810-Z              PIC X(1)
                                               VALUE SPACE.
               10  WK01-TITLE-4010-CH6810-F              PIC X(1)
                                               VALUE SPACE.
               10  WK01-TITLE-4010-CH6810-A              PIC X(1)
                                               VALUE SPACE.
               10  WK01-TITLE-4010-CH6810-V              PIC X(1)
                                               VALUE SPACE.
               10  WK01-TITLE-4010-CH6810-O              PIC X(1)
                                               VALUE SPACE.
               10  WK01-TITLE-4010-CH6810       PIC X(35)
                                               VALUE SPACES.
               10  WK01-4010-CH6810-Z              PIC X(1)
                                               VALUE SPACE.
               10  WK01-4010-CH6810-F              PIC X(1)
                                               VALUE SPACE.
               10  WK01-4010-CH6810-A              PIC X(1)
                                               VALUE SPACE.
               10  WK01-4010-CH6810-V              PIC X(1)
                                               VALUE SPACE.
               10  WK01-4010-CH6810-O              PIC X(1)
                                               VALUE SPACE.
               10  WK01-4010-CH6810       PIC X(1)
                                               VALUE SPACES.
               10  WK01-DATE-4010-CH6810-Z              PIC X(1)
                                               VALUE SPACE.
               10  WK01-DATE-4010-CH6810-F              PIC X(1)
                                               VALUE SPACE.
               10  WK01-DATE-4010-CH6810-A              PIC X(1)
                                               VALUE SPACE.
               10  WK01-DATE-4010-CH6810-V              PIC X(1)
                                               VALUE SPACE.
               10  WK01-DATE-4010-CH6810-O              PIC X(1)
                                               VALUE SPACE.
               10  WK01-DATE-4010-CH6810       PIC X(6)
                                               VALUE SPACES.
               10  WK01-DATE-4010-CH6A10-Z              PIC X(1)
                                               VALUE SPACE.
               10  WK01-DATE-4010-CH6A10-F              PIC X(1)
                                               VALUE SPACE.
               10  WK01-DATE-4010-CH6A10-A              PIC X(1)
                                               VALUE SPACE.
               10  WK01-DATE-4010-CH6A10-V              PIC X(1)
                                               VALUE SPACE.
               10  WK01-DATE-4010-CH6A10-O              PIC X(1)
                                               VALUE SPACE.
               10  WK01-DATE-4010-CH6A10       PIC X(6)
                                               VALUE SPACES.
               10  WK01-CODE-CH6811-Z              PIC X(1)
                                               VALUE SPACE.
               10  WK01-CODE-CH6811-F              PIC X(1)
                                               VALUE SPACE.
               10  WK01-CODE-CH6811-A              PIC X(1)
                                               VALUE SPACE.
               10  WK01-CODE-CH6811-V              PIC X(1)
                                               VALUE SPACE.
               10  WK01-CODE-CH6811-O              PIC X(1)
                                               VALUE SPACE.
               10  WK01-CODE-CH6811       PIC X(1)
                                               VALUE SPACES.
               10  WK01-CODE-4002-CH6811-Z              PIC X(1)
                                               VALUE SPACE.
               10  WK01-CODE-4002-CH6811-F              PIC X(1)
                                               VALUE SPACE.
               10  WK01-CODE-4002-CH6811-A              PIC X(1)
                                               VALUE SPACE.
               10  WK01-CODE-4002-CH6811-V              PIC X(1)
                                               VALUE SPACE.
               10  WK01-CODE-4002-CH6811-O              PIC X(1)
                                               VALUE SPACE.
               10  WK01-CODE-4002-CH6811       PIC X(1)
                                               VALUE SPACES.
               10  WK01-CODE-4002-CH6A11-Z              PIC X(1)
                                               VALUE SPACE.
               10  WK01-CODE-4002-CH6A11-F              PIC X(1)
                                               VALUE SPACE.
               10  WK01-CODE-4002-CH6A11-A              PIC X(1)
                                               VALUE SPACE.
               10  WK01-CODE-4002-CH6A11-V              PIC X(1)
                                               VALUE SPACE.
               10  WK01-CODE-4002-CH6A11-O              PIC X(1)
                                               VALUE SPACE.
               10  WK01-CODE-4002-CH6A11       PIC X(6)
                                               VALUE SPACES.
               10  WK01-TITLE-4010-CH6811-Z              PIC X(1)
                                               VALUE SPACE.
               10  WK01-TITLE-4010-CH6811-F              PIC X(1)
                                               VALUE SPACE.
               10  WK01-TITLE-4010-CH6811-A              PIC X(1)
                                               VALUE SPACE.
               10  WK01-TITLE-4010-CH6811-V              PIC X(1)
                                               VALUE SPACE.
               10  WK01-TITLE-4010-CH6811-O              PIC X(1)
                                               VALUE SPACE.
               10  WK01-TITLE-4010-CH6811       PIC X(35)
                                               VALUE SPACES.
               10  WK01-4010-CH6811-Z              PIC X(1)
                                               VALUE SPACE.
               10  WK01-4010-CH6811-F              PIC X(1)
                                               VALUE SPACE.
               10  WK01-4010-CH6811-A              PIC X(1)
                                               VALUE SPACE.
               10  WK01-4010-CH6811-V              PIC X(1)
                                               VALUE SPACE.
               10  WK01-4010-CH6811-O              PIC X(1)
                                               VALUE SPACE.
               10  WK01-4010-CH6811       PIC X(1)
                                               VALUE SPACES.
               10  WK01-DATE-4010-CH6811-Z              PIC X(1)
                                               VALUE SPACE.
               10  WK01-DATE-4010-CH6811-F              PIC X(1)
                                               VALUE SPACE.
               10  WK01-DATE-4010-CH6811-A              PIC X(1)
                                               VALUE SPACE.
               10  WK01-DATE-4010-CH6811-V              PIC X(1)
                                               VALUE SPACE.
               10  WK01-DATE-4010-CH6811-O              PIC X(1)
                                               VALUE SPACE.
               10  WK01-DATE-4010-CH6811       PIC X(6)
                                               VALUE SPACES.
               10  WK01-DATE-4010-CH6A11-Z              PIC X(1)
                                               VALUE SPACE.
               10  WK01-DATE-4010-CH6A11-F              PIC X(1)
                                               VALUE SPACE.
               10  WK01-DATE-4010-CH6A11-A              PIC X(1)
                                               VALUE SPACE.
               10  WK01-DATE-4010-CH6A11-V              PIC X(1)
                                               VALUE SPACE.
               10  WK01-DATE-4010-CH6A11-O              PIC X(1)
                                               VALUE SPACE.
               10  WK01-DATE-4010-CH6A11       PIC X(6)
                                               VALUE SPACES.
               10  WK01-COA-CODE-CH68-Z              PIC X(1)
                                               VALUE SPACE.
               10  WK01-COA-CODE-CH68-F              PIC X(1)
                                               VALUE SPACE.
               10  WK01-COA-CODE-CH68-A              PIC X(1)
                                               VALUE SPACE.
               10  WK01-COA-CODE-CH68-V              PIC X(1)
                                               VALUE SPACE.
               10  WK01-COA-CODE-CH68-O              PIC X(1)
                                               VALUE SPACE.
               10  WK01-COA-CODE-CH68       PIC X(1)
                                               VALUE SPACES.
               10  WK01-ORGZN-CODE-CH68-Z              PIC X(1)
                                               VALUE SPACE.
               10  WK01-ORGZN-CODE-CH68-F              PIC X(1)
                                               VALUE SPACE.
               10  WK01-ORGZN-CODE-CH68-A              PIC X(1)
                                               VALUE SPACE.
               10  WK01-ORGZN-CODE-CH68-V              PIC X(1)
                                               VALUE SPACE.
               10  WK01-ORGZN-CODE-CH68-O              PIC X(1)
                                               VALUE SPACE.
               10  WK01-ORGZN-CODE-CH68       PIC X(6)
                                               VALUE SPACES.
               10  WK01-ZZMESSAGE-Z              PIC X(1)
                                               VALUE SPACE.
               10  WK01-ZZMESSAGE-F              PIC X(1)
                                               VALUE SPACE.
               10  WK01-ZZMESSAGE-A              PIC X(1)
                                               VALUE SPACE.
               10  WK01-ZZMESSAGE-V              PIC X(1)
                                               VALUE SPACE.
               10  WK01-ZZMESSAGE-O              PIC X(1)
                                               VALUE SPACE.
               10  WK01-ZZMESSAGE       PIC X(160)
                                               VALUE SPACES.
               10  WK01-PASSED-ONE-Z              PIC X(1)
                                               VALUE SPACE.
               10  WK01-PASSED-ONE-F              PIC X(1)
                                               VALUE SPACE.
               10  WK01-PASSED-ONE-A              PIC X(1)
                                               VALUE SPACE.
               10  WK01-PASSED-ONE-V              PIC X(1)
                                               VALUE SPACE.
               10  WK01-PASSED-ONE-O              PIC X(1)
                                               VALUE SPACE.
               10  WK01-PASSED-ONE       PIC X(32)
                                               VALUE SPACES.
               10  WK01-MAP-RESPONSE-Z              PIC X(1)
                                               VALUE SPACE.
               10  WK01-MAP-RESPONSE-F              PIC X(1)
                                               VALUE SPACE.
               10  WK01-MAP-RESPONSE-A              PIC X(1)
                                               VALUE SPACE.
               10  WK01-MAP-RESPONSE-V              PIC X(1)
                                               VALUE SPACE.
               10  WK01-MAP-RESPONSE-O              PIC X(1)
                                               VALUE SPACE.
               10  WK01-MAP-RESPONSE       PIC X(8)
                                               VALUE SPACES.
               10  WK01-TEXT-SY00-Z              PIC X(1)
                                               VALUE SPACE.
               10  WK01-TEXT-SY00-F              PIC X(1)
                                               VALUE SPACE.
               10  WK01-TEXT-SY00-A              PIC X(1)
                                               VALUE SPACE.
               10  WK01-TEXT-SY00-V              PIC X(1)
                                               VALUE SPACE.
               10  WK01-TEXT-SY00-O              PIC X(1)
                                               VALUE SPACE.
               10  WK01-TEXT-SY00       PIC X(14)
                                               VALUE SPACES.
           04  WK01-SUBSCRIPTED-WORK-AREA.
               05  FILLER                      PIC X(1).
               05  WK01-CODE-CH68-F             PIC X(1)
                                               OCCURS 11.
               05  WK01-CODE-4002-CH68-F             PIC X(1)
                                               OCCURS 11.
               05  WK01-CODE-4002-CH6A-F             PIC X(1)
                                               OCCURS 11.
               05  WK01-TITLE-4010-CH68-F             PIC X(1)
                                               OCCURS 11.
               05  WK01-4010-CH68-F             PIC X(1)
                                               OCCURS 11.
               05  WK01-DATE-4010-CH68-F             PIC X(1)
                                               OCCURS 11.
               05  WK01-DATE-4010-CH6A-F             PIC X(1)
                                               OCCURS 11.
