    ***Created by Convert/DC version V8R03 on 12/11/00 at 13:00***

      *%--------------------------------------------------------------%*
           MOVE DCLINK-MESSAGE  TO WK01-ZZMESSAGE.
      *%--------------------------------------------------------------%*
           MOVE AGR-DATE OF ADSO-APPLICATION-GLOBAL-RECORD TO WK01-DATE.
      *%--------------------------------------------------------------%*
           MOVE AGR-USER-ID OF ADSO-APPLICATION-GLOBAL-RECORD TO
                WK01-USER-ID.
      *%--------------------------------------------------------------%*
           MOVE AGR-FUNC-DESCRIPTION OF ADSO-APPLICATION-GLOBAL-RECORD
                TO WK01-FUNC-DESCRIPTION.
      *%--------------------------------------------------------------%*
           MOVE AGR-PASSED-ONE OF ADSO-APPLICATION-GLOBAL-RECORD TO
                WK01-PASSED-ONE.
      *%--------------------------------------------------------------%*
           MOVE AGR-MAP-RESPONSE OF ADSO-APPLICATION-GLOBAL-RECORD TO
                WK01-MAP-RESPONSE.
      *%--------------------------------------------------------------%*
           MOVE TRMNL-ID-SY00 OF FSYWG00M TO WK01-ID-SY00.
      *%--------------------------------------------------------------%*
           MOVE FULL-NAME-6001-SY00 OF FSYWG00M TO WK01-NAME-6001-SY00.
      *%--------------------------------------------------------------%*
           MOVE AM-PM-FLAG-SY00 OF FSYWG00M TO WK01-PM-FLAG-SY00.
      *%--------------------------------------------------------------%*
           MOVE CURR-RSPNS-ID-SY00 OF FSYWG00M TO WK01-RSPNS-ID-SY00.
      *%--------------------------------------------------------------%*
           MOVE ERROR-TEXT-SY00 OF FSYWG00M TO WK01-TEXT-SY00.
      *%--------------------------------------------------------------%*
           MOVE PAGE-STATUS-CODE-SY00 OF FSYWG00M TO
                WK01-STATUS-CODE-SY00.
      *%--------------------------------------------------------------%*
           MOVE WORK-HH-MM-TIME-SY00 OF FSYWG00M TO
                WK01-HH-MM-TIME-SY00.
      *%--------------------------------------------------------------%*
           MOVE DCSD-TEXT-SY01 OF FSYWG01M TO WK01-TEXT-SY01.
      *%--------------------------------------------------------------%*
           MOVE CNFDL-TEXT-SY01 OF FSYWG01M TO WK01-TEXT-SY0A.
      *%--------------------------------------------------------------%*
           MOVE HOLDS-TEXT-SY01 OF FSYWG01M TO WK01-TEXT-SY0B.
      *%--------------------------------------------------------------%*
           MOVE RQST-COA-CODE-4052-CH19 OF FCHWK19 TO
                WK01-COA-CODE-4052-CH19.
      *%--------------------------------------------------------------%*
           MOVE RQST-XTRNL-ENTY-CODE-4052-CH19 OF FCHWK19 TO
                WK01-XTRNL-ENTY-CD-4052-CH1.
      *%--------------------------------------------------------------%*
           MOVE ACTN-CODE-CH19 OF FCHWM19(0001) TO WK01-CODE-CH191.
      *%--------------------------------------------------------------%*
           MOVE ACTN-CODE-CH19 OF FCHWM19(0002) TO WK01-CODE-CH192.
      *%--------------------------------------------------------------%*
           MOVE ACTN-CODE-CH19 OF FCHWM19(0003) TO WK01-CODE-CH193.
      *%--------------------------------------------------------------%*
           MOVE ACTN-CODE-CH19 OF FCHWM19(0004) TO WK01-CODE-CH194.
      *%--------------------------------------------------------------%*
           MOVE ACTN-CODE-CH19 OF FCHWM19(0005) TO WK01-CODE-CH195.
      *%--------------------------------------------------------------%*
           MOVE ACTN-CODE-CH19 OF FCHWM19(0006) TO WK01-CODE-CH196.
      *%--------------------------------------------------------------%*
           MOVE ACTN-CODE-CH19 OF FCHWM19(0007) TO WK01-CODE-CH197.
      *%--------------------------------------------------------------%*
           MOVE ACTN-CODE-CH19 OF FCHWM19(0008) TO WK01-CODE-CH198.
      *%--------------------------------------------------------------%*
           MOVE ACTN-CODE-CH19 OF FCHWM19(0009) TO WK01-CODE-CH199.
      *%--------------------------------------------------------------%*
           MOVE ACTN-CODE-CH19 OF FCHWM19(0010) TO WK01-CODE-CH1910.
      *%--------------------------------------------------------------%*
           MOVE ACTN-CODE-CH19 OF FCHWM19(0011) TO WK01-CODE-CH1911.
      *%--------------------------------------------------------------%*
           MOVE ACTN-CODE-CH19 OF FCHWM19(0012) TO WK01-CODE-CH1912.
      *%--------------------------------------------------------------%*
           MOVE ACTN-CODE-CH19 OF FCHWM19(0013) TO WK01-CODE-CH1913.
      *%--------------------------------------------------------------%*
           MOVE COA-CODE-4052-CH19 OF FCHWM19(0001) TO
                WK01-CODE-4052-CH191.
      *%--------------------------------------------------------------%*
           MOVE COA-CODE-4052-CH19 OF FCHWM19(0002) TO
                WK01-CODE-4052-CH192.
      *%--------------------------------------------------------------%*
           MOVE COA-CODE-4052-CH19 OF FCHWM19(0003) TO
                WK01-CODE-4052-CH193.
      *%--------------------------------------------------------------%*
           MOVE COA-CODE-4052-CH19 OF FCHWM19(0004) TO
                WK01-CODE-4052-CH194.
      *%--------------------------------------------------------------%*
           MOVE COA-CODE-4052-CH19 OF FCHWM19(0005) TO
                WK01-CODE-4052-CH195.
      *%--------------------------------------------------------------%*
           MOVE COA-CODE-4052-CH19 OF FCHWM19(0006) TO
                WK01-CODE-4052-CH196.
      *%--------------------------------------------------------------%*
           MOVE COA-CODE-4052-CH19 OF FCHWM19(0007) TO
                WK01-CODE-4052-CH197.
      *%--------------------------------------------------------------%*
           MOVE COA-CODE-4052-CH19 OF FCHWM19(0008) TO
                WK01-CODE-4052-CH198.
      *%--------------------------------------------------------------%*
           MOVE COA-CODE-4052-CH19 OF FCHWM19(0009) TO
                WK01-CODE-4052-CH199.
      *%--------------------------------------------------------------%*
           MOVE COA-CODE-4052-CH19 OF FCHWM19(0010) TO
                WK01-CODE-4052-CH1910.
      *%--------------------------------------------------------------%*
           MOVE COA-CODE-4052-CH19 OF FCHWM19(0011) TO
                WK01-CODE-4052-CH1911.
      *%--------------------------------------------------------------%*
           MOVE COA-CODE-4052-CH19 OF FCHWM19(0012) TO
                WK01-CODE-4052-CH1912.
      *%--------------------------------------------------------------%*
           MOVE COA-CODE-4052-CH19 OF FCHWM19(0013) TO
                WK01-CODE-4052-CH1913.
      *%--------------------------------------------------------------%*
           MOVE XTRNL-ENTY-CODE-4052-CH19 OF FCHWM19(0001) TO
                WK01-ENTY-CODE-4052-CH191.
      *%--------------------------------------------------------------%*
           MOVE XTRNL-ENTY-CODE-4052-CH19 OF FCHWM19(0002) TO
                WK01-ENTY-CODE-4052-CH192.
      *%--------------------------------------------------------------%*
           MOVE XTRNL-ENTY-CODE-4052-CH19 OF FCHWM19(0003) TO
                WK01-ENTY-CODE-4052-CH193.
      *%--------------------------------------------------------------%*
           MOVE XTRNL-ENTY-CODE-4052-CH19 OF FCHWM19(0004) TO
                WK01-ENTY-CODE-4052-CH194.
      *%--------------------------------------------------------------%*
           MOVE XTRNL-ENTY-CODE-4052-CH19 OF FCHWM19(0005) TO
                WK01-ENTY-CODE-4052-CH195.
      *%--------------------------------------------------------------%*
           MOVE XTRNL-ENTY-CODE-4052-CH19 OF FCHWM19(0006) TO
                WK01-ENTY-CODE-4052-CH196.
      *%--------------------------------------------------------------%*
           MOVE XTRNL-ENTY-CODE-4052-CH19 OF FCHWM19(0007) TO
                WK01-ENTY-CODE-4052-CH197.
      *%--------------------------------------------------------------%*
           MOVE XTRNL-ENTY-CODE-4052-CH19 OF FCHWM19(0008) TO
                WK01-ENTY-CODE-4052-CH198.
      *%--------------------------------------------------------------%*
           MOVE XTRNL-ENTY-CODE-4052-CH19 OF FCHWM19(0009) TO
                WK01-ENTY-CODE-4052-CH199.
      *%--------------------------------------------------------------%*
           MOVE XTRNL-ENTY-CODE-4052-CH19 OF FCHWM19(0010) TO
                WK01-ENTY-CODE-4052-CH1910.
      *%--------------------------------------------------------------%*
           MOVE XTRNL-ENTY-CODE-4052-CH19 OF FCHWM19(0011) TO
                WK01-ENTY-CODE-4052-CH1911.
      *%--------------------------------------------------------------%*
           MOVE XTRNL-ENTY-CODE-4052-CH19 OF FCHWM19(0012) TO
                WK01-ENTY-CODE-4052-CH1912.
      *%--------------------------------------------------------------%*
           MOVE XTRNL-ENTY-CODE-4052-CH19 OF FCHWM19(0013) TO
                WK01-ENTY-CODE-4052-CH1913.
      *%--------------------------------------------------------------%*
           MOVE XTRNL-ENTY-DESC-4052-CH19 OF FCHWM19(0001) TO
                WK01-ENTY-DESC-4052-CH191.
      *%--------------------------------------------------------------%*
           MOVE XTRNL-ENTY-DESC-4052-CH19 OF FCHWM19(0002) TO
                WK01-ENTY-DESC-4052-CH192.
      *%--------------------------------------------------------------%*
           MOVE XTRNL-ENTY-DESC-4052-CH19 OF FCHWM19(0003) TO
                WK01-ENTY-DESC-4052-CH193.
      *%--------------------------------------------------------------%*
           MOVE XTRNL-ENTY-DESC-4052-CH19 OF FCHWM19(0004) TO
                WK01-ENTY-DESC-4052-CH194.
      *%--------------------------------------------------------------%*
           MOVE XTRNL-ENTY-DESC-4052-CH19 OF FCHWM19(0005) TO
                WK01-ENTY-DESC-4052-CH195.
      *%--------------------------------------------------------------%*
           MOVE XTRNL-ENTY-DESC-4052-CH19 OF FCHWM19(0006) TO
                WK01-ENTY-DESC-4052-CH196.
      *%--------------------------------------------------------------%*
           MOVE XTRNL-ENTY-DESC-4052-CH19 OF FCHWM19(0007) TO
                WK01-ENTY-DESC-4052-CH197.
      *%--------------------------------------------------------------%*
           MOVE XTRNL-ENTY-DESC-4052-CH19 OF FCHWM19(0008) TO
                WK01-ENTY-DESC-4052-CH198.
      *%--------------------------------------------------------------%*
           MOVE XTRNL-ENTY-DESC-4052-CH19 OF FCHWM19(0009) TO
                WK01-ENTY-DESC-4052-CH199.
      *%--------------------------------------------------------------%*
           MOVE XTRNL-ENTY-DESC-4052-CH19 OF FCHWM19(0010) TO
                WK01-ENTY-DESC-4052-CH1910.
      *%--------------------------------------------------------------%*
           MOVE XTRNL-ENTY-DESC-4052-CH19 OF FCHWM19(0011) TO
                WK01-ENTY-DESC-4052-CH1911.
      *%--------------------------------------------------------------%*
           MOVE XTRNL-ENTY-DESC-4052-CH19 OF FCHWM19(0012) TO
                WK01-ENTY-DESC-4052-CH1912.
      *%--------------------------------------------------------------%*
           MOVE XTRNL-ENTY-DESC-4052-CH19 OF FCHWM19(0013) TO
                WK01-ENTY-DESC-4052-CH1913.
