       01  MAP-CONTROL.

    ***Created by Convert/DC version V8R03 on 12/01/00 at 17:00***

           02  FCHMI75-MAP-CONTROL.
           03  FCHMI75T.
           04  WK01-DCXMAPL-PARMS.
               10  WK01-MAPNAME                  PIC X(8)
                                                 VALUE 'FCHMI75I'.
               10  WK01-IKE-LENGTH               PIC S9(8)  COMP
                                                 VALUE 24699.
               10  WK01-TINA-LENGTH              PIC S9(4)  COMP
                                                 VALUE 1385.
           05  WK01-ATTRIBUTES                   PIC X(60)
                                                 VALUE SPACE.
           05  WK01-ATTRIBUTES-ERROR             PIC X(60) VALUE
               'U  BIF'.
           05  WK01-CURSOR-DFLD                  PIC X(36)
                                                 VALUE SPACES.
           05  WK01-CURSOR-DFLD-QUAL             PIC X(30)
                                                 VALUE SPACES.
           05  WK01-ROW                          PIC S9(4) COMP
                                                 VALUE ZERO.
           05  WK01-COLUMN                       PIC S9(4) COMP
                                                 VALUE ZERO.
           05  WK01-ERROR-MSG                    PIC X(80)
                                                 VALUE SPACES.
           05  WK01-MAP-DATA-LEN                 PIC S9(6)
                                                 VALUE ZERO.
           05  WK01-1ST-FLAG                     PIC X(1)
                                                 VALUE 'Y'.
           05  WK01-FLAG-OUTPUT-DATA             PIC X(1)
                                                 VALUE 'Y'.
      *    05  WK01-STATUS-RETURN-FLAG           PIC X(1)
      *                                          VALUE SPACES.
           05  WK01-ALL-BUT-FLAG                 PIC X(1)
                                                 VALUE SPACES.
           05  WK01-FLAG-ALL-FIELDS-CHANGED      PIC X(1)  VALUE 'Y'.
           05  WK01-FLAG-ANY-FIELDS-CHANGED      PIC X(1)  VALUE 'N'.
           05  WK01-FLAG-ALL-FIELDS-ERROR        PIC X(1)  VALUE 'Y'.
           05  WK01-FLAG-ANY-FIELDS-ERROR        PIC X(1)  VALUE 'N'.
           05  WK01-FLAG-ALL-FIELDS-ERASE        PIC X(1)  VALUE 'Y'.
           05  WK01-FLAG-ANY-FIELDS-ERASE        PIC X(1)  VALUE 'Y'.

           05  WK01-VARDATA                      PIC X(11880)
                                                 VALUE SPACES.
           05  FILLER                            PIC X(100)
                                                 VALUE SPACES.
           04  WK01-ELEMENT-AREA.

               10  WK01-ID-SY00-Z              PIC X(1)
                                               VALUE SPACE.
               10  WK01-ID-SY00-F              PIC X(1)
                                               VALUE SPACE.
               10  WK01-ID-SY00-A              PIC X(1)
                                               VALUE SPACE.
               10  WK01-ID-SY00-V              PIC X(1)
                                               VALUE SPACE.
               10  WK01-ID-SY00-O              PIC X(1)
                                               VALUE SPACE.
               10  WK01-ID-SY00       PIC X(8)
                                               VALUE SPACES.
               10  WK01-NAME-6001-SY00-Z              PIC X(1)
                                               VALUE SPACE.
               10  WK01-NAME-6001-SY00-F              PIC X(1)
                                               VALUE SPACE.
               10  WK01-NAME-6001-SY00-A              PIC X(1)
                                               VALUE SPACE.
               10  WK01-NAME-6001-SY00-V              PIC X(1)
                                               VALUE SPACE.
               10  WK01-NAME-6001-SY00-O              PIC X(1)
                                               VALUE SPACE.
               10  WK01-NAME-6001-SY00       PIC X(35)
                                               VALUE SPACES.
               10  WK01-DATE-Z              PIC X(1)
                                               VALUE SPACE.
               10  WK01-DATE-F              PIC X(1)
                                               VALUE SPACE.
               10  WK01-DATE-A              PIC X(1)
                                               VALUE SPACE.
               10  WK01-DATE-V              PIC X(1)
                                               VALUE SPACE.
               10  WK01-DATE-O              PIC X(1)
                                               VALUE SPACE.
               10  WK01-DATE       PIC X(8)
                                               VALUE SPACES.
               10  WK01-HH-MM-TIME-SY00-Z              PIC X(1)
                                               VALUE SPACE.
               10  WK01-HH-MM-TIME-SY00-F              PIC X(1)
                                               VALUE SPACE.
               10  WK01-HH-MM-TIME-SY00-A              PIC X(1)
                                               VALUE SPACE.
               10  WK01-HH-MM-TIME-SY00-V              PIC X(1)
                                               VALUE SPACE.
               10  WK01-HH-MM-TIME-SY00-O              PIC X(1)
                                               VALUE SPACE.
               10  WK01-HH-MM-TIME-SY00       PIC X(4)
                                               VALUE SPACES.
               10  WK01-PM-FLAG-SY00-Z              PIC X(1)
                                               VALUE SPACE.
               10  WK01-PM-FLAG-SY00-F              PIC X(1)
                                               VALUE SPACE.
               10  WK01-PM-FLAG-SY00-A              PIC X(1)
                                               VALUE SPACE.
               10  WK01-PM-FLAG-SY00-V              PIC X(1)
                                               VALUE SPACE.
               10  WK01-PM-FLAG-SY00-O              PIC X(1)
                                               VALUE SPACE.
               10  WK01-PM-FLAG-SY00       PIC X(1)
                                               VALUE SPACES.
               10  WK01-USER-ID-Z              PIC X(1)
                                               VALUE SPACE.
               10  WK01-USER-ID-F              PIC X(1)
                                               VALUE SPACE.
               10  WK01-USER-ID-A              PIC X(1)
                                               VALUE SPACE.
               10  WK01-USER-ID-V              PIC X(1)
                                               VALUE SPACE.
               10  WK01-USER-ID-O              PIC X(1)
                                               VALUE SPACE.
               10  WK01-USER-ID       PIC X(32)
                                               VALUE SPACES.
               10  WK01-RSPNS-ID-SY00-Z              PIC X(1)
                                               VALUE SPACE.
               10  WK01-RSPNS-ID-SY00-F              PIC X(1)
                                               VALUE SPACE.
               10  WK01-RSPNS-ID-SY00-A              PIC X(1)
                                               VALUE SPACE.
               10  WK01-RSPNS-ID-SY00-V              PIC X(1)
                                               VALUE SPACE.
               10  WK01-RSPNS-ID-SY00-O              PIC X(1)
                                               VALUE SPACE.
               10  WK01-RSPNS-ID-SY00       PIC X(8)
                                               VALUE SPACES.
               10  WK01-FUNC-DESCRIPTION-Z              PIC X(1)
                                               VALUE SPACE.
               10  WK01-FUNC-DESCRIPTION-F              PIC X(1)
                                               VALUE SPACE.
               10  WK01-FUNC-DESCRIPTION-A              PIC X(1)
                                               VALUE SPACE.
               10  WK01-FUNC-DESCRIPTION-V              PIC X(1)
                                               VALUE SPACE.
               10  WK01-FUNC-DESCRIPTION-O              PIC X(1)
                                               VALUE SPACE.
               10  WK01-FUNC-DESCRIPTION       PIC X(28)
                                               VALUE SPACES.
               10  WK01-STATUS-CODE-SY00-Z              PIC X(1)
                                               VALUE SPACE.
               10  WK01-STATUS-CODE-SY00-F              PIC X(1)
                                               VALUE SPACE.
               10  WK01-STATUS-CODE-SY00-A              PIC X(1)
                                               VALUE SPACE.
               10  WK01-STATUS-CODE-SY00-V              PIC X(1)
                                               VALUE SPACE.
               10  WK01-STATUS-CODE-SY00-O              PIC X(1)
                                               VALUE SPACE.
               10  WK01-STATUS-CODE-SY00       PIC X(1)
                                               VALUE SPACES.
               10  WK01-DATE-CH75-Z              PIC X(1)
                                               VALUE SPACE.
               10  WK01-DATE-CH75-F              PIC X(1)
                                               VALUE SPACE.
               10  WK01-DATE-CH75-A              PIC X(1)
                                               VALUE SPACE.
               10  WK01-DATE-CH75-V              PIC X(1)
                                               VALUE SPACE.
               10  WK01-DATE-CH75-O              PIC X(1)
                                               VALUE SPACE.
               10  WK01-DATE-CH75       PIC X(6)
                                               VALUE SPACES.
               10  WK01-STATUS-CH75-Z              PIC X(1)
                                               VALUE SPACE.
               10  WK01-STATUS-CH75-F              PIC X(1)
                                               VALUE SPACE.
               10  WK01-STATUS-CH75-A              PIC X(1)
                                               VALUE SPACE.
               10  WK01-STATUS-CH75-V              PIC X(1)
                                               VALUE SPACE.
               10  WK01-STATUS-CH75-O              PIC X(1)
                                               VALUE SPACE.
               10  WK01-STATUS-CH75       PIC X(1)
                                               VALUE SPACES.
               10  WK01-CODE-CH751-Z              PIC X(1)
                                               VALUE SPACE.
               10  WK01-CODE-CH751-F              PIC X(1)
                                               VALUE SPACE.
               10  WK01-CODE-CH751-A              PIC X(1)
                                               VALUE SPACE.
               10  WK01-CODE-CH751-V              PIC X(1)
                                               VALUE SPACE.
               10  WK01-CODE-CH751-O              PIC X(1)
                                               VALUE SPACE.
               10  WK01-CODE-CH751       PIC X(1)
                                               VALUE SPACES.
               10  WK01-ACCT-CODE-4033-CH751-Z              PIC X(1)
                                               VALUE SPACE.
               10  WK01-ACCT-CODE-4033-CH751-F              PIC X(1)
                                               VALUE SPACE.
               10  WK01-ACCT-CODE-4033-CH751-A              PIC X(1)
                                               VALUE SPACE.
               10  WK01-ACCT-CODE-4033-CH751-V              PIC X(1)
                                               VALUE SPACE.
               10  WK01-ACCT-CODE-4033-CH751-O              PIC X(1)
                                               VALUE SPACE.
               10  WK01-ACCT-CODE-4033-CH751       PIC X(2)
                                               VALUE SPACES.
               10  WK01-CODE-DESC-4062-CH751-Z              PIC X(1)
                                               VALUE SPACE.
               10  WK01-CODE-DESC-4062-CH751-F              PIC X(1)
                                               VALUE SPACE.
               10  WK01-CODE-DESC-4062-CH751-A              PIC X(1)
                                               VALUE SPACE.
               10  WK01-CODE-DESC-4062-CH751-V              PIC X(1)
                                               VALUE SPACE.
               10  WK01-CODE-DESC-4062-CH751-O              PIC X(1)
                                               VALUE SPACE.
               10  WK01-CODE-DESC-4062-CH751       PIC X(35)
                                               VALUE SPACES.
               10  WK01-CODE-4033-CH751-Z              PIC X(1)
                                               VALUE SPACE.
               10  WK01-CODE-4033-CH751-F              PIC X(1)
                                               VALUE SPACE.
               10  WK01-CODE-4033-CH751-A              PIC X(1)
                                               VALUE SPACE.
               10  WK01-CODE-4033-CH751-V              PIC X(1)
                                               VALUE SPACE.
               10  WK01-CODE-4033-CH751-O              PIC X(1)
                                               VALUE SPACE.
               10  WK01-CODE-4033-CH751       PIC X(1)
                                               VALUE SPACES.
               10  WK01-4062-CH751-Z              PIC X(1)
                                               VALUE SPACE.
               10  WK01-4062-CH751-F              PIC X(1)
                                               VALUE SPACE.
               10  WK01-4062-CH751-A              PIC X(1)
                                               VALUE SPACE.
               10  WK01-4062-CH751-V              PIC X(1)
                                               VALUE SPACE.
               10  WK01-4062-CH751-O              PIC X(1)
                                               VALUE SPACE.
               10  WK01-4062-CH751       PIC X(1)
                                               VALUE SPACES.
               10  WK01-DATE-4062-CH7A1-Z              PIC X(1)
                                               VALUE SPACE.
               10  WK01-DATE-4062-CH7A1-F              PIC X(1)
                                               VALUE SPACE.
               10  WK01-DATE-4062-CH7A1-A              PIC X(1)
                                               VALUE SPACE.
               10  WK01-DATE-4062-CH7A1-V              PIC X(1)
                                               VALUE SPACE.
               10  WK01-DATE-4062-CH7A1-O              PIC X(1)
                                               VALUE SPACE.
               10  WK01-DATE-4062-CH7A1       PIC X(6)
                                               VALUE SPACES.
               10  WK01-DATE-4062-CH751-Z              PIC X(1)
                                               VALUE SPACE.
               10  WK01-DATE-4062-CH751-F              PIC X(1)
                                               VALUE SPACE.
               10  WK01-DATE-4062-CH751-A              PIC X(1)
                                               VALUE SPACE.
               10  WK01-DATE-4062-CH751-V              PIC X(1)
                                               VALUE SPACE.
               10  WK01-DATE-4062-CH751-O              PIC X(1)
                                               VALUE SPACE.
               10  WK01-DATE-4062-CH751       PIC X(6)
                                               VALUE SPACES.
               10  WK01-CODE-CH752-Z              PIC X(1)
                                               VALUE SPACE.
               10  WK01-CODE-CH752-F              PIC X(1)
                                               VALUE SPACE.
               10  WK01-CODE-CH752-A              PIC X(1)
                                               VALUE SPACE.
               10  WK01-CODE-CH752-V              PIC X(1)
                                               VALUE SPACE.
               10  WK01-CODE-CH752-O              PIC X(1)
                                               VALUE SPACE.
               10  WK01-CODE-CH752       PIC X(1)
                                               VALUE SPACES.
               10  WK01-ACCT-CODE-4033-CH752-Z              PIC X(1)
                                               VALUE SPACE.
               10  WK01-ACCT-CODE-4033-CH752-F              PIC X(1)
                                               VALUE SPACE.
               10  WK01-ACCT-CODE-4033-CH752-A              PIC X(1)
                                               VALUE SPACE.
               10  WK01-ACCT-CODE-4033-CH752-V              PIC X(1)
                                               VALUE SPACE.
               10  WK01-ACCT-CODE-4033-CH752-O              PIC X(1)
                                               VALUE SPACE.
               10  WK01-ACCT-CODE-4033-CH752       PIC X(2)
                                               VALUE SPACES.
               10  WK01-CODE-DESC-4062-CH752-Z              PIC X(1)
                                               VALUE SPACE.
               10  WK01-CODE-DESC-4062-CH752-F              PIC X(1)
                                               VALUE SPACE.
               10  WK01-CODE-DESC-4062-CH752-A              PIC X(1)
                                               VALUE SPACE.
               10  WK01-CODE-DESC-4062-CH752-V              PIC X(1)
                                               VALUE SPACE.
               10  WK01-CODE-DESC-4062-CH752-O              PIC X(1)
                                               VALUE SPACE.
               10  WK01-CODE-DESC-4062-CH752       PIC X(35)
                                               VALUE SPACES.
               10  WK01-CODE-4033-CH752-Z              PIC X(1)
                                               VALUE SPACE.
               10  WK01-CODE-4033-CH752-F              PIC X(1)
                                               VALUE SPACE.
               10  WK01-CODE-4033-CH752-A              PIC X(1)
                                               VALUE SPACE.
               10  WK01-CODE-4033-CH752-V              PIC X(1)
                                               VALUE SPACE.
               10  WK01-CODE-4033-CH752-O              PIC X(1)
                                               VALUE SPACE.
               10  WK01-CODE-4033-CH752       PIC X(1)
                                               VALUE SPACES.
               10  WK01-4062-CH752-Z              PIC X(1)
                                               VALUE SPACE.
               10  WK01-4062-CH752-F              PIC X(1)
                                               VALUE SPACE.
               10  WK01-4062-CH752-A              PIC X(1)
                                               VALUE SPACE.
               10  WK01-4062-CH752-V              PIC X(1)
                                               VALUE SPACE.
               10  WK01-4062-CH752-O              PIC X(1)
                                               VALUE SPACE.
               10  WK01-4062-CH752       PIC X(1)
                                               VALUE SPACES.
               10  WK01-DATE-4062-CH752-Z              PIC X(1)
                                               VALUE SPACE.
               10  WK01-DATE-4062-CH752-F              PIC X(1)
                                               VALUE SPACE.
               10  WK01-DATE-4062-CH752-A              PIC X(1)
                                               VALUE SPACE.
               10  WK01-DATE-4062-CH752-V              PIC X(1)
                                               VALUE SPACE.
               10  WK01-DATE-4062-CH752-O              PIC X(1)
                                               VALUE SPACE.
               10  WK01-DATE-4062-CH752       PIC X(6)
                                               VALUE SPACES.
               10  WK01-DATE-4062-CH7A2-Z              PIC X(1)
                                               VALUE SPACE.
               10  WK01-DATE-4062-CH7A2-F              PIC X(1)
                                               VALUE SPACE.
               10  WK01-DATE-4062-CH7A2-A              PIC X(1)
                                               VALUE SPACE.
               10  WK01-DATE-4062-CH7A2-V              PIC X(1)
                                               VALUE SPACE.
               10  WK01-DATE-4062-CH7A2-O              PIC X(1)
                                               VALUE SPACE.
               10  WK01-DATE-4062-CH7A2       PIC X(6)
                                               VALUE SPACES.
               10  WK01-CODE-CH753-Z              PIC X(1)
                                               VALUE SPACE.
               10  WK01-CODE-CH753-F              PIC X(1)
                                               VALUE SPACE.
               10  WK01-CODE-CH753-A              PIC X(1)
                                               VALUE SPACE.
               10  WK01-CODE-CH753-V              PIC X(1)
                                               VALUE SPACE.
               10  WK01-CODE-CH753-O              PIC X(1)
                                               VALUE SPACE.
               10  WK01-CODE-CH753       PIC X(1)
                                               VALUE SPACES.
               10  WK01-ACCT-CODE-4033-CH753-Z              PIC X(1)
                                               VALUE SPACE.
               10  WK01-ACCT-CODE-4033-CH753-F              PIC X(1)
                                               VALUE SPACE.
               10  WK01-ACCT-CODE-4033-CH753-A              PIC X(1)
                                               VALUE SPACE.
               10  WK01-ACCT-CODE-4033-CH753-V              PIC X(1)
                                               VALUE SPACE.
               10  WK01-ACCT-CODE-4033-CH753-O              PIC X(1)
                                               VALUE SPACE.
               10  WK01-ACCT-CODE-4033-CH753       PIC X(2)
                                               VALUE SPACES.
               10  WK01-CODE-DESC-4062-CH753-Z              PIC X(1)
                                               VALUE SPACE.
               10  WK01-CODE-DESC-4062-CH753-F              PIC X(1)
                                               VALUE SPACE.
               10  WK01-CODE-DESC-4062-CH753-A              PIC X(1)
                                               VALUE SPACE.
               10  WK01-CODE-DESC-4062-CH753-V              PIC X(1)
                                               VALUE SPACE.
               10  WK01-CODE-DESC-4062-CH753-O              PIC X(1)
                                               VALUE SPACE.
               10  WK01-CODE-DESC-4062-CH753       PIC X(35)
                                               VALUE SPACES.
               10  WK01-CODE-4033-CH753-Z              PIC X(1)
                                               VALUE SPACE.
               10  WK01-CODE-4033-CH753-F              PIC X(1)
                                               VALUE SPACE.
               10  WK01-CODE-4033-CH753-A              PIC X(1)
                                               VALUE SPACE.
               10  WK01-CODE-4033-CH753-V              PIC X(1)
                                               VALUE SPACE.
               10  WK01-CODE-4033-CH753-O              PIC X(1)
                                               VALUE SPACE.
               10  WK01-CODE-4033-CH753       PIC X(1)
                                               VALUE SPACES.
               10  WK01-4062-CH753-Z              PIC X(1)
                                               VALUE SPACE.
               10  WK01-4062-CH753-F              PIC X(1)
                                               VALUE SPACE.
               10  WK01-4062-CH753-A              PIC X(1)
                                               VALUE SPACE.
               10  WK01-4062-CH753-V              PIC X(1)
                                               VALUE SPACE.
               10  WK01-4062-CH753-O              PIC X(1)
                                               VALUE SPACE.
               10  WK01-4062-CH753       PIC X(1)
                                               VALUE SPACES.
               10  WK01-DATE-4062-CH753-Z              PIC X(1)
                                               VALUE SPACE.
               10  WK01-DATE-4062-CH753-F              PIC X(1)
                                               VALUE SPACE.
               10  WK01-DATE-4062-CH753-A              PIC X(1)
                                               VALUE SPACE.
               10  WK01-DATE-4062-CH753-V              PIC X(1)
                                               VALUE SPACE.
               10  WK01-DATE-4062-CH753-O              PIC X(1)
                                               VALUE SPACE.
               10  WK01-DATE-4062-CH753       PIC X(6)
                                               VALUE SPACES.
               10  WK01-DATE-4062-CH7A3-Z              PIC X(1)
                                               VALUE SPACE.
               10  WK01-DATE-4062-CH7A3-F              PIC X(1)
                                               VALUE SPACE.
               10  WK01-DATE-4062-CH7A3-A              PIC X(1)
                                               VALUE SPACE.
               10  WK01-DATE-4062-CH7A3-V              PIC X(1)
                                               VALUE SPACE.
               10  WK01-DATE-4062-CH7A3-O              PIC X(1)
                                               VALUE SPACE.
               10  WK01-DATE-4062-CH7A3       PIC X(6)
                                               VALUE SPACES.
               10  WK01-CODE-CH754-Z              PIC X(1)
                                               VALUE SPACE.
               10  WK01-CODE-CH754-F              PIC X(1)
                                               VALUE SPACE.
               10  WK01-CODE-CH754-A              PIC X(1)
                                               VALUE SPACE.
               10  WK01-CODE-CH754-V              PIC X(1)
                                               VALUE SPACE.
               10  WK01-CODE-CH754-O              PIC X(1)
                                               VALUE SPACE.
               10  WK01-CODE-CH754       PIC X(1)
                                               VALUE SPACES.
               10  WK01-ACCT-CODE-4033-CH754-Z              PIC X(1)
                                               VALUE SPACE.
               10  WK01-ACCT-CODE-4033-CH754-F              PIC X(1)
                                               VALUE SPACE.
               10  WK01-ACCT-CODE-4033-CH754-A              PIC X(1)
                                               VALUE SPACE.
               10  WK01-ACCT-CODE-4033-CH754-V              PIC X(1)
                                               VALUE SPACE.
               10  WK01-ACCT-CODE-4033-CH754-O              PIC X(1)
                                               VALUE SPACE.
               10  WK01-ACCT-CODE-4033-CH754       PIC X(2)
                                               VALUE SPACES.
               10  WK01-CODE-DESC-4062-CH754-Z              PIC X(1)
                                               VALUE SPACE.
               10  WK01-CODE-DESC-4062-CH754-F              PIC X(1)
                                               VALUE SPACE.
               10  WK01-CODE-DESC-4062-CH754-A              PIC X(1)
                                               VALUE SPACE.
               10  WK01-CODE-DESC-4062-CH754-V              PIC X(1)
                                               VALUE SPACE.
               10  WK01-CODE-DESC-4062-CH754-O              PIC X(1)
                                               VALUE SPACE.
               10  WK01-CODE-DESC-4062-CH754       PIC X(35)
                                               VALUE SPACES.
               10  WK01-CODE-4033-CH754-Z              PIC X(1)
                                               VALUE SPACE.
               10  WK01-CODE-4033-CH754-F              PIC X(1)
                                               VALUE SPACE.
               10  WK01-CODE-4033-CH754-A              PIC X(1)
                                               VALUE SPACE.
               10  WK01-CODE-4033-CH754-V              PIC X(1)
                                               VALUE SPACE.
               10  WK01-CODE-4033-CH754-O              PIC X(1)
                                               VALUE SPACE.
               10  WK01-CODE-4033-CH754       PIC X(1)
                                               VALUE SPACES.
               10  WK01-4062-CH754-Z              PIC X(1)
                                               VALUE SPACE.
               10  WK01-4062-CH754-F              PIC X(1)
                                               VALUE SPACE.
               10  WK01-4062-CH754-A              PIC X(1)
                                               VALUE SPACE.
               10  WK01-4062-CH754-V              PIC X(1)
                                               VALUE SPACE.
               10  WK01-4062-CH754-O              PIC X(1)
                                               VALUE SPACE.
               10  WK01-4062-CH754       PIC X(1)
                                               VALUE SPACES.
               10  WK01-DATE-4062-CH754-Z              PIC X(1)
                                               VALUE SPACE.
               10  WK01-DATE-4062-CH754-F              PIC X(1)
                                               VALUE SPACE.
               10  WK01-DATE-4062-CH754-A              PIC X(1)
                                               VALUE SPACE.
               10  WK01-DATE-4062-CH754-V              PIC X(1)
                                               VALUE SPACE.
               10  WK01-DATE-4062-CH754-O              PIC X(1)
                                               VALUE SPACE.
               10  WK01-DATE-4062-CH754       PIC X(6)
                                               VALUE SPACES.
               10  WK01-DATE-4062-CH7A4-Z              PIC X(1)
                                               VALUE SPACE.
               10  WK01-DATE-4062-CH7A4-F              PIC X(1)
                                               VALUE SPACE.
               10  WK01-DATE-4062-CH7A4-A              PIC X(1)
                                               VALUE SPACE.
               10  WK01-DATE-4062-CH7A4-V              PIC X(1)
                                               VALUE SPACE.
               10  WK01-DATE-4062-CH7A4-O              PIC X(1)
                                               VALUE SPACE.
               10  WK01-DATE-4062-CH7A4       PIC X(6)
                                               VALUE SPACES.
               10  WK01-CODE-CH755-Z              PIC X(1)
                                               VALUE SPACE.
               10  WK01-CODE-CH755-F              PIC X(1)
                                               VALUE SPACE.
               10  WK01-CODE-CH755-A              PIC X(1)
                                               VALUE SPACE.
               10  WK01-CODE-CH755-V              PIC X(1)
                                               VALUE SPACE.
               10  WK01-CODE-CH755-O              PIC X(1)
                                               VALUE SPACE.
               10  WK01-CODE-CH755       PIC X(1)
                                               VALUE SPACES.
               10  WK01-ACCT-CODE-4033-CH755-Z              PIC X(1)
                                               VALUE SPACE.
               10  WK01-ACCT-CODE-4033-CH755-F              PIC X(1)
                                               VALUE SPACE.
               10  WK01-ACCT-CODE-4033-CH755-A              PIC X(1)
                                               VALUE SPACE.
               10  WK01-ACCT-CODE-4033-CH755-V              PIC X(1)
                                               VALUE SPACE.
               10  WK01-ACCT-CODE-4033-CH755-O              PIC X(1)
                                               VALUE SPACE.
               10  WK01-ACCT-CODE-4033-CH755       PIC X(2)
                                               VALUE SPACES.
               10  WK01-CODE-DESC-4062-CH755-Z              PIC X(1)
                                               VALUE SPACE.
               10  WK01-CODE-DESC-4062-CH755-F              PIC X(1)
                                               VALUE SPACE.
               10  WK01-CODE-DESC-4062-CH755-A              PIC X(1)
                                               VALUE SPACE.
               10  WK01-CODE-DESC-4062-CH755-V              PIC X(1)
                                               VALUE SPACE.
               10  WK01-CODE-DESC-4062-CH755-O              PIC X(1)
                                               VALUE SPACE.
               10  WK01-CODE-DESC-4062-CH755       PIC X(35)
                                               VALUE SPACES.
               10  WK01-CODE-4033-CH755-Z              PIC X(1)
                                               VALUE SPACE.
               10  WK01-CODE-4033-CH755-F              PIC X(1)
                                               VALUE SPACE.
               10  WK01-CODE-4033-CH755-A              PIC X(1)
                                               VALUE SPACE.
               10  WK01-CODE-4033-CH755-V              PIC X(1)
                                               VALUE SPACE.
               10  WK01-CODE-4033-CH755-O              PIC X(1)
                                               VALUE SPACE.
               10  WK01-CODE-4033-CH755       PIC X(1)
                                               VALUE SPACES.
               10  WK01-4062-CH755-Z              PIC X(1)
                                               VALUE SPACE.
               10  WK01-4062-CH755-F              PIC X(1)
                                               VALUE SPACE.
               10  WK01-4062-CH755-A              PIC X(1)
                                               VALUE SPACE.
               10  WK01-4062-CH755-V              PIC X(1)
                                               VALUE SPACE.
               10  WK01-4062-CH755-O              PIC X(1)
                                               VALUE SPACE.
               10  WK01-4062-CH755       PIC X(1)
                                               VALUE SPACES.
               10  WK01-DATE-4062-CH755-Z              PIC X(1)
                                               VALUE SPACE.
               10  WK01-DATE-4062-CH755-F              PIC X(1)
                                               VALUE SPACE.
               10  WK01-DATE-4062-CH755-A              PIC X(1)
                                               VALUE SPACE.
               10  WK01-DATE-4062-CH755-V              PIC X(1)
                                               VALUE SPACE.
               10  WK01-DATE-4062-CH755-O              PIC X(1)
                                               VALUE SPACE.
               10  WK01-DATE-4062-CH755       PIC X(6)
                                               VALUE SPACES.
               10  WK01-DATE-4062-CH7A5-Z              PIC X(1)
                                               VALUE SPACE.
               10  WK01-DATE-4062-CH7A5-F              PIC X(1)
                                               VALUE SPACE.
               10  WK01-DATE-4062-CH7A5-A              PIC X(1)
                                               VALUE SPACE.
               10  WK01-DATE-4062-CH7A5-V              PIC X(1)
                                               VALUE SPACE.
               10  WK01-DATE-4062-CH7A5-O              PIC X(1)
                                               VALUE SPACE.
               10  WK01-DATE-4062-CH7A5       PIC X(6)
                                               VALUE SPACES.
               10  WK01-CODE-CH756-Z              PIC X(1)
                                               VALUE SPACE.
               10  WK01-CODE-CH756-F              PIC X(1)
                                               VALUE SPACE.
               10  WK01-CODE-CH756-A              PIC X(1)
                                               VALUE SPACE.
               10  WK01-CODE-CH756-V              PIC X(1)
                                               VALUE SPACE.
               10  WK01-CODE-CH756-O              PIC X(1)
                                               VALUE SPACE.
               10  WK01-CODE-CH756       PIC X(1)
                                               VALUE SPACES.
               10  WK01-ACCT-CODE-4033-CH756-Z              PIC X(1)
                                               VALUE SPACE.
               10  WK01-ACCT-CODE-4033-CH756-F              PIC X(1)
                                               VALUE SPACE.
               10  WK01-ACCT-CODE-4033-CH756-A              PIC X(1)
                                               VALUE SPACE.
               10  WK01-ACCT-CODE-4033-CH756-V              PIC X(1)
                                               VALUE SPACE.
               10  WK01-ACCT-CODE-4033-CH756-O              PIC X(1)
                                               VALUE SPACE.
               10  WK01-ACCT-CODE-4033-CH756       PIC X(2)
                                               VALUE SPACES.
               10  WK01-CODE-DESC-4062-CH756-Z              PIC X(1)
                                               VALUE SPACE.
               10  WK01-CODE-DESC-4062-CH756-F              PIC X(1)
                                               VALUE SPACE.
               10  WK01-CODE-DESC-4062-CH756-A              PIC X(1)
                                               VALUE SPACE.
               10  WK01-CODE-DESC-4062-CH756-V              PIC X(1)
                                               VALUE SPACE.
               10  WK01-CODE-DESC-4062-CH756-O              PIC X(1)
                                               VALUE SPACE.
               10  WK01-CODE-DESC-4062-CH756       PIC X(35)
                                               VALUE SPACES.
               10  WK01-CODE-4033-CH756-Z              PIC X(1)
                                               VALUE SPACE.
               10  WK01-CODE-4033-CH756-F              PIC X(1)
                                               VALUE SPACE.
               10  WK01-CODE-4033-CH756-A              PIC X(1)
                                               VALUE SPACE.
               10  WK01-CODE-4033-CH756-V              PIC X(1)
                                               VALUE SPACE.
               10  WK01-CODE-4033-CH756-O              PIC X(1)
                                               VALUE SPACE.
               10  WK01-CODE-4033-CH756       PIC X(1)
                                               VALUE SPACES.
               10  WK01-4062-CH756-Z              PIC X(1)
                                               VALUE SPACE.
               10  WK01-4062-CH756-F              PIC X(1)
                                               VALUE SPACE.
               10  WK01-4062-CH756-A              PIC X(1)
                                               VALUE SPACE.
               10  WK01-4062-CH756-V              PIC X(1)
                                               VALUE SPACE.
               10  WK01-4062-CH756-O              PIC X(1)
                                               VALUE SPACE.
               10  WK01-4062-CH756       PIC X(1)
                                               VALUE SPACES.
               10  WK01-DATE-4062-CH756-Z              PIC X(1)
                                               VALUE SPACE.
               10  WK01-DATE-4062-CH756-F              PIC X(1)
                                               VALUE SPACE.
               10  WK01-DATE-4062-CH756-A              PIC X(1)
                                               VALUE SPACE.
               10  WK01-DATE-4062-CH756-V              PIC X(1)
                                               VALUE SPACE.
               10  WK01-DATE-4062-CH756-O              PIC X(1)
                                               VALUE SPACE.
               10  WK01-DATE-4062-CH756       PIC X(6)
                                               VALUE SPACES.
               10  WK01-DATE-4062-CH7A6-Z              PIC X(1)
                                               VALUE SPACE.
               10  WK01-DATE-4062-CH7A6-F              PIC X(1)
                                               VALUE SPACE.
               10  WK01-DATE-4062-CH7A6-A              PIC X(1)
                                               VALUE SPACE.
               10  WK01-DATE-4062-CH7A6-V              PIC X(1)
                                               VALUE SPACE.
               10  WK01-DATE-4062-CH7A6-O              PIC X(1)
                                               VALUE SPACE.
               10  WK01-DATE-4062-CH7A6       PIC X(6)
                                               VALUE SPACES.
               10  WK01-CODE-CH757-Z              PIC X(1)
                                               VALUE SPACE.
               10  WK01-CODE-CH757-F              PIC X(1)
                                               VALUE SPACE.
               10  WK01-CODE-CH757-A              PIC X(1)
                                               VALUE SPACE.
               10  WK01-CODE-CH757-V              PIC X(1)
                                               VALUE SPACE.
               10  WK01-CODE-CH757-O              PIC X(1)
                                               VALUE SPACE.
               10  WK01-CODE-CH757       PIC X(1)
                                               VALUE SPACES.
               10  WK01-ACCT-CODE-4033-CH757-Z              PIC X(1)
                                               VALUE SPACE.
               10  WK01-ACCT-CODE-4033-CH757-F              PIC X(1)
                                               VALUE SPACE.
               10  WK01-ACCT-CODE-4033-CH757-A              PIC X(1)
                                               VALUE SPACE.
               10  WK01-ACCT-CODE-4033-CH757-V              PIC X(1)
                                               VALUE SPACE.
               10  WK01-ACCT-CODE-4033-CH757-O              PIC X(1)
                                               VALUE SPACE.
               10  WK01-ACCT-CODE-4033-CH757       PIC X(2)
                                               VALUE SPACES.
               10  WK01-CODE-DESC-4062-CH757-Z              PIC X(1)
                                               VALUE SPACE.
               10  WK01-CODE-DESC-4062-CH757-F              PIC X(1)
                                               VALUE SPACE.
               10  WK01-CODE-DESC-4062-CH757-A              PIC X(1)
                                               VALUE SPACE.
               10  WK01-CODE-DESC-4062-CH757-V              PIC X(1)
                                               VALUE SPACE.
               10  WK01-CODE-DESC-4062-CH757-O              PIC X(1)
                                               VALUE SPACE.
               10  WK01-CODE-DESC-4062-CH757       PIC X(35)
                                               VALUE SPACES.
               10  WK01-CODE-4033-CH757-Z              PIC X(1)
                                               VALUE SPACE.
               10  WK01-CODE-4033-CH757-F              PIC X(1)
                                               VALUE SPACE.
               10  WK01-CODE-4033-CH757-A              PIC X(1)
                                               VALUE SPACE.
               10  WK01-CODE-4033-CH757-V              PIC X(1)
                                               VALUE SPACE.
               10  WK01-CODE-4033-CH757-O              PIC X(1)
                                               VALUE SPACE.
               10  WK01-CODE-4033-CH757       PIC X(1)
                                               VALUE SPACES.
               10  WK01-4062-CH757-Z              PIC X(1)
                                               VALUE SPACE.
               10  WK01-4062-CH757-F              PIC X(1)
                                               VALUE SPACE.
               10  WK01-4062-CH757-A              PIC X(1)
                                               VALUE SPACE.
               10  WK01-4062-CH757-V              PIC X(1)
                                               VALUE SPACE.
               10  WK01-4062-CH757-O              PIC X(1)
                                               VALUE SPACE.
               10  WK01-4062-CH757       PIC X(1)
                                               VALUE SPACES.
               10  WK01-DATE-4062-CH757-Z              PIC X(1)
                                               VALUE SPACE.
               10  WK01-DATE-4062-CH757-F              PIC X(1)
                                               VALUE SPACE.
               10  WK01-DATE-4062-CH757-A              PIC X(1)
                                               VALUE SPACE.
               10  WK01-DATE-4062-CH757-V              PIC X(1)
                                               VALUE SPACE.
               10  WK01-DATE-4062-CH757-O              PIC X(1)
                                               VALUE SPACE.
               10  WK01-DATE-4062-CH757       PIC X(6)
                                               VALUE SPACES.
               10  WK01-DATE-4062-CH7A7-Z              PIC X(1)
                                               VALUE SPACE.
               10  WK01-DATE-4062-CH7A7-F              PIC X(1)
                                               VALUE SPACE.
               10  WK01-DATE-4062-CH7A7-A              PIC X(1)
                                               VALUE SPACE.
               10  WK01-DATE-4062-CH7A7-V              PIC X(1)
                                               VALUE SPACE.
               10  WK01-DATE-4062-CH7A7-O              PIC X(1)
                                               VALUE SPACE.
               10  WK01-DATE-4062-CH7A7       PIC X(6)
                                               VALUE SPACES.
               10  WK01-CODE-CH758-Z              PIC X(1)
                                               VALUE SPACE.
               10  WK01-CODE-CH758-F              PIC X(1)
                                               VALUE SPACE.
               10  WK01-CODE-CH758-A              PIC X(1)
                                               VALUE SPACE.
               10  WK01-CODE-CH758-V              PIC X(1)
                                               VALUE SPACE.
               10  WK01-CODE-CH758-O              PIC X(1)
                                               VALUE SPACE.
               10  WK01-CODE-CH758       PIC X(1)
                                               VALUE SPACES.
               10  WK01-ACCT-CODE-4033-CH758-Z              PIC X(1)
                                               VALUE SPACE.
               10  WK01-ACCT-CODE-4033-CH758-F              PIC X(1)
                                               VALUE SPACE.
               10  WK01-ACCT-CODE-4033-CH758-A              PIC X(1)
                                               VALUE SPACE.
               10  WK01-ACCT-CODE-4033-CH758-V              PIC X(1)
                                               VALUE SPACE.
               10  WK01-ACCT-CODE-4033-CH758-O              PIC X(1)
                                               VALUE SPACE.
               10  WK01-ACCT-CODE-4033-CH758       PIC X(2)
                                               VALUE SPACES.
               10  WK01-CODE-DESC-4062-CH758-Z              PIC X(1)
                                               VALUE SPACE.
               10  WK01-CODE-DESC-4062-CH758-F              PIC X(1)
                                               VALUE SPACE.
               10  WK01-CODE-DESC-4062-CH758-A              PIC X(1)
                                               VALUE SPACE.
               10  WK01-CODE-DESC-4062-CH758-V              PIC X(1)
                                               VALUE SPACE.
               10  WK01-CODE-DESC-4062-CH758-O              PIC X(1)
                                               VALUE SPACE.
               10  WK01-CODE-DESC-4062-CH758       PIC X(35)
                                               VALUE SPACES.
               10  WK01-CODE-4033-CH758-Z              PIC X(1)
                                               VALUE SPACE.
               10  WK01-CODE-4033-CH758-F              PIC X(1)
                                               VALUE SPACE.
               10  WK01-CODE-4033-CH758-A              PIC X(1)
                                               VALUE SPACE.
               10  WK01-CODE-4033-CH758-V              PIC X(1)
                                               VALUE SPACE.
               10  WK01-CODE-4033-CH758-O              PIC X(1)
                                               VALUE SPACE.
               10  WK01-CODE-4033-CH758       PIC X(1)
                                               VALUE SPACES.
               10  WK01-4062-CH758-Z              PIC X(1)
                                               VALUE SPACE.
               10  WK01-4062-CH758-F              PIC X(1)
                                               VALUE SPACE.
               10  WK01-4062-CH758-A              PIC X(1)
                                               VALUE SPACE.
               10  WK01-4062-CH758-V              PIC X(1)
                                               VALUE SPACE.
               10  WK01-4062-CH758-O              PIC X(1)
                                               VALUE SPACE.
               10  WK01-4062-CH758       PIC X(1)
                                               VALUE SPACES.
               10  WK01-DATE-4062-CH758-Z              PIC X(1)
                                               VALUE SPACE.
               10  WK01-DATE-4062-CH758-F              PIC X(1)
                                               VALUE SPACE.
               10  WK01-DATE-4062-CH758-A              PIC X(1)
                                               VALUE SPACE.
               10  WK01-DATE-4062-CH758-V              PIC X(1)
                                               VALUE SPACE.
               10  WK01-DATE-4062-CH758-O              PIC X(1)
                                               VALUE SPACE.
               10  WK01-DATE-4062-CH758       PIC X(6)
                                               VALUE SPACES.
               10  WK01-DATE-4062-CH7A8-Z              PIC X(1)
                                               VALUE SPACE.
               10  WK01-DATE-4062-CH7A8-F              PIC X(1)
                                               VALUE SPACE.
               10  WK01-DATE-4062-CH7A8-A              PIC X(1)
                                               VALUE SPACE.
               10  WK01-DATE-4062-CH7A8-V              PIC X(1)
                                               VALUE SPACE.
               10  WK01-DATE-4062-CH7A8-O              PIC X(1)
                                               VALUE SPACE.
               10  WK01-DATE-4062-CH7A8       PIC X(6)
                                               VALUE SPACES.
               10  WK01-CODE-CH759-Z              PIC X(1)
                                               VALUE SPACE.
               10  WK01-CODE-CH759-F              PIC X(1)
                                               VALUE SPACE.
               10  WK01-CODE-CH759-A              PIC X(1)
                                               VALUE SPACE.
               10  WK01-CODE-CH759-V              PIC X(1)
                                               VALUE SPACE.
               10  WK01-CODE-CH759-O              PIC X(1)
                                               VALUE SPACE.
               10  WK01-CODE-CH759       PIC X(1)
                                               VALUE SPACES.
               10  WK01-ACCT-CODE-4033-CH759-Z              PIC X(1)
                                               VALUE SPACE.
               10  WK01-ACCT-CODE-4033-CH759-F              PIC X(1)
                                               VALUE SPACE.
               10  WK01-ACCT-CODE-4033-CH759-A              PIC X(1)
                                               VALUE SPACE.
               10  WK01-ACCT-CODE-4033-CH759-V              PIC X(1)
                                               VALUE SPACE.
               10  WK01-ACCT-CODE-4033-CH759-O              PIC X(1)
                                               VALUE SPACE.
               10  WK01-ACCT-CODE-4033-CH759       PIC X(2)
                                               VALUE SPACES.
               10  WK01-CODE-DESC-4062-CH759-Z              PIC X(1)
                                               VALUE SPACE.
               10  WK01-CODE-DESC-4062-CH759-F              PIC X(1)
                                               VALUE SPACE.
               10  WK01-CODE-DESC-4062-CH759-A              PIC X(1)
                                               VALUE SPACE.
               10  WK01-CODE-DESC-4062-CH759-V              PIC X(1)
                                               VALUE SPACE.
               10  WK01-CODE-DESC-4062-CH759-O              PIC X(1)
                                               VALUE SPACE.
               10  WK01-CODE-DESC-4062-CH759       PIC X(35)
                                               VALUE SPACES.
               10  WK01-CODE-4033-CH759-Z              PIC X(1)
                                               VALUE SPACE.
               10  WK01-CODE-4033-CH759-F              PIC X(1)
                                               VALUE SPACE.
               10  WK01-CODE-4033-CH759-A              PIC X(1)
                                               VALUE SPACE.
               10  WK01-CODE-4033-CH759-V              PIC X(1)
                                               VALUE SPACE.
               10  WK01-CODE-4033-CH759-O              PIC X(1)
                                               VALUE SPACE.
               10  WK01-CODE-4033-CH759       PIC X(1)
                                               VALUE SPACES.
               10  WK01-4062-CH759-Z              PIC X(1)
                                               VALUE SPACE.
               10  WK01-4062-CH759-F              PIC X(1)
                                               VALUE SPACE.
               10  WK01-4062-CH759-A              PIC X(1)
                                               VALUE SPACE.
               10  WK01-4062-CH759-V              PIC X(1)
                                               VALUE SPACE.
               10  WK01-4062-CH759-O              PIC X(1)
                                               VALUE SPACE.
               10  WK01-4062-CH759       PIC X(1)
                                               VALUE SPACES.
               10  WK01-DATE-4062-CH759-Z              PIC X(1)
                                               VALUE SPACE.
               10  WK01-DATE-4062-CH759-F              PIC X(1)
                                               VALUE SPACE.
               10  WK01-DATE-4062-CH759-A              PIC X(1)
                                               VALUE SPACE.
               10  WK01-DATE-4062-CH759-V              PIC X(1)
                                               VALUE SPACE.
               10  WK01-DATE-4062-CH759-O              PIC X(1)
                                               VALUE SPACE.
               10  WK01-DATE-4062-CH759       PIC X(6)
                                               VALUE SPACES.
               10  WK01-DATE-4062-CH7A9-Z              PIC X(1)
                                               VALUE SPACE.
               10  WK01-DATE-4062-CH7A9-F              PIC X(1)
                                               VALUE SPACE.
               10  WK01-DATE-4062-CH7A9-A              PIC X(1)
                                               VALUE SPACE.
               10  WK01-DATE-4062-CH7A9-V              PIC X(1)
                                               VALUE SPACE.
               10  WK01-DATE-4062-CH7A9-O              PIC X(1)
                                               VALUE SPACE.
               10  WK01-DATE-4062-CH7A9       PIC X(6)
                                               VALUE SPACES.
               10  WK01-CODE-CH7510-Z              PIC X(1)
                                               VALUE SPACE.
               10  WK01-CODE-CH7510-F              PIC X(1)
                                               VALUE SPACE.
               10  WK01-CODE-CH7510-A              PIC X(1)
                                               VALUE SPACE.
               10  WK01-CODE-CH7510-V              PIC X(1)
                                               VALUE SPACE.
               10  WK01-CODE-CH7510-O              PIC X(1)
                                               VALUE SPACE.
               10  WK01-CODE-CH7510       PIC X(1)
                                               VALUE SPACES.
               10  WK01-ACCT-CODE-4033-CH7510-Z              PIC X(1)
                                               VALUE SPACE.
               10  WK01-ACCT-CODE-4033-CH7510-F              PIC X(1)
                                               VALUE SPACE.
               10  WK01-ACCT-CODE-4033-CH7510-A              PIC X(1)
                                               VALUE SPACE.
               10  WK01-ACCT-CODE-4033-CH7510-V              PIC X(1)
                                               VALUE SPACE.
               10  WK01-ACCT-CODE-4033-CH7510-O              PIC X(1)
                                               VALUE SPACE.
               10  WK01-ACCT-CODE-4033-CH7510       PIC X(2)
                                               VALUE SPACES.
               10  WK01-CODE-DESC-4062-CH7510-Z              PIC X(1)
                                               VALUE SPACE.
               10  WK01-CODE-DESC-4062-CH7510-F              PIC X(1)
                                               VALUE SPACE.
               10  WK01-CODE-DESC-4062-CH7510-A              PIC X(1)
                                               VALUE SPACE.
               10  WK01-CODE-DESC-4062-CH7510-V              PIC X(1)
                                               VALUE SPACE.
               10  WK01-CODE-DESC-4062-CH7510-O              PIC X(1)
                                               VALUE SPACE.
               10  WK01-CODE-DESC-4062-CH7510       PIC X(35)
                                               VALUE SPACES.
               10  WK01-CODE-4033-CH7510-Z              PIC X(1)
                                               VALUE SPACE.
               10  WK01-CODE-4033-CH7510-F              PIC X(1)
                                               VALUE SPACE.
               10  WK01-CODE-4033-CH7510-A              PIC X(1)
                                               VALUE SPACE.
               10  WK01-CODE-4033-CH7510-V              PIC X(1)
                                               VALUE SPACE.
               10  WK01-CODE-4033-CH7510-O              PIC X(1)
                                               VALUE SPACE.
               10  WK01-CODE-4033-CH7510       PIC X(1)
                                               VALUE SPACES.
               10  WK01-4062-CH7510-Z              PIC X(1)
                                               VALUE SPACE.
               10  WK01-4062-CH7510-F              PIC X(1)
                                               VALUE SPACE.
               10  WK01-4062-CH7510-A              PIC X(1)
                                               VALUE SPACE.
               10  WK01-4062-CH7510-V              PIC X(1)
                                               VALUE SPACE.
               10  WK01-4062-CH7510-O              PIC X(1)
                                               VALUE SPACE.
               10  WK01-4062-CH7510       PIC X(1)
                                               VALUE SPACES.
               10  WK01-DATE-4062-CH7510-Z              PIC X(1)
                                               VALUE SPACE.
               10  WK01-DATE-4062-CH7510-F              PIC X(1)
                                               VALUE SPACE.
               10  WK01-DATE-4062-CH7510-A              PIC X(1)
                                               VALUE SPACE.
               10  WK01-DATE-4062-CH7510-V              PIC X(1)
                                               VALUE SPACE.
               10  WK01-DATE-4062-CH7510-O              PIC X(1)
                                               VALUE SPACE.
               10  WK01-DATE-4062-CH7510       PIC X(6)
                                               VALUE SPACES.
               10  WK01-DATE-4062-CH7A10-Z              PIC X(1)
                                               VALUE SPACE.
               10  WK01-DATE-4062-CH7A10-F              PIC X(1)
                                               VALUE SPACE.
               10  WK01-DATE-4062-CH7A10-A              PIC X(1)
                                               VALUE SPACE.
               10  WK01-DATE-4062-CH7A10-V              PIC X(1)
                                               VALUE SPACE.
               10  WK01-DATE-4062-CH7A10-O              PIC X(1)
                                               VALUE SPACE.
               10  WK01-DATE-4062-CH7A10       PIC X(6)
                                               VALUE SPACES.
               10  WK01-CODE-CH7511-Z              PIC X(1)
                                               VALUE SPACE.
               10  WK01-CODE-CH7511-F              PIC X(1)
                                               VALUE SPACE.
               10  WK01-CODE-CH7511-A              PIC X(1)
                                               VALUE SPACE.
               10  WK01-CODE-CH7511-V              PIC X(1)
                                               VALUE SPACE.
               10  WK01-CODE-CH7511-O              PIC X(1)
                                               VALUE SPACE.
               10  WK01-CODE-CH7511       PIC X(1)
                                               VALUE SPACES.
               10  WK01-ACCT-CODE-4033-CH7511-Z              PIC X(1)
                                               VALUE SPACE.
               10  WK01-ACCT-CODE-4033-CH7511-F              PIC X(1)
                                               VALUE SPACE.
               10  WK01-ACCT-CODE-4033-CH7511-A              PIC X(1)
                                               VALUE SPACE.
               10  WK01-ACCT-CODE-4033-CH7511-V              PIC X(1)
                                               VALUE SPACE.
               10  WK01-ACCT-CODE-4033-CH7511-O              PIC X(1)
                                               VALUE SPACE.
               10  WK01-ACCT-CODE-4033-CH7511       PIC X(2)
                                               VALUE SPACES.
               10  WK01-CODE-DESC-4062-CH7511-Z              PIC X(1)
                                               VALUE SPACE.
               10  WK01-CODE-DESC-4062-CH7511-F              PIC X(1)
                                               VALUE SPACE.
               10  WK01-CODE-DESC-4062-CH7511-A              PIC X(1)
                                               VALUE SPACE.
               10  WK01-CODE-DESC-4062-CH7511-V              PIC X(1)
                                               VALUE SPACE.
               10  WK01-CODE-DESC-4062-CH7511-O              PIC X(1)
                                               VALUE SPACE.
               10  WK01-CODE-DESC-4062-CH7511       PIC X(35)
                                               VALUE SPACES.
               10  WK01-CODE-4033-CH7511-Z              PIC X(1)
                                               VALUE SPACE.
               10  WK01-CODE-4033-CH7511-F              PIC X(1)
                                               VALUE SPACE.
               10  WK01-CODE-4033-CH7511-A              PIC X(1)
                                               VALUE SPACE.
               10  WK01-CODE-4033-CH7511-V              PIC X(1)
                                               VALUE SPACE.
               10  WK01-CODE-4033-CH7511-O              PIC X(1)
                                               VALUE SPACE.
               10  WK01-CODE-4033-CH7511       PIC X(1)
                                               VALUE SPACES.
               10  WK01-4062-CH7511-Z              PIC X(1)
                                               VALUE SPACE.
               10  WK01-4062-CH7511-F              PIC X(1)
                                               VALUE SPACE.
               10  WK01-4062-CH7511-A              PIC X(1)
                                               VALUE SPACE.
               10  WK01-4062-CH7511-V              PIC X(1)
                                               VALUE SPACE.
               10  WK01-4062-CH7511-O              PIC X(1)
                                               VALUE SPACE.
               10  WK01-4062-CH7511       PIC X(1)
                                               VALUE SPACES.
               10  WK01-DATE-4062-CH7511-Z              PIC X(1)
                                               VALUE SPACE.
               10  WK01-DATE-4062-CH7511-F              PIC X(1)
                                               VALUE SPACE.
               10  WK01-DATE-4062-CH7511-A              PIC X(1)
                                               VALUE SPACE.
               10  WK01-DATE-4062-CH7511-V              PIC X(1)
                                               VALUE SPACE.
               10  WK01-DATE-4062-CH7511-O              PIC X(1)
                                               VALUE SPACE.
               10  WK01-DATE-4062-CH7511       PIC X(6)
                                               VALUE SPACES.
               10  WK01-DATE-4062-CH7A11-Z              PIC X(1)
                                               VALUE SPACE.
               10  WK01-DATE-4062-CH7A11-F              PIC X(1)
                                               VALUE SPACE.
               10  WK01-DATE-4062-CH7A11-A              PIC X(1)
                                               VALUE SPACE.
               10  WK01-DATE-4062-CH7A11-V              PIC X(1)
                                               VALUE SPACE.
               10  WK01-DATE-4062-CH7A11-O              PIC X(1)
                                               VALUE SPACE.
               10  WK01-DATE-4062-CH7A11       PIC X(6)
                                               VALUE SPACES.
               10  WK01-BANK-ACCT-CODE-CH75-Z              PIC X(1)
                                               VALUE SPACE.
               10  WK01-BANK-ACCT-CODE-CH75-F              PIC X(1)
                                               VALUE SPACE.
               10  WK01-BANK-ACCT-CODE-CH75-A              PIC X(1)
                                               VALUE SPACE.
               10  WK01-BANK-ACCT-CODE-CH75-V              PIC X(1)
                                               VALUE SPACE.
               10  WK01-BANK-ACCT-CODE-CH75-O              PIC X(1)
                                               VALUE SPACE.
               10  WK01-BANK-ACCT-CODE-CH75       PIC X(2)
                                               VALUE SPACES.
               10  WK01-ZZMESSAGE-Z              PIC X(1)
                                               VALUE SPACE.
               10  WK01-ZZMESSAGE-F              PIC X(1)
                                               VALUE SPACE.
               10  WK01-ZZMESSAGE-A              PIC X(1)
                                               VALUE SPACE.
               10  WK01-ZZMESSAGE-V              PIC X(1)
                                               VALUE SPACE.
               10  WK01-ZZMESSAGE-O              PIC X(1)
                                               VALUE SPACE.
               10  WK01-ZZMESSAGE       PIC X(160)
                                               VALUE SPACES.
               10  WK01-PASSED-ONE-Z              PIC X(1)
                                               VALUE SPACE.
               10  WK01-PASSED-ONE-F              PIC X(1)
                                               VALUE SPACE.
               10  WK01-PASSED-ONE-A              PIC X(1)
                                               VALUE SPACE.
               10  WK01-PASSED-ONE-V              PIC X(1)
                                               VALUE SPACE.
               10  WK01-PASSED-ONE-O              PIC X(1)
                                               VALUE SPACE.
               10  WK01-PASSED-ONE       PIC X(32)
                                               VALUE SPACES.
               10  WK01-MAP-RESPONSE-Z              PIC X(1)
                                               VALUE SPACE.
               10  WK01-MAP-RESPONSE-F              PIC X(1)
                                               VALUE SPACE.
               10  WK01-MAP-RESPONSE-A              PIC X(1)
                                               VALUE SPACE.
               10  WK01-MAP-RESPONSE-V              PIC X(1)
                                               VALUE SPACE.
               10  WK01-MAP-RESPONSE-O              PIC X(1)
                                               VALUE SPACE.
               10  WK01-MAP-RESPONSE       PIC X(8)
                                               VALUE SPACES.
               10  WK01-TEXT-SY00-Z              PIC X(1)
                                               VALUE SPACE.
               10  WK01-TEXT-SY00-F              PIC X(1)
                                               VALUE SPACE.
               10  WK01-TEXT-SY00-A              PIC X(1)
                                               VALUE SPACE.
               10  WK01-TEXT-SY00-V              PIC X(1)
                                               VALUE SPACE.
               10  WK01-TEXT-SY00-O              PIC X(1)
                                               VALUE SPACE.
               10  WK01-TEXT-SY00       PIC X(14)
                                               VALUE SPACES.
           04  WK01-SUBSCRIPTED-WORK-AREA.
               05  FILLER                      PIC X(1).
               05  WK01-CODE-CH75-F             PIC X(1)
                                               OCCURS 11.
               05  WK01-DATE-4062-CH75-F             PIC X(1)
                                               OCCURS 11.
               05  WK01-DATE-4062-CH7A-F             PIC X(1)
                                               OCCURS 11.
               05  WK01-ACCT-CODE-4033-CH75-F             PIC X(1)
                                               OCCURS 11.
               05  WK01-CODE-DESC-4062-CH75-F             PIC X(1)
                                               OCCURS 11.
               05  WK01-CODE-4033-CH75-F             PIC X(1)
                                               OCCURS 11.
               05  WK01-4062-CH75-F             PIC X(1)
                                               OCCURS 11.
