       01  MAP-CONTROL.

    ***Created by Convert/DC version V8R03 on 12/11/00 at 14:00***

           02  FCHMU20-MAP-CONTROL.
           03  FCHMU20T.
           04  WK01-DCXMAPL-PARMS.
               10  WK01-MAPNAME                  PIC X(8)
                                                 VALUE 'FCHMU20I'.
               10  WK01-IKE-LENGTH               PIC S9(8)  COMP
                                                 VALUE 18650.
               10  WK01-TINA-LENGTH              PIC S9(4)  COMP
                                                 VALUE 1251.
           05  WK01-ATTRIBUTES                   PIC X(60)
                                                 VALUE SPACE.
           05  WK01-ATTRIBUTES-ERROR             PIC X(60) VALUE
               'U  BIF'.
           05  WK01-CURSOR-DFLD                  PIC X(36)
                                                 VALUE SPACES.
           05  WK01-CURSOR-DFLD-QUAL             PIC X(30)
                                                 VALUE SPACES.
           05  WK01-ROW                          PIC S9(4) COMP
                                                 VALUE ZERO.
           05  WK01-COLUMN                       PIC S9(4) COMP
                                                 VALUE ZERO.
           05  WK01-ERROR-MSG                    PIC X(80)
                                                 VALUE SPACES.
           05  WK01-MAP-DATA-LEN                 PIC S9(6)
                                                 VALUE ZERO.
           05  WK01-1ST-FLAG                     PIC X(1)
                                                 VALUE 'Y'.
           05  WK01-FLAG-OUTPUT-DATA             PIC X(1)
                                                 VALUE 'Y'.
      *    05  WK01-STATUS-RETURN-FLAG           PIC X(1)
      *                                          VALUE SPACES.
           05  WK01-ALL-BUT-FLAG                 PIC X(1)
                                                 VALUE SPACES.
           05  WK01-FLAG-ALL-FIELDS-CHANGED      PIC X(1)  VALUE 'Y'.
           05  WK01-FLAG-ANY-FIELDS-CHANGED      PIC X(1)  VALUE 'N'.
           05  WK01-FLAG-ALL-FIELDS-ERROR        PIC X(1)  VALUE 'Y'.
           05  WK01-FLAG-ANY-FIELDS-ERROR        PIC X(1)  VALUE 'N'.
           05  WK01-FLAG-ALL-FIELDS-ERASE        PIC X(1)  VALUE 'Y'.
           05  WK01-FLAG-ANY-FIELDS-ERASE        PIC X(1)  VALUE 'Y'.

           05  WK01-VARDATA                      PIC X(11880)
                                                 VALUE SPACES.
           05  FILLER                            PIC X(100)
                                                 VALUE SPACES.
           04  WK01-ELEMENT-AREA.

               10  WK01-ID-SY00-Z              PIC X(1)
                                               VALUE SPACE.
               10  WK01-ID-SY00-F              PIC X(1)
                                               VALUE SPACE.
               10  WK01-ID-SY00-A              PIC X(1)
                                               VALUE SPACE.
               10  WK01-ID-SY00-V              PIC X(1)
                                               VALUE SPACE.
               10  WK01-ID-SY00-O              PIC X(1)
                                               VALUE SPACE.
               10  WK01-ID-SY00       PIC X(8)
                                               VALUE SPACES.
               10  WK01-NAME-6001-SY00-Z              PIC X(1)
                                               VALUE SPACE.
               10  WK01-NAME-6001-SY00-F              PIC X(1)
                                               VALUE SPACE.
               10  WK01-NAME-6001-SY00-A              PIC X(1)
                                               VALUE SPACE.
               10  WK01-NAME-6001-SY00-V              PIC X(1)
                                               VALUE SPACE.
               10  WK01-NAME-6001-SY00-O              PIC X(1)
                                               VALUE SPACE.
               10  WK01-NAME-6001-SY00       PIC X(35)
                                               VALUE SPACES.
               10  WK01-DATE-Z              PIC X(1)
                                               VALUE SPACE.
               10  WK01-DATE-F              PIC X(1)
                                               VALUE SPACE.
               10  WK01-DATE-A              PIC X(1)
                                               VALUE SPACE.
               10  WK01-DATE-V              PIC X(1)
                                               VALUE SPACE.
               10  WK01-DATE-O              PIC X(1)
                                               VALUE SPACE.
               10  WK01-DATE       PIC X(8)
                                               VALUE SPACES.
               10  WK01-HH-MM-TIME-SY00-Z              PIC X(1)
                                               VALUE SPACE.
               10  WK01-HH-MM-TIME-SY00-F              PIC X(1)
                                               VALUE SPACE.
               10  WK01-HH-MM-TIME-SY00-A              PIC X(1)
                                               VALUE SPACE.
               10  WK01-HH-MM-TIME-SY00-V              PIC X(1)
                                               VALUE SPACE.
               10  WK01-HH-MM-TIME-SY00-O              PIC X(1)
                                               VALUE SPACE.
               10  WK01-HH-MM-TIME-SY00       PIC X(4)
                                               VALUE SPACES.
               10  WK01-PM-FLAG-SY00-Z              PIC X(1)
                                               VALUE SPACE.
               10  WK01-PM-FLAG-SY00-F              PIC X(1)
                                               VALUE SPACE.
               10  WK01-PM-FLAG-SY00-A              PIC X(1)
                                               VALUE SPACE.
               10  WK01-PM-FLAG-SY00-V              PIC X(1)
                                               VALUE SPACE.
               10  WK01-PM-FLAG-SY00-O              PIC X(1)
                                               VALUE SPACE.
               10  WK01-PM-FLAG-SY00       PIC X(1)
                                               VALUE SPACES.
               10  WK01-USER-ID-Z              PIC X(1)
                                               VALUE SPACE.
               10  WK01-USER-ID-F              PIC X(1)
                                               VALUE SPACE.
               10  WK01-USER-ID-A              PIC X(1)
                                               VALUE SPACE.
               10  WK01-USER-ID-V              PIC X(1)
                                               VALUE SPACE.
               10  WK01-USER-ID-O              PIC X(1)
                                               VALUE SPACE.
               10  WK01-USER-ID       PIC X(32)
                                               VALUE SPACES.
               10  WK01-RSPNS-ID-SY00-Z              PIC X(1)
                                               VALUE SPACE.
               10  WK01-RSPNS-ID-SY00-F              PIC X(1)
                                               VALUE SPACE.
               10  WK01-RSPNS-ID-SY00-A              PIC X(1)
                                               VALUE SPACE.
               10  WK01-RSPNS-ID-SY00-V              PIC X(1)
                                               VALUE SPACE.
               10  WK01-RSPNS-ID-SY00-O              PIC X(1)
                                               VALUE SPACE.
               10  WK01-RSPNS-ID-SY00       PIC X(8)
                                               VALUE SPACES.
               10  WK01-FUNC-DESCRIPTION-Z              PIC X(1)
                                               VALUE SPACE.
               10  WK01-FUNC-DESCRIPTION-F              PIC X(1)
                                               VALUE SPACE.
               10  WK01-FUNC-DESCRIPTION-A              PIC X(1)
                                               VALUE SPACE.
               10  WK01-FUNC-DESCRIPTION-V              PIC X(1)
                                               VALUE SPACE.
               10  WK01-FUNC-DESCRIPTION-O              PIC X(1)
                                               VALUE SPACE.
               10  WK01-FUNC-DESCRIPTION       PIC X(28)
                                               VALUE SPACES.
               10  WK01-STATUS-CODE-SY00-Z              PIC X(1)
                                               VALUE SPACE.
               10  WK01-STATUS-CODE-SY00-F              PIC X(1)
                                               VALUE SPACE.
               10  WK01-STATUS-CODE-SY00-A              PIC X(1)
                                               VALUE SPACE.
               10  WK01-STATUS-CODE-SY00-V              PIC X(1)
                                               VALUE SPACE.
               10  WK01-STATUS-CODE-SY00-O              PIC X(1)
                                               VALUE SPACE.
               10  WK01-STATUS-CODE-SY00       PIC X(1)
                                               VALUE SPACES.
               10  WK01-TEXT-SY01-Z              PIC X(1)
                                               VALUE SPACE.
               10  WK01-TEXT-SY01-F              PIC X(1)
                                               VALUE SPACE.
               10  WK01-TEXT-SY01-A              PIC X(1)
                                               VALUE SPACE.
               10  WK01-TEXT-SY01-V              PIC X(1)
                                               VALUE SPACE.
               10  WK01-TEXT-SY01-O              PIC X(1)
                                               VALUE SPACE.
               10  WK01-TEXT-SY01       PIC X(8)
                                               VALUE SPACES.
               10  WK01-TEXT-SY0A-Z              PIC X(1)
                                               VALUE SPACE.
               10  WK01-TEXT-SY0A-F              PIC X(1)
                                               VALUE SPACE.
               10  WK01-TEXT-SY0A-A              PIC X(1)
                                               VALUE SPACE.
               10  WK01-TEXT-SY0A-V              PIC X(1)
                                               VALUE SPACE.
               10  WK01-TEXT-SY0A-O              PIC X(1)
                                               VALUE SPACE.
               10  WK01-TEXT-SY0A       PIC X(11)
                                               VALUE SPACES.
               10  WK01-TEXT-SY0B-Z              PIC X(1)
                                               VALUE SPACE.
               10  WK01-TEXT-SY0B-F              PIC X(1)
                                               VALUE SPACE.
               10  WK01-TEXT-SY0B-A              PIC X(1)
                                               VALUE SPACE.
               10  WK01-TEXT-SY0B-V              PIC X(1)
                                               VALUE SPACE.
               10  WK01-TEXT-SY0B-O              PIC X(1)
                                               VALUE SPACE.
               10  WK01-TEXT-SY0B       PIC X(5)
                                               VALUE SPACES.
               10  WK01-CODE-CH201-Z              PIC X(1)
                                               VALUE SPACE.
               10  WK01-CODE-CH201-F              PIC X(1)
                                               VALUE SPACE.
               10  WK01-CODE-CH201-A              PIC X(1)
                                               VALUE SPACE.
               10  WK01-CODE-CH201-V              PIC X(1)
                                               VALUE SPACE.
               10  WK01-CODE-CH201-O              PIC X(1)
                                               VALUE SPACE.
               10  WK01-CODE-CH201       PIC X(1)
                                               VALUE SPACES.
               10  WK01-CODE-4053-CH201-Z              PIC X(1)
                                               VALUE SPACE.
               10  WK01-CODE-4053-CH201-F              PIC X(1)
                                               VALUE SPACE.
               10  WK01-CODE-4053-CH201-A              PIC X(1)
                                               VALUE SPACE.
               10  WK01-CODE-4053-CH201-V              PIC X(1)
                                               VALUE SPACE.
               10  WK01-CODE-4053-CH201-O              PIC X(1)
                                               VALUE SPACE.
               10  WK01-CODE-4053-CH201       PIC X(1)
                                               VALUE SPACES.
               10  WK01-ENTY-CODE-4053-CH201-Z              PIC X(1)
                                               VALUE SPACE.
               10  WK01-ENTY-CODE-4053-CH201-F              PIC X(1)
                                               VALUE SPACE.
               10  WK01-ENTY-CODE-4053-CH201-A              PIC X(1)
                                               VALUE SPACE.
               10  WK01-ENTY-CODE-4053-CH201-V              PIC X(1)
                                               VALUE SPACE.
               10  WK01-ENTY-CODE-4053-CH201-O              PIC X(1)
                                               VALUE SPACE.
               10  WK01-ENTY-CODE-4053-CH201       PIC X(4)
                                               VALUE SPACES.
               10  WK01-ENTY-DESC-4053-CH201-Z              PIC X(1)
                                               VALUE SPACE.
               10  WK01-ENTY-DESC-4053-CH201-F              PIC X(1)
                                               VALUE SPACE.
               10  WK01-ENTY-DESC-4053-CH201-A              PIC X(1)
                                               VALUE SPACE.
               10  WK01-ENTY-DESC-4053-CH201-V              PIC X(1)
                                               VALUE SPACE.
               10  WK01-ENTY-DESC-4053-CH201-O              PIC X(1)
                                               VALUE SPACE.
               10  WK01-ENTY-DESC-4053-CH201       PIC X(35)
                                               VALUE SPACES.
               10  WK01-CODE-CH202-Z              PIC X(1)
                                               VALUE SPACE.
               10  WK01-CODE-CH202-F              PIC X(1)
                                               VALUE SPACE.
               10  WK01-CODE-CH202-A              PIC X(1)
                                               VALUE SPACE.
               10  WK01-CODE-CH202-V              PIC X(1)
                                               VALUE SPACE.
               10  WK01-CODE-CH202-O              PIC X(1)
                                               VALUE SPACE.
               10  WK01-CODE-CH202       PIC X(1)
                                               VALUE SPACES.
               10  WK01-CODE-4053-CH202-Z              PIC X(1)
                                               VALUE SPACE.
               10  WK01-CODE-4053-CH202-F              PIC X(1)
                                               VALUE SPACE.
               10  WK01-CODE-4053-CH202-A              PIC X(1)
                                               VALUE SPACE.
               10  WK01-CODE-4053-CH202-V              PIC X(1)
                                               VALUE SPACE.
               10  WK01-CODE-4053-CH202-O              PIC X(1)
                                               VALUE SPACE.
               10  WK01-CODE-4053-CH202       PIC X(1)
                                               VALUE SPACES.
               10  WK01-ENTY-CODE-4053-CH202-Z              PIC X(1)
                                               VALUE SPACE.
               10  WK01-ENTY-CODE-4053-CH202-F              PIC X(1)
                                               VALUE SPACE.
               10  WK01-ENTY-CODE-4053-CH202-A              PIC X(1)
                                               VALUE SPACE.
               10  WK01-ENTY-CODE-4053-CH202-V              PIC X(1)
                                               VALUE SPACE.
               10  WK01-ENTY-CODE-4053-CH202-O              PIC X(1)
                                               VALUE SPACE.
               10  WK01-ENTY-CODE-4053-CH202       PIC X(4)
                                               VALUE SPACES.
               10  WK01-ENTY-DESC-4053-CH202-Z              PIC X(1)
                                               VALUE SPACE.
               10  WK01-ENTY-DESC-4053-CH202-F              PIC X(1)
                                               VALUE SPACE.
               10  WK01-ENTY-DESC-4053-CH202-A              PIC X(1)
                                               VALUE SPACE.
               10  WK01-ENTY-DESC-4053-CH202-V              PIC X(1)
                                               VALUE SPACE.
               10  WK01-ENTY-DESC-4053-CH202-O              PIC X(1)
                                               VALUE SPACE.
               10  WK01-ENTY-DESC-4053-CH202       PIC X(35)
                                               VALUE SPACES.
               10  WK01-CODE-CH203-Z              PIC X(1)
                                               VALUE SPACE.
               10  WK01-CODE-CH203-F              PIC X(1)
                                               VALUE SPACE.
               10  WK01-CODE-CH203-A              PIC X(1)
                                               VALUE SPACE.
               10  WK01-CODE-CH203-V              PIC X(1)
                                               VALUE SPACE.
               10  WK01-CODE-CH203-O              PIC X(1)
                                               VALUE SPACE.
               10  WK01-CODE-CH203       PIC X(1)
                                               VALUE SPACES.
               10  WK01-CODE-4053-CH203-Z              PIC X(1)
                                               VALUE SPACE.
               10  WK01-CODE-4053-CH203-F              PIC X(1)
                                               VALUE SPACE.
               10  WK01-CODE-4053-CH203-A              PIC X(1)
                                               VALUE SPACE.
               10  WK01-CODE-4053-CH203-V              PIC X(1)
                                               VALUE SPACE.
               10  WK01-CODE-4053-CH203-O              PIC X(1)
                                               VALUE SPACE.
               10  WK01-CODE-4053-CH203       PIC X(1)
                                               VALUE SPACES.
               10  WK01-ENTY-CODE-4053-CH203-Z              PIC X(1)
                                               VALUE SPACE.
               10  WK01-ENTY-CODE-4053-CH203-F              PIC X(1)
                                               VALUE SPACE.
               10  WK01-ENTY-CODE-4053-CH203-A              PIC X(1)
                                               VALUE SPACE.
               10  WK01-ENTY-CODE-4053-CH203-V              PIC X(1)
                                               VALUE SPACE.
               10  WK01-ENTY-CODE-4053-CH203-O              PIC X(1)
                                               VALUE SPACE.
               10  WK01-ENTY-CODE-4053-CH203       PIC X(4)
                                               VALUE SPACES.
               10  WK01-ENTY-DESC-4053-CH203-Z              PIC X(1)
                                               VALUE SPACE.
               10  WK01-ENTY-DESC-4053-CH203-F              PIC X(1)
                                               VALUE SPACE.
               10  WK01-ENTY-DESC-4053-CH203-A              PIC X(1)
                                               VALUE SPACE.
               10  WK01-ENTY-DESC-4053-CH203-V              PIC X(1)
                                               VALUE SPACE.
               10  WK01-ENTY-DESC-4053-CH203-O              PIC X(1)
                                               VALUE SPACE.
               10  WK01-ENTY-DESC-4053-CH203       PIC X(35)
                                               VALUE SPACES.
               10  WK01-CODE-CH204-Z              PIC X(1)
                                               VALUE SPACE.
               10  WK01-CODE-CH204-F              PIC X(1)
                                               VALUE SPACE.
               10  WK01-CODE-CH204-A              PIC X(1)
                                               VALUE SPACE.
               10  WK01-CODE-CH204-V              PIC X(1)
                                               VALUE SPACE.
               10  WK01-CODE-CH204-O              PIC X(1)
                                               VALUE SPACE.
               10  WK01-CODE-CH204       PIC X(1)
                                               VALUE SPACES.
               10  WK01-CODE-4053-CH204-Z              PIC X(1)
                                               VALUE SPACE.
               10  WK01-CODE-4053-CH204-F              PIC X(1)
                                               VALUE SPACE.
               10  WK01-CODE-4053-CH204-A              PIC X(1)
                                               VALUE SPACE.
               10  WK01-CODE-4053-CH204-V              PIC X(1)
                                               VALUE SPACE.
               10  WK01-CODE-4053-CH204-O              PIC X(1)
                                               VALUE SPACE.
               10  WK01-CODE-4053-CH204       PIC X(1)
                                               VALUE SPACES.
               10  WK01-ENTY-CODE-4053-CH204-Z              PIC X(1)
                                               VALUE SPACE.
               10  WK01-ENTY-CODE-4053-CH204-F              PIC X(1)
                                               VALUE SPACE.
               10  WK01-ENTY-CODE-4053-CH204-A              PIC X(1)
                                               VALUE SPACE.
               10  WK01-ENTY-CODE-4053-CH204-V              PIC X(1)
                                               VALUE SPACE.
               10  WK01-ENTY-CODE-4053-CH204-O              PIC X(1)
                                               VALUE SPACE.
               10  WK01-ENTY-CODE-4053-CH204       PIC X(4)
                                               VALUE SPACES.
               10  WK01-ENTY-DESC-4053-CH204-Z              PIC X(1)
                                               VALUE SPACE.
               10  WK01-ENTY-DESC-4053-CH204-F              PIC X(1)
                                               VALUE SPACE.
               10  WK01-ENTY-DESC-4053-CH204-A              PIC X(1)
                                               VALUE SPACE.
               10  WK01-ENTY-DESC-4053-CH204-V              PIC X(1)
                                               VALUE SPACE.
               10  WK01-ENTY-DESC-4053-CH204-O              PIC X(1)
                                               VALUE SPACE.
               10  WK01-ENTY-DESC-4053-CH204       PIC X(35)
                                               VALUE SPACES.
               10  WK01-CODE-CH205-Z              PIC X(1)
                                               VALUE SPACE.
               10  WK01-CODE-CH205-F              PIC X(1)
                                               VALUE SPACE.
               10  WK01-CODE-CH205-A              PIC X(1)
                                               VALUE SPACE.
               10  WK01-CODE-CH205-V              PIC X(1)
                                               VALUE SPACE.
               10  WK01-CODE-CH205-O              PIC X(1)
                                               VALUE SPACE.
               10  WK01-CODE-CH205       PIC X(1)
                                               VALUE SPACES.
               10  WK01-CODE-4053-CH205-Z              PIC X(1)
                                               VALUE SPACE.
               10  WK01-CODE-4053-CH205-F              PIC X(1)
                                               VALUE SPACE.
               10  WK01-CODE-4053-CH205-A              PIC X(1)
                                               VALUE SPACE.
               10  WK01-CODE-4053-CH205-V              PIC X(1)
                                               VALUE SPACE.
               10  WK01-CODE-4053-CH205-O              PIC X(1)
                                               VALUE SPACE.
               10  WK01-CODE-4053-CH205       PIC X(1)
                                               VALUE SPACES.
               10  WK01-ENTY-CODE-4053-CH205-Z              PIC X(1)
                                               VALUE SPACE.
               10  WK01-ENTY-CODE-4053-CH205-F              PIC X(1)
                                               VALUE SPACE.
               10  WK01-ENTY-CODE-4053-CH205-A              PIC X(1)
                                               VALUE SPACE.
               10  WK01-ENTY-CODE-4053-CH205-V              PIC X(1)
                                               VALUE SPACE.
               10  WK01-ENTY-CODE-4053-CH205-O              PIC X(1)
                                               VALUE SPACE.
               10  WK01-ENTY-CODE-4053-CH205       PIC X(4)
                                               VALUE SPACES.
               10  WK01-ENTY-DESC-4053-CH205-Z              PIC X(1)
                                               VALUE SPACE.
               10  WK01-ENTY-DESC-4053-CH205-F              PIC X(1)
                                               VALUE SPACE.
               10  WK01-ENTY-DESC-4053-CH205-A              PIC X(1)
                                               VALUE SPACE.
               10  WK01-ENTY-DESC-4053-CH205-V              PIC X(1)
                                               VALUE SPACE.
               10  WK01-ENTY-DESC-4053-CH205-O              PIC X(1)
                                               VALUE SPACE.
               10  WK01-ENTY-DESC-4053-CH205       PIC X(35)
                                               VALUE SPACES.
               10  WK01-CODE-CH206-Z              PIC X(1)
                                               VALUE SPACE.
               10  WK01-CODE-CH206-F              PIC X(1)
                                               VALUE SPACE.
               10  WK01-CODE-CH206-A              PIC X(1)
                                               VALUE SPACE.
               10  WK01-CODE-CH206-V              PIC X(1)
                                               VALUE SPACE.
               10  WK01-CODE-CH206-O              PIC X(1)
                                               VALUE SPACE.
               10  WK01-CODE-CH206       PIC X(1)
                                               VALUE SPACES.
               10  WK01-CODE-4053-CH206-Z              PIC X(1)
                                               VALUE SPACE.
               10  WK01-CODE-4053-CH206-F              PIC X(1)
                                               VALUE SPACE.
               10  WK01-CODE-4053-CH206-A              PIC X(1)
                                               VALUE SPACE.
               10  WK01-CODE-4053-CH206-V              PIC X(1)
                                               VALUE SPACE.
               10  WK01-CODE-4053-CH206-O              PIC X(1)
                                               VALUE SPACE.
               10  WK01-CODE-4053-CH206       PIC X(1)
                                               VALUE SPACES.
               10  WK01-ENTY-CODE-4053-CH206-Z              PIC X(1)
                                               VALUE SPACE.
               10  WK01-ENTY-CODE-4053-CH206-F              PIC X(1)
                                               VALUE SPACE.
               10  WK01-ENTY-CODE-4053-CH206-A              PIC X(1)
                                               VALUE SPACE.
               10  WK01-ENTY-CODE-4053-CH206-V              PIC X(1)
                                               VALUE SPACE.
               10  WK01-ENTY-CODE-4053-CH206-O              PIC X(1)
                                               VALUE SPACE.
               10  WK01-ENTY-CODE-4053-CH206       PIC X(4)
                                               VALUE SPACES.
               10  WK01-ENTY-DESC-4053-CH206-Z              PIC X(1)
                                               VALUE SPACE.
               10  WK01-ENTY-DESC-4053-CH206-F              PIC X(1)
                                               VALUE SPACE.
               10  WK01-ENTY-DESC-4053-CH206-A              PIC X(1)
                                               VALUE SPACE.
               10  WK01-ENTY-DESC-4053-CH206-V              PIC X(1)
                                               VALUE SPACE.
               10  WK01-ENTY-DESC-4053-CH206-O              PIC X(1)
                                               VALUE SPACE.
               10  WK01-ENTY-DESC-4053-CH206       PIC X(35)
                                               VALUE SPACES.
               10  WK01-CODE-CH207-Z              PIC X(1)
                                               VALUE SPACE.
               10  WK01-CODE-CH207-F              PIC X(1)
                                               VALUE SPACE.
               10  WK01-CODE-CH207-A              PIC X(1)
                                               VALUE SPACE.
               10  WK01-CODE-CH207-V              PIC X(1)
                                               VALUE SPACE.
               10  WK01-CODE-CH207-O              PIC X(1)
                                               VALUE SPACE.
               10  WK01-CODE-CH207       PIC X(1)
                                               VALUE SPACES.
               10  WK01-CODE-4053-CH207-Z              PIC X(1)
                                               VALUE SPACE.
               10  WK01-CODE-4053-CH207-F              PIC X(1)
                                               VALUE SPACE.
               10  WK01-CODE-4053-CH207-A              PIC X(1)
                                               VALUE SPACE.
               10  WK01-CODE-4053-CH207-V              PIC X(1)
                                               VALUE SPACE.
               10  WK01-CODE-4053-CH207-O              PIC X(1)
                                               VALUE SPACE.
               10  WK01-CODE-4053-CH207       PIC X(1)
                                               VALUE SPACES.
               10  WK01-ENTY-CODE-4053-CH207-Z              PIC X(1)
                                               VALUE SPACE.
               10  WK01-ENTY-CODE-4053-CH207-F              PIC X(1)
                                               VALUE SPACE.
               10  WK01-ENTY-CODE-4053-CH207-A              PIC X(1)
                                               VALUE SPACE.
               10  WK01-ENTY-CODE-4053-CH207-V              PIC X(1)
                                               VALUE SPACE.
               10  WK01-ENTY-CODE-4053-CH207-O              PIC X(1)
                                               VALUE SPACE.
               10  WK01-ENTY-CODE-4053-CH207       PIC X(4)
                                               VALUE SPACES.
               10  WK01-ENTY-DESC-4053-CH207-Z              PIC X(1)
                                               VALUE SPACE.
               10  WK01-ENTY-DESC-4053-CH207-F              PIC X(1)
                                               VALUE SPACE.
               10  WK01-ENTY-DESC-4053-CH207-A              PIC X(1)
                                               VALUE SPACE.
               10  WK01-ENTY-DESC-4053-CH207-V              PIC X(1)
                                               VALUE SPACE.
               10  WK01-ENTY-DESC-4053-CH207-O              PIC X(1)
                                               VALUE SPACE.
               10  WK01-ENTY-DESC-4053-CH207       PIC X(35)
                                               VALUE SPACES.
               10  WK01-CODE-CH208-Z              PIC X(1)
                                               VALUE SPACE.
               10  WK01-CODE-CH208-F              PIC X(1)
                                               VALUE SPACE.
               10  WK01-CODE-CH208-A              PIC X(1)
                                               VALUE SPACE.
               10  WK01-CODE-CH208-V              PIC X(1)
                                               VALUE SPACE.
               10  WK01-CODE-CH208-O              PIC X(1)
                                               VALUE SPACE.
               10  WK01-CODE-CH208       PIC X(1)
                                               VALUE SPACES.
               10  WK01-CODE-4053-CH208-Z              PIC X(1)
                                               VALUE SPACE.
               10  WK01-CODE-4053-CH208-F              PIC X(1)
                                               VALUE SPACE.
               10  WK01-CODE-4053-CH208-A              PIC X(1)
                                               VALUE SPACE.
               10  WK01-CODE-4053-CH208-V              PIC X(1)
                                               VALUE SPACE.
               10  WK01-CODE-4053-CH208-O              PIC X(1)
                                               VALUE SPACE.
               10  WK01-CODE-4053-CH208       PIC X(1)
                                               VALUE SPACES.
               10  WK01-ENTY-CODE-4053-CH208-Z              PIC X(1)
                                               VALUE SPACE.
               10  WK01-ENTY-CODE-4053-CH208-F              PIC X(1)
                                               VALUE SPACE.
               10  WK01-ENTY-CODE-4053-CH208-A              PIC X(1)
                                               VALUE SPACE.
               10  WK01-ENTY-CODE-4053-CH208-V              PIC X(1)
                                               VALUE SPACE.
               10  WK01-ENTY-CODE-4053-CH208-O              PIC X(1)
                                               VALUE SPACE.
               10  WK01-ENTY-CODE-4053-CH208       PIC X(4)
                                               VALUE SPACES.
               10  WK01-ENTY-DESC-4053-CH208-Z              PIC X(1)
                                               VALUE SPACE.
               10  WK01-ENTY-DESC-4053-CH208-F              PIC X(1)
                                               VALUE SPACE.
               10  WK01-ENTY-DESC-4053-CH208-A              PIC X(1)
                                               VALUE SPACE.
               10  WK01-ENTY-DESC-4053-CH208-V              PIC X(1)
                                               VALUE SPACE.
               10  WK01-ENTY-DESC-4053-CH208-O              PIC X(1)
                                               VALUE SPACE.
               10  WK01-ENTY-DESC-4053-CH208       PIC X(35)
                                               VALUE SPACES.
               10  WK01-CODE-CH209-Z              PIC X(1)
                                               VALUE SPACE.
               10  WK01-CODE-CH209-F              PIC X(1)
                                               VALUE SPACE.
               10  WK01-CODE-CH209-A              PIC X(1)
                                               VALUE SPACE.
               10  WK01-CODE-CH209-V              PIC X(1)
                                               VALUE SPACE.
               10  WK01-CODE-CH209-O              PIC X(1)
                                               VALUE SPACE.
               10  WK01-CODE-CH209       PIC X(1)
                                               VALUE SPACES.
               10  WK01-CODE-4053-CH209-Z              PIC X(1)
                                               VALUE SPACE.
               10  WK01-CODE-4053-CH209-F              PIC X(1)
                                               VALUE SPACE.
               10  WK01-CODE-4053-CH209-A              PIC X(1)
                                               VALUE SPACE.
               10  WK01-CODE-4053-CH209-V              PIC X(1)
                                               VALUE SPACE.
               10  WK01-CODE-4053-CH209-O              PIC X(1)
                                               VALUE SPACE.
               10  WK01-CODE-4053-CH209       PIC X(1)
                                               VALUE SPACES.
               10  WK01-ENTY-CODE-4053-CH209-Z              PIC X(1)
                                               VALUE SPACE.
               10  WK01-ENTY-CODE-4053-CH209-F              PIC X(1)
                                               VALUE SPACE.
               10  WK01-ENTY-CODE-4053-CH209-A              PIC X(1)
                                               VALUE SPACE.
               10  WK01-ENTY-CODE-4053-CH209-V              PIC X(1)
                                               VALUE SPACE.
               10  WK01-ENTY-CODE-4053-CH209-O              PIC X(1)
                                               VALUE SPACE.
               10  WK01-ENTY-CODE-4053-CH209       PIC X(4)
                                               VALUE SPACES.
               10  WK01-ENTY-DESC-4053-CH209-Z              PIC X(1)
                                               VALUE SPACE.
               10  WK01-ENTY-DESC-4053-CH209-F              PIC X(1)
                                               VALUE SPACE.
               10  WK01-ENTY-DESC-4053-CH209-A              PIC X(1)
                                               VALUE SPACE.
               10  WK01-ENTY-DESC-4053-CH209-V              PIC X(1)
                                               VALUE SPACE.
               10  WK01-ENTY-DESC-4053-CH209-O              PIC X(1)
                                               VALUE SPACE.
               10  WK01-ENTY-DESC-4053-CH209       PIC X(35)
                                               VALUE SPACES.
               10  WK01-CODE-CH2010-Z              PIC X(1)
                                               VALUE SPACE.
               10  WK01-CODE-CH2010-F              PIC X(1)
                                               VALUE SPACE.
               10  WK01-CODE-CH2010-A              PIC X(1)
                                               VALUE SPACE.
               10  WK01-CODE-CH2010-V              PIC X(1)
                                               VALUE SPACE.
               10  WK01-CODE-CH2010-O              PIC X(1)
                                               VALUE SPACE.
               10  WK01-CODE-CH2010       PIC X(1)
                                               VALUE SPACES.
               10  WK01-CODE-4053-CH2010-Z              PIC X(1)
                                               VALUE SPACE.
               10  WK01-CODE-4053-CH2010-F              PIC X(1)
                                               VALUE SPACE.
               10  WK01-CODE-4053-CH2010-A              PIC X(1)
                                               VALUE SPACE.
               10  WK01-CODE-4053-CH2010-V              PIC X(1)
                                               VALUE SPACE.
               10  WK01-CODE-4053-CH2010-O              PIC X(1)
                                               VALUE SPACE.
               10  WK01-CODE-4053-CH2010       PIC X(1)
                                               VALUE SPACES.
               10  WK01-ENTY-CODE-4053-CH2010-Z              PIC X(1)
                                               VALUE SPACE.
               10  WK01-ENTY-CODE-4053-CH2010-F              PIC X(1)
                                               VALUE SPACE.
               10  WK01-ENTY-CODE-4053-CH2010-A              PIC X(1)
                                               VALUE SPACE.
               10  WK01-ENTY-CODE-4053-CH2010-V              PIC X(1)
                                               VALUE SPACE.
               10  WK01-ENTY-CODE-4053-CH2010-O              PIC X(1)
                                               VALUE SPACE.
               10  WK01-ENTY-CODE-4053-CH2010       PIC X(4)
                                               VALUE SPACES.
               10  WK01-ENTY-DESC-4053-CH2010-Z              PIC X(1)
                                               VALUE SPACE.
               10  WK01-ENTY-DESC-4053-CH2010-F              PIC X(1)
                                               VALUE SPACE.
               10  WK01-ENTY-DESC-4053-CH2010-A              PIC X(1)
                                               VALUE SPACE.
               10  WK01-ENTY-DESC-4053-CH2010-V              PIC X(1)
                                               VALUE SPACE.
               10  WK01-ENTY-DESC-4053-CH2010-O              PIC X(1)
                                               VALUE SPACE.
               10  WK01-ENTY-DESC-4053-CH2010       PIC X(35)
                                               VALUE SPACES.
               10  WK01-CODE-CH2011-Z              PIC X(1)
                                               VALUE SPACE.
               10  WK01-CODE-CH2011-F              PIC X(1)
                                               VALUE SPACE.
               10  WK01-CODE-CH2011-A              PIC X(1)
                                               VALUE SPACE.
               10  WK01-CODE-CH2011-V              PIC X(1)
                                               VALUE SPACE.
               10  WK01-CODE-CH2011-O              PIC X(1)
                                               VALUE SPACE.
               10  WK01-CODE-CH2011       PIC X(1)
                                               VALUE SPACES.
               10  WK01-CODE-4053-CH2011-Z              PIC X(1)
                                               VALUE SPACE.
               10  WK01-CODE-4053-CH2011-F              PIC X(1)
                                               VALUE SPACE.
               10  WK01-CODE-4053-CH2011-A              PIC X(1)
                                               VALUE SPACE.
               10  WK01-CODE-4053-CH2011-V              PIC X(1)
                                               VALUE SPACE.
               10  WK01-CODE-4053-CH2011-O              PIC X(1)
                                               VALUE SPACE.
               10  WK01-CODE-4053-CH2011       PIC X(1)
                                               VALUE SPACES.
               10  WK01-ENTY-CODE-4053-CH2011-Z              PIC X(1)
                                               VALUE SPACE.
               10  WK01-ENTY-CODE-4053-CH2011-F              PIC X(1)
                                               VALUE SPACE.
               10  WK01-ENTY-CODE-4053-CH2011-A              PIC X(1)
                                               VALUE SPACE.
               10  WK01-ENTY-CODE-4053-CH2011-V              PIC X(1)
                                               VALUE SPACE.
               10  WK01-ENTY-CODE-4053-CH2011-O              PIC X(1)
                                               VALUE SPACE.
               10  WK01-ENTY-CODE-4053-CH2011       PIC X(4)
                                               VALUE SPACES.
               10  WK01-ENTY-DESC-4053-CH2011-Z              PIC X(1)
                                               VALUE SPACE.
               10  WK01-ENTY-DESC-4053-CH2011-F              PIC X(1)
                                               VALUE SPACE.
               10  WK01-ENTY-DESC-4053-CH2011-A              PIC X(1)
                                               VALUE SPACE.
               10  WK01-ENTY-DESC-4053-CH2011-V              PIC X(1)
                                               VALUE SPACE.
               10  WK01-ENTY-DESC-4053-CH2011-O              PIC X(1)
                                               VALUE SPACE.
               10  WK01-ENTY-DESC-4053-CH2011       PIC X(35)
                                               VALUE SPACES.
               10  WK01-CODE-CH2012-Z              PIC X(1)
                                               VALUE SPACE.
               10  WK01-CODE-CH2012-F              PIC X(1)
                                               VALUE SPACE.
               10  WK01-CODE-CH2012-A              PIC X(1)
                                               VALUE SPACE.
               10  WK01-CODE-CH2012-V              PIC X(1)
                                               VALUE SPACE.
               10  WK01-CODE-CH2012-O              PIC X(1)
                                               VALUE SPACE.
               10  WK01-CODE-CH2012       PIC X(1)
                                               VALUE SPACES.
               10  WK01-CODE-4053-CH2012-Z              PIC X(1)
                                               VALUE SPACE.
               10  WK01-CODE-4053-CH2012-F              PIC X(1)
                                               VALUE SPACE.
               10  WK01-CODE-4053-CH2012-A              PIC X(1)
                                               VALUE SPACE.
               10  WK01-CODE-4053-CH2012-V              PIC X(1)
                                               VALUE SPACE.
               10  WK01-CODE-4053-CH2012-O              PIC X(1)
                                               VALUE SPACE.
               10  WK01-CODE-4053-CH2012       PIC X(1)
                                               VALUE SPACES.
               10  WK01-ENTY-CODE-4053-CH2012-Z              PIC X(1)
                                               VALUE SPACE.
               10  WK01-ENTY-CODE-4053-CH2012-F              PIC X(1)
                                               VALUE SPACE.
               10  WK01-ENTY-CODE-4053-CH2012-A              PIC X(1)
                                               VALUE SPACE.
               10  WK01-ENTY-CODE-4053-CH2012-V              PIC X(1)
                                               VALUE SPACE.
               10  WK01-ENTY-CODE-4053-CH2012-O              PIC X(1)
                                               VALUE SPACE.
               10  WK01-ENTY-CODE-4053-CH2012       PIC X(4)
                                               VALUE SPACES.
               10  WK01-ENTY-DESC-4053-CH2012-Z              PIC X(1)
                                               VALUE SPACE.
               10  WK01-ENTY-DESC-4053-CH2012-F              PIC X(1)
                                               VALUE SPACE.
               10  WK01-ENTY-DESC-4053-CH2012-A              PIC X(1)
                                               VALUE SPACE.
               10  WK01-ENTY-DESC-4053-CH2012-V              PIC X(1)
                                               VALUE SPACE.
               10  WK01-ENTY-DESC-4053-CH2012-O              PIC X(1)
                                               VALUE SPACE.
               10  WK01-ENTY-DESC-4053-CH2012       PIC X(35)
                                               VALUE SPACES.
               10  WK01-CODE-CH2013-Z              PIC X(1)
                                               VALUE SPACE.
               10  WK01-CODE-CH2013-F              PIC X(1)
                                               VALUE SPACE.
               10  WK01-CODE-CH2013-A              PIC X(1)
                                               VALUE SPACE.
               10  WK01-CODE-CH2013-V              PIC X(1)
                                               VALUE SPACE.
               10  WK01-CODE-CH2013-O              PIC X(1)
                                               VALUE SPACE.
               10  WK01-CODE-CH2013       PIC X(1)
                                               VALUE SPACES.
               10  WK01-CODE-4053-CH2013-Z              PIC X(1)
                                               VALUE SPACE.
               10  WK01-CODE-4053-CH2013-F              PIC X(1)
                                               VALUE SPACE.
               10  WK01-CODE-4053-CH2013-A              PIC X(1)
                                               VALUE SPACE.
               10  WK01-CODE-4053-CH2013-V              PIC X(1)
                                               VALUE SPACE.
               10  WK01-CODE-4053-CH2013-O              PIC X(1)
                                               VALUE SPACE.
               10  WK01-CODE-4053-CH2013       PIC X(1)
                                               VALUE SPACES.
               10  WK01-ENTY-CODE-4053-CH2013-Z              PIC X(1)
                                               VALUE SPACE.
               10  WK01-ENTY-CODE-4053-CH2013-F              PIC X(1)
                                               VALUE SPACE.
               10  WK01-ENTY-CODE-4053-CH2013-A              PIC X(1)
                                               VALUE SPACE.
               10  WK01-ENTY-CODE-4053-CH2013-V              PIC X(1)
                                               VALUE SPACE.
               10  WK01-ENTY-CODE-4053-CH2013-O              PIC X(1)
                                               VALUE SPACE.
               10  WK01-ENTY-CODE-4053-CH2013       PIC X(4)
                                               VALUE SPACES.
               10  WK01-ENTY-DESC-4053-CH2013-Z              PIC X(1)
                                               VALUE SPACE.
               10  WK01-ENTY-DESC-4053-CH2013-F              PIC X(1)
                                               VALUE SPACE.
               10  WK01-ENTY-DESC-4053-CH2013-A              PIC X(1)
                                               VALUE SPACE.
               10  WK01-ENTY-DESC-4053-CH2013-V              PIC X(1)
                                               VALUE SPACE.
               10  WK01-ENTY-DESC-4053-CH2013-O              PIC X(1)
                                               VALUE SPACE.
               10  WK01-ENTY-DESC-4053-CH2013       PIC X(35)
                                               VALUE SPACES.
               10  WK01-COA-CODE-4053-CH20-Z              PIC X(1)
                                               VALUE SPACE.
               10  WK01-COA-CODE-4053-CH20-F              PIC X(1)
                                               VALUE SPACE.
               10  WK01-COA-CODE-4053-CH20-A              PIC X(1)
                                               VALUE SPACE.
               10  WK01-COA-CODE-4053-CH20-V              PIC X(1)
                                               VALUE SPACE.
               10  WK01-COA-CODE-4053-CH20-O              PIC X(1)
                                               VALUE SPACE.
               10  WK01-COA-CODE-4053-CH20       PIC X(1)
                                               VALUE SPACES.
               10  WK01-INTRL-ENTY-CD-4053-CH2-Z              PIC X(1)
                                               VALUE SPACE.
               10  WK01-INTRL-ENTY-CD-4053-CH2-F              PIC X(1)
                                               VALUE SPACE.
               10  WK01-INTRL-ENTY-CD-4053-CH2-A              PIC X(1)
                                               VALUE SPACE.
               10  WK01-INTRL-ENTY-CD-4053-CH2-V              PIC X(1)
                                               VALUE SPACE.
               10  WK01-INTRL-ENTY-CD-4053-CH2-O              PIC X(1)
                                               VALUE SPACE.
               10  WK01-INTRL-ENTY-CD-4053-CH2       PIC X(4)
                                               VALUE SPACES.
               10  WK01-ZZMESSAGE-Z              PIC X(1)
                                               VALUE SPACE.
               10  WK01-ZZMESSAGE-F              PIC X(1)
                                               VALUE SPACE.
               10  WK01-ZZMESSAGE-A              PIC X(1)
                                               VALUE SPACE.
               10  WK01-ZZMESSAGE-V              PIC X(1)
                                               VALUE SPACE.
               10  WK01-ZZMESSAGE-O              PIC X(1)
                                               VALUE SPACE.
               10  WK01-ZZMESSAGE       PIC X(160)
                                               VALUE SPACES.
               10  WK01-PASSED-ONE-Z              PIC X(1)
                                               VALUE SPACE.
               10  WK01-PASSED-ONE-F              PIC X(1)
                                               VALUE SPACE.
               10  WK01-PASSED-ONE-A              PIC X(1)
                                               VALUE SPACE.
               10  WK01-PASSED-ONE-V              PIC X(1)
                                               VALUE SPACE.
               10  WK01-PASSED-ONE-O              PIC X(1)
                                               VALUE SPACE.
               10  WK01-PASSED-ONE       PIC X(32)
                                               VALUE SPACES.
               10  WK01-MAP-RESPONSE-Z              PIC X(1)
                                               VALUE SPACE.
               10  WK01-MAP-RESPONSE-F              PIC X(1)
                                               VALUE SPACE.
               10  WK01-MAP-RESPONSE-A              PIC X(1)
                                               VALUE SPACE.
               10  WK01-MAP-RESPONSE-V              PIC X(1)
                                               VALUE SPACE.
               10  WK01-MAP-RESPONSE-O              PIC X(1)
                                               VALUE SPACE.
               10  WK01-MAP-RESPONSE       PIC X(8)
                                               VALUE SPACES.
               10  WK01-TEXT-SY00-Z              PIC X(1)
                                               VALUE SPACE.
               10  WK01-TEXT-SY00-F              PIC X(1)
                                               VALUE SPACE.
               10  WK01-TEXT-SY00-A              PIC X(1)
                                               VALUE SPACE.
               10  WK01-TEXT-SY00-V              PIC X(1)
                                               VALUE SPACE.
               10  WK01-TEXT-SY00-O              PIC X(1)
                                               VALUE SPACE.
               10  WK01-TEXT-SY00       PIC X(14)
                                               VALUE SPACES.
           04  WK01-SUBSCRIPTED-WORK-AREA.
               05  FILLER                      PIC X(1).
               05  WK01-CODE-CH20-F             PIC X(1)
                                               OCCURS 13.
               05  WK01-CODE-4053-CH20-F             PIC X(1)
                                               OCCURS 13.
               05  WK01-ENTY-CODE-4053-CH20-F             PIC X(1)
                                               OCCURS 13.
               05  WK01-ENTY-DESC-4053-CH20-F             PIC X(1)
                                               OCCURS 13.
