       01  MAP-CONTROL.

    ***Created by Convert/DC version V8R03 on 11/09/00 at 14:00***

           02  FCHMI76-MAP-CONTROL.
           03  FCHMI76T.
           04  WK01-DCXMAPL-PARMS.
               10  WK01-MAPNAME                  PIC X(8)
                                                 VALUE 'FCHMI76I'.
               10  WK01-IKE-LENGTH               PIC S9(8)  COMP
                                                 VALUE 24699.
               10  WK01-TINA-LENGTH              PIC S9(4)  COMP
                                                 VALUE 1409.
           05  WK01-ATTRIBUTES                   PIC X(60)
                                                 VALUE SPACE.
           05  WK01-ATTRIBUTES-ERROR             PIC X(60) VALUE
               'U  BIF'.
           05  WK01-CURSOR-DFLD                  PIC X(36)
                                                 VALUE SPACES.
           05  WK01-CURSOR-DFLD-QUAL             PIC X(30)
                                                 VALUE SPACES.
           05  WK01-ROW                          PIC S9(4) COMP
                                                 VALUE ZERO.
           05  WK01-COLUMN                       PIC S9(4) COMP
                                                 VALUE ZERO.
           05  WK01-ERROR-MSG                    PIC X(80)
                                                 VALUE SPACES.
           05  WK01-MAP-DATA-LEN                 PIC S9(6)
                                                 VALUE ZERO.
           05  WK01-1ST-FLAG                     PIC X(1)
                                                 VALUE 'Y'.
           05  WK01-FLAG-OUTPUT-DATA             PIC X(1)
                                                 VALUE 'Y'.
      *    05  WK01-STATUS-RETURN-FLAG           PIC X(1)
      *                                          VALUE SPACES.
           05  WK01-ALL-BUT-FLAG                 PIC X(1)
                                                 VALUE SPACES.
           05  WK01-FLAG-ALL-FIELDS-CHANGED      PIC X(1)  VALUE 'Y'.
           05  WK01-FLAG-ANY-FIELDS-CHANGED      PIC X(1)  VALUE 'N'.
           05  WK01-FLAG-ALL-FIELDS-ERROR        PIC X(1)  VALUE 'Y'.
           05  WK01-FLAG-ANY-FIELDS-ERROR        PIC X(1)  VALUE 'N'.
           05  WK01-FLAG-ALL-FIELDS-ERASE        PIC X(1)  VALUE 'Y'.
           05  WK01-FLAG-ANY-FIELDS-ERASE        PIC X(1)  VALUE 'Y'.

           05  WK01-VARDATA                      PIC X(11880)
                                                 VALUE SPACES.
           05  FILLER                            PIC X(100)
                                                 VALUE SPACES.
           04  WK01-ELEMENT-AREA.

               10  WK01-ID-SY00-Z              PIC X(1)
                                               VALUE SPACE.
               10  WK01-ID-SY00-F              PIC X(1)
                                               VALUE SPACE.
               10  WK01-ID-SY00-A              PIC X(1)
                                               VALUE SPACE.
               10  WK01-ID-SY00-V              PIC X(1)
                                               VALUE SPACE.
               10  WK01-ID-SY00-O              PIC X(1)
                                               VALUE SPACE.
               10  WK01-ID-SY00       PIC X(8)
                                               VALUE SPACES.
               10  WK01-NAME-6001-SY00-Z              PIC X(1)
                                               VALUE SPACE.
               10  WK01-NAME-6001-SY00-F              PIC X(1)
                                               VALUE SPACE.
               10  WK01-NAME-6001-SY00-A              PIC X(1)
                                               VALUE SPACE.
               10  WK01-NAME-6001-SY00-V              PIC X(1)
                                               VALUE SPACE.
               10  WK01-NAME-6001-SY00-O              PIC X(1)
                                               VALUE SPACE.
               10  WK01-NAME-6001-SY00       PIC X(35)
                                               VALUE SPACES.
               10  WK01-DATE-Z              PIC X(1)
                                               VALUE SPACE.
               10  WK01-DATE-F              PIC X(1)
                                               VALUE SPACE.
               10  WK01-DATE-A              PIC X(1)
                                               VALUE SPACE.
               10  WK01-DATE-V              PIC X(1)
                                               VALUE SPACE.
               10  WK01-DATE-O              PIC X(1)
                                               VALUE SPACE.
               10  WK01-DATE       PIC X(8)
                                               VALUE SPACES.
               10  WK01-HH-MM-TIME-SY00-Z              PIC X(1)
                                               VALUE SPACE.
               10  WK01-HH-MM-TIME-SY00-F              PIC X(1)
                                               VALUE SPACE.
               10  WK01-HH-MM-TIME-SY00-A              PIC X(1)
                                               VALUE SPACE.
               10  WK01-HH-MM-TIME-SY00-V              PIC X(1)
                                               VALUE SPACE.
               10  WK01-HH-MM-TIME-SY00-O              PIC X(1)
                                               VALUE SPACE.
               10  WK01-HH-MM-TIME-SY00       PIC X(4)
                                               VALUE SPACES.
               10  WK01-PM-FLAG-SY00-Z              PIC X(1)
                                               VALUE SPACE.
               10  WK01-PM-FLAG-SY00-F              PIC X(1)
                                               VALUE SPACE.
               10  WK01-PM-FLAG-SY00-A              PIC X(1)
                                               VALUE SPACE.
               10  WK01-PM-FLAG-SY00-V              PIC X(1)
                                               VALUE SPACE.
               10  WK01-PM-FLAG-SY00-O              PIC X(1)
                                               VALUE SPACE.
               10  WK01-PM-FLAG-SY00       PIC X(1)
                                               VALUE SPACES.
               10  WK01-USER-ID-Z              PIC X(1)
                                               VALUE SPACE.
               10  WK01-USER-ID-F              PIC X(1)
                                               VALUE SPACE.
               10  WK01-USER-ID-A              PIC X(1)
                                               VALUE SPACE.
               10  WK01-USER-ID-V              PIC X(1)
                                               VALUE SPACE.
               10  WK01-USER-ID-O              PIC X(1)
                                               VALUE SPACE.
               10  WK01-USER-ID       PIC X(32)
                                               VALUE SPACES.
               10  WK01-RSPNS-ID-SY00-Z              PIC X(1)
                                               VALUE SPACE.
               10  WK01-RSPNS-ID-SY00-F              PIC X(1)
                                               VALUE SPACE.
               10  WK01-RSPNS-ID-SY00-A              PIC X(1)
                                               VALUE SPACE.
               10  WK01-RSPNS-ID-SY00-V              PIC X(1)
                                               VALUE SPACE.
               10  WK01-RSPNS-ID-SY00-O              PIC X(1)
                                               VALUE SPACE.
               10  WK01-RSPNS-ID-SY00       PIC X(8)
                                               VALUE SPACES.
               10  WK01-FUNC-DESCRIPTION-Z              PIC X(1)
                                               VALUE SPACE.
               10  WK01-FUNC-DESCRIPTION-F              PIC X(1)
                                               VALUE SPACE.
               10  WK01-FUNC-DESCRIPTION-A              PIC X(1)
                                               VALUE SPACE.
               10  WK01-FUNC-DESCRIPTION-V              PIC X(1)
                                               VALUE SPACE.
               10  WK01-FUNC-DESCRIPTION-O              PIC X(1)
                                               VALUE SPACE.
               10  WK01-FUNC-DESCRIPTION       PIC X(28)
                                               VALUE SPACES.
               10  WK01-STATUS-CODE-SY00-Z              PIC X(1)
                                               VALUE SPACE.
               10  WK01-STATUS-CODE-SY00-F              PIC X(1)
                                               VALUE SPACE.
               10  WK01-STATUS-CODE-SY00-A              PIC X(1)
                                               VALUE SPACE.
               10  WK01-STATUS-CODE-SY00-V              PIC X(1)
                                               VALUE SPACE.
               10  WK01-STATUS-CODE-SY00-O              PIC X(1)
                                               VALUE SPACE.
               10  WK01-STATUS-CODE-SY00       PIC X(1)
                                               VALUE SPACES.
               10  WK01-DATE-CH76-Z              PIC X(1)
                                               VALUE SPACE.
               10  WK01-DATE-CH76-F              PIC X(1)
                                               VALUE SPACE.
               10  WK01-DATE-CH76-A              PIC X(1)
                                               VALUE SPACE.
               10  WK01-DATE-CH76-V              PIC X(1)
                                               VALUE SPACE.
               10  WK01-DATE-CH76-O              PIC X(1)
                                               VALUE SPACE.
               10  WK01-DATE-CH76       PIC X(6)
                                               VALUE SPACES.
               10  WK01-STATUS-CH76-Z              PIC X(1)
                                               VALUE SPACE.
               10  WK01-STATUS-CH76-F              PIC X(1)
                                               VALUE SPACE.
               10  WK01-STATUS-CH76-A              PIC X(1)
                                               VALUE SPACE.
               10  WK01-STATUS-CH76-V              PIC X(1)
                                               VALUE SPACE.
               10  WK01-STATUS-CH76-O              PIC X(1)
                                               VALUE SPACE.
               10  WK01-STATUS-CH76       PIC X(1)
                                               VALUE SPACES.
               10  WK01-CODE-CH761-Z              PIC X(1)
                                               VALUE SPACE.
               10  WK01-CODE-CH761-F              PIC X(1)
                                               VALUE SPACE.
               10  WK01-CODE-CH761-A              PIC X(1)
                                               VALUE SPACE.
               10  WK01-CODE-CH761-V              PIC X(1)
                                               VALUE SPACE.
               10  WK01-CODE-CH761-O              PIC X(1)
                                               VALUE SPACE.
               10  WK01-CODE-CH761       PIC X(1)
                                               VALUE SPACES.
               10  WK01-CLASS-CODE-4180-CH761-Z              PIC X(1)
                                               VALUE SPACE.
               10  WK01-CLASS-CODE-4180-CH761-F              PIC X(1)
                                               VALUE SPACE.
               10  WK01-CLASS-CODE-4180-CH761-A              PIC X(1)
                                               VALUE SPACE.
               10  WK01-CLASS-CODE-4180-CH761-V              PIC X(1)
                                               VALUE SPACE.
               10  WK01-CLASS-CODE-4180-CH761-O              PIC X(1)
                                               VALUE SPACE.
               10  WK01-CLASS-CODE-4180-CH761       PIC X(4)
                                               VALUE SPACES.
               10  WK01-CLASS-DESC-4181-CH761-Z              PIC X(1)
                                               VALUE SPACE.
               10  WK01-CLASS-DESC-4181-CH761-F              PIC X(1)
                                               VALUE SPACE.
               10  WK01-CLASS-DESC-4181-CH761-A              PIC X(1)
                                               VALUE SPACE.
               10  WK01-CLASS-DESC-4181-CH761-V              PIC X(1)
                                               VALUE SPACE.
               10  WK01-CLASS-DESC-4181-CH761-O              PIC X(1)
                                               VALUE SPACE.
               10  WK01-CLASS-DESC-4181-CH761       PIC X(35)
                                               VALUE SPACES.
               10  WK01-CLASS-TYPE-4181-CH761-Z              PIC X(1)
                                               VALUE SPACE.
               10  WK01-CLASS-TYPE-4181-CH761-F              PIC X(1)
                                               VALUE SPACE.
               10  WK01-CLASS-TYPE-4181-CH761-A              PIC X(1)
                                               VALUE SPACE.
               10  WK01-CLASS-TYPE-4181-CH761-V              PIC X(1)
                                               VALUE SPACE.
               10  WK01-CLASS-TYPE-4181-CH761-O              PIC X(1)
                                               VALUE SPACE.
               10  WK01-CLASS-TYPE-4181-CH761       PIC X(1)
                                               VALUE SPACES.
               10  WK01-4181-CH761-Z              PIC X(1)
                                               VALUE SPACE.
               10  WK01-4181-CH761-F              PIC X(1)
                                               VALUE SPACE.
               10  WK01-4181-CH761-A              PIC X(1)
                                               VALUE SPACE.
               10  WK01-4181-CH761-V              PIC X(1)
                                               VALUE SPACE.
               10  WK01-4181-CH761-O              PIC X(1)
                                               VALUE SPACE.
               10  WK01-4181-CH761       PIC X(1)
                                               VALUE SPACES.
               10  WK01-DATE-4181-CH761-Z              PIC X(1)
                                               VALUE SPACE.
               10  WK01-DATE-4181-CH761-F              PIC X(1)
                                               VALUE SPACE.
               10  WK01-DATE-4181-CH761-A              PIC X(1)
                                               VALUE SPACE.
               10  WK01-DATE-4181-CH761-V              PIC X(1)
                                               VALUE SPACE.
               10  WK01-DATE-4181-CH761-O              PIC X(1)
                                               VALUE SPACE.
               10  WK01-DATE-4181-CH761       PIC X(6)
                                               VALUE SPACES.
               10  WK01-DATE-4181-CH7A1-Z              PIC X(1)
                                               VALUE SPACE.
               10  WK01-DATE-4181-CH7A1-F              PIC X(1)
                                               VALUE SPACE.
               10  WK01-DATE-4181-CH7A1-A              PIC X(1)
                                               VALUE SPACE.
               10  WK01-DATE-4181-CH7A1-V              PIC X(1)
                                               VALUE SPACE.
               10  WK01-DATE-4181-CH7A1-O              PIC X(1)
                                               VALUE SPACE.
               10  WK01-DATE-4181-CH7A1       PIC X(6)
                                               VALUE SPACES.
               10  WK01-CODE-CH762-Z              PIC X(1)
                                               VALUE SPACE.
               10  WK01-CODE-CH762-F              PIC X(1)
                                               VALUE SPACE.
               10  WK01-CODE-CH762-A              PIC X(1)
                                               VALUE SPACE.
               10  WK01-CODE-CH762-V              PIC X(1)
                                               VALUE SPACE.
               10  WK01-CODE-CH762-O              PIC X(1)
                                               VALUE SPACE.
               10  WK01-CODE-CH762       PIC X(1)
                                               VALUE SPACES.
               10  WK01-CLASS-CODE-4180-CH762-Z              PIC X(1)
                                               VALUE SPACE.
               10  WK01-CLASS-CODE-4180-CH762-F              PIC X(1)
                                               VALUE SPACE.
               10  WK01-CLASS-CODE-4180-CH762-A              PIC X(1)
                                               VALUE SPACE.
               10  WK01-CLASS-CODE-4180-CH762-V              PIC X(1)
                                               VALUE SPACE.
               10  WK01-CLASS-CODE-4180-CH762-O              PIC X(1)
                                               VALUE SPACE.
               10  WK01-CLASS-CODE-4180-CH762       PIC X(4)
                                               VALUE SPACES.
               10  WK01-CLASS-DESC-4181-CH762-Z              PIC X(1)
                                               VALUE SPACE.
               10  WK01-CLASS-DESC-4181-CH762-F              PIC X(1)
                                               VALUE SPACE.
               10  WK01-CLASS-DESC-4181-CH762-A              PIC X(1)
                                               VALUE SPACE.
               10  WK01-CLASS-DESC-4181-CH762-V              PIC X(1)
                                               VALUE SPACE.
               10  WK01-CLASS-DESC-4181-CH762-O              PIC X(1)
                                               VALUE SPACE.
               10  WK01-CLASS-DESC-4181-CH762       PIC X(35)
                                               VALUE SPACES.
               10  WK01-CLASS-TYPE-4181-CH762-Z              PIC X(1)
                                               VALUE SPACE.
               10  WK01-CLASS-TYPE-4181-CH762-F              PIC X(1)
                                               VALUE SPACE.
               10  WK01-CLASS-TYPE-4181-CH762-A              PIC X(1)
                                               VALUE SPACE.
               10  WK01-CLASS-TYPE-4181-CH762-V              PIC X(1)
                                               VALUE SPACE.
               10  WK01-CLASS-TYPE-4181-CH762-O              PIC X(1)
                                               VALUE SPACE.
               10  WK01-CLASS-TYPE-4181-CH762       PIC X(1)
                                               VALUE SPACES.
               10  WK01-4181-CH762-Z              PIC X(1)
                                               VALUE SPACE.
               10  WK01-4181-CH762-F              PIC X(1)
                                               VALUE SPACE.
               10  WK01-4181-CH762-A              PIC X(1)
                                               VALUE SPACE.
               10  WK01-4181-CH762-V              PIC X(1)
                                               VALUE SPACE.
               10  WK01-4181-CH762-O              PIC X(1)
                                               VALUE SPACE.
               10  WK01-4181-CH762       PIC X(1)
                                               VALUE SPACES.
               10  WK01-DATE-4181-CH762-Z              PIC X(1)
                                               VALUE SPACE.
               10  WK01-DATE-4181-CH762-F              PIC X(1)
                                               VALUE SPACE.
               10  WK01-DATE-4181-CH762-A              PIC X(1)
                                               VALUE SPACE.
               10  WK01-DATE-4181-CH762-V              PIC X(1)
                                               VALUE SPACE.
               10  WK01-DATE-4181-CH762-O              PIC X(1)
                                               VALUE SPACE.
               10  WK01-DATE-4181-CH762       PIC X(6)
                                               VALUE SPACES.
               10  WK01-DATE-4181-CH7A2-Z              PIC X(1)
                                               VALUE SPACE.
               10  WK01-DATE-4181-CH7A2-F              PIC X(1)
                                               VALUE SPACE.
               10  WK01-DATE-4181-CH7A2-A              PIC X(1)
                                               VALUE SPACE.
               10  WK01-DATE-4181-CH7A2-V              PIC X(1)
                                               VALUE SPACE.
               10  WK01-DATE-4181-CH7A2-O              PIC X(1)
                                               VALUE SPACE.
               10  WK01-DATE-4181-CH7A2       PIC X(6)
                                               VALUE SPACES.
               10  WK01-CODE-CH763-Z              PIC X(1)
                                               VALUE SPACE.
               10  WK01-CODE-CH763-F              PIC X(1)
                                               VALUE SPACE.
               10  WK01-CODE-CH763-A              PIC X(1)
                                               VALUE SPACE.
               10  WK01-CODE-CH763-V              PIC X(1)
                                               VALUE SPACE.
               10  WK01-CODE-CH763-O              PIC X(1)
                                               VALUE SPACE.
               10  WK01-CODE-CH763       PIC X(1)
                                               VALUE SPACES.
               10  WK01-CLASS-CODE-4180-CH763-Z              PIC X(1)
                                               VALUE SPACE.
               10  WK01-CLASS-CODE-4180-CH763-F              PIC X(1)
                                               VALUE SPACE.
               10  WK01-CLASS-CODE-4180-CH763-A              PIC X(1)
                                               VALUE SPACE.
               10  WK01-CLASS-CODE-4180-CH763-V              PIC X(1)
                                               VALUE SPACE.
               10  WK01-CLASS-CODE-4180-CH763-O              PIC X(1)
                                               VALUE SPACE.
               10  WK01-CLASS-CODE-4180-CH763       PIC X(4)
                                               VALUE SPACES.
               10  WK01-CLASS-DESC-4181-CH763-Z              PIC X(1)
                                               VALUE SPACE.
               10  WK01-CLASS-DESC-4181-CH763-F              PIC X(1)
                                               VALUE SPACE.
               10  WK01-CLASS-DESC-4181-CH763-A              PIC X(1)
                                               VALUE SPACE.
               10  WK01-CLASS-DESC-4181-CH763-V              PIC X(1)
                                               VALUE SPACE.
               10  WK01-CLASS-DESC-4181-CH763-O              PIC X(1)
                                               VALUE SPACE.
               10  WK01-CLASS-DESC-4181-CH763       PIC X(35)
                                               VALUE SPACES.
               10  WK01-CLASS-TYPE-4181-CH763-Z              PIC X(1)
                                               VALUE SPACE.
               10  WK01-CLASS-TYPE-4181-CH763-F              PIC X(1)
                                               VALUE SPACE.
               10  WK01-CLASS-TYPE-4181-CH763-A              PIC X(1)
                                               VALUE SPACE.
               10  WK01-CLASS-TYPE-4181-CH763-V              PIC X(1)
                                               VALUE SPACE.
               10  WK01-CLASS-TYPE-4181-CH763-O              PIC X(1)
                                               VALUE SPACE.
               10  WK01-CLASS-TYPE-4181-CH763       PIC X(1)
                                               VALUE SPACES.
               10  WK01-4181-CH763-Z              PIC X(1)
                                               VALUE SPACE.
               10  WK01-4181-CH763-F              PIC X(1)
                                               VALUE SPACE.
               10  WK01-4181-CH763-A              PIC X(1)
                                               VALUE SPACE.
               10  WK01-4181-CH763-V              PIC X(1)
                                               VALUE SPACE.
               10  WK01-4181-CH763-O              PIC X(1)
                                               VALUE SPACE.
               10  WK01-4181-CH763       PIC X(1)
                                               VALUE SPACES.
               10  WK01-DATE-4181-CH763-Z              PIC X(1)
                                               VALUE SPACE.
               10  WK01-DATE-4181-CH763-F              PIC X(1)
                                               VALUE SPACE.
               10  WK01-DATE-4181-CH763-A              PIC X(1)
                                               VALUE SPACE.
               10  WK01-DATE-4181-CH763-V              PIC X(1)
                                               VALUE SPACE.
               10  WK01-DATE-4181-CH763-O              PIC X(1)
                                               VALUE SPACE.
               10  WK01-DATE-4181-CH763       PIC X(6)
                                               VALUE SPACES.
               10  WK01-DATE-4181-CH7A3-Z              PIC X(1)
                                               VALUE SPACE.
               10  WK01-DATE-4181-CH7A3-F              PIC X(1)
                                               VALUE SPACE.
               10  WK01-DATE-4181-CH7A3-A              PIC X(1)
                                               VALUE SPACE.
               10  WK01-DATE-4181-CH7A3-V              PIC X(1)
                                               VALUE SPACE.
               10  WK01-DATE-4181-CH7A3-O              PIC X(1)
                                               VALUE SPACE.
               10  WK01-DATE-4181-CH7A3       PIC X(6)
                                               VALUE SPACES.
               10  WK01-CODE-CH764-Z              PIC X(1)
                                               VALUE SPACE.
               10  WK01-CODE-CH764-F              PIC X(1)
                                               VALUE SPACE.
               10  WK01-CODE-CH764-A              PIC X(1)
                                               VALUE SPACE.
               10  WK01-CODE-CH764-V              PIC X(1)
                                               VALUE SPACE.
               10  WK01-CODE-CH764-O              PIC X(1)
                                               VALUE SPACE.
               10  WK01-CODE-CH764       PIC X(1)
                                               VALUE SPACES.
               10  WK01-CLASS-CODE-4180-CH764-Z              PIC X(1)
                                               VALUE SPACE.
               10  WK01-CLASS-CODE-4180-CH764-F              PIC X(1)
                                               VALUE SPACE.
               10  WK01-CLASS-CODE-4180-CH764-A              PIC X(1)
                                               VALUE SPACE.
               10  WK01-CLASS-CODE-4180-CH764-V              PIC X(1)
                                               VALUE SPACE.
               10  WK01-CLASS-CODE-4180-CH764-O              PIC X(1)
                                               VALUE SPACE.
               10  WK01-CLASS-CODE-4180-CH764       PIC X(4)
                                               VALUE SPACES.
               10  WK01-CLASS-DESC-4181-CH764-Z              PIC X(1)
                                               VALUE SPACE.
               10  WK01-CLASS-DESC-4181-CH764-F              PIC X(1)
                                               VALUE SPACE.
               10  WK01-CLASS-DESC-4181-CH764-A              PIC X(1)
                                               VALUE SPACE.
               10  WK01-CLASS-DESC-4181-CH764-V              PIC X(1)
                                               VALUE SPACE.
               10  WK01-CLASS-DESC-4181-CH764-O              PIC X(1)
                                               VALUE SPACE.
               10  WK01-CLASS-DESC-4181-CH764       PIC X(35)
                                               VALUE SPACES.
               10  WK01-CLASS-TYPE-4181-CH764-Z              PIC X(1)
                                               VALUE SPACE.
               10  WK01-CLASS-TYPE-4181-CH764-F              PIC X(1)
                                               VALUE SPACE.
               10  WK01-CLASS-TYPE-4181-CH764-A              PIC X(1)
                                               VALUE SPACE.
               10  WK01-CLASS-TYPE-4181-CH764-V              PIC X(1)
                                               VALUE SPACE.
               10  WK01-CLASS-TYPE-4181-CH764-O              PIC X(1)
                                               VALUE SPACE.
               10  WK01-CLASS-TYPE-4181-CH764       PIC X(1)
                                               VALUE SPACES.
               10  WK01-4181-CH764-Z              PIC X(1)
                                               VALUE SPACE.
               10  WK01-4181-CH764-F              PIC X(1)
                                               VALUE SPACE.
               10  WK01-4181-CH764-A              PIC X(1)
                                               VALUE SPACE.
               10  WK01-4181-CH764-V              PIC X(1)
                                               VALUE SPACE.
               10  WK01-4181-CH764-O              PIC X(1)
                                               VALUE SPACE.
               10  WK01-4181-CH764       PIC X(1)
                                               VALUE SPACES.
               10  WK01-DATE-4181-CH764-Z              PIC X(1)
                                               VALUE SPACE.
               10  WK01-DATE-4181-CH764-F              PIC X(1)
                                               VALUE SPACE.
               10  WK01-DATE-4181-CH764-A              PIC X(1)
                                               VALUE SPACE.
               10  WK01-DATE-4181-CH764-V              PIC X(1)
                                               VALUE SPACE.
               10  WK01-DATE-4181-CH764-O              PIC X(1)
                                               VALUE SPACE.
               10  WK01-DATE-4181-CH764       PIC X(6)
                                               VALUE SPACES.
               10  WK01-DATE-4181-CH7A4-Z              PIC X(1)
                                               VALUE SPACE.
               10  WK01-DATE-4181-CH7A4-F              PIC X(1)
                                               VALUE SPACE.
               10  WK01-DATE-4181-CH7A4-A              PIC X(1)
                                               VALUE SPACE.
               10  WK01-DATE-4181-CH7A4-V              PIC X(1)
                                               VALUE SPACE.
               10  WK01-DATE-4181-CH7A4-O              PIC X(1)
                                               VALUE SPACE.
               10  WK01-DATE-4181-CH7A4       PIC X(6)
                                               VALUE SPACES.
               10  WK01-CODE-CH765-Z              PIC X(1)
                                               VALUE SPACE.
               10  WK01-CODE-CH765-F              PIC X(1)
                                               VALUE SPACE.
               10  WK01-CODE-CH765-A              PIC X(1)
                                               VALUE SPACE.
               10  WK01-CODE-CH765-V              PIC X(1)
                                               VALUE SPACE.
               10  WK01-CODE-CH765-O              PIC X(1)
                                               VALUE SPACE.
               10  WK01-CODE-CH765       PIC X(1)
                                               VALUE SPACES.
               10  WK01-CLASS-CODE-4180-CH765-Z              PIC X(1)
                                               VALUE SPACE.
               10  WK01-CLASS-CODE-4180-CH765-F              PIC X(1)
                                               VALUE SPACE.
               10  WK01-CLASS-CODE-4180-CH765-A              PIC X(1)
                                               VALUE SPACE.
               10  WK01-CLASS-CODE-4180-CH765-V              PIC X(1)
                                               VALUE SPACE.
               10  WK01-CLASS-CODE-4180-CH765-O              PIC X(1)
                                               VALUE SPACE.
               10  WK01-CLASS-CODE-4180-CH765       PIC X(4)
                                               VALUE SPACES.
               10  WK01-CLASS-DESC-4181-CH765-Z              PIC X(1)
                                               VALUE SPACE.
               10  WK01-CLASS-DESC-4181-CH765-F              PIC X(1)
                                               VALUE SPACE.
               10  WK01-CLASS-DESC-4181-CH765-A              PIC X(1)
                                               VALUE SPACE.
               10  WK01-CLASS-DESC-4181-CH765-V              PIC X(1)
                                               VALUE SPACE.
               10  WK01-CLASS-DESC-4181-CH765-O              PIC X(1)
                                               VALUE SPACE.
               10  WK01-CLASS-DESC-4181-CH765       PIC X(35)
                                               VALUE SPACES.
               10  WK01-CLASS-TYPE-4181-CH765-Z              PIC X(1)
                                               VALUE SPACE.
               10  WK01-CLASS-TYPE-4181-CH765-F              PIC X(1)
                                               VALUE SPACE.
               10  WK01-CLASS-TYPE-4181-CH765-A              PIC X(1)
                                               VALUE SPACE.
               10  WK01-CLASS-TYPE-4181-CH765-V              PIC X(1)
                                               VALUE SPACE.
               10  WK01-CLASS-TYPE-4181-CH765-O              PIC X(1)
                                               VALUE SPACE.
               10  WK01-CLASS-TYPE-4181-CH765       PIC X(1)
                                               VALUE SPACES.
               10  WK01-4181-CH765-Z              PIC X(1)
                                               VALUE SPACE.
               10  WK01-4181-CH765-F              PIC X(1)
                                               VALUE SPACE.
               10  WK01-4181-CH765-A              PIC X(1)
                                               VALUE SPACE.
               10  WK01-4181-CH765-V              PIC X(1)
                                               VALUE SPACE.
               10  WK01-4181-CH765-O              PIC X(1)
                                               VALUE SPACE.
               10  WK01-4181-CH765       PIC X(1)
                                               VALUE SPACES.
               10  WK01-DATE-4181-CH765-Z              PIC X(1)
                                               VALUE SPACE.
               10  WK01-DATE-4181-CH765-F              PIC X(1)
                                               VALUE SPACE.
               10  WK01-DATE-4181-CH765-A              PIC X(1)
                                               VALUE SPACE.
               10  WK01-DATE-4181-CH765-V              PIC X(1)
                                               VALUE SPACE.
               10  WK01-DATE-4181-CH765-O              PIC X(1)
                                               VALUE SPACE.
               10  WK01-DATE-4181-CH765       PIC X(6)
                                               VALUE SPACES.
               10  WK01-DATE-4181-CH7A5-Z              PIC X(1)
                                               VALUE SPACE.
               10  WK01-DATE-4181-CH7A5-F              PIC X(1)
                                               VALUE SPACE.
               10  WK01-DATE-4181-CH7A5-A              PIC X(1)
                                               VALUE SPACE.
               10  WK01-DATE-4181-CH7A5-V              PIC X(1)
                                               VALUE SPACE.
               10  WK01-DATE-4181-CH7A5-O              PIC X(1)
                                               VALUE SPACE.
               10  WK01-DATE-4181-CH7A5       PIC X(6)
                                               VALUE SPACES.
               10  WK01-CODE-CH766-Z              PIC X(1)
                                               VALUE SPACE.
               10  WK01-CODE-CH766-F              PIC X(1)
                                               VALUE SPACE.
               10  WK01-CODE-CH766-A              PIC X(1)
                                               VALUE SPACE.
               10  WK01-CODE-CH766-V              PIC X(1)
                                               VALUE SPACE.
               10  WK01-CODE-CH766-O              PIC X(1)
                                               VALUE SPACE.
               10  WK01-CODE-CH766       PIC X(1)
                                               VALUE SPACES.
               10  WK01-CLASS-CODE-4180-CH766-Z              PIC X(1)
                                               VALUE SPACE.
               10  WK01-CLASS-CODE-4180-CH766-F              PIC X(1)
                                               VALUE SPACE.
               10  WK01-CLASS-CODE-4180-CH766-A              PIC X(1)
                                               VALUE SPACE.
               10  WK01-CLASS-CODE-4180-CH766-V              PIC X(1)
                                               VALUE SPACE.
               10  WK01-CLASS-CODE-4180-CH766-O              PIC X(1)
                                               VALUE SPACE.
               10  WK01-CLASS-CODE-4180-CH766       PIC X(4)
                                               VALUE SPACES.
               10  WK01-CLASS-DESC-4181-CH766-Z              PIC X(1)
                                               VALUE SPACE.
               10  WK01-CLASS-DESC-4181-CH766-F              PIC X(1)
                                               VALUE SPACE.
               10  WK01-CLASS-DESC-4181-CH766-A              PIC X(1)
                                               VALUE SPACE.
               10  WK01-CLASS-DESC-4181-CH766-V              PIC X(1)
                                               VALUE SPACE.
               10  WK01-CLASS-DESC-4181-CH766-O              PIC X(1)
                                               VALUE SPACE.
               10  WK01-CLASS-DESC-4181-CH766       PIC X(35)
                                               VALUE SPACES.
               10  WK01-CLASS-TYPE-4181-CH766-Z              PIC X(1)
                                               VALUE SPACE.
               10  WK01-CLASS-TYPE-4181-CH766-F              PIC X(1)
                                               VALUE SPACE.
               10  WK01-CLASS-TYPE-4181-CH766-A              PIC X(1)
                                               VALUE SPACE.
               10  WK01-CLASS-TYPE-4181-CH766-V              PIC X(1)
                                               VALUE SPACE.
               10  WK01-CLASS-TYPE-4181-CH766-O              PIC X(1)
                                               VALUE SPACE.
               10  WK01-CLASS-TYPE-4181-CH766       PIC X(1)
                                               VALUE SPACES.
               10  WK01-4181-CH766-Z              PIC X(1)
                                               VALUE SPACE.
               10  WK01-4181-CH766-F              PIC X(1)
                                               VALUE SPACE.
               10  WK01-4181-CH766-A              PIC X(1)
                                               VALUE SPACE.
               10  WK01-4181-CH766-V              PIC X(1)
                                               VALUE SPACE.
               10  WK01-4181-CH766-O              PIC X(1)
                                               VALUE SPACE.
               10  WK01-4181-CH766       PIC X(1)
                                               VALUE SPACES.
               10  WK01-DATE-4181-CH766-Z              PIC X(1)
                                               VALUE SPACE.
               10  WK01-DATE-4181-CH766-F              PIC X(1)
                                               VALUE SPACE.
               10  WK01-DATE-4181-CH766-A              PIC X(1)
                                               VALUE SPACE.
               10  WK01-DATE-4181-CH766-V              PIC X(1)
                                               VALUE SPACE.
               10  WK01-DATE-4181-CH766-O              PIC X(1)
                                               VALUE SPACE.
               10  WK01-DATE-4181-CH766       PIC X(6)
                                               VALUE SPACES.
               10  WK01-DATE-4181-CH7A6-Z              PIC X(1)
                                               VALUE SPACE.
               10  WK01-DATE-4181-CH7A6-F              PIC X(1)
                                               VALUE SPACE.
               10  WK01-DATE-4181-CH7A6-A              PIC X(1)
                                               VALUE SPACE.
               10  WK01-DATE-4181-CH7A6-V              PIC X(1)
                                               VALUE SPACE.
               10  WK01-DATE-4181-CH7A6-O              PIC X(1)
                                               VALUE SPACE.
               10  WK01-DATE-4181-CH7A6       PIC X(6)
                                               VALUE SPACES.
               10  WK01-CODE-CH767-Z              PIC X(1)
                                               VALUE SPACE.
               10  WK01-CODE-CH767-F              PIC X(1)
                                               VALUE SPACE.
               10  WK01-CODE-CH767-A              PIC X(1)
                                               VALUE SPACE.
               10  WK01-CODE-CH767-V              PIC X(1)
                                               VALUE SPACE.
               10  WK01-CODE-CH767-O              PIC X(1)
                                               VALUE SPACE.
               10  WK01-CODE-CH767       PIC X(1)
                                               VALUE SPACES.
               10  WK01-CLASS-CODE-4180-CH767-Z              PIC X(1)
                                               VALUE SPACE.
               10  WK01-CLASS-CODE-4180-CH767-F              PIC X(1)
                                               VALUE SPACE.
               10  WK01-CLASS-CODE-4180-CH767-A              PIC X(1)
                                               VALUE SPACE.
               10  WK01-CLASS-CODE-4180-CH767-V              PIC X(1)
                                               VALUE SPACE.
               10  WK01-CLASS-CODE-4180-CH767-O              PIC X(1)
                                               VALUE SPACE.
               10  WK01-CLASS-CODE-4180-CH767       PIC X(4)
                                               VALUE SPACES.
               10  WK01-CLASS-DESC-4181-CH767-Z              PIC X(1)
                                               VALUE SPACE.
               10  WK01-CLASS-DESC-4181-CH767-F              PIC X(1)
                                               VALUE SPACE.
               10  WK01-CLASS-DESC-4181-CH767-A              PIC X(1)
                                               VALUE SPACE.
               10  WK01-CLASS-DESC-4181-CH767-V              PIC X(1)
                                               VALUE SPACE.
               10  WK01-CLASS-DESC-4181-CH767-O              PIC X(1)
                                               VALUE SPACE.
               10  WK01-CLASS-DESC-4181-CH767       PIC X(35)
                                               VALUE SPACES.
               10  WK01-CLASS-TYPE-4181-CH767-Z              PIC X(1)
                                               VALUE SPACE.
               10  WK01-CLASS-TYPE-4181-CH767-F              PIC X(1)
                                               VALUE SPACE.
               10  WK01-CLASS-TYPE-4181-CH767-A              PIC X(1)
                                               VALUE SPACE.
               10  WK01-CLASS-TYPE-4181-CH767-V              PIC X(1)
                                               VALUE SPACE.
               10  WK01-CLASS-TYPE-4181-CH767-O              PIC X(1)
                                               VALUE SPACE.
               10  WK01-CLASS-TYPE-4181-CH767       PIC X(1)
                                               VALUE SPACES.
               10  WK01-4181-CH767-Z              PIC X(1)
                                               VALUE SPACE.
               10  WK01-4181-CH767-F              PIC X(1)
                                               VALUE SPACE.
               10  WK01-4181-CH767-A              PIC X(1)
                                               VALUE SPACE.
               10  WK01-4181-CH767-V              PIC X(1)
                                               VALUE SPACE.
               10  WK01-4181-CH767-O              PIC X(1)
                                               VALUE SPACE.
               10  WK01-4181-CH767       PIC X(1)
                                               VALUE SPACES.
               10  WK01-DATE-4181-CH767-Z              PIC X(1)
                                               VALUE SPACE.
               10  WK01-DATE-4181-CH767-F              PIC X(1)
                                               VALUE SPACE.
               10  WK01-DATE-4181-CH767-A              PIC X(1)
                                               VALUE SPACE.
               10  WK01-DATE-4181-CH767-V              PIC X(1)
                                               VALUE SPACE.
               10  WK01-DATE-4181-CH767-O              PIC X(1)
                                               VALUE SPACE.
               10  WK01-DATE-4181-CH767       PIC X(6)
                                               VALUE SPACES.
               10  WK01-DATE-4181-CH7A7-Z              PIC X(1)
                                               VALUE SPACE.
               10  WK01-DATE-4181-CH7A7-F              PIC X(1)
                                               VALUE SPACE.
               10  WK01-DATE-4181-CH7A7-A              PIC X(1)
                                               VALUE SPACE.
               10  WK01-DATE-4181-CH7A7-V              PIC X(1)
                                               VALUE SPACE.
               10  WK01-DATE-4181-CH7A7-O              PIC X(1)
                                               VALUE SPACE.
               10  WK01-DATE-4181-CH7A7       PIC X(6)
                                               VALUE SPACES.
               10  WK01-CODE-CH768-Z              PIC X(1)
                                               VALUE SPACE.
               10  WK01-CODE-CH768-F              PIC X(1)
                                               VALUE SPACE.
               10  WK01-CODE-CH768-A              PIC X(1)
                                               VALUE SPACE.
               10  WK01-CODE-CH768-V              PIC X(1)
                                               VALUE SPACE.
               10  WK01-CODE-CH768-O              PIC X(1)
                                               VALUE SPACE.
               10  WK01-CODE-CH768       PIC X(1)
                                               VALUE SPACES.
               10  WK01-CLASS-CODE-4180-CH768-Z              PIC X(1)
                                               VALUE SPACE.
               10  WK01-CLASS-CODE-4180-CH768-F              PIC X(1)
                                               VALUE SPACE.
               10  WK01-CLASS-CODE-4180-CH768-A              PIC X(1)
                                               VALUE SPACE.
               10  WK01-CLASS-CODE-4180-CH768-V              PIC X(1)
                                               VALUE SPACE.
               10  WK01-CLASS-CODE-4180-CH768-O              PIC X(1)
                                               VALUE SPACE.
               10  WK01-CLASS-CODE-4180-CH768       PIC X(4)
                                               VALUE SPACES.
               10  WK01-CLASS-DESC-4181-CH768-Z              PIC X(1)
                                               VALUE SPACE.
               10  WK01-CLASS-DESC-4181-CH768-F              PIC X(1)
                                               VALUE SPACE.
               10  WK01-CLASS-DESC-4181-CH768-A              PIC X(1)
                                               VALUE SPACE.
               10  WK01-CLASS-DESC-4181-CH768-V              PIC X(1)
                                               VALUE SPACE.
               10  WK01-CLASS-DESC-4181-CH768-O              PIC X(1)
                                               VALUE SPACE.
               10  WK01-CLASS-DESC-4181-CH768       PIC X(35)
                                               VALUE SPACES.
               10  WK01-CLASS-TYPE-4181-CH768-Z              PIC X(1)
                                               VALUE SPACE.
               10  WK01-CLASS-TYPE-4181-CH768-F              PIC X(1)
                                               VALUE SPACE.
               10  WK01-CLASS-TYPE-4181-CH768-A              PIC X(1)
                                               VALUE SPACE.
               10  WK01-CLASS-TYPE-4181-CH768-V              PIC X(1)
                                               VALUE SPACE.
               10  WK01-CLASS-TYPE-4181-CH768-O              PIC X(1)
                                               VALUE SPACE.
               10  WK01-CLASS-TYPE-4181-CH768       PIC X(1)
                                               VALUE SPACES.
               10  WK01-4181-CH768-Z              PIC X(1)
                                               VALUE SPACE.
               10  WK01-4181-CH768-F              PIC X(1)
                                               VALUE SPACE.
               10  WK01-4181-CH768-A              PIC X(1)
                                               VALUE SPACE.
               10  WK01-4181-CH768-V              PIC X(1)
                                               VALUE SPACE.
               10  WK01-4181-CH768-O              PIC X(1)
                                               VALUE SPACE.
               10  WK01-4181-CH768       PIC X(1)
                                               VALUE SPACES.
               10  WK01-DATE-4181-CH768-Z              PIC X(1)
                                               VALUE SPACE.
               10  WK01-DATE-4181-CH768-F              PIC X(1)
                                               VALUE SPACE.
               10  WK01-DATE-4181-CH768-A              PIC X(1)
                                               VALUE SPACE.
               10  WK01-DATE-4181-CH768-V              PIC X(1)
                                               VALUE SPACE.
               10  WK01-DATE-4181-CH768-O              PIC X(1)
                                               VALUE SPACE.
               10  WK01-DATE-4181-CH768       PIC X(6)
                                               VALUE SPACES.
               10  WK01-DATE-4181-CH7A8-Z              PIC X(1)
                                               VALUE SPACE.
               10  WK01-DATE-4181-CH7A8-F              PIC X(1)
                                               VALUE SPACE.
               10  WK01-DATE-4181-CH7A8-A              PIC X(1)
                                               VALUE SPACE.
               10  WK01-DATE-4181-CH7A8-V              PIC X(1)
                                               VALUE SPACE.
               10  WK01-DATE-4181-CH7A8-O              PIC X(1)
                                               VALUE SPACE.
               10  WK01-DATE-4181-CH7A8       PIC X(6)
                                               VALUE SPACES.
               10  WK01-CODE-CH769-Z              PIC X(1)
                                               VALUE SPACE.
               10  WK01-CODE-CH769-F              PIC X(1)
                                               VALUE SPACE.
               10  WK01-CODE-CH769-A              PIC X(1)
                                               VALUE SPACE.
               10  WK01-CODE-CH769-V              PIC X(1)
                                               VALUE SPACE.
               10  WK01-CODE-CH769-O              PIC X(1)
                                               VALUE SPACE.
               10  WK01-CODE-CH769       PIC X(1)
                                               VALUE SPACES.
               10  WK01-CLASS-CODE-4180-CH769-Z              PIC X(1)
                                               VALUE SPACE.
               10  WK01-CLASS-CODE-4180-CH769-F              PIC X(1)
                                               VALUE SPACE.
               10  WK01-CLASS-CODE-4180-CH769-A              PIC X(1)
                                               VALUE SPACE.
               10  WK01-CLASS-CODE-4180-CH769-V              PIC X(1)
                                               VALUE SPACE.
               10  WK01-CLASS-CODE-4180-CH769-O              PIC X(1)
                                               VALUE SPACE.
               10  WK01-CLASS-CODE-4180-CH769       PIC X(4)
                                               VALUE SPACES.
               10  WK01-CLASS-DESC-4181-CH769-Z              PIC X(1)
                                               VALUE SPACE.
               10  WK01-CLASS-DESC-4181-CH769-F              PIC X(1)
                                               VALUE SPACE.
               10  WK01-CLASS-DESC-4181-CH769-A              PIC X(1)
                                               VALUE SPACE.
               10  WK01-CLASS-DESC-4181-CH769-V              PIC X(1)
                                               VALUE SPACE.
               10  WK01-CLASS-DESC-4181-CH769-O              PIC X(1)
                                               VALUE SPACE.
               10  WK01-CLASS-DESC-4181-CH769       PIC X(35)
                                               VALUE SPACES.
               10  WK01-CLASS-TYPE-4181-CH769-Z              PIC X(1)
                                               VALUE SPACE.
               10  WK01-CLASS-TYPE-4181-CH769-F              PIC X(1)
                                               VALUE SPACE.
               10  WK01-CLASS-TYPE-4181-CH769-A              PIC X(1)
                                               VALUE SPACE.
               10  WK01-CLASS-TYPE-4181-CH769-V              PIC X(1)
                                               VALUE SPACE.
               10  WK01-CLASS-TYPE-4181-CH769-O              PIC X(1)
                                               VALUE SPACE.
               10  WK01-CLASS-TYPE-4181-CH769       PIC X(1)
                                               VALUE SPACES.
               10  WK01-4181-CH769-Z              PIC X(1)
                                               VALUE SPACE.
               10  WK01-4181-CH769-F              PIC X(1)
                                               VALUE SPACE.
               10  WK01-4181-CH769-A              PIC X(1)
                                               VALUE SPACE.
               10  WK01-4181-CH769-V              PIC X(1)
                                               VALUE SPACE.
               10  WK01-4181-CH769-O              PIC X(1)
                                               VALUE SPACE.
               10  WK01-4181-CH769       PIC X(1)
                                               VALUE SPACES.
               10  WK01-DATE-4181-CH769-Z              PIC X(1)
                                               VALUE SPACE.
               10  WK01-DATE-4181-CH769-F              PIC X(1)
                                               VALUE SPACE.
               10  WK01-DATE-4181-CH769-A              PIC X(1)
                                               VALUE SPACE.
               10  WK01-DATE-4181-CH769-V              PIC X(1)
                                               VALUE SPACE.
               10  WK01-DATE-4181-CH769-O              PIC X(1)
                                               VALUE SPACE.
               10  WK01-DATE-4181-CH769       PIC X(6)
                                               VALUE SPACES.
               10  WK01-DATE-4181-CH7A9-Z              PIC X(1)
                                               VALUE SPACE.
               10  WK01-DATE-4181-CH7A9-F              PIC X(1)
                                               VALUE SPACE.
               10  WK01-DATE-4181-CH7A9-A              PIC X(1)
                                               VALUE SPACE.
               10  WK01-DATE-4181-CH7A9-V              PIC X(1)
                                               VALUE SPACE.
               10  WK01-DATE-4181-CH7A9-O              PIC X(1)
                                               VALUE SPACE.
               10  WK01-DATE-4181-CH7A9       PIC X(6)
                                               VALUE SPACES.
               10  WK01-CODE-CH7610-Z              PIC X(1)
                                               VALUE SPACE.
               10  WK01-CODE-CH7610-F              PIC X(1)
                                               VALUE SPACE.
               10  WK01-CODE-CH7610-A              PIC X(1)
                                               VALUE SPACE.
               10  WK01-CODE-CH7610-V              PIC X(1)
                                               VALUE SPACE.
               10  WK01-CODE-CH7610-O              PIC X(1)
                                               VALUE SPACE.
               10  WK01-CODE-CH7610       PIC X(1)
                                               VALUE SPACES.
               10  WK01-CLASS-CODE-4180-CH7610-Z              PIC X(1)
                                               VALUE SPACE.
               10  WK01-CLASS-CODE-4180-CH7610-F              PIC X(1)
                                               VALUE SPACE.
               10  WK01-CLASS-CODE-4180-CH7610-A              PIC X(1)
                                               VALUE SPACE.
               10  WK01-CLASS-CODE-4180-CH7610-V              PIC X(1)
                                               VALUE SPACE.
               10  WK01-CLASS-CODE-4180-CH7610-O              PIC X(1)
                                               VALUE SPACE.
               10  WK01-CLASS-CODE-4180-CH7610       PIC X(4)
                                               VALUE SPACES.
               10  WK01-CLASS-DESC-4181-CH7610-Z              PIC X(1)
                                               VALUE SPACE.
               10  WK01-CLASS-DESC-4181-CH7610-F              PIC X(1)
                                               VALUE SPACE.
               10  WK01-CLASS-DESC-4181-CH7610-A              PIC X(1)
                                               VALUE SPACE.
               10  WK01-CLASS-DESC-4181-CH7610-V              PIC X(1)
                                               VALUE SPACE.
               10  WK01-CLASS-DESC-4181-CH7610-O              PIC X(1)
                                               VALUE SPACE.
               10  WK01-CLASS-DESC-4181-CH7610       PIC X(35)
                                               VALUE SPACES.
               10  WK01-CLASS-TYPE-4181-CH7610-Z              PIC X(1)
                                               VALUE SPACE.
               10  WK01-CLASS-TYPE-4181-CH7610-F              PIC X(1)
                                               VALUE SPACE.
               10  WK01-CLASS-TYPE-4181-CH7610-A              PIC X(1)
                                               VALUE SPACE.
               10  WK01-CLASS-TYPE-4181-CH7610-V              PIC X(1)
                                               VALUE SPACE.
               10  WK01-CLASS-TYPE-4181-CH7610-O              PIC X(1)
                                               VALUE SPACE.
               10  WK01-CLASS-TYPE-4181-CH7610       PIC X(1)
                                               VALUE SPACES.
               10  WK01-4181-CH7610-Z              PIC X(1)
                                               VALUE SPACE.
               10  WK01-4181-CH7610-F              PIC X(1)
                                               VALUE SPACE.
               10  WK01-4181-CH7610-A              PIC X(1)
                                               VALUE SPACE.
               10  WK01-4181-CH7610-V              PIC X(1)
                                               VALUE SPACE.
               10  WK01-4181-CH7610-O              PIC X(1)
                                               VALUE SPACE.
               10  WK01-4181-CH7610       PIC X(1)
                                               VALUE SPACES.
               10  WK01-DATE-4181-CH7610-Z              PIC X(1)
                                               VALUE SPACE.
               10  WK01-DATE-4181-CH7610-F              PIC X(1)
                                               VALUE SPACE.
               10  WK01-DATE-4181-CH7610-A              PIC X(1)
                                               VALUE SPACE.
               10  WK01-DATE-4181-CH7610-V              PIC X(1)
                                               VALUE SPACE.
               10  WK01-DATE-4181-CH7610-O              PIC X(1)
                                               VALUE SPACE.
               10  WK01-DATE-4181-CH7610       PIC X(6)
                                               VALUE SPACES.
               10  WK01-DATE-4181-CH7A10-Z              PIC X(1)
                                               VALUE SPACE.
               10  WK01-DATE-4181-CH7A10-F              PIC X(1)
                                               VALUE SPACE.
               10  WK01-DATE-4181-CH7A10-A              PIC X(1)
                                               VALUE SPACE.
               10  WK01-DATE-4181-CH7A10-V              PIC X(1)
                                               VALUE SPACE.
               10  WK01-DATE-4181-CH7A10-O              PIC X(1)
                                               VALUE SPACE.
               10  WK01-DATE-4181-CH7A10       PIC X(6)
                                               VALUE SPACES.
               10  WK01-CODE-CH7611-Z              PIC X(1)
                                               VALUE SPACE.
               10  WK01-CODE-CH7611-F              PIC X(1)
                                               VALUE SPACE.
               10  WK01-CODE-CH7611-A              PIC X(1)
                                               VALUE SPACE.
               10  WK01-CODE-CH7611-V              PIC X(1)
                                               VALUE SPACE.
               10  WK01-CODE-CH7611-O              PIC X(1)
                                               VALUE SPACE.
               10  WK01-CODE-CH7611       PIC X(1)
                                               VALUE SPACES.
               10  WK01-CLASS-CODE-4180-CH7611-Z              PIC X(1)
                                               VALUE SPACE.
               10  WK01-CLASS-CODE-4180-CH7611-F              PIC X(1)
                                               VALUE SPACE.
               10  WK01-CLASS-CODE-4180-CH7611-A              PIC X(1)
                                               VALUE SPACE.
               10  WK01-CLASS-CODE-4180-CH7611-V              PIC X(1)
                                               VALUE SPACE.
               10  WK01-CLASS-CODE-4180-CH7611-O              PIC X(1)
                                               VALUE SPACE.
               10  WK01-CLASS-CODE-4180-CH7611       PIC X(4)
                                               VALUE SPACES.
               10  WK01-CLASS-DESC-4181-CH7611-Z              PIC X(1)
                                               VALUE SPACE.
               10  WK01-CLASS-DESC-4181-CH7611-F              PIC X(1)
                                               VALUE SPACE.
               10  WK01-CLASS-DESC-4181-CH7611-A              PIC X(1)
                                               VALUE SPACE.
               10  WK01-CLASS-DESC-4181-CH7611-V              PIC X(1)
                                               VALUE SPACE.
               10  WK01-CLASS-DESC-4181-CH7611-O              PIC X(1)
                                               VALUE SPACE.
               10  WK01-CLASS-DESC-4181-CH7611       PIC X(35)
                                               VALUE SPACES.
               10  WK01-CLASS-TYPE-4181-CH7611-Z              PIC X(1)
                                               VALUE SPACE.
               10  WK01-CLASS-TYPE-4181-CH7611-F              PIC X(1)
                                               VALUE SPACE.
               10  WK01-CLASS-TYPE-4181-CH7611-A              PIC X(1)
                                               VALUE SPACE.
               10  WK01-CLASS-TYPE-4181-CH7611-V              PIC X(1)
                                               VALUE SPACE.
               10  WK01-CLASS-TYPE-4181-CH7611-O              PIC X(1)
                                               VALUE SPACE.
               10  WK01-CLASS-TYPE-4181-CH7611       PIC X(1)
                                               VALUE SPACES.
               10  WK01-4181-CH7611-Z              PIC X(1)
                                               VALUE SPACE.
               10  WK01-4181-CH7611-F              PIC X(1)
                                               VALUE SPACE.
               10  WK01-4181-CH7611-A              PIC X(1)
                                               VALUE SPACE.
               10  WK01-4181-CH7611-V              PIC X(1)
                                               VALUE SPACE.
               10  WK01-4181-CH7611-O              PIC X(1)
                                               VALUE SPACE.
               10  WK01-4181-CH7611       PIC X(1)
                                               VALUE SPACES.
               10  WK01-DATE-4181-CH7611-Z              PIC X(1)
                                               VALUE SPACE.
               10  WK01-DATE-4181-CH7611-F              PIC X(1)
                                               VALUE SPACE.
               10  WK01-DATE-4181-CH7611-A              PIC X(1)
                                               VALUE SPACE.
               10  WK01-DATE-4181-CH7611-V              PIC X(1)
                                               VALUE SPACE.
               10  WK01-DATE-4181-CH7611-O              PIC X(1)
                                               VALUE SPACE.
               10  WK01-DATE-4181-CH7611       PIC X(6)
                                               VALUE SPACES.
               10  WK01-DATE-4181-CH7A11-Z              PIC X(1)
                                               VALUE SPACE.
               10  WK01-DATE-4181-CH7A11-F              PIC X(1)
                                               VALUE SPACE.
               10  WK01-DATE-4181-CH7A11-A              PIC X(1)
                                               VALUE SPACE.
               10  WK01-DATE-4181-CH7A11-V              PIC X(1)
                                               VALUE SPACE.
               10  WK01-DATE-4181-CH7A11-O              PIC X(1)
                                               VALUE SPACE.
               10  WK01-DATE-4181-CH7A11       PIC X(6)
                                               VALUE SPACES.
               10  WK01-RULE-CLASS-CODE-CH76-Z              PIC X(1)
                                               VALUE SPACE.
               10  WK01-RULE-CLASS-CODE-CH76-F              PIC X(1)
                                               VALUE SPACE.
               10  WK01-RULE-CLASS-CODE-CH76-A              PIC X(1)
                                               VALUE SPACE.
               10  WK01-RULE-CLASS-CODE-CH76-V              PIC X(1)
                                               VALUE SPACE.
               10  WK01-RULE-CLASS-CODE-CH76-O              PIC X(1)
                                               VALUE SPACE.
               10  WK01-RULE-CLASS-CODE-CH76       PIC X(4)
                                               VALUE SPACES.
               10  WK01-ZZMESSAGE-Z              PIC X(1)
                                               VALUE SPACE.
               10  WK01-ZZMESSAGE-F              PIC X(1)
                                               VALUE SPACE.
               10  WK01-ZZMESSAGE-A              PIC X(1)
                                               VALUE SPACE.
               10  WK01-ZZMESSAGE-V              PIC X(1)
                                               VALUE SPACE.
               10  WK01-ZZMESSAGE-O              PIC X(1)
                                               VALUE SPACE.
               10  WK01-ZZMESSAGE       PIC X(160)
                                               VALUE SPACES.
               10  WK01-PASSED-ONE-Z              PIC X(1)
                                               VALUE SPACE.
               10  WK01-PASSED-ONE-F              PIC X(1)
                                               VALUE SPACE.
               10  WK01-PASSED-ONE-A              PIC X(1)
                                               VALUE SPACE.
               10  WK01-PASSED-ONE-V              PIC X(1)
                                               VALUE SPACE.
               10  WK01-PASSED-ONE-O              PIC X(1)
                                               VALUE SPACE.
               10  WK01-PASSED-ONE       PIC X(32)
                                               VALUE SPACES.
               10  WK01-MAP-RESPONSE-Z              PIC X(1)
                                               VALUE SPACE.
               10  WK01-MAP-RESPONSE-F              PIC X(1)
                                               VALUE SPACE.
               10  WK01-MAP-RESPONSE-A              PIC X(1)
                                               VALUE SPACE.
               10  WK01-MAP-RESPONSE-V              PIC X(1)
                                               VALUE SPACE.
               10  WK01-MAP-RESPONSE-O              PIC X(1)
                                               VALUE SPACE.
               10  WK01-MAP-RESPONSE       PIC X(8)
                                               VALUE SPACES.
               10  WK01-TEXT-SY00-Z              PIC X(1)
                                               VALUE SPACE.
               10  WK01-TEXT-SY00-F              PIC X(1)
                                               VALUE SPACE.
               10  WK01-TEXT-SY00-A              PIC X(1)
                                               VALUE SPACE.
               10  WK01-TEXT-SY00-V              PIC X(1)
                                               VALUE SPACE.
               10  WK01-TEXT-SY00-O              PIC X(1)
                                               VALUE SPACE.
               10  WK01-TEXT-SY00       PIC X(14)
                                               VALUE SPACES.
           04  WK01-SUBSCRIPTED-WORK-AREA.
               05  FILLER                      PIC X(1).
               05  WK01-CODE-CH76-F             PIC X(1)
                                               OCCURS 11.
               05  WK01-DATE-4181-CH76-F             PIC X(1)
                                               OCCURS 11.
               05  WK01-DATE-4181-CH7A-F             PIC X(1)
                                               OCCURS 11.
               05  WK01-CLASS-CODE-4180-CH76-F             PIC X(1)
                                               OCCURS 11.
               05  WK01-CLASS-DESC-4181-CH76-F             PIC X(1)
                                               OCCURS 11.
               05  WK01-CLASS-TYPE-4181-CH76-F             PIC X(1)
                                               OCCURS 11.
               05  WK01-4181-CH76-F             PIC X(1)
                                               OCCURS 11.
