       01  MAP-CONTROL.

    ***Created by Convert/DC version V8R03 on 12/11/00 at 11:00***

           02  FCHMI82-MAP-CONTROL.
           03  FCHMI82T.
           04  WK01-DCXMAPL-PARMS.
               10  WK01-MAPNAME                  PIC X(8)
                                                 VALUE 'FCHMI82I'.
               10  WK01-IKE-LENGTH               PIC S9(8)  COMP
                                                 VALUE 24962.
               10  WK01-TINA-LENGTH              PIC S9(4)  COMP
                                                 VALUE 1439.
           05  WK01-ATTRIBUTES                   PIC X(60)
                                                 VALUE SPACE.
           05  WK01-ATTRIBUTES-ERROR             PIC X(60) VALUE
               'U  BIF'.
           05  WK01-CURSOR-DFLD                  PIC X(36)
                                                 VALUE SPACES.
           05  WK01-CURSOR-DFLD-QUAL             PIC X(30)
                                                 VALUE SPACES.
           05  WK01-ROW                          PIC S9(4) COMP
                                                 VALUE ZERO.
           05  WK01-COLUMN                       PIC S9(4) COMP
                                                 VALUE ZERO.
           05  WK01-ERROR-MSG                    PIC X(80)
                                                 VALUE SPACES.
           05  WK01-MAP-DATA-LEN                 PIC S9(6)
                                                 VALUE ZERO.
           05  WK01-1ST-FLAG                     PIC X(1)
                                                 VALUE 'Y'.
           05  WK01-FLAG-OUTPUT-DATA             PIC X(1)
                                                 VALUE 'Y'.
      *    05  WK01-STATUS-RETURN-FLAG           PIC X(1)
      *                                          VALUE SPACES.
           05  WK01-ALL-BUT-FLAG                 PIC X(1)
                                                 VALUE SPACES.
           05  WK01-FLAG-ALL-FIELDS-CHANGED      PIC X(1)  VALUE 'Y'.
           05  WK01-FLAG-ANY-FIELDS-CHANGED      PIC X(1)  VALUE 'N'.
           05  WK01-FLAG-ALL-FIELDS-ERROR        PIC X(1)  VALUE 'Y'.
           05  WK01-FLAG-ANY-FIELDS-ERROR        PIC X(1)  VALUE 'N'.
           05  WK01-FLAG-ALL-FIELDS-ERASE        PIC X(1)  VALUE 'Y'.
           05  WK01-FLAG-ANY-FIELDS-ERASE        PIC X(1)  VALUE 'Y'.

           05  WK01-VARDATA                      PIC X(11880)
                                                 VALUE SPACES.
           05  FILLER                            PIC X(100)
                                                 VALUE SPACES.
           04  WK01-ELEMENT-AREA.

               10  WK01-ID-SY00-Z              PIC X(1)
                                               VALUE SPACE.
               10  WK01-ID-SY00-F              PIC X(1)
                                               VALUE SPACE.
               10  WK01-ID-SY00-A              PIC X(1)
                                               VALUE SPACE.
               10  WK01-ID-SY00-V              PIC X(1)
                                               VALUE SPACE.
               10  WK01-ID-SY00-O              PIC X(1)
                                               VALUE SPACE.
               10  WK01-ID-SY00       PIC X(8)
                                               VALUE SPACES.
               10  WK01-NAME-6001-SY00-Z              PIC X(1)
                                               VALUE SPACE.
               10  WK01-NAME-6001-SY00-F              PIC X(1)
                                               VALUE SPACE.
               10  WK01-NAME-6001-SY00-A              PIC X(1)
                                               VALUE SPACE.
               10  WK01-NAME-6001-SY00-V              PIC X(1)
                                               VALUE SPACE.
               10  WK01-NAME-6001-SY00-O              PIC X(1)
                                               VALUE SPACE.
               10  WK01-NAME-6001-SY00       PIC X(35)
                                               VALUE SPACES.
               10  WK01-DATE-Z              PIC X(1)
                                               VALUE SPACE.
               10  WK01-DATE-F              PIC X(1)
                                               VALUE SPACE.
               10  WK01-DATE-A              PIC X(1)
                                               VALUE SPACE.
               10  WK01-DATE-V              PIC X(1)
                                               VALUE SPACE.
               10  WK01-DATE-O              PIC X(1)
                                               VALUE SPACE.
               10  WK01-DATE       PIC X(8)
                                               VALUE SPACES.
               10  WK01-HH-MM-TIME-SY00-Z              PIC X(1)
                                               VALUE SPACE.
               10  WK01-HH-MM-TIME-SY00-F              PIC X(1)
                                               VALUE SPACE.
               10  WK01-HH-MM-TIME-SY00-A              PIC X(1)
                                               VALUE SPACE.
               10  WK01-HH-MM-TIME-SY00-V              PIC X(1)
                                               VALUE SPACE.
               10  WK01-HH-MM-TIME-SY00-O              PIC X(1)
                                               VALUE SPACE.
               10  WK01-HH-MM-TIME-SY00       PIC X(4)
                                               VALUE SPACES.
               10  WK01-PM-FLAG-SY00-Z              PIC X(1)
                                               VALUE SPACE.
               10  WK01-PM-FLAG-SY00-F              PIC X(1)
                                               VALUE SPACE.
               10  WK01-PM-FLAG-SY00-A              PIC X(1)
                                               VALUE SPACE.
               10  WK01-PM-FLAG-SY00-V              PIC X(1)
                                               VALUE SPACE.
               10  WK01-PM-FLAG-SY00-O              PIC X(1)
                                               VALUE SPACE.
               10  WK01-PM-FLAG-SY00       PIC X(1)
                                               VALUE SPACES.
               10  WK01-USER-ID-Z              PIC X(1)
                                               VALUE SPACE.
               10  WK01-USER-ID-F              PIC X(1)
                                               VALUE SPACE.
               10  WK01-USER-ID-A              PIC X(1)
                                               VALUE SPACE.
               10  WK01-USER-ID-V              PIC X(1)
                                               VALUE SPACE.
               10  WK01-USER-ID-O              PIC X(1)
                                               VALUE SPACE.
               10  WK01-USER-ID       PIC X(32)
                                               VALUE SPACES.
               10  WK01-RSPNS-ID-SY00-Z              PIC X(1)
                                               VALUE SPACE.
               10  WK01-RSPNS-ID-SY00-F              PIC X(1)
                                               VALUE SPACE.
               10  WK01-RSPNS-ID-SY00-A              PIC X(1)
                                               VALUE SPACE.
               10  WK01-RSPNS-ID-SY00-V              PIC X(1)
                                               VALUE SPACE.
               10  WK01-RSPNS-ID-SY00-O              PIC X(1)
                                               VALUE SPACE.
               10  WK01-RSPNS-ID-SY00       PIC X(8)
                                               VALUE SPACES.
               10  WK01-FUNC-DESCRIPTION-Z              PIC X(1)
                                               VALUE SPACE.
               10  WK01-FUNC-DESCRIPTION-F              PIC X(1)
                                               VALUE SPACE.
               10  WK01-FUNC-DESCRIPTION-A              PIC X(1)
                                               VALUE SPACE.
               10  WK01-FUNC-DESCRIPTION-V              PIC X(1)
                                               VALUE SPACE.
               10  WK01-FUNC-DESCRIPTION-O              PIC X(1)
                                               VALUE SPACE.
               10  WK01-FUNC-DESCRIPTION       PIC X(28)
                                               VALUE SPACES.
               10  WK01-STATUS-CODE-SY00-Z              PIC X(1)
                                               VALUE SPACE.
               10  WK01-STATUS-CODE-SY00-F              PIC X(1)
                                               VALUE SPACE.
               10  WK01-STATUS-CODE-SY00-A              PIC X(1)
                                               VALUE SPACE.
               10  WK01-STATUS-CODE-SY00-V              PIC X(1)
                                               VALUE SPACE.
               10  WK01-STATUS-CODE-SY00-O              PIC X(1)
                                               VALUE SPACE.
               10  WK01-STATUS-CODE-SY00       PIC X(1)
                                               VALUE SPACES.
               10  WK01-DATE-CH82-Z              PIC X(1)
                                               VALUE SPACE.
               10  WK01-DATE-CH82-F              PIC X(1)
                                               VALUE SPACE.
               10  WK01-DATE-CH82-A              PIC X(1)
                                               VALUE SPACE.
               10  WK01-DATE-CH82-V              PIC X(1)
                                               VALUE SPACE.
               10  WK01-DATE-CH82-O              PIC X(1)
                                               VALUE SPACE.
               10  WK01-DATE-CH82       PIC X(6)
                                               VALUE SPACES.
               10  WK01-STATUS-CH82-Z              PIC X(1)
                                               VALUE SPACE.
               10  WK01-STATUS-CH82-F              PIC X(1)
                                               VALUE SPACE.
               10  WK01-STATUS-CH82-A              PIC X(1)
                                               VALUE SPACE.
               10  WK01-STATUS-CH82-V              PIC X(1)
                                               VALUE SPACE.
               10  WK01-STATUS-CH82-O              PIC X(1)
                                               VALUE SPACE.
               10  WK01-STATUS-CH82       PIC X(1)
                                               VALUE SPACES.
               10  WK01-CODE-CH821-Z              PIC X(1)
                                               VALUE SPACE.
               10  WK01-CODE-CH821-F              PIC X(1)
                                               VALUE SPACE.
               10  WK01-CODE-CH821-A              PIC X(1)
                                               VALUE SPACE.
               10  WK01-CODE-CH821-V              PIC X(1)
                                               VALUE SPACE.
               10  WK01-CODE-CH821-O              PIC X(1)
                                               VALUE SPACE.
               10  WK01-CODE-CH821       PIC X(1)
                                               VALUE SPACES.
               10  WK01-CODE-4001-CH821-Z              PIC X(1)
                                               VALUE SPACE.
               10  WK01-CODE-4001-CH821-F              PIC X(1)
                                               VALUE SPACE.
               10  WK01-CODE-4001-CH821-A              PIC X(1)
                                               VALUE SPACE.
               10  WK01-CODE-4001-CH821-V              PIC X(1)
                                               VALUE SPACE.
               10  WK01-CODE-4001-CH821-O              PIC X(1)
                                               VALUE SPACE.
               10  WK01-CODE-4001-CH821       PIC X(1)
                                               VALUE SPACES.
               10  WK01-CODE-4001-CH8A1-Z              PIC X(1)
                                               VALUE SPACE.
               10  WK01-CODE-4001-CH8A1-F              PIC X(1)
                                               VALUE SPACE.
               10  WK01-CODE-4001-CH8A1-A              PIC X(1)
                                               VALUE SPACE.
               10  WK01-CODE-4001-CH8A1-V              PIC X(1)
                                               VALUE SPACE.
               10  WK01-CODE-4001-CH8A1-O              PIC X(1)
                                               VALUE SPACE.
               10  WK01-CODE-4001-CH8A1       PIC X(6)
                                               VALUE SPACES.
               10  WK01-DESC-4005-CH821-Z              PIC X(1)
                                               VALUE SPACE.
               10  WK01-DESC-4005-CH821-F              PIC X(1)
                                               VALUE SPACE.
               10  WK01-DESC-4005-CH821-A              PIC X(1)
                                               VALUE SPACE.
               10  WK01-DESC-4005-CH821-V              PIC X(1)
                                               VALUE SPACE.
               10  WK01-DESC-4005-CH821-O              PIC X(1)
                                               VALUE SPACE.
               10  WK01-DESC-4005-CH821       PIC X(35)
                                               VALUE SPACES.
               10  WK01-4005-CH821-Z              PIC X(1)
                                               VALUE SPACE.
               10  WK01-4005-CH821-F              PIC X(1)
                                               VALUE SPACE.
               10  WK01-4005-CH821-A              PIC X(1)
                                               VALUE SPACE.
               10  WK01-4005-CH821-V              PIC X(1)
                                               VALUE SPACE.
               10  WK01-4005-CH821-O              PIC X(1)
                                               VALUE SPACE.
               10  WK01-4005-CH821       PIC X(1)
                                               VALUE SPACES.
               10  WK01-DATE-4005-CH821-Z              PIC X(1)
                                               VALUE SPACE.
               10  WK01-DATE-4005-CH821-F              PIC X(1)
                                               VALUE SPACE.
               10  WK01-DATE-4005-CH821-A              PIC X(1)
                                               VALUE SPACE.
               10  WK01-DATE-4005-CH821-V              PIC X(1)
                                               VALUE SPACE.
               10  WK01-DATE-4005-CH821-O              PIC X(1)
                                               VALUE SPACE.
               10  WK01-DATE-4005-CH821       PIC X(6)
                                               VALUE SPACES.
               10  WK01-DATE-4005-CH8A1-Z              PIC X(1)
                                               VALUE SPACE.
               10  WK01-DATE-4005-CH8A1-F              PIC X(1)
                                               VALUE SPACE.
               10  WK01-DATE-4005-CH8A1-A              PIC X(1)
                                               VALUE SPACE.
               10  WK01-DATE-4005-CH8A1-V              PIC X(1)
                                               VALUE SPACE.
               10  WK01-DATE-4005-CH8A1-O              PIC X(1)
                                               VALUE SPACE.
               10  WK01-DATE-4005-CH8A1       PIC X(6)
                                               VALUE SPACES.
               10  WK01-CODE-CH822-Z              PIC X(1)
                                               VALUE SPACE.
               10  WK01-CODE-CH822-F              PIC X(1)
                                               VALUE SPACE.
               10  WK01-CODE-CH822-A              PIC X(1)
                                               VALUE SPACE.
               10  WK01-CODE-CH822-V              PIC X(1)
                                               VALUE SPACE.
               10  WK01-CODE-CH822-O              PIC X(1)
                                               VALUE SPACE.
               10  WK01-CODE-CH822       PIC X(1)
                                               VALUE SPACES.
               10  WK01-CODE-4001-CH822-Z              PIC X(1)
                                               VALUE SPACE.
               10  WK01-CODE-4001-CH822-F              PIC X(1)
                                               VALUE SPACE.
               10  WK01-CODE-4001-CH822-A              PIC X(1)
                                               VALUE SPACE.
               10  WK01-CODE-4001-CH822-V              PIC X(1)
                                               VALUE SPACE.
               10  WK01-CODE-4001-CH822-O              PIC X(1)
                                               VALUE SPACE.
               10  WK01-CODE-4001-CH822       PIC X(1)
                                               VALUE SPACES.
               10  WK01-CODE-4001-CH8A2-Z              PIC X(1)
                                               VALUE SPACE.
               10  WK01-CODE-4001-CH8A2-F              PIC X(1)
                                               VALUE SPACE.
               10  WK01-CODE-4001-CH8A2-A              PIC X(1)
                                               VALUE SPACE.
               10  WK01-CODE-4001-CH8A2-V              PIC X(1)
                                               VALUE SPACE.
               10  WK01-CODE-4001-CH8A2-O              PIC X(1)
                                               VALUE SPACE.
               10  WK01-CODE-4001-CH8A2       PIC X(6)
                                               VALUE SPACES.
               10  WK01-DESC-4005-CH822-Z              PIC X(1)
                                               VALUE SPACE.
               10  WK01-DESC-4005-CH822-F              PIC X(1)
                                               VALUE SPACE.
               10  WK01-DESC-4005-CH822-A              PIC X(1)
                                               VALUE SPACE.
               10  WK01-DESC-4005-CH822-V              PIC X(1)
                                               VALUE SPACE.
               10  WK01-DESC-4005-CH822-O              PIC X(1)
                                               VALUE SPACE.
               10  WK01-DESC-4005-CH822       PIC X(35)
                                               VALUE SPACES.
               10  WK01-4005-CH822-Z              PIC X(1)
                                               VALUE SPACE.
               10  WK01-4005-CH822-F              PIC X(1)
                                               VALUE SPACE.
               10  WK01-4005-CH822-A              PIC X(1)
                                               VALUE SPACE.
               10  WK01-4005-CH822-V              PIC X(1)
                                               VALUE SPACE.
               10  WK01-4005-CH822-O              PIC X(1)
                                               VALUE SPACE.
               10  WK01-4005-CH822       PIC X(1)
                                               VALUE SPACES.
               10  WK01-DATE-4005-CH822-Z              PIC X(1)
                                               VALUE SPACE.
               10  WK01-DATE-4005-CH822-F              PIC X(1)
                                               VALUE SPACE.
               10  WK01-DATE-4005-CH822-A              PIC X(1)
                                               VALUE SPACE.
               10  WK01-DATE-4005-CH822-V              PIC X(1)
                                               VALUE SPACE.
               10  WK01-DATE-4005-CH822-O              PIC X(1)
                                               VALUE SPACE.
               10  WK01-DATE-4005-CH822       PIC X(6)
                                               VALUE SPACES.
               10  WK01-DATE-4005-CH8A2-Z              PIC X(1)
                                               VALUE SPACE.
               10  WK01-DATE-4005-CH8A2-F              PIC X(1)
                                               VALUE SPACE.
               10  WK01-DATE-4005-CH8A2-A              PIC X(1)
                                               VALUE SPACE.
               10  WK01-DATE-4005-CH8A2-V              PIC X(1)
                                               VALUE SPACE.
               10  WK01-DATE-4005-CH8A2-O              PIC X(1)
                                               VALUE SPACE.
               10  WK01-DATE-4005-CH8A2       PIC X(6)
                                               VALUE SPACES.
               10  WK01-CODE-CH823-Z              PIC X(1)
                                               VALUE SPACE.
               10  WK01-CODE-CH823-F              PIC X(1)
                                               VALUE SPACE.
               10  WK01-CODE-CH823-A              PIC X(1)
                                               VALUE SPACE.
               10  WK01-CODE-CH823-V              PIC X(1)
                                               VALUE SPACE.
               10  WK01-CODE-CH823-O              PIC X(1)
                                               VALUE SPACE.
               10  WK01-CODE-CH823       PIC X(1)
                                               VALUE SPACES.
               10  WK01-CODE-4001-CH823-Z              PIC X(1)
                                               VALUE SPACE.
               10  WK01-CODE-4001-CH823-F              PIC X(1)
                                               VALUE SPACE.
               10  WK01-CODE-4001-CH823-A              PIC X(1)
                                               VALUE SPACE.
               10  WK01-CODE-4001-CH823-V              PIC X(1)
                                               VALUE SPACE.
               10  WK01-CODE-4001-CH823-O              PIC X(1)
                                               VALUE SPACE.
               10  WK01-CODE-4001-CH823       PIC X(1)
                                               VALUE SPACES.
               10  WK01-CODE-4001-CH8A3-Z              PIC X(1)
                                               VALUE SPACE.
               10  WK01-CODE-4001-CH8A3-F              PIC X(1)
                                               VALUE SPACE.
               10  WK01-CODE-4001-CH8A3-A              PIC X(1)
                                               VALUE SPACE.
               10  WK01-CODE-4001-CH8A3-V              PIC X(1)
                                               VALUE SPACE.
               10  WK01-CODE-4001-CH8A3-O              PIC X(1)
                                               VALUE SPACE.
               10  WK01-CODE-4001-CH8A3       PIC X(6)
                                               VALUE SPACES.
               10  WK01-DESC-4005-CH823-Z              PIC X(1)
                                               VALUE SPACE.
               10  WK01-DESC-4005-CH823-F              PIC X(1)
                                               VALUE SPACE.
               10  WK01-DESC-4005-CH823-A              PIC X(1)
                                               VALUE SPACE.
               10  WK01-DESC-4005-CH823-V              PIC X(1)
                                               VALUE SPACE.
               10  WK01-DESC-4005-CH823-O              PIC X(1)
                                               VALUE SPACE.
               10  WK01-DESC-4005-CH823       PIC X(35)
                                               VALUE SPACES.
               10  WK01-4005-CH823-Z              PIC X(1)
                                               VALUE SPACE.
               10  WK01-4005-CH823-F              PIC X(1)
                                               VALUE SPACE.
               10  WK01-4005-CH823-A              PIC X(1)
                                               VALUE SPACE.
               10  WK01-4005-CH823-V              PIC X(1)
                                               VALUE SPACE.
               10  WK01-4005-CH823-O              PIC X(1)
                                               VALUE SPACE.
               10  WK01-4005-CH823       PIC X(1)
                                               VALUE SPACES.
               10  WK01-DATE-4005-CH823-Z              PIC X(1)
                                               VALUE SPACE.
               10  WK01-DATE-4005-CH823-F              PIC X(1)
                                               VALUE SPACE.
               10  WK01-DATE-4005-CH823-A              PIC X(1)
                                               VALUE SPACE.
               10  WK01-DATE-4005-CH823-V              PIC X(1)
                                               VALUE SPACE.
               10  WK01-DATE-4005-CH823-O              PIC X(1)
                                               VALUE SPACE.
               10  WK01-DATE-4005-CH823       PIC X(6)
                                               VALUE SPACES.
               10  WK01-DATE-4005-CH8A3-Z              PIC X(1)
                                               VALUE SPACE.
               10  WK01-DATE-4005-CH8A3-F              PIC X(1)
                                               VALUE SPACE.
               10  WK01-DATE-4005-CH8A3-A              PIC X(1)
                                               VALUE SPACE.
               10  WK01-DATE-4005-CH8A3-V              PIC X(1)
                                               VALUE SPACE.
               10  WK01-DATE-4005-CH8A3-O              PIC X(1)
                                               VALUE SPACE.
               10  WK01-DATE-4005-CH8A3       PIC X(6)
                                               VALUE SPACES.
               10  WK01-CODE-CH824-Z              PIC X(1)
                                               VALUE SPACE.
               10  WK01-CODE-CH824-F              PIC X(1)
                                               VALUE SPACE.
               10  WK01-CODE-CH824-A              PIC X(1)
                                               VALUE SPACE.
               10  WK01-CODE-CH824-V              PIC X(1)
                                               VALUE SPACE.
               10  WK01-CODE-CH824-O              PIC X(1)
                                               VALUE SPACE.
               10  WK01-CODE-CH824       PIC X(1)
                                               VALUE SPACES.
               10  WK01-CODE-4001-CH824-Z              PIC X(1)
                                               VALUE SPACE.
               10  WK01-CODE-4001-CH824-F              PIC X(1)
                                               VALUE SPACE.
               10  WK01-CODE-4001-CH824-A              PIC X(1)
                                               VALUE SPACE.
               10  WK01-CODE-4001-CH824-V              PIC X(1)
                                               VALUE SPACE.
               10  WK01-CODE-4001-CH824-O              PIC X(1)
                                               VALUE SPACE.
               10  WK01-CODE-4001-CH824       PIC X(1)
                                               VALUE SPACES.
               10  WK01-CODE-4001-CH8A4-Z              PIC X(1)
                                               VALUE SPACE.
               10  WK01-CODE-4001-CH8A4-F              PIC X(1)
                                               VALUE SPACE.
               10  WK01-CODE-4001-CH8A4-A              PIC X(1)
                                               VALUE SPACE.
               10  WK01-CODE-4001-CH8A4-V              PIC X(1)
                                               VALUE SPACE.
               10  WK01-CODE-4001-CH8A4-O              PIC X(1)
                                               VALUE SPACE.
               10  WK01-CODE-4001-CH8A4       PIC X(6)
                                               VALUE SPACES.
               10  WK01-DESC-4005-CH824-Z              PIC X(1)
                                               VALUE SPACE.
               10  WK01-DESC-4005-CH824-F              PIC X(1)
                                               VALUE SPACE.
               10  WK01-DESC-4005-CH824-A              PIC X(1)
                                               VALUE SPACE.
               10  WK01-DESC-4005-CH824-V              PIC X(1)
                                               VALUE SPACE.
               10  WK01-DESC-4005-CH824-O              PIC X(1)
                                               VALUE SPACE.
               10  WK01-DESC-4005-CH824       PIC X(35)
                                               VALUE SPACES.
               10  WK01-4005-CH824-Z              PIC X(1)
                                               VALUE SPACE.
               10  WK01-4005-CH824-F              PIC X(1)
                                               VALUE SPACE.
               10  WK01-4005-CH824-A              PIC X(1)
                                               VALUE SPACE.
               10  WK01-4005-CH824-V              PIC X(1)
                                               VALUE SPACE.
               10  WK01-4005-CH824-O              PIC X(1)
                                               VALUE SPACE.
               10  WK01-4005-CH824       PIC X(1)
                                               VALUE SPACES.
               10  WK01-DATE-4005-CH824-Z              PIC X(1)
                                               VALUE SPACE.
               10  WK01-DATE-4005-CH824-F              PIC X(1)
                                               VALUE SPACE.
               10  WK01-DATE-4005-CH824-A              PIC X(1)
                                               VALUE SPACE.
               10  WK01-DATE-4005-CH824-V              PIC X(1)
                                               VALUE SPACE.
               10  WK01-DATE-4005-CH824-O              PIC X(1)
                                               VALUE SPACE.
               10  WK01-DATE-4005-CH824       PIC X(6)
                                               VALUE SPACES.
               10  WK01-DATE-4005-CH8A4-Z              PIC X(1)
                                               VALUE SPACE.
               10  WK01-DATE-4005-CH8A4-F              PIC X(1)
                                               VALUE SPACE.
               10  WK01-DATE-4005-CH8A4-A              PIC X(1)
                                               VALUE SPACE.
               10  WK01-DATE-4005-CH8A4-V              PIC X(1)
                                               VALUE SPACE.
               10  WK01-DATE-4005-CH8A4-O              PIC X(1)
                                               VALUE SPACE.
               10  WK01-DATE-4005-CH8A4       PIC X(6)
                                               VALUE SPACES.
               10  WK01-CODE-CH825-Z              PIC X(1)
                                               VALUE SPACE.
               10  WK01-CODE-CH825-F              PIC X(1)
                                               VALUE SPACE.
               10  WK01-CODE-CH825-A              PIC X(1)
                                               VALUE SPACE.
               10  WK01-CODE-CH825-V              PIC X(1)
                                               VALUE SPACE.
               10  WK01-CODE-CH825-O              PIC X(1)
                                               VALUE SPACE.
               10  WK01-CODE-CH825       PIC X(1)
                                               VALUE SPACES.
               10  WK01-CODE-4001-CH825-Z              PIC X(1)
                                               VALUE SPACE.
               10  WK01-CODE-4001-CH825-F              PIC X(1)
                                               VALUE SPACE.
               10  WK01-CODE-4001-CH825-A              PIC X(1)
                                               VALUE SPACE.
               10  WK01-CODE-4001-CH825-V              PIC X(1)
                                               VALUE SPACE.
               10  WK01-CODE-4001-CH825-O              PIC X(1)
                                               VALUE SPACE.
               10  WK01-CODE-4001-CH825       PIC X(1)
                                               VALUE SPACES.
               10  WK01-CODE-4001-CH8A5-Z              PIC X(1)
                                               VALUE SPACE.
               10  WK01-CODE-4001-CH8A5-F              PIC X(1)
                                               VALUE SPACE.
               10  WK01-CODE-4001-CH8A5-A              PIC X(1)
                                               VALUE SPACE.
               10  WK01-CODE-4001-CH8A5-V              PIC X(1)
                                               VALUE SPACE.
               10  WK01-CODE-4001-CH8A5-O              PIC X(1)
                                               VALUE SPACE.
               10  WK01-CODE-4001-CH8A5       PIC X(6)
                                               VALUE SPACES.
               10  WK01-DESC-4005-CH825-Z              PIC X(1)
                                               VALUE SPACE.
               10  WK01-DESC-4005-CH825-F              PIC X(1)
                                               VALUE SPACE.
               10  WK01-DESC-4005-CH825-A              PIC X(1)
                                               VALUE SPACE.
               10  WK01-DESC-4005-CH825-V              PIC X(1)
                                               VALUE SPACE.
               10  WK01-DESC-4005-CH825-O              PIC X(1)
                                               VALUE SPACE.
               10  WK01-DESC-4005-CH825       PIC X(35)
                                               VALUE SPACES.
               10  WK01-4005-CH825-Z              PIC X(1)
                                               VALUE SPACE.
               10  WK01-4005-CH825-F              PIC X(1)
                                               VALUE SPACE.
               10  WK01-4005-CH825-A              PIC X(1)
                                               VALUE SPACE.
               10  WK01-4005-CH825-V              PIC X(1)
                                               VALUE SPACE.
               10  WK01-4005-CH825-O              PIC X(1)
                                               VALUE SPACE.
               10  WK01-4005-CH825       PIC X(1)
                                               VALUE SPACES.
               10  WK01-DATE-4005-CH825-Z              PIC X(1)
                                               VALUE SPACE.
               10  WK01-DATE-4005-CH825-F              PIC X(1)
                                               VALUE SPACE.
               10  WK01-DATE-4005-CH825-A              PIC X(1)
                                               VALUE SPACE.
               10  WK01-DATE-4005-CH825-V              PIC X(1)
                                               VALUE SPACE.
               10  WK01-DATE-4005-CH825-O              PIC X(1)
                                               VALUE SPACE.
               10  WK01-DATE-4005-CH825       PIC X(6)
                                               VALUE SPACES.
               10  WK01-DATE-4005-CH8A5-Z              PIC X(1)
                                               VALUE SPACE.
               10  WK01-DATE-4005-CH8A5-F              PIC X(1)
                                               VALUE SPACE.
               10  WK01-DATE-4005-CH8A5-A              PIC X(1)
                                               VALUE SPACE.
               10  WK01-DATE-4005-CH8A5-V              PIC X(1)
                                               VALUE SPACE.
               10  WK01-DATE-4005-CH8A5-O              PIC X(1)
                                               VALUE SPACE.
               10  WK01-DATE-4005-CH8A5       PIC X(6)
                                               VALUE SPACES.
               10  WK01-CODE-CH826-Z              PIC X(1)
                                               VALUE SPACE.
               10  WK01-CODE-CH826-F              PIC X(1)
                                               VALUE SPACE.
               10  WK01-CODE-CH826-A              PIC X(1)
                                               VALUE SPACE.
               10  WK01-CODE-CH826-V              PIC X(1)
                                               VALUE SPACE.
               10  WK01-CODE-CH826-O              PIC X(1)
                                               VALUE SPACE.
               10  WK01-CODE-CH826       PIC X(1)
                                               VALUE SPACES.
               10  WK01-CODE-4001-CH826-Z              PIC X(1)
                                               VALUE SPACE.
               10  WK01-CODE-4001-CH826-F              PIC X(1)
                                               VALUE SPACE.
               10  WK01-CODE-4001-CH826-A              PIC X(1)
                                               VALUE SPACE.
               10  WK01-CODE-4001-CH826-V              PIC X(1)
                                               VALUE SPACE.
               10  WK01-CODE-4001-CH826-O              PIC X(1)
                                               VALUE SPACE.
               10  WK01-CODE-4001-CH826       PIC X(1)
                                               VALUE SPACES.
               10  WK01-CODE-4001-CH8A6-Z              PIC X(1)
                                               VALUE SPACE.
               10  WK01-CODE-4001-CH8A6-F              PIC X(1)
                                               VALUE SPACE.
               10  WK01-CODE-4001-CH8A6-A              PIC X(1)
                                               VALUE SPACE.
               10  WK01-CODE-4001-CH8A6-V              PIC X(1)
                                               VALUE SPACE.
               10  WK01-CODE-4001-CH8A6-O              PIC X(1)
                                               VALUE SPACE.
               10  WK01-CODE-4001-CH8A6       PIC X(6)
                                               VALUE SPACES.
               10  WK01-DESC-4005-CH826-Z              PIC X(1)
                                               VALUE SPACE.
               10  WK01-DESC-4005-CH826-F              PIC X(1)
                                               VALUE SPACE.
               10  WK01-DESC-4005-CH826-A              PIC X(1)
                                               VALUE SPACE.
               10  WK01-DESC-4005-CH826-V              PIC X(1)
                                               VALUE SPACE.
               10  WK01-DESC-4005-CH826-O              PIC X(1)
                                               VALUE SPACE.
               10  WK01-DESC-4005-CH826       PIC X(35)
                                               VALUE SPACES.
               10  WK01-4005-CH826-Z              PIC X(1)
                                               VALUE SPACE.
               10  WK01-4005-CH826-F              PIC X(1)
                                               VALUE SPACE.
               10  WK01-4005-CH826-A              PIC X(1)
                                               VALUE SPACE.
               10  WK01-4005-CH826-V              PIC X(1)
                                               VALUE SPACE.
               10  WK01-4005-CH826-O              PIC X(1)
                                               VALUE SPACE.
               10  WK01-4005-CH826       PIC X(1)
                                               VALUE SPACES.
               10  WK01-DATE-4005-CH826-Z              PIC X(1)
                                               VALUE SPACE.
               10  WK01-DATE-4005-CH826-F              PIC X(1)
                                               VALUE SPACE.
               10  WK01-DATE-4005-CH826-A              PIC X(1)
                                               VALUE SPACE.
               10  WK01-DATE-4005-CH826-V              PIC X(1)
                                               VALUE SPACE.
               10  WK01-DATE-4005-CH826-O              PIC X(1)
                                               VALUE SPACE.
               10  WK01-DATE-4005-CH826       PIC X(6)
                                               VALUE SPACES.
               10  WK01-DATE-4005-CH8A6-Z              PIC X(1)
                                               VALUE SPACE.
               10  WK01-DATE-4005-CH8A6-F              PIC X(1)
                                               VALUE SPACE.
               10  WK01-DATE-4005-CH8A6-A              PIC X(1)
                                               VALUE SPACE.
               10  WK01-DATE-4005-CH8A6-V              PIC X(1)
                                               VALUE SPACE.
               10  WK01-DATE-4005-CH8A6-O              PIC X(1)
                                               VALUE SPACE.
               10  WK01-DATE-4005-CH8A6       PIC X(6)
                                               VALUE SPACES.
               10  WK01-CODE-CH827-Z              PIC X(1)
                                               VALUE SPACE.
               10  WK01-CODE-CH827-F              PIC X(1)
                                               VALUE SPACE.
               10  WK01-CODE-CH827-A              PIC X(1)
                                               VALUE SPACE.
               10  WK01-CODE-CH827-V              PIC X(1)
                                               VALUE SPACE.
               10  WK01-CODE-CH827-O              PIC X(1)
                                               VALUE SPACE.
               10  WK01-CODE-CH827       PIC X(1)
                                               VALUE SPACES.
               10  WK01-CODE-4001-CH827-Z              PIC X(1)
                                               VALUE SPACE.
               10  WK01-CODE-4001-CH827-F              PIC X(1)
                                               VALUE SPACE.
               10  WK01-CODE-4001-CH827-A              PIC X(1)
                                               VALUE SPACE.
               10  WK01-CODE-4001-CH827-V              PIC X(1)
                                               VALUE SPACE.
               10  WK01-CODE-4001-CH827-O              PIC X(1)
                                               VALUE SPACE.
               10  WK01-CODE-4001-CH827       PIC X(1)
                                               VALUE SPACES.
               10  WK01-CODE-4001-CH8A7-Z              PIC X(1)
                                               VALUE SPACE.
               10  WK01-CODE-4001-CH8A7-F              PIC X(1)
                                               VALUE SPACE.
               10  WK01-CODE-4001-CH8A7-A              PIC X(1)
                                               VALUE SPACE.
               10  WK01-CODE-4001-CH8A7-V              PIC X(1)
                                               VALUE SPACE.
               10  WK01-CODE-4001-CH8A7-O              PIC X(1)
                                               VALUE SPACE.
               10  WK01-CODE-4001-CH8A7       PIC X(6)
                                               VALUE SPACES.
               10  WK01-DESC-4005-CH827-Z              PIC X(1)
                                               VALUE SPACE.
               10  WK01-DESC-4005-CH827-F              PIC X(1)
                                               VALUE SPACE.
               10  WK01-DESC-4005-CH827-A              PIC X(1)
                                               VALUE SPACE.
               10  WK01-DESC-4005-CH827-V              PIC X(1)
                                               VALUE SPACE.
               10  WK01-DESC-4005-CH827-O              PIC X(1)
                                               VALUE SPACE.
               10  WK01-DESC-4005-CH827       PIC X(35)
                                               VALUE SPACES.
               10  WK01-4005-CH827-Z              PIC X(1)
                                               VALUE SPACE.
               10  WK01-4005-CH827-F              PIC X(1)
                                               VALUE SPACE.
               10  WK01-4005-CH827-A              PIC X(1)
                                               VALUE SPACE.
               10  WK01-4005-CH827-V              PIC X(1)
                                               VALUE SPACE.
               10  WK01-4005-CH827-O              PIC X(1)
                                               VALUE SPACE.
               10  WK01-4005-CH827       PIC X(1)
                                               VALUE SPACES.
               10  WK01-DATE-4005-CH827-Z              PIC X(1)
                                               VALUE SPACE.
               10  WK01-DATE-4005-CH827-F              PIC X(1)
                                               VALUE SPACE.
               10  WK01-DATE-4005-CH827-A              PIC X(1)
                                               VALUE SPACE.
               10  WK01-DATE-4005-CH827-V              PIC X(1)
                                               VALUE SPACE.
               10  WK01-DATE-4005-CH827-O              PIC X(1)
                                               VALUE SPACE.
               10  WK01-DATE-4005-CH827       PIC X(6)
                                               VALUE SPACES.
               10  WK01-DATE-4005-CH8A7-Z              PIC X(1)
                                               VALUE SPACE.
               10  WK01-DATE-4005-CH8A7-F              PIC X(1)
                                               VALUE SPACE.
               10  WK01-DATE-4005-CH8A7-A              PIC X(1)
                                               VALUE SPACE.
               10  WK01-DATE-4005-CH8A7-V              PIC X(1)
                                               VALUE SPACE.
               10  WK01-DATE-4005-CH8A7-O              PIC X(1)
                                               VALUE SPACE.
               10  WK01-DATE-4005-CH8A7       PIC X(6)
                                               VALUE SPACES.
               10  WK01-CODE-CH828-Z              PIC X(1)
                                               VALUE SPACE.
               10  WK01-CODE-CH828-F              PIC X(1)
                                               VALUE SPACE.
               10  WK01-CODE-CH828-A              PIC X(1)
                                               VALUE SPACE.
               10  WK01-CODE-CH828-V              PIC X(1)
                                               VALUE SPACE.
               10  WK01-CODE-CH828-O              PIC X(1)
                                               VALUE SPACE.
               10  WK01-CODE-CH828       PIC X(1)
                                               VALUE SPACES.
               10  WK01-CODE-4001-CH828-Z              PIC X(1)
                                               VALUE SPACE.
               10  WK01-CODE-4001-CH828-F              PIC X(1)
                                               VALUE SPACE.
               10  WK01-CODE-4001-CH828-A              PIC X(1)
                                               VALUE SPACE.
               10  WK01-CODE-4001-CH828-V              PIC X(1)
                                               VALUE SPACE.
               10  WK01-CODE-4001-CH828-O              PIC X(1)
                                               VALUE SPACE.
               10  WK01-CODE-4001-CH828       PIC X(1)
                                               VALUE SPACES.
               10  WK01-CODE-4001-CH8A8-Z              PIC X(1)
                                               VALUE SPACE.
               10  WK01-CODE-4001-CH8A8-F              PIC X(1)
                                               VALUE SPACE.
               10  WK01-CODE-4001-CH8A8-A              PIC X(1)
                                               VALUE SPACE.
               10  WK01-CODE-4001-CH8A8-V              PIC X(1)
                                               VALUE SPACE.
               10  WK01-CODE-4001-CH8A8-O              PIC X(1)
                                               VALUE SPACE.
               10  WK01-CODE-4001-CH8A8       PIC X(6)
                                               VALUE SPACES.
               10  WK01-DESC-4005-CH828-Z              PIC X(1)
                                               VALUE SPACE.
               10  WK01-DESC-4005-CH828-F              PIC X(1)
                                               VALUE SPACE.
               10  WK01-DESC-4005-CH828-A              PIC X(1)
                                               VALUE SPACE.
               10  WK01-DESC-4005-CH828-V              PIC X(1)
                                               VALUE SPACE.
               10  WK01-DESC-4005-CH828-O              PIC X(1)
                                               VALUE SPACE.
               10  WK01-DESC-4005-CH828       PIC X(35)
                                               VALUE SPACES.
               10  WK01-4005-CH828-Z              PIC X(1)
                                               VALUE SPACE.
               10  WK01-4005-CH828-F              PIC X(1)
                                               VALUE SPACE.
               10  WK01-4005-CH828-A              PIC X(1)
                                               VALUE SPACE.
               10  WK01-4005-CH828-V              PIC X(1)
                                               VALUE SPACE.
               10  WK01-4005-CH828-O              PIC X(1)
                                               VALUE SPACE.
               10  WK01-4005-CH828       PIC X(1)
                                               VALUE SPACES.
               10  WK01-DATE-4005-CH828-Z              PIC X(1)
                                               VALUE SPACE.
               10  WK01-DATE-4005-CH828-F              PIC X(1)
                                               VALUE SPACE.
               10  WK01-DATE-4005-CH828-A              PIC X(1)
                                               VALUE SPACE.
               10  WK01-DATE-4005-CH828-V              PIC X(1)
                                               VALUE SPACE.
               10  WK01-DATE-4005-CH828-O              PIC X(1)
                                               VALUE SPACE.
               10  WK01-DATE-4005-CH828       PIC X(6)
                                               VALUE SPACES.
               10  WK01-DATE-4005-CH8A8-Z              PIC X(1)
                                               VALUE SPACE.
               10  WK01-DATE-4005-CH8A8-F              PIC X(1)
                                               VALUE SPACE.
               10  WK01-DATE-4005-CH8A8-A              PIC X(1)
                                               VALUE SPACE.
               10  WK01-DATE-4005-CH8A8-V              PIC X(1)
                                               VALUE SPACE.
               10  WK01-DATE-4005-CH8A8-O              PIC X(1)
                                               VALUE SPACE.
               10  WK01-DATE-4005-CH8A8       PIC X(6)
                                               VALUE SPACES.
               10  WK01-CODE-CH829-Z              PIC X(1)
                                               VALUE SPACE.
               10  WK01-CODE-CH829-F              PIC X(1)
                                               VALUE SPACE.
               10  WK01-CODE-CH829-A              PIC X(1)
                                               VALUE SPACE.
               10  WK01-CODE-CH829-V              PIC X(1)
                                               VALUE SPACE.
               10  WK01-CODE-CH829-O              PIC X(1)
                                               VALUE SPACE.
               10  WK01-CODE-CH829       PIC X(1)
                                               VALUE SPACES.
               10  WK01-CODE-4001-CH829-Z              PIC X(1)
                                               VALUE SPACE.
               10  WK01-CODE-4001-CH829-F              PIC X(1)
                                               VALUE SPACE.
               10  WK01-CODE-4001-CH829-A              PIC X(1)
                                               VALUE SPACE.
               10  WK01-CODE-4001-CH829-V              PIC X(1)
                                               VALUE SPACE.
               10  WK01-CODE-4001-CH829-O              PIC X(1)
                                               VALUE SPACE.
               10  WK01-CODE-4001-CH829       PIC X(1)
                                               VALUE SPACES.
               10  WK01-CODE-4001-CH8A9-Z              PIC X(1)
                                               VALUE SPACE.
               10  WK01-CODE-4001-CH8A9-F              PIC X(1)
                                               VALUE SPACE.
               10  WK01-CODE-4001-CH8A9-A              PIC X(1)
                                               VALUE SPACE.
               10  WK01-CODE-4001-CH8A9-V              PIC X(1)
                                               VALUE SPACE.
               10  WK01-CODE-4001-CH8A9-O              PIC X(1)
                                               VALUE SPACE.
               10  WK01-CODE-4001-CH8A9       PIC X(6)
                                               VALUE SPACES.
               10  WK01-DESC-4005-CH829-Z              PIC X(1)
                                               VALUE SPACE.
               10  WK01-DESC-4005-CH829-F              PIC X(1)
                                               VALUE SPACE.
               10  WK01-DESC-4005-CH829-A              PIC X(1)
                                               VALUE SPACE.
               10  WK01-DESC-4005-CH829-V              PIC X(1)
                                               VALUE SPACE.
               10  WK01-DESC-4005-CH829-O              PIC X(1)
                                               VALUE SPACE.
               10  WK01-DESC-4005-CH829       PIC X(35)
                                               VALUE SPACES.
               10  WK01-4005-CH829-Z              PIC X(1)
                                               VALUE SPACE.
               10  WK01-4005-CH829-F              PIC X(1)
                                               VALUE SPACE.
               10  WK01-4005-CH829-A              PIC X(1)
                                               VALUE SPACE.
               10  WK01-4005-CH829-V              PIC X(1)
                                               VALUE SPACE.
               10  WK01-4005-CH829-O              PIC X(1)
                                               VALUE SPACE.
               10  WK01-4005-CH829       PIC X(1)
                                               VALUE SPACES.
               10  WK01-DATE-4005-CH829-Z              PIC X(1)
                                               VALUE SPACE.
               10  WK01-DATE-4005-CH829-F              PIC X(1)
                                               VALUE SPACE.
               10  WK01-DATE-4005-CH829-A              PIC X(1)
                                               VALUE SPACE.
               10  WK01-DATE-4005-CH829-V              PIC X(1)
                                               VALUE SPACE.
               10  WK01-DATE-4005-CH829-O              PIC X(1)
                                               VALUE SPACE.
               10  WK01-DATE-4005-CH829       PIC X(6)
                                               VALUE SPACES.
               10  WK01-DATE-4005-CH8A9-Z              PIC X(1)
                                               VALUE SPACE.
               10  WK01-DATE-4005-CH8A9-F              PIC X(1)
                                               VALUE SPACE.
               10  WK01-DATE-4005-CH8A9-A              PIC X(1)
                                               VALUE SPACE.
               10  WK01-DATE-4005-CH8A9-V              PIC X(1)
                                               VALUE SPACE.
               10  WK01-DATE-4005-CH8A9-O              PIC X(1)
                                               VALUE SPACE.
               10  WK01-DATE-4005-CH8A9       PIC X(6)
                                               VALUE SPACES.
               10  WK01-CODE-CH8210-Z              PIC X(1)
                                               VALUE SPACE.
               10  WK01-CODE-CH8210-F              PIC X(1)
                                               VALUE SPACE.
               10  WK01-CODE-CH8210-A              PIC X(1)
                                               VALUE SPACE.
               10  WK01-CODE-CH8210-V              PIC X(1)
                                               VALUE SPACE.
               10  WK01-CODE-CH8210-O              PIC X(1)
                                               VALUE SPACE.
               10  WK01-CODE-CH8210       PIC X(1)
                                               VALUE SPACES.
               10  WK01-CODE-4001-CH8210-Z              PIC X(1)
                                               VALUE SPACE.
               10  WK01-CODE-4001-CH8210-F              PIC X(1)
                                               VALUE SPACE.
               10  WK01-CODE-4001-CH8210-A              PIC X(1)
                                               VALUE SPACE.
               10  WK01-CODE-4001-CH8210-V              PIC X(1)
                                               VALUE SPACE.
               10  WK01-CODE-4001-CH8210-O              PIC X(1)
                                               VALUE SPACE.
               10  WK01-CODE-4001-CH8210       PIC X(1)
                                               VALUE SPACES.
               10  WK01-CODE-4001-CH8A10-Z              PIC X(1)
                                               VALUE SPACE.
               10  WK01-CODE-4001-CH8A10-F              PIC X(1)
                                               VALUE SPACE.
               10  WK01-CODE-4001-CH8A10-A              PIC X(1)
                                               VALUE SPACE.
               10  WK01-CODE-4001-CH8A10-V              PIC X(1)
                                               VALUE SPACE.
               10  WK01-CODE-4001-CH8A10-O              PIC X(1)
                                               VALUE SPACE.
               10  WK01-CODE-4001-CH8A10       PIC X(6)
                                               VALUE SPACES.
               10  WK01-DESC-4005-CH8210-Z              PIC X(1)
                                               VALUE SPACE.
               10  WK01-DESC-4005-CH8210-F              PIC X(1)
                                               VALUE SPACE.
               10  WK01-DESC-4005-CH8210-A              PIC X(1)
                                               VALUE SPACE.
               10  WK01-DESC-4005-CH8210-V              PIC X(1)
                                               VALUE SPACE.
               10  WK01-DESC-4005-CH8210-O              PIC X(1)
                                               VALUE SPACE.
               10  WK01-DESC-4005-CH8210       PIC X(35)
                                               VALUE SPACES.
               10  WK01-4005-CH8210-Z              PIC X(1)
                                               VALUE SPACE.
               10  WK01-4005-CH8210-F              PIC X(1)
                                               VALUE SPACE.
               10  WK01-4005-CH8210-A              PIC X(1)
                                               VALUE SPACE.
               10  WK01-4005-CH8210-V              PIC X(1)
                                               VALUE SPACE.
               10  WK01-4005-CH8210-O              PIC X(1)
                                               VALUE SPACE.
               10  WK01-4005-CH8210       PIC X(1)
                                               VALUE SPACES.
               10  WK01-DATE-4005-CH8210-Z              PIC X(1)
                                               VALUE SPACE.
               10  WK01-DATE-4005-CH8210-F              PIC X(1)
                                               VALUE SPACE.
               10  WK01-DATE-4005-CH8210-A              PIC X(1)
                                               VALUE SPACE.
               10  WK01-DATE-4005-CH8210-V              PIC X(1)
                                               VALUE SPACE.
               10  WK01-DATE-4005-CH8210-O              PIC X(1)
                                               VALUE SPACE.
               10  WK01-DATE-4005-CH8210       PIC X(6)
                                               VALUE SPACES.
               10  WK01-DATE-4005-CH8A10-Z              PIC X(1)
                                               VALUE SPACE.
               10  WK01-DATE-4005-CH8A10-F              PIC X(1)
                                               VALUE SPACE.
               10  WK01-DATE-4005-CH8A10-A              PIC X(1)
                                               VALUE SPACE.
               10  WK01-DATE-4005-CH8A10-V              PIC X(1)
                                               VALUE SPACE.
               10  WK01-DATE-4005-CH8A10-O              PIC X(1)
                                               VALUE SPACE.
               10  WK01-DATE-4005-CH8A10       PIC X(6)
                                               VALUE SPACES.
               10  WK01-CODE-CH8211-Z              PIC X(1)
                                               VALUE SPACE.
               10  WK01-CODE-CH8211-F              PIC X(1)
                                               VALUE SPACE.
               10  WK01-CODE-CH8211-A              PIC X(1)
                                               VALUE SPACE.
               10  WK01-CODE-CH8211-V              PIC X(1)
                                               VALUE SPACE.
               10  WK01-CODE-CH8211-O              PIC X(1)
                                               VALUE SPACE.
               10  WK01-CODE-CH8211       PIC X(1)
                                               VALUE SPACES.
               10  WK01-CODE-4001-CH8211-Z              PIC X(1)
                                               VALUE SPACE.
               10  WK01-CODE-4001-CH8211-F              PIC X(1)
                                               VALUE SPACE.
               10  WK01-CODE-4001-CH8211-A              PIC X(1)
                                               VALUE SPACE.
               10  WK01-CODE-4001-CH8211-V              PIC X(1)
                                               VALUE SPACE.
               10  WK01-CODE-4001-CH8211-O              PIC X(1)
                                               VALUE SPACE.
               10  WK01-CODE-4001-CH8211       PIC X(1)
                                               VALUE SPACES.
               10  WK01-CODE-4001-CH8A11-Z              PIC X(1)
                                               VALUE SPACE.
               10  WK01-CODE-4001-CH8A11-F              PIC X(1)
                                               VALUE SPACE.
               10  WK01-CODE-4001-CH8A11-A              PIC X(1)
                                               VALUE SPACE.
               10  WK01-CODE-4001-CH8A11-V              PIC X(1)
                                               VALUE SPACE.
               10  WK01-CODE-4001-CH8A11-O              PIC X(1)
                                               VALUE SPACE.
               10  WK01-CODE-4001-CH8A11       PIC X(6)
                                               VALUE SPACES.
               10  WK01-DESC-4005-CH8211-Z              PIC X(1)
                                               VALUE SPACE.
               10  WK01-DESC-4005-CH8211-F              PIC X(1)
                                               VALUE SPACE.
               10  WK01-DESC-4005-CH8211-A              PIC X(1)
                                               VALUE SPACE.
               10  WK01-DESC-4005-CH8211-V              PIC X(1)
                                               VALUE SPACE.
               10  WK01-DESC-4005-CH8211-O              PIC X(1)
                                               VALUE SPACE.
               10  WK01-DESC-4005-CH8211       PIC X(35)
                                               VALUE SPACES.
               10  WK01-4005-CH8211-Z              PIC X(1)
                                               VALUE SPACE.
               10  WK01-4005-CH8211-F              PIC X(1)
                                               VALUE SPACE.
               10  WK01-4005-CH8211-A              PIC X(1)
                                               VALUE SPACE.
               10  WK01-4005-CH8211-V              PIC X(1)
                                               VALUE SPACE.
               10  WK01-4005-CH8211-O              PIC X(1)
                                               VALUE SPACE.
               10  WK01-4005-CH8211       PIC X(1)
                                               VALUE SPACES.
               10  WK01-DATE-4005-CH8211-Z              PIC X(1)
                                               VALUE SPACE.
               10  WK01-DATE-4005-CH8211-F              PIC X(1)
                                               VALUE SPACE.
               10  WK01-DATE-4005-CH8211-A              PIC X(1)
                                               VALUE SPACE.
               10  WK01-DATE-4005-CH8211-V              PIC X(1)
                                               VALUE SPACE.
               10  WK01-DATE-4005-CH8211-O              PIC X(1)
                                               VALUE SPACE.
               10  WK01-DATE-4005-CH8211       PIC X(6)
                                               VALUE SPACES.
               10  WK01-DATE-4005-CH8A11-Z              PIC X(1)
                                               VALUE SPACE.
               10  WK01-DATE-4005-CH8A11-F              PIC X(1)
                                               VALUE SPACE.
               10  WK01-DATE-4005-CH8A11-A              PIC X(1)
                                               VALUE SPACE.
               10  WK01-DATE-4005-CH8A11-V              PIC X(1)
                                               VALUE SPACE.
               10  WK01-DATE-4005-CH8A11-O              PIC X(1)
                                               VALUE SPACE.
               10  WK01-DATE-4005-CH8A11       PIC X(6)
                                               VALUE SPACES.
               10  WK01-COA-CODE-CH82-Z              PIC X(1)
                                               VALUE SPACE.
               10  WK01-COA-CODE-CH82-F              PIC X(1)
                                               VALUE SPACE.
               10  WK01-COA-CODE-CH82-A              PIC X(1)
                                               VALUE SPACE.
               10  WK01-COA-CODE-CH82-V              PIC X(1)
                                               VALUE SPACE.
               10  WK01-COA-CODE-CH82-O              PIC X(1)
                                               VALUE SPACE.
               10  WK01-COA-CODE-CH82       PIC X(1)
                                               VALUE SPACES.
               10  WK01-FUND-CODE-CH82-Z              PIC X(1)
                                               VALUE SPACE.
               10  WK01-FUND-CODE-CH82-F              PIC X(1)
                                               VALUE SPACE.
               10  WK01-FUND-CODE-CH82-A              PIC X(1)
                                               VALUE SPACE.
               10  WK01-FUND-CODE-CH82-V              PIC X(1)
                                               VALUE SPACE.
               10  WK01-FUND-CODE-CH82-O              PIC X(1)
                                               VALUE SPACE.
               10  WK01-FUND-CODE-CH82       PIC X(6)
                                               VALUE SPACES.
               10  WK01-ZZMESSAGE-Z              PIC X(1)
                                               VALUE SPACE.
               10  WK01-ZZMESSAGE-F              PIC X(1)
                                               VALUE SPACE.
               10  WK01-ZZMESSAGE-A              PIC X(1)
                                               VALUE SPACE.
               10  WK01-ZZMESSAGE-V              PIC X(1)
                                               VALUE SPACE.
               10  WK01-ZZMESSAGE-O              PIC X(1)
                                               VALUE SPACE.
               10  WK01-ZZMESSAGE       PIC X(160)
                                               VALUE SPACES.
               10  WK01-PASSED-ONE-Z              PIC X(1)
                                               VALUE SPACE.
               10  WK01-PASSED-ONE-F              PIC X(1)
                                               VALUE SPACE.
               10  WK01-PASSED-ONE-A              PIC X(1)
                                               VALUE SPACE.
               10  WK01-PASSED-ONE-V              PIC X(1)
                                               VALUE SPACE.
               10  WK01-PASSED-ONE-O              PIC X(1)
                                               VALUE SPACE.
               10  WK01-PASSED-ONE       PIC X(32)
                                               VALUE SPACES.
               10  WK01-MAP-RESPONSE-Z              PIC X(1)
                                               VALUE SPACE.
               10  WK01-MAP-RESPONSE-F              PIC X(1)
                                               VALUE SPACE.
               10  WK01-MAP-RESPONSE-A              PIC X(1)
                                               VALUE SPACE.
               10  WK01-MAP-RESPONSE-V              PIC X(1)
                                               VALUE SPACE.
               10  WK01-MAP-RESPONSE-O              PIC X(1)
                                               VALUE SPACE.
               10  WK01-MAP-RESPONSE       PIC X(8)
                                               VALUE SPACES.
               10  WK01-TEXT-SY00-Z              PIC X(1)
                                               VALUE SPACE.
               10  WK01-TEXT-SY00-F              PIC X(1)
                                               VALUE SPACE.
               10  WK01-TEXT-SY00-A              PIC X(1)
                                               VALUE SPACE.
               10  WK01-TEXT-SY00-V              PIC X(1)
                                               VALUE SPACE.
               10  WK01-TEXT-SY00-O              PIC X(1)
                                               VALUE SPACE.
               10  WK01-TEXT-SY00       PIC X(14)
                                               VALUE SPACES.
           04  WK01-SUBSCRIPTED-WORK-AREA.
               05  FILLER                      PIC X(1).
               05  WK01-CODE-CH82-F             PIC X(1)
                                               OCCURS 11.
               05  WK01-CODE-4001-CH82-F             PIC X(1)
                                               OCCURS 11.
               05  WK01-CODE-4001-CH8A-F             PIC X(1)
                                               OCCURS 11.
               05  WK01-DESC-4005-CH82-F             PIC X(1)
                                               OCCURS 11.
               05  WK01-4005-CH82-F             PIC X(1)
                                               OCCURS 11.
               05  WK01-DATE-4005-CH82-F             PIC X(1)
                                               OCCURS 11.
               05  WK01-DATE-4005-CH8A-F             PIC X(1)
                                               OCCURS 11.
