       01  MAP-CONTROL.

    ***Created by Convert/DC version V8R03 on 11/20/00 at 08:00***

           02  FCHMU40-MAP-CONTROL.
           03  FCHMU40T.
           04  WK01-DCXMAPL-PARMS.
               10  WK01-MAPNAME                  PIC X(8)
                                                 VALUE 'FCHMU40I'.
               10  WK01-IKE-LENGTH               PIC S9(8)  COMP
                                                 VALUE 17861.
               10  WK01-TINA-LENGTH              PIC S9(4)  COMP
                                                 VALUE 1141.
           05  WK01-ATTRIBUTES                   PIC X(60)
                                                 VALUE SPACE.
           05  WK01-ATTRIBUTES-ERROR             PIC X(60) VALUE
               'U  BIF'.
           05  WK01-CURSOR-DFLD                  PIC X(36)
                                                 VALUE SPACES.
           05  WK01-CURSOR-DFLD-QUAL             PIC X(30)
                                                 VALUE SPACES.
           05  WK01-ROW                          PIC S9(4) COMP
                                                 VALUE ZERO.
           05  WK01-COLUMN                       PIC S9(4) COMP
                                                 VALUE ZERO.
           05  WK01-ERROR-MSG                    PIC X(80)
                                                 VALUE SPACES.
           05  WK01-MAP-DATA-LEN                 PIC S9(6)
                                                 VALUE ZERO.
           05  WK01-1ST-FLAG                     PIC X(1)
                                                 VALUE 'Y'.
           05  WK01-FLAG-OUTPUT-DATA             PIC X(1)
                                                 VALUE 'Y'.
      *    05  WK01-STATUS-RETURN-FLAG           PIC X(1)
      *                                          VALUE SPACES.
           05  WK01-ALL-BUT-FLAG                 PIC X(1)
                                                 VALUE SPACES.
           05  WK01-FLAG-ALL-FIELDS-CHANGED      PIC X(1)  VALUE 'Y'.
           05  WK01-FLAG-ANY-FIELDS-CHANGED      PIC X(1)  VALUE 'N'.
           05  WK01-FLAG-ALL-FIELDS-ERROR        PIC X(1)  VALUE 'Y'.
           05  WK01-FLAG-ANY-FIELDS-ERROR        PIC X(1)  VALUE 'N'.
           05  WK01-FLAG-ALL-FIELDS-ERASE        PIC X(1)  VALUE 'Y'.
           05  WK01-FLAG-ANY-FIELDS-ERASE        PIC X(1)  VALUE 'Y'.

           05  WK01-VARDATA                      PIC X(11880)
                                                 VALUE SPACES.
           05  FILLER                            PIC X(100)
                                                 VALUE SPACES.
           04  WK01-ELEMENT-AREA.

               10  WK01-ID-SY00-Z              PIC X(1)
                                               VALUE SPACE.
               10  WK01-ID-SY00-F              PIC X(1)
                                               VALUE SPACE.
               10  WK01-ID-SY00-A              PIC X(1)
                                               VALUE SPACE.
               10  WK01-ID-SY00-V              PIC X(1)
                                               VALUE SPACE.
               10  WK01-ID-SY00-O              PIC X(1)
                                               VALUE SPACE.
               10  WK01-ID-SY00       PIC X(8)
                                               VALUE SPACES.
               10  WK01-NAME-6001-SY00-Z              PIC X(1)
                                               VALUE SPACE.
               10  WK01-NAME-6001-SY00-F              PIC X(1)
                                               VALUE SPACE.
               10  WK01-NAME-6001-SY00-A              PIC X(1)
                                               VALUE SPACE.
               10  WK01-NAME-6001-SY00-V              PIC X(1)
                                               VALUE SPACE.
               10  WK01-NAME-6001-SY00-O              PIC X(1)
                                               VALUE SPACE.
               10  WK01-NAME-6001-SY00       PIC X(35)
                                               VALUE SPACES.
               10  WK01-DATE-Z              PIC X(1)
                                               VALUE SPACE.
               10  WK01-DATE-F              PIC X(1)
                                               VALUE SPACE.
               10  WK01-DATE-A              PIC X(1)
                                               VALUE SPACE.
               10  WK01-DATE-V              PIC X(1)
                                               VALUE SPACE.
               10  WK01-DATE-O              PIC X(1)
                                               VALUE SPACE.
               10  WK01-DATE       PIC X(8)
                                               VALUE SPACES.
               10  WK01-HH-MM-TIME-SY00-Z              PIC X(1)
                                               VALUE SPACE.
               10  WK01-HH-MM-TIME-SY00-F              PIC X(1)
                                               VALUE SPACE.
               10  WK01-HH-MM-TIME-SY00-A              PIC X(1)
                                               VALUE SPACE.
               10  WK01-HH-MM-TIME-SY00-V              PIC X(1)
                                               VALUE SPACE.
               10  WK01-HH-MM-TIME-SY00-O              PIC X(1)
                                               VALUE SPACE.
               10  WK01-HH-MM-TIME-SY00       PIC X(4)
                                               VALUE SPACES.
               10  WK01-PM-FLAG-SY00-Z              PIC X(1)
                                               VALUE SPACE.
               10  WK01-PM-FLAG-SY00-F              PIC X(1)
                                               VALUE SPACE.
               10  WK01-PM-FLAG-SY00-A              PIC X(1)
                                               VALUE SPACE.
               10  WK01-PM-FLAG-SY00-V              PIC X(1)
                                               VALUE SPACE.
               10  WK01-PM-FLAG-SY00-O              PIC X(1)
                                               VALUE SPACE.
               10  WK01-PM-FLAG-SY00       PIC X(1)
                                               VALUE SPACES.
               10  WK01-USER-ID-Z              PIC X(1)
                                               VALUE SPACE.
               10  WK01-USER-ID-F              PIC X(1)
                                               VALUE SPACE.
               10  WK01-USER-ID-A              PIC X(1)
                                               VALUE SPACE.
               10  WK01-USER-ID-V              PIC X(1)
                                               VALUE SPACE.
               10  WK01-USER-ID-O              PIC X(1)
                                               VALUE SPACE.
               10  WK01-USER-ID       PIC X(32)
                                               VALUE SPACES.
               10  WK01-RSPNS-ID-SY00-Z              PIC X(1)
                                               VALUE SPACE.
               10  WK01-RSPNS-ID-SY00-F              PIC X(1)
                                               VALUE SPACE.
               10  WK01-RSPNS-ID-SY00-A              PIC X(1)
                                               VALUE SPACE.
               10  WK01-RSPNS-ID-SY00-V              PIC X(1)
                                               VALUE SPACE.
               10  WK01-RSPNS-ID-SY00-O              PIC X(1)
                                               VALUE SPACE.
               10  WK01-RSPNS-ID-SY00       PIC X(8)
                                               VALUE SPACES.
               10  WK01-FUNC-DESCRIPTION-Z              PIC X(1)
                                               VALUE SPACE.
               10  WK01-FUNC-DESCRIPTION-F              PIC X(1)
                                               VALUE SPACE.
               10  WK01-FUNC-DESCRIPTION-A              PIC X(1)
                                               VALUE SPACE.
               10  WK01-FUNC-DESCRIPTION-V              PIC X(1)
                                               VALUE SPACE.
               10  WK01-FUNC-DESCRIPTION-O              PIC X(1)
                                               VALUE SPACE.
               10  WK01-FUNC-DESCRIPTION       PIC X(28)
                                               VALUE SPACES.
               10  WK01-STATUS-CODE-SY00-Z              PIC X(1)
                                               VALUE SPACE.
               10  WK01-STATUS-CODE-SY00-F              PIC X(1)
                                               VALUE SPACE.
               10  WK01-STATUS-CODE-SY00-A              PIC X(1)
                                               VALUE SPACE.
               10  WK01-STATUS-CODE-SY00-V              PIC X(1)
                                               VALUE SPACE.
               10  WK01-STATUS-CODE-SY00-O              PIC X(1)
                                               VALUE SPACE.
               10  WK01-STATUS-CODE-SY00       PIC X(1)
                                               VALUE SPACES.
               10  WK01-ID-CH40-Z              PIC X(1)
                                               VALUE SPACE.
               10  WK01-ID-CH40-F              PIC X(1)
                                               VALUE SPACE.
               10  WK01-ID-CH40-A              PIC X(1)
                                               VALUE SPACE.
               10  WK01-ID-CH40-V              PIC X(1)
                                               VALUE SPACE.
               10  WK01-ID-CH40-O              PIC X(1)
                                               VALUE SPACE.
               10  WK01-ID-CH40       PIC X(8)
                                               VALUE SPACES.
               10  WK01-ORGZN-TYPE-CODE-CH40-Z              PIC X(1)
                                               VALUE SPACE.
               10  WK01-ORGZN-TYPE-CODE-CH40-F              PIC X(1)
                                               VALUE SPACE.
               10  WK01-ORGZN-TYPE-CODE-CH40-A              PIC X(1)
                                               VALUE SPACE.
               10  WK01-ORGZN-TYPE-CODE-CH40-V              PIC X(1)
                                               VALUE SPACE.
               10  WK01-ORGZN-TYPE-CODE-CH40-O              PIC X(1)
                                               VALUE SPACE.
               10  WK01-ORGZN-TYPE-CODE-CH40       PIC X(2)
                                               VALUE SPACES.
               10  WK01-CODE-CH401-Z              PIC X(1)
                                               VALUE SPACE.
               10  WK01-CODE-CH401-F              PIC X(1)
                                               VALUE SPACE.
               10  WK01-CODE-CH401-A              PIC X(1)
                                               VALUE SPACE.
               10  WK01-CODE-CH401-V              PIC X(1)
                                               VALUE SPACE.
               10  WK01-CODE-CH401-O              PIC X(1)
                                               VALUE SPACE.
               10  WK01-CODE-CH401       PIC X(1)
                                               VALUE SPACES.
               10  WK01-CODE-CH4A1-Z              PIC X(1)
                                               VALUE SPACE.
               10  WK01-CODE-CH4A1-F              PIC X(1)
                                               VALUE SPACE.
               10  WK01-CODE-CH4A1-A              PIC X(1)
                                               VALUE SPACE.
               10  WK01-CODE-CH4A1-V              PIC X(1)
                                               VALUE SPACE.
               10  WK01-CODE-CH4A1-O              PIC X(1)
                                               VALUE SPACE.
               10  WK01-CODE-CH4A1       PIC X(1)
                                               VALUE SPACES.
               10  WK01-CODE-CH4B1-Z              PIC X(1)
                                               VALUE SPACE.
               10  WK01-CODE-CH4B1-F              PIC X(1)
                                               VALUE SPACE.
               10  WK01-CODE-CH4B1-A              PIC X(1)
                                               VALUE SPACE.
               10  WK01-CODE-CH4B1-V              PIC X(1)
                                               VALUE SPACE.
               10  WK01-CODE-CH4B1-O              PIC X(1)
                                               VALUE SPACE.
               10  WK01-CODE-CH4B1       PIC X(6)
                                               VALUE SPACES.
               10  WK01-TITLE-CH401-Z              PIC X(1)
                                               VALUE SPACE.
               10  WK01-TITLE-CH401-F              PIC X(1)
                                               VALUE SPACE.
               10  WK01-TITLE-CH401-A              PIC X(1)
                                               VALUE SPACE.
               10  WK01-TITLE-CH401-V              PIC X(1)
                                               VALUE SPACE.
               10  WK01-TITLE-CH401-O              PIC X(1)
                                               VALUE SPACE.
               10  WK01-TITLE-CH401       PIC X(35)
                                               VALUE SPACES.
               10  WK01-TYPE-CODE-CH401-Z              PIC X(1)
                                               VALUE SPACE.
               10  WK01-TYPE-CODE-CH401-F              PIC X(1)
                                               VALUE SPACE.
               10  WK01-TYPE-CODE-CH401-A              PIC X(1)
                                               VALUE SPACE.
               10  WK01-TYPE-CODE-CH401-V              PIC X(1)
                                               VALUE SPACE.
               10  WK01-TYPE-CODE-CH401-O              PIC X(1)
                                               VALUE SPACE.
               10  WK01-TYPE-CODE-CH401       PIC X(2)
                                               VALUE SPACES.
               10  WK01-CODE-CH402-Z              PIC X(1)
                                               VALUE SPACE.
               10  WK01-CODE-CH402-F              PIC X(1)
                                               VALUE SPACE.
               10  WK01-CODE-CH402-A              PIC X(1)
                                               VALUE SPACE.
               10  WK01-CODE-CH402-V              PIC X(1)
                                               VALUE SPACE.
               10  WK01-CODE-CH402-O              PIC X(1)
                                               VALUE SPACE.
               10  WK01-CODE-CH402       PIC X(1)
                                               VALUE SPACES.
               10  WK01-CODE-CH4A2-Z              PIC X(1)
                                               VALUE SPACE.
               10  WK01-CODE-CH4A2-F              PIC X(1)
                                               VALUE SPACE.
               10  WK01-CODE-CH4A2-A              PIC X(1)
                                               VALUE SPACE.
               10  WK01-CODE-CH4A2-V              PIC X(1)
                                               VALUE SPACE.
               10  WK01-CODE-CH4A2-O              PIC X(1)
                                               VALUE SPACE.
               10  WK01-CODE-CH4A2       PIC X(1)
                                               VALUE SPACES.
               10  WK01-CODE-CH4B2-Z              PIC X(1)
                                               VALUE SPACE.
               10  WK01-CODE-CH4B2-F              PIC X(1)
                                               VALUE SPACE.
               10  WK01-CODE-CH4B2-A              PIC X(1)
                                               VALUE SPACE.
               10  WK01-CODE-CH4B2-V              PIC X(1)
                                               VALUE SPACE.
               10  WK01-CODE-CH4B2-O              PIC X(1)
                                               VALUE SPACE.
               10  WK01-CODE-CH4B2       PIC X(6)
                                               VALUE SPACES.
               10  WK01-TITLE-CH402-Z              PIC X(1)
                                               VALUE SPACE.
               10  WK01-TITLE-CH402-F              PIC X(1)
                                               VALUE SPACE.
               10  WK01-TITLE-CH402-A              PIC X(1)
                                               VALUE SPACE.
               10  WK01-TITLE-CH402-V              PIC X(1)
                                               VALUE SPACE.
               10  WK01-TITLE-CH402-O              PIC X(1)
                                               VALUE SPACE.
               10  WK01-TITLE-CH402       PIC X(35)
                                               VALUE SPACES.
               10  WK01-TYPE-CODE-CH402-Z              PIC X(1)
                                               VALUE SPACE.
               10  WK01-TYPE-CODE-CH402-F              PIC X(1)
                                               VALUE SPACE.
               10  WK01-TYPE-CODE-CH402-A              PIC X(1)
                                               VALUE SPACE.
               10  WK01-TYPE-CODE-CH402-V              PIC X(1)
                                               VALUE SPACE.
               10  WK01-TYPE-CODE-CH402-O              PIC X(1)
                                               VALUE SPACE.
               10  WK01-TYPE-CODE-CH402       PIC X(2)
                                               VALUE SPACES.
               10  WK01-CODE-CH403-Z              PIC X(1)
                                               VALUE SPACE.
               10  WK01-CODE-CH403-F              PIC X(1)
                                               VALUE SPACE.
               10  WK01-CODE-CH403-A              PIC X(1)
                                               VALUE SPACE.
               10  WK01-CODE-CH403-V              PIC X(1)
                                               VALUE SPACE.
               10  WK01-CODE-CH403-O              PIC X(1)
                                               VALUE SPACE.
               10  WK01-CODE-CH403       PIC X(1)
                                               VALUE SPACES.
               10  WK01-CODE-CH4A3-Z              PIC X(1)
                                               VALUE SPACE.
               10  WK01-CODE-CH4A3-F              PIC X(1)
                                               VALUE SPACE.
               10  WK01-CODE-CH4A3-A              PIC X(1)
                                               VALUE SPACE.
               10  WK01-CODE-CH4A3-V              PIC X(1)
                                               VALUE SPACE.
               10  WK01-CODE-CH4A3-O              PIC X(1)
                                               VALUE SPACE.
               10  WK01-CODE-CH4A3       PIC X(1)
                                               VALUE SPACES.
               10  WK01-CODE-CH4B3-Z              PIC X(1)
                                               VALUE SPACE.
               10  WK01-CODE-CH4B3-F              PIC X(1)
                                               VALUE SPACE.
               10  WK01-CODE-CH4B3-A              PIC X(1)
                                               VALUE SPACE.
               10  WK01-CODE-CH4B3-V              PIC X(1)
                                               VALUE SPACE.
               10  WK01-CODE-CH4B3-O              PIC X(1)
                                               VALUE SPACE.
               10  WK01-CODE-CH4B3       PIC X(6)
                                               VALUE SPACES.
               10  WK01-TITLE-CH403-Z              PIC X(1)
                                               VALUE SPACE.
               10  WK01-TITLE-CH403-F              PIC X(1)
                                               VALUE SPACE.
               10  WK01-TITLE-CH403-A              PIC X(1)
                                               VALUE SPACE.
               10  WK01-TITLE-CH403-V              PIC X(1)
                                               VALUE SPACE.
               10  WK01-TITLE-CH403-O              PIC X(1)
                                               VALUE SPACE.
               10  WK01-TITLE-CH403       PIC X(35)
                                               VALUE SPACES.
               10  WK01-TYPE-CODE-CH403-Z              PIC X(1)
                                               VALUE SPACE.
               10  WK01-TYPE-CODE-CH403-F              PIC X(1)
                                               VALUE SPACE.
               10  WK01-TYPE-CODE-CH403-A              PIC X(1)
                                               VALUE SPACE.
               10  WK01-TYPE-CODE-CH403-V              PIC X(1)
                                               VALUE SPACE.
               10  WK01-TYPE-CODE-CH403-O              PIC X(1)
                                               VALUE SPACE.
               10  WK01-TYPE-CODE-CH403       PIC X(2)
                                               VALUE SPACES.
               10  WK01-CODE-CH404-Z              PIC X(1)
                                               VALUE SPACE.
               10  WK01-CODE-CH404-F              PIC X(1)
                                               VALUE SPACE.
               10  WK01-CODE-CH404-A              PIC X(1)
                                               VALUE SPACE.
               10  WK01-CODE-CH404-V              PIC X(1)
                                               VALUE SPACE.
               10  WK01-CODE-CH404-O              PIC X(1)
                                               VALUE SPACE.
               10  WK01-CODE-CH404       PIC X(1)
                                               VALUE SPACES.
               10  WK01-CODE-CH4A4-Z              PIC X(1)
                                               VALUE SPACE.
               10  WK01-CODE-CH4A4-F              PIC X(1)
                                               VALUE SPACE.
               10  WK01-CODE-CH4A4-A              PIC X(1)
                                               VALUE SPACE.
               10  WK01-CODE-CH4A4-V              PIC X(1)
                                               VALUE SPACE.
               10  WK01-CODE-CH4A4-O              PIC X(1)
                                               VALUE SPACE.
               10  WK01-CODE-CH4A4       PIC X(1)
                                               VALUE SPACES.
               10  WK01-CODE-CH4B4-Z              PIC X(1)
                                               VALUE SPACE.
               10  WK01-CODE-CH4B4-F              PIC X(1)
                                               VALUE SPACE.
               10  WK01-CODE-CH4B4-A              PIC X(1)
                                               VALUE SPACE.
               10  WK01-CODE-CH4B4-V              PIC X(1)
                                               VALUE SPACE.
               10  WK01-CODE-CH4B4-O              PIC X(1)
                                               VALUE SPACE.
               10  WK01-CODE-CH4B4       PIC X(6)
                                               VALUE SPACES.
               10  WK01-TITLE-CH404-Z              PIC X(1)
                                               VALUE SPACE.
               10  WK01-TITLE-CH404-F              PIC X(1)
                                               VALUE SPACE.
               10  WK01-TITLE-CH404-A              PIC X(1)
                                               VALUE SPACE.
               10  WK01-TITLE-CH404-V              PIC X(1)
                                               VALUE SPACE.
               10  WK01-TITLE-CH404-O              PIC X(1)
                                               VALUE SPACE.
               10  WK01-TITLE-CH404       PIC X(35)
                                               VALUE SPACES.
               10  WK01-TYPE-CODE-CH404-Z              PIC X(1)
                                               VALUE SPACE.
               10  WK01-TYPE-CODE-CH404-F              PIC X(1)
                                               VALUE SPACE.
               10  WK01-TYPE-CODE-CH404-A              PIC X(1)
                                               VALUE SPACE.
               10  WK01-TYPE-CODE-CH404-V              PIC X(1)
                                               VALUE SPACE.
               10  WK01-TYPE-CODE-CH404-O              PIC X(1)
                                               VALUE SPACE.
               10  WK01-TYPE-CODE-CH404       PIC X(2)
                                               VALUE SPACES.
               10  WK01-CODE-CH405-Z              PIC X(1)
                                               VALUE SPACE.
               10  WK01-CODE-CH405-F              PIC X(1)
                                               VALUE SPACE.
               10  WK01-CODE-CH405-A              PIC X(1)
                                               VALUE SPACE.
               10  WK01-CODE-CH405-V              PIC X(1)
                                               VALUE SPACE.
               10  WK01-CODE-CH405-O              PIC X(1)
                                               VALUE SPACE.
               10  WK01-CODE-CH405       PIC X(1)
                                               VALUE SPACES.
               10  WK01-CODE-CH4A5-Z              PIC X(1)
                                               VALUE SPACE.
               10  WK01-CODE-CH4A5-F              PIC X(1)
                                               VALUE SPACE.
               10  WK01-CODE-CH4A5-A              PIC X(1)
                                               VALUE SPACE.
               10  WK01-CODE-CH4A5-V              PIC X(1)
                                               VALUE SPACE.
               10  WK01-CODE-CH4A5-O              PIC X(1)
                                               VALUE SPACE.
               10  WK01-CODE-CH4A5       PIC X(1)
                                               VALUE SPACES.
               10  WK01-CODE-CH4B5-Z              PIC X(1)
                                               VALUE SPACE.
               10  WK01-CODE-CH4B5-F              PIC X(1)
                                               VALUE SPACE.
               10  WK01-CODE-CH4B5-A              PIC X(1)
                                               VALUE SPACE.
               10  WK01-CODE-CH4B5-V              PIC X(1)
                                               VALUE SPACE.
               10  WK01-CODE-CH4B5-O              PIC X(1)
                                               VALUE SPACE.
               10  WK01-CODE-CH4B5       PIC X(6)
                                               VALUE SPACES.
               10  WK01-TITLE-CH405-Z              PIC X(1)
                                               VALUE SPACE.
               10  WK01-TITLE-CH405-F              PIC X(1)
                                               VALUE SPACE.
               10  WK01-TITLE-CH405-A              PIC X(1)
                                               VALUE SPACE.
               10  WK01-TITLE-CH405-V              PIC X(1)
                                               VALUE SPACE.
               10  WK01-TITLE-CH405-O              PIC X(1)
                                               VALUE SPACE.
               10  WK01-TITLE-CH405       PIC X(35)
                                               VALUE SPACES.
               10  WK01-TYPE-CODE-CH405-Z              PIC X(1)
                                               VALUE SPACE.
               10  WK01-TYPE-CODE-CH405-F              PIC X(1)
                                               VALUE SPACE.
               10  WK01-TYPE-CODE-CH405-A              PIC X(1)
                                               VALUE SPACE.
               10  WK01-TYPE-CODE-CH405-V              PIC X(1)
                                               VALUE SPACE.
               10  WK01-TYPE-CODE-CH405-O              PIC X(1)
                                               VALUE SPACE.
               10  WK01-TYPE-CODE-CH405       PIC X(2)
                                               VALUE SPACES.
               10  WK01-CODE-CH406-Z              PIC X(1)
                                               VALUE SPACE.
               10  WK01-CODE-CH406-F              PIC X(1)
                                               VALUE SPACE.
               10  WK01-CODE-CH406-A              PIC X(1)
                                               VALUE SPACE.
               10  WK01-CODE-CH406-V              PIC X(1)
                                               VALUE SPACE.
               10  WK01-CODE-CH406-O              PIC X(1)
                                               VALUE SPACE.
               10  WK01-CODE-CH406       PIC X(1)
                                               VALUE SPACES.
               10  WK01-CODE-CH4A6-Z              PIC X(1)
                                               VALUE SPACE.
               10  WK01-CODE-CH4A6-F              PIC X(1)
                                               VALUE SPACE.
               10  WK01-CODE-CH4A6-A              PIC X(1)
                                               VALUE SPACE.
               10  WK01-CODE-CH4A6-V              PIC X(1)
                                               VALUE SPACE.
               10  WK01-CODE-CH4A6-O              PIC X(1)
                                               VALUE SPACE.
               10  WK01-CODE-CH4A6       PIC X(1)
                                               VALUE SPACES.
               10  WK01-CODE-CH4B6-Z              PIC X(1)
                                               VALUE SPACE.
               10  WK01-CODE-CH4B6-F              PIC X(1)
                                               VALUE SPACE.
               10  WK01-CODE-CH4B6-A              PIC X(1)
                                               VALUE SPACE.
               10  WK01-CODE-CH4B6-V              PIC X(1)
                                               VALUE SPACE.
               10  WK01-CODE-CH4B6-O              PIC X(1)
                                               VALUE SPACE.
               10  WK01-CODE-CH4B6       PIC X(6)
                                               VALUE SPACES.
               10  WK01-TITLE-CH406-Z              PIC X(1)
                                               VALUE SPACE.
               10  WK01-TITLE-CH406-F              PIC X(1)
                                               VALUE SPACE.
               10  WK01-TITLE-CH406-A              PIC X(1)
                                               VALUE SPACE.
               10  WK01-TITLE-CH406-V              PIC X(1)
                                               VALUE SPACE.
               10  WK01-TITLE-CH406-O              PIC X(1)
                                               VALUE SPACE.
               10  WK01-TITLE-CH406       PIC X(35)
                                               VALUE SPACES.
               10  WK01-TYPE-CODE-CH406-Z              PIC X(1)
                                               VALUE SPACE.
               10  WK01-TYPE-CODE-CH406-F              PIC X(1)
                                               VALUE SPACE.
               10  WK01-TYPE-CODE-CH406-A              PIC X(1)
                                               VALUE SPACE.
               10  WK01-TYPE-CODE-CH406-V              PIC X(1)
                                               VALUE SPACE.
               10  WK01-TYPE-CODE-CH406-O              PIC X(1)
                                               VALUE SPACE.
               10  WK01-TYPE-CODE-CH406       PIC X(2)
                                               VALUE SPACES.
               10  WK01-CODE-CH407-Z              PIC X(1)
                                               VALUE SPACE.
               10  WK01-CODE-CH407-F              PIC X(1)
                                               VALUE SPACE.
               10  WK01-CODE-CH407-A              PIC X(1)
                                               VALUE SPACE.
               10  WK01-CODE-CH407-V              PIC X(1)
                                               VALUE SPACE.
               10  WK01-CODE-CH407-O              PIC X(1)
                                               VALUE SPACE.
               10  WK01-CODE-CH407       PIC X(1)
                                               VALUE SPACES.
               10  WK01-CODE-CH4A7-Z              PIC X(1)
                                               VALUE SPACE.
               10  WK01-CODE-CH4A7-F              PIC X(1)
                                               VALUE SPACE.
               10  WK01-CODE-CH4A7-A              PIC X(1)
                                               VALUE SPACE.
               10  WK01-CODE-CH4A7-V              PIC X(1)
                                               VALUE SPACE.
               10  WK01-CODE-CH4A7-O              PIC X(1)
                                               VALUE SPACE.
               10  WK01-CODE-CH4A7       PIC X(1)
                                               VALUE SPACES.
               10  WK01-CODE-CH4B7-Z              PIC X(1)
                                               VALUE SPACE.
               10  WK01-CODE-CH4B7-F              PIC X(1)
                                               VALUE SPACE.
               10  WK01-CODE-CH4B7-A              PIC X(1)
                                               VALUE SPACE.
               10  WK01-CODE-CH4B7-V              PIC X(1)
                                               VALUE SPACE.
               10  WK01-CODE-CH4B7-O              PIC X(1)
                                               VALUE SPACE.
               10  WK01-CODE-CH4B7       PIC X(6)
                                               VALUE SPACES.
               10  WK01-TITLE-CH407-Z              PIC X(1)
                                               VALUE SPACE.
               10  WK01-TITLE-CH407-F              PIC X(1)
                                               VALUE SPACE.
               10  WK01-TITLE-CH407-A              PIC X(1)
                                               VALUE SPACE.
               10  WK01-TITLE-CH407-V              PIC X(1)
                                               VALUE SPACE.
               10  WK01-TITLE-CH407-O              PIC X(1)
                                               VALUE SPACE.
               10  WK01-TITLE-CH407       PIC X(35)
                                               VALUE SPACES.
               10  WK01-TYPE-CODE-CH407-Z              PIC X(1)
                                               VALUE SPACE.
               10  WK01-TYPE-CODE-CH407-F              PIC X(1)
                                               VALUE SPACE.
               10  WK01-TYPE-CODE-CH407-A              PIC X(1)
                                               VALUE SPACE.
               10  WK01-TYPE-CODE-CH407-V              PIC X(1)
                                               VALUE SPACE.
               10  WK01-TYPE-CODE-CH407-O              PIC X(1)
                                               VALUE SPACE.
               10  WK01-TYPE-CODE-CH407       PIC X(2)
                                               VALUE SPACES.
               10  WK01-CODE-CH408-Z              PIC X(1)
                                               VALUE SPACE.
               10  WK01-CODE-CH408-F              PIC X(1)
                                               VALUE SPACE.
               10  WK01-CODE-CH408-A              PIC X(1)
                                               VALUE SPACE.
               10  WK01-CODE-CH408-V              PIC X(1)
                                               VALUE SPACE.
               10  WK01-CODE-CH408-O              PIC X(1)
                                               VALUE SPACE.
               10  WK01-CODE-CH408       PIC X(1)
                                               VALUE SPACES.
               10  WK01-CODE-CH4A8-Z              PIC X(1)
                                               VALUE SPACE.
               10  WK01-CODE-CH4A8-F              PIC X(1)
                                               VALUE SPACE.
               10  WK01-CODE-CH4A8-A              PIC X(1)
                                               VALUE SPACE.
               10  WK01-CODE-CH4A8-V              PIC X(1)
                                               VALUE SPACE.
               10  WK01-CODE-CH4A8-O              PIC X(1)
                                               VALUE SPACE.
               10  WK01-CODE-CH4A8       PIC X(1)
                                               VALUE SPACES.
               10  WK01-CODE-CH4B8-Z              PIC X(1)
                                               VALUE SPACE.
               10  WK01-CODE-CH4B8-F              PIC X(1)
                                               VALUE SPACE.
               10  WK01-CODE-CH4B8-A              PIC X(1)
                                               VALUE SPACE.
               10  WK01-CODE-CH4B8-V              PIC X(1)
                                               VALUE SPACE.
               10  WK01-CODE-CH4B8-O              PIC X(1)
                                               VALUE SPACE.
               10  WK01-CODE-CH4B8       PIC X(6)
                                               VALUE SPACES.
               10  WK01-TITLE-CH408-Z              PIC X(1)
                                               VALUE SPACE.
               10  WK01-TITLE-CH408-F              PIC X(1)
                                               VALUE SPACE.
               10  WK01-TITLE-CH408-A              PIC X(1)
                                               VALUE SPACE.
               10  WK01-TITLE-CH408-V              PIC X(1)
                                               VALUE SPACE.
               10  WK01-TITLE-CH408-O              PIC X(1)
                                               VALUE SPACE.
               10  WK01-TITLE-CH408       PIC X(35)
                                               VALUE SPACES.
               10  WK01-TYPE-CODE-CH408-Z              PIC X(1)
                                               VALUE SPACE.
               10  WK01-TYPE-CODE-CH408-F              PIC X(1)
                                               VALUE SPACE.
               10  WK01-TYPE-CODE-CH408-A              PIC X(1)
                                               VALUE SPACE.
               10  WK01-TYPE-CODE-CH408-V              PIC X(1)
                                               VALUE SPACE.
               10  WK01-TYPE-CODE-CH408-O              PIC X(1)
                                               VALUE SPACE.
               10  WK01-TYPE-CODE-CH408       PIC X(2)
                                               VALUE SPACES.
               10  WK01-CODE-CH409-Z              PIC X(1)
                                               VALUE SPACE.
               10  WK01-CODE-CH409-F              PIC X(1)
                                               VALUE SPACE.
               10  WK01-CODE-CH409-A              PIC X(1)
                                               VALUE SPACE.
               10  WK01-CODE-CH409-V              PIC X(1)
                                               VALUE SPACE.
               10  WK01-CODE-CH409-O              PIC X(1)
                                               VALUE SPACE.
               10  WK01-CODE-CH409       PIC X(1)
                                               VALUE SPACES.
               10  WK01-CODE-CH4A9-Z              PIC X(1)
                                               VALUE SPACE.
               10  WK01-CODE-CH4A9-F              PIC X(1)
                                               VALUE SPACE.
               10  WK01-CODE-CH4A9-A              PIC X(1)
                                               VALUE SPACE.
               10  WK01-CODE-CH4A9-V              PIC X(1)
                                               VALUE SPACE.
               10  WK01-CODE-CH4A9-O              PIC X(1)
                                               VALUE SPACE.
               10  WK01-CODE-CH4A9       PIC X(1)
                                               VALUE SPACES.
               10  WK01-CODE-CH4B9-Z              PIC X(1)
                                               VALUE SPACE.
               10  WK01-CODE-CH4B9-F              PIC X(1)
                                               VALUE SPACE.
               10  WK01-CODE-CH4B9-A              PIC X(1)
                                               VALUE SPACE.
               10  WK01-CODE-CH4B9-V              PIC X(1)
                                               VALUE SPACE.
               10  WK01-CODE-CH4B9-O              PIC X(1)
                                               VALUE SPACE.
               10  WK01-CODE-CH4B9       PIC X(6)
                                               VALUE SPACES.
               10  WK01-TITLE-CH409-Z              PIC X(1)
                                               VALUE SPACE.
               10  WK01-TITLE-CH409-F              PIC X(1)
                                               VALUE SPACE.
               10  WK01-TITLE-CH409-A              PIC X(1)
                                               VALUE SPACE.
               10  WK01-TITLE-CH409-V              PIC X(1)
                                               VALUE SPACE.
               10  WK01-TITLE-CH409-O              PIC X(1)
                                               VALUE SPACE.
               10  WK01-TITLE-CH409       PIC X(35)
                                               VALUE SPACES.
               10  WK01-TYPE-CODE-CH409-Z              PIC X(1)
                                               VALUE SPACE.
               10  WK01-TYPE-CODE-CH409-F              PIC X(1)
                                               VALUE SPACE.
               10  WK01-TYPE-CODE-CH409-A              PIC X(1)
                                               VALUE SPACE.
               10  WK01-TYPE-CODE-CH409-V              PIC X(1)
                                               VALUE SPACE.
               10  WK01-TYPE-CODE-CH409-O              PIC X(1)
                                               VALUE SPACE.
               10  WK01-TYPE-CODE-CH409       PIC X(2)
                                               VALUE SPACES.
               10  WK01-CODE-CH4010-Z              PIC X(1)
                                               VALUE SPACE.
               10  WK01-CODE-CH4010-F              PIC X(1)
                                               VALUE SPACE.
               10  WK01-CODE-CH4010-A              PIC X(1)
                                               VALUE SPACE.
               10  WK01-CODE-CH4010-V              PIC X(1)
                                               VALUE SPACE.
               10  WK01-CODE-CH4010-O              PIC X(1)
                                               VALUE SPACE.
               10  WK01-CODE-CH4010       PIC X(1)
                                               VALUE SPACES.
               10  WK01-CODE-CH4A10-Z              PIC X(1)
                                               VALUE SPACE.
               10  WK01-CODE-CH4A10-F              PIC X(1)
                                               VALUE SPACE.
               10  WK01-CODE-CH4A10-A              PIC X(1)
                                               VALUE SPACE.
               10  WK01-CODE-CH4A10-V              PIC X(1)
                                               VALUE SPACE.
               10  WK01-CODE-CH4A10-O              PIC X(1)
                                               VALUE SPACE.
               10  WK01-CODE-CH4A10       PIC X(1)
                                               VALUE SPACES.
               10  WK01-CODE-CH4B10-Z              PIC X(1)
                                               VALUE SPACE.
               10  WK01-CODE-CH4B10-F              PIC X(1)
                                               VALUE SPACE.
               10  WK01-CODE-CH4B10-A              PIC X(1)
                                               VALUE SPACE.
               10  WK01-CODE-CH4B10-V              PIC X(1)
                                               VALUE SPACE.
               10  WK01-CODE-CH4B10-O              PIC X(1)
                                               VALUE SPACE.
               10  WK01-CODE-CH4B10       PIC X(6)
                                               VALUE SPACES.
               10  WK01-TITLE-CH4010-Z              PIC X(1)
                                               VALUE SPACE.
               10  WK01-TITLE-CH4010-F              PIC X(1)
                                               VALUE SPACE.
               10  WK01-TITLE-CH4010-A              PIC X(1)
                                               VALUE SPACE.
               10  WK01-TITLE-CH4010-V              PIC X(1)
                                               VALUE SPACE.
               10  WK01-TITLE-CH4010-O              PIC X(1)
                                               VALUE SPACE.
               10  WK01-TITLE-CH4010       PIC X(35)
                                               VALUE SPACES.
               10  WK01-TYPE-CODE-CH4010-Z              PIC X(1)
                                               VALUE SPACE.
               10  WK01-TYPE-CODE-CH4010-F              PIC X(1)
                                               VALUE SPACE.
               10  WK01-TYPE-CODE-CH4010-A              PIC X(1)
                                               VALUE SPACE.
               10  WK01-TYPE-CODE-CH4010-V              PIC X(1)
                                               VALUE SPACE.
               10  WK01-TYPE-CODE-CH4010-O              PIC X(1)
                                               VALUE SPACE.
               10  WK01-TYPE-CODE-CH4010       PIC X(2)
                                               VALUE SPACES.
               10  WK01-COA-CODE-CH40-Z              PIC X(1)
                                               VALUE SPACE.
               10  WK01-COA-CODE-CH40-F              PIC X(1)
                                               VALUE SPACE.
               10  WK01-COA-CODE-CH40-A              PIC X(1)
                                               VALUE SPACE.
               10  WK01-COA-CODE-CH40-V              PIC X(1)
                                               VALUE SPACE.
               10  WK01-COA-CODE-CH40-O              PIC X(1)
                                               VALUE SPACE.
               10  WK01-COA-CODE-CH40       PIC X(1)
                                               VALUE SPACES.
               10  WK01-ORGZN-CODE-CH40-Z              PIC X(1)
                                               VALUE SPACE.
               10  WK01-ORGZN-CODE-CH40-F              PIC X(1)
                                               VALUE SPACE.
               10  WK01-ORGZN-CODE-CH40-A              PIC X(1)
                                               VALUE SPACE.
               10  WK01-ORGZN-CODE-CH40-V              PIC X(1)
                                               VALUE SPACE.
               10  WK01-ORGZN-CODE-CH40-O              PIC X(1)
                                               VALUE SPACE.
               10  WK01-ORGZN-CODE-CH40       PIC X(6)
                                               VALUE SPACES.
               10  WK01-ZZMESSAGE-Z              PIC X(1)
                                               VALUE SPACE.
               10  WK01-ZZMESSAGE-F              PIC X(1)
                                               VALUE SPACE.
               10  WK01-ZZMESSAGE-A              PIC X(1)
                                               VALUE SPACE.
               10  WK01-ZZMESSAGE-V              PIC X(1)
                                               VALUE SPACE.
               10  WK01-ZZMESSAGE-O              PIC X(1)
                                               VALUE SPACE.
               10  WK01-ZZMESSAGE       PIC X(160)
                                               VALUE SPACES.
               10  WK01-PASSED-ONE-Z              PIC X(1)
                                               VALUE SPACE.
               10  WK01-PASSED-ONE-F              PIC X(1)
                                               VALUE SPACE.
               10  WK01-PASSED-ONE-A              PIC X(1)
                                               VALUE SPACE.
               10  WK01-PASSED-ONE-V              PIC X(1)
                                               VALUE SPACE.
               10  WK01-PASSED-ONE-O              PIC X(1)
                                               VALUE SPACE.
               10  WK01-PASSED-ONE       PIC X(32)
                                               VALUE SPACES.
               10  WK01-MAP-RESPONSE-Z              PIC X(1)
                                               VALUE SPACE.
               10  WK01-MAP-RESPONSE-F              PIC X(1)
                                               VALUE SPACE.
               10  WK01-MAP-RESPONSE-A              PIC X(1)
                                               VALUE SPACE.
               10  WK01-MAP-RESPONSE-V              PIC X(1)
                                               VALUE SPACE.
               10  WK01-MAP-RESPONSE-O              PIC X(1)
                                               VALUE SPACE.
               10  WK01-MAP-RESPONSE       PIC X(8)
                                               VALUE SPACES.
               10  WK01-TEXT-SY00-Z              PIC X(1)
                                               VALUE SPACE.
               10  WK01-TEXT-SY00-F              PIC X(1)
                                               VALUE SPACE.
               10  WK01-TEXT-SY00-A              PIC X(1)
                                               VALUE SPACE.
               10  WK01-TEXT-SY00-V              PIC X(1)
                                               VALUE SPACE.
               10  WK01-TEXT-SY00-O              PIC X(1)
                                               VALUE SPACE.
               10  WK01-TEXT-SY00       PIC X(14)
                                               VALUE SPACES.
           04  WK01-SUBSCRIPTED-WORK-AREA.
               05  FILLER                      PIC X(1).
               05  WK01-CODE-CH40-F             PIC X(1)
                                               OCCURS 10.
               05  WK01-CODE-CH4A-F             PIC X(1)
                                               OCCURS 10.
               05  WK01-CODE-CH4B-F             PIC X(1)
                                               OCCURS 10.
               05  WK01-TITLE-CH40-F             PIC X(1)
                                               OCCURS 10.
               05  WK01-TYPE-CODE-CH40-F             PIC X(1)
                                               OCCURS 10.
