    ***Created by Convert/DC version V8R03 on 12/13/00 at 11:00***

      *%--------------------------------------------------------------%*
           MOVE DCLINK-MESSAGE  TO WK01-ZZMESSAGE.
      *%--------------------------------------------------------------%*
           MOVE AGR-DATE OF ADSO-APPLICATION-GLOBAL-RECORD TO WK01-DATE.
      *%--------------------------------------------------------------%*
           MOVE AGR-USER-ID OF ADSO-APPLICATION-GLOBAL-RECORD TO
                WK01-USER-ID.
      *%--------------------------------------------------------------%*
           MOVE AGR-FUNC-DESCRIPTION OF ADSO-APPLICATION-GLOBAL-RECORD
                TO WK01-FUNC-DESCRIPTION.
      *%--------------------------------------------------------------%*
           MOVE AGR-PASSED-ONE OF ADSO-APPLICATION-GLOBAL-RECORD TO
                WK01-PASSED-ONE.
      *%--------------------------------------------------------------%*
           MOVE AGR-MAP-RESPONSE OF ADSO-APPLICATION-GLOBAL-RECORD TO
                WK01-MAP-RESPONSE.
      *%--------------------------------------------------------------%*
           MOVE TRMNL-ID-SY00 OF FSYWG00M TO WK01-ID-SY00.
      *%--------------------------------------------------------------%*
           MOVE FULL-NAME-6001-SY00 OF FSYWG00M TO WK01-NAME-6001-SY00.
      *%--------------------------------------------------------------%*
           MOVE AM-PM-FLAG-SY00 OF FSYWG00M TO WK01-PM-FLAG-SY00.
      *%--------------------------------------------------------------%*
           MOVE CURR-RSPNS-ID-SY00 OF FSYWG00M TO WK01-RSPNS-ID-SY00.
      *%--------------------------------------------------------------%*
           MOVE ERROR-TEXT-SY00 OF FSYWG00M TO WK01-TEXT-SY00.
      *%--------------------------------------------------------------%*
           MOVE PAGE-STATUS-CODE-SY00 OF FSYWG00M TO
                WK01-STATUS-CODE-SY00.
      *%--------------------------------------------------------------%*
           MOVE WORK-HH-MM-TIME-SY00 OF FSYWG00M TO
                WK01-HH-MM-TIME-SY00.
      *%--------------------------------------------------------------%*
           MOVE ACTN-CODE-CH62 OF FCHWM62(0001) TO WK01-CODE-CH621.
      *%--------------------------------------------------------------%*
           MOVE ACTN-CODE-CH62 OF FCHWM62(0002) TO WK01-CODE-CH622.
      *%--------------------------------------------------------------%*
           MOVE ACTN-CODE-CH62 OF FCHWM62(0003) TO WK01-CODE-CH623.
      *%--------------------------------------------------------------%*
           MOVE ACTN-CODE-CH62 OF FCHWM62(0004) TO WK01-CODE-CH624.
      *%--------------------------------------------------------------%*
           MOVE ACTN-CODE-CH62 OF FCHWM62(0005) TO WK01-CODE-CH625.
      *%--------------------------------------------------------------%*
           MOVE ACTN-CODE-CH62 OF FCHWM62(0006) TO WK01-CODE-CH626.
      *%--------------------------------------------------------------%*
           MOVE ACTN-CODE-CH62 OF FCHWM62(0007) TO WK01-CODE-CH627.
      *%--------------------------------------------------------------%*
           MOVE ACTN-CODE-CH62 OF FCHWM62(0008) TO WK01-CODE-CH628.
      *%--------------------------------------------------------------%*
           MOVE ACTN-CODE-CH62 OF FCHWM62(0009) TO WK01-CODE-CH629.
      *%--------------------------------------------------------------%*
           MOVE ACTN-CODE-CH62 OF FCHWM62(0010) TO WK01-CODE-CH6210.
      *%--------------------------------------------------------------%*
           MOVE BANK-ACCT-NMBR-4213-CH62 OF FCHWM62(0001) TO
                WK01-ACCT-NMBR-4213-CH621.
      *%--------------------------------------------------------------%*
           MOVE BANK-ACCT-NMBR-4213-CH62 OF FCHWM62(0002) TO
                WK01-ACCT-NMBR-4213-CH622.
      *%--------------------------------------------------------------%*
           MOVE BANK-ACCT-NMBR-4213-CH62 OF FCHWM62(0003) TO
                WK01-ACCT-NMBR-4213-CH623.
      *%--------------------------------------------------------------%*
           MOVE BANK-ACCT-NMBR-4213-CH62 OF FCHWM62(0004) TO
                WK01-ACCT-NMBR-4213-CH624.
      *%--------------------------------------------------------------%*
           MOVE BANK-ACCT-NMBR-4213-CH62 OF FCHWM62(0005) TO
                WK01-ACCT-NMBR-4213-CH625.
      *%--------------------------------------------------------------%*
           MOVE BANK-ACCT-NMBR-4213-CH62 OF FCHWM62(0006) TO
                WK01-ACCT-NMBR-4213-CH626.
      *%--------------------------------------------------------------%*
           MOVE BANK-ACCT-NMBR-4213-CH62 OF FCHWM62(0007) TO
                WK01-ACCT-NMBR-4213-CH627.
      *%--------------------------------------------------------------%*
           MOVE BANK-ACCT-NMBR-4213-CH62 OF FCHWM62(0008) TO
                WK01-ACCT-NMBR-4213-CH628.
      *%--------------------------------------------------------------%*
           MOVE BANK-ACCT-NMBR-4213-CH62 OF FCHWM62(0009) TO
                WK01-ACCT-NMBR-4213-CH629.
      *%--------------------------------------------------------------%*
           MOVE BANK-ACCT-NMBR-4213-CH62 OF FCHWM62(0010) TO
                WK01-ACCT-NMBR-4213-CH6210.
      *%--------------------------------------------------------------%*
           MOVE BANK-ACCT-DESC-4213-CH62 OF FCHWM62(0001) TO
                WK01-ACCT-DESC-4213-CH621.
      *%--------------------------------------------------------------%*
           MOVE BANK-ACCT-DESC-4213-CH62 OF FCHWM62(0002) TO
                WK01-ACCT-DESC-4213-CH622.
      *%--------------------------------------------------------------%*
           MOVE BANK-ACCT-DESC-4213-CH62 OF FCHWM62(0003) TO
                WK01-ACCT-DESC-4213-CH623.
      *%--------------------------------------------------------------%*
           MOVE BANK-ACCT-DESC-4213-CH62 OF FCHWM62(0004) TO
                WK01-ACCT-DESC-4213-CH624.
      *%--------------------------------------------------------------%*
           MOVE BANK-ACCT-DESC-4213-CH62 OF FCHWM62(0005) TO
                WK01-ACCT-DESC-4213-CH625.
      *%--------------------------------------------------------------%*
           MOVE BANK-ACCT-DESC-4213-CH62 OF FCHWM62(0006) TO
                WK01-ACCT-DESC-4213-CH626.
      *%--------------------------------------------------------------%*
           MOVE BANK-ACCT-DESC-4213-CH62 OF FCHWM62(0007) TO
                WK01-ACCT-DESC-4213-CH627.
      *%--------------------------------------------------------------%*
           MOVE BANK-ACCT-DESC-4213-CH62 OF FCHWM62(0008) TO
                WK01-ACCT-DESC-4213-CH628.
      *%--------------------------------------------------------------%*
           MOVE BANK-ACCT-DESC-4213-CH62 OF FCHWM62(0009) TO
                WK01-ACCT-DESC-4213-CH629.
      *%--------------------------------------------------------------%*
           MOVE BANK-ACCT-DESC-4213-CH62 OF FCHWM62(0010) TO
                WK01-ACCT-DESC-4213-CH6210.
      *%--------------------------------------------------------------%*
           MOVE STATUS-4213-CH62 OF FCHWM62(0001) TO WK01-4213-CH621.
      *%--------------------------------------------------------------%*
           MOVE STATUS-4213-CH62 OF FCHWM62(0002) TO WK01-4213-CH622.
      *%--------------------------------------------------------------%*
           MOVE STATUS-4213-CH62 OF FCHWM62(0003) TO WK01-4213-CH623.
      *%--------------------------------------------------------------%*
           MOVE STATUS-4213-CH62 OF FCHWM62(0004) TO WK01-4213-CH624.
      *%--------------------------------------------------------------%*
           MOVE STATUS-4213-CH62 OF FCHWM62(0005) TO WK01-4213-CH625.
      *%--------------------------------------------------------------%*
           MOVE STATUS-4213-CH62 OF FCHWM62(0006) TO WK01-4213-CH626.
      *%--------------------------------------------------------------%*
           MOVE STATUS-4213-CH62 OF FCHWM62(0007) TO WK01-4213-CH627.
      *%--------------------------------------------------------------%*
           MOVE STATUS-4213-CH62 OF FCHWM62(0008) TO WK01-4213-CH628.
      *%--------------------------------------------------------------%*
           MOVE STATUS-4213-CH62 OF FCHWM62(0009) TO WK01-4213-CH629.
      *%--------------------------------------------------------------%*
           MOVE STATUS-4213-CH62 OF FCHWM62(0010) TO WK01-4213-CH6210.
      *%--------------------------------------------------------------%*
           MOVE BANK-ID-LAST-NINE-4046-CH62 OF FCHWK62 TO
                WK01-ID-LAST-NN-4046-CH62.
      *%--------------------------------------------------------------%*
           MOVE NAME-KEY-6311-CH62 OF FCHWM62 TO WK01-KEY-6311-CH62.
      *%--------------------------------------------------------------%*
           MOVE STATUS-4046-CH62 OF FCHWM62 TO WK01-4046-CH62.
      *%--------------------------------------------------------------%*
           MOVE RQST-BANK-ACCT-NMBR-CH62 OF FCHWK62 TO
                WK01-BANK-ACCT-NMBR-CH62.
