    ***Created by Convert/DC version V8R03 on 12/11/00 at 11:00***

      *%--------------------------------------------------------------%*
           MOVE DCLINK-MESSAGE  TO WK01-ZZMESSAGE.
      *%--------------------------------------------------------------%*
           MOVE AGR-DATE OF ADSO-APPLICATION-GLOBAL-RECORD TO WK01-DATE.
      *%--------------------------------------------------------------%*
           MOVE AGR-USER-ID OF ADSO-APPLICATION-GLOBAL-RECORD TO
                WK01-USER-ID.
      *%--------------------------------------------------------------%*
           MOVE AGR-FUNC-DESCRIPTION OF ADSO-APPLICATION-GLOBAL-RECORD
                TO WK01-FUNC-DESCRIPTION.
      *%--------------------------------------------------------------%*
           MOVE AGR-PASSED-ONE OF ADSO-APPLICATION-GLOBAL-RECORD TO
                WK01-PASSED-ONE.
      *%--------------------------------------------------------------%*
           MOVE AGR-MAP-RESPONSE OF ADSO-APPLICATION-GLOBAL-RECORD TO
                WK01-MAP-RESPONSE.
      *%--------------------------------------------------------------%*
           MOVE TRMNL-ID-SY00 OF FSYWG00M TO WK01-ID-SY00.
      *%--------------------------------------------------------------%*
           MOVE FULL-NAME-6001-SY00 OF FSYWG00M TO WK01-NAME-6001-SY00.
      *%--------------------------------------------------------------%*
           MOVE AM-PM-FLAG-SY00 OF FSYWG00M TO WK01-PM-FLAG-SY00.
      *%--------------------------------------------------------------%*
           MOVE CURR-RSPNS-ID-SY00 OF FSYWG00M TO WK01-RSPNS-ID-SY00.
      *%--------------------------------------------------------------%*
           MOVE ERROR-TEXT-SY00 OF FSYWG00M TO WK01-TEXT-SY00.
      *%--------------------------------------------------------------%*
           MOVE PAGE-STATUS-CODE-SY00 OF FSYWG00M TO
                WK01-STATUS-CODE-SY00.
      *%--------------------------------------------------------------%*
           MOVE WORK-HH-MM-TIME-SY00 OF FSYWG00M TO
                WK01-HH-MM-TIME-SY00.
      *%--------------------------------------------------------------%*
           MOVE SLCTN-DATE-CH81 OF FCHWK81 TO WK01-DATE-CH81.
      *%--------------------------------------------------------------%*
           MOVE SLCTN-STATUS-CH81 OF FCHWK81 TO WK01-STATUS-CH81.
      *%--------------------------------------------------------------%*
           MOVE RQST-COA-CODE-CH81 OF FCHWK81 TO WK01-COA-CODE-CH81.
      *%--------------------------------------------------------------%*
           MOVE RQST-ACCT-TYPE-CODE-CH81 OF FCHWK81 TO
                WK01-ACCT-TYPE-CODE-CH81.
      *%--------------------------------------------------------------%*
           MOVE ACTN-CODE-CH81 OF FCHWM81(0001) TO WK01-CODE-CH811.
      *%--------------------------------------------------------------%*
           MOVE ACTN-CODE-CH81 OF FCHWM81(0002) TO WK01-CODE-CH812.
      *%--------------------------------------------------------------%*
           MOVE ACTN-CODE-CH81 OF FCHWM81(0003) TO WK01-CODE-CH813.
      *%--------------------------------------------------------------%*
           MOVE ACTN-CODE-CH81 OF FCHWM81(0004) TO WK01-CODE-CH814.
      *%--------------------------------------------------------------%*
           MOVE ACTN-CODE-CH81 OF FCHWM81(0005) TO WK01-CODE-CH815.
      *%--------------------------------------------------------------%*
           MOVE ACTN-CODE-CH81 OF FCHWM81(0006) TO WK01-CODE-CH816.
      *%--------------------------------------------------------------%*
           MOVE ACTN-CODE-CH81 OF FCHWM81(0007) TO WK01-CODE-CH817.
      *%--------------------------------------------------------------%*
           MOVE ACTN-CODE-CH81 OF FCHWM81(0008) TO WK01-CODE-CH818.
      *%--------------------------------------------------------------%*
           MOVE ACTN-CODE-CH81 OF FCHWM81(0009) TO WK01-CODE-CH819.
      *%--------------------------------------------------------------%*
           MOVE ACTN-CODE-CH81 OF FCHWM81(0010) TO WK01-CODE-CH8110.
      *%--------------------------------------------------------------%*
           MOVE ACTN-CODE-CH81 OF FCHWM81(0011) TO WK01-CODE-CH8111.
      *%--------------------------------------------------------------%*
           MOVE COA-CODE-4014-CH81 OF FCHWM81(0001) TO
                WK01-CODE-4014-CH811.
      *%--------------------------------------------------------------%*
           MOVE COA-CODE-4014-CH81 OF FCHWM81(0002) TO
                WK01-CODE-4014-CH812.
      *%--------------------------------------------------------------%*
           MOVE COA-CODE-4014-CH81 OF FCHWM81(0003) TO
                WK01-CODE-4014-CH813.
      *%--------------------------------------------------------------%*
           MOVE COA-CODE-4014-CH81 OF FCHWM81(0004) TO
                WK01-CODE-4014-CH814.
      *%--------------------------------------------------------------%*
           MOVE COA-CODE-4014-CH81 OF FCHWM81(0005) TO
                WK01-CODE-4014-CH815.
      *%--------------------------------------------------------------%*
           MOVE COA-CODE-4014-CH81 OF FCHWM81(0006) TO
                WK01-CODE-4014-CH816.
      *%--------------------------------------------------------------%*
           MOVE COA-CODE-4014-CH81 OF FCHWM81(0007) TO
                WK01-CODE-4014-CH817.
      *%--------------------------------------------------------------%*
           MOVE COA-CODE-4014-CH81 OF FCHWM81(0008) TO
                WK01-CODE-4014-CH818.
      *%--------------------------------------------------------------%*
           MOVE COA-CODE-4014-CH81 OF FCHWM81(0009) TO
                WK01-CODE-4014-CH819.
      *%--------------------------------------------------------------%*
           MOVE COA-CODE-4014-CH81 OF FCHWM81(0010) TO
                WK01-CODE-4014-CH8110.
      *%--------------------------------------------------------------%*
           MOVE COA-CODE-4014-CH81 OF FCHWM81(0011) TO
                WK01-CODE-4014-CH8111.
      *%--------------------------------------------------------------%*
           MOVE ACCT-TYPE-DESC-4015-CH81 OF FCHWM81(0001) TO
                WK01-TYPE-DESC-4015-CH811.
      *%--------------------------------------------------------------%*
           MOVE ACCT-TYPE-DESC-4015-CH81 OF FCHWM81(0002) TO
                WK01-TYPE-DESC-4015-CH812.
      *%--------------------------------------------------------------%*
           MOVE ACCT-TYPE-DESC-4015-CH81 OF FCHWM81(0003) TO
                WK01-TYPE-DESC-4015-CH813.
      *%--------------------------------------------------------------%*
           MOVE ACCT-TYPE-DESC-4015-CH81 OF FCHWM81(0004) TO
                WK01-TYPE-DESC-4015-CH814.
      *%--------------------------------------------------------------%*
           MOVE ACCT-TYPE-DESC-4015-CH81 OF FCHWM81(0005) TO
                WK01-TYPE-DESC-4015-CH815.
      *%--------------------------------------------------------------%*
           MOVE ACCT-TYPE-DESC-4015-CH81 OF FCHWM81(0006) TO
                WK01-TYPE-DESC-4015-CH816.
      *%--------------------------------------------------------------%*
           MOVE ACCT-TYPE-DESC-4015-CH81 OF FCHWM81(0007) TO
                WK01-TYPE-DESC-4015-CH817.
      *%--------------------------------------------------------------%*
           MOVE ACCT-TYPE-DESC-4015-CH81 OF FCHWM81(0008) TO
                WK01-TYPE-DESC-4015-CH818.
      *%--------------------------------------------------------------%*
           MOVE ACCT-TYPE-DESC-4015-CH81 OF FCHWM81(0009) TO
                WK01-TYPE-DESC-4015-CH819.
      *%--------------------------------------------------------------%*
           MOVE ACCT-TYPE-DESC-4015-CH81 OF FCHWM81(0010) TO
                WK01-TYPE-DESC-4015-CH8110.
      *%--------------------------------------------------------------%*
           MOVE ACCT-TYPE-DESC-4015-CH81 OF FCHWM81(0011) TO
                WK01-TYPE-DESC-4015-CH8111.
      *%--------------------------------------------------------------%*
           MOVE STATUS-4015-CH81 OF FCHWM81(0001) TO WK01-4015-CH811.
      *%--------------------------------------------------------------%*
           MOVE STATUS-4015-CH81 OF FCHWM81(0002) TO WK01-4015-CH812.
      *%--------------------------------------------------------------%*
           MOVE STATUS-4015-CH81 OF FCHWM81(0003) TO WK01-4015-CH813.
      *%--------------------------------------------------------------%*
           MOVE STATUS-4015-CH81 OF FCHWM81(0004) TO WK01-4015-CH814.
      *%--------------------------------------------------------------%*
           MOVE STATUS-4015-CH81 OF FCHWM81(0005) TO WK01-4015-CH815.
      *%--------------------------------------------------------------%*
           MOVE STATUS-4015-CH81 OF FCHWM81(0006) TO WK01-4015-CH816.
      *%--------------------------------------------------------------%*
           MOVE STATUS-4015-CH81 OF FCHWM81(0007) TO WK01-4015-CH817.
      *%--------------------------------------------------------------%*
           MOVE STATUS-4015-CH81 OF FCHWM81(0008) TO WK01-4015-CH818.
      *%--------------------------------------------------------------%*
           MOVE STATUS-4015-CH81 OF FCHWM81(0009) TO WK01-4015-CH819.
      *%--------------------------------------------------------------%*
           MOVE STATUS-4015-CH81 OF FCHWM81(0010) TO WK01-4015-CH8110.
      *%--------------------------------------------------------------%*
           MOVE STATUS-4015-CH81 OF FCHWM81(0011) TO WK01-4015-CH8111.
      *%--------------------------------------------------------------%*
           MOVE START-DATE-4015-CH81 OF FCHWM81(0001) TO
                WK01-DATE-4015-CH811.
      *%--------------------------------------------------------------%*
           MOVE START-DATE-4015-CH81 OF FCHWM81(0002) TO
                WK01-DATE-4015-CH812.
      *%--------------------------------------------------------------%*
           MOVE START-DATE-4015-CH81 OF FCHWM81(0003) TO
                WK01-DATE-4015-CH813.
      *%--------------------------------------------------------------%*
           MOVE START-DATE-4015-CH81 OF FCHWM81(0004) TO
                WK01-DATE-4015-CH814.
      *%--------------------------------------------------------------%*
           MOVE START-DATE-4015-CH81 OF FCHWM81(0005) TO
                WK01-DATE-4015-CH815.
      *%--------------------------------------------------------------%*
           MOVE START-DATE-4015-CH81 OF FCHWM81(0006) TO
                WK01-DATE-4015-CH816.
      *%--------------------------------------------------------------%*
           MOVE START-DATE-4015-CH81 OF FCHWM81(0007) TO
                WK01-DATE-4015-CH817.
      *%--------------------------------------------------------------%*
           MOVE START-DATE-4015-CH81 OF FCHWM81(0008) TO
                WK01-DATE-4015-CH818.
      *%--------------------------------------------------------------%*
           MOVE START-DATE-4015-CH81 OF FCHWM81(0009) TO
                WK01-DATE-4015-CH819.
      *%--------------------------------------------------------------%*
           MOVE START-DATE-4015-CH81 OF FCHWM81(0010) TO
                WK01-DATE-4015-CH8110.
      *%--------------------------------------------------------------%*
           MOVE START-DATE-4015-CH81 OF FCHWM81(0011) TO
                WK01-DATE-4015-CH8111.
      *%--------------------------------------------------------------%*
           MOVE END-DATE-4015-CH81 OF FCHWM81(0001) TO
                WK01-DATE-4015-CH8A1.
      *%--------------------------------------------------------------%*
           MOVE END-DATE-4015-CH81 OF FCHWM81(0002) TO
                WK01-DATE-4015-CH8A2.
      *%--------------------------------------------------------------%*
           MOVE END-DATE-4015-CH81 OF FCHWM81(0003) TO
                WK01-DATE-4015-CH8A3.
      *%--------------------------------------------------------------%*
           MOVE END-DATE-4015-CH81 OF FCHWM81(0004) TO
                WK01-DATE-4015-CH8A4.
      *%--------------------------------------------------------------%*
           MOVE END-DATE-4015-CH81 OF FCHWM81(0005) TO
                WK01-DATE-4015-CH8A5.
      *%--------------------------------------------------------------%*
           MOVE END-DATE-4015-CH81 OF FCHWM81(0006) TO
                WK01-DATE-4015-CH8A6.
      *%--------------------------------------------------------------%*
           MOVE END-DATE-4015-CH81 OF FCHWM81(0007) TO
                WK01-DATE-4015-CH8A7.
      *%--------------------------------------------------------------%*
           MOVE END-DATE-4015-CH81 OF FCHWM81(0008) TO
                WK01-DATE-4015-CH8A8.
      *%--------------------------------------------------------------%*
           MOVE END-DATE-4015-CH81 OF FCHWM81(0009) TO
                WK01-DATE-4015-CH8A9.
      *%--------------------------------------------------------------%*
           MOVE END-DATE-4015-CH81 OF FCHWM81(0010) TO
                WK01-DATE-4015-CH8A10.
      *%--------------------------------------------------------------%*
           MOVE END-DATE-4015-CH81 OF FCHWM81(0011) TO
                WK01-DATE-4015-CH8A11.
      *%--------------------------------------------------------------%*
           MOVE ACCT-TYPE-CODE-4014-CH81 OF FCHWM81(0001) TO
                WK01-TYPE-CODE-4014-CH811.
      *%--------------------------------------------------------------%*
           MOVE ACCT-TYPE-CODE-4014-CH81 OF FCHWM81(0002) TO
                WK01-TYPE-CODE-4014-CH812.
      *%--------------------------------------------------------------%*
           MOVE ACCT-TYPE-CODE-4014-CH81 OF FCHWM81(0003) TO
                WK01-TYPE-CODE-4014-CH813.
      *%--------------------------------------------------------------%*
           MOVE ACCT-TYPE-CODE-4014-CH81 OF FCHWM81(0004) TO
                WK01-TYPE-CODE-4014-CH814.
      *%--------------------------------------------------------------%*
           MOVE ACCT-TYPE-CODE-4014-CH81 OF FCHWM81(0005) TO
                WK01-TYPE-CODE-4014-CH815.
      *%--------------------------------------------------------------%*
           MOVE ACCT-TYPE-CODE-4014-CH81 OF FCHWM81(0006) TO
                WK01-TYPE-CODE-4014-CH816.
      *%--------------------------------------------------------------%*
           MOVE ACCT-TYPE-CODE-4014-CH81 OF FCHWM81(0007) TO
                WK01-TYPE-CODE-4014-CH817.
      *%--------------------------------------------------------------%*
           MOVE ACCT-TYPE-CODE-4014-CH81 OF FCHWM81(0008) TO
                WK01-TYPE-CODE-4014-CH818.
      *%--------------------------------------------------------------%*
           MOVE ACCT-TYPE-CODE-4014-CH81 OF FCHWM81(0009) TO
                WK01-TYPE-CODE-4014-CH819.
      *%--------------------------------------------------------------%*
           MOVE ACCT-TYPE-CODE-4014-CH81 OF FCHWM81(0010) TO
                WK01-TYPE-CODE-4014-CH8110.
      *%--------------------------------------------------------------%*
           MOVE ACCT-TYPE-CODE-4014-CH81 OF FCHWM81(0011) TO
                WK01-TYPE-CODE-4014-CH8111.
