       01  MAP-CONTROL.

    ***Created by Convert/DC version V8R03 on 11/20/00 at 10:00***

           02  FCHMU53-MAP-CONTROL.
           03  FCHMU53T.
           04  WK01-DCXMAPL-PARMS.
               10  WK01-MAPNAME                  PIC X(8)
                                                 VALUE 'FCHMU53I'.
               10  WK01-IKE-LENGTH               PIC S9(8)  COMP
                                                 VALUE 28118.
               10  WK01-TINA-LENGTH              PIC S9(4)  COMP
                                                 VALUE 1372.
           05  WK01-ATTRIBUTES                   PIC X(60)
                                                 VALUE SPACE.
           05  WK01-ATTRIBUTES-ERROR             PIC X(60) VALUE
               'U  BIF'.
           05  WK01-CURSOR-DFLD                  PIC X(36)
                                                 VALUE SPACES.
           05  WK01-CURSOR-DFLD-QUAL             PIC X(30)
                                                 VALUE SPACES.
           05  WK01-ROW                          PIC S9(4) COMP
                                                 VALUE ZERO.
           05  WK01-COLUMN                       PIC S9(4) COMP
                                                 VALUE ZERO.
           05  WK01-ERROR-MSG                    PIC X(80)
                                                 VALUE SPACES.
           05  WK01-MAP-DATA-LEN                 PIC S9(6)
                                                 VALUE ZERO.
           05  WK01-1ST-FLAG                     PIC X(1)
                                                 VALUE 'Y'.
           05  WK01-FLAG-OUTPUT-DATA             PIC X(1)
                                                 VALUE 'Y'.
      *    05  WK01-STATUS-RETURN-FLAG           PIC X(1)
      *                                          VALUE SPACES.
           05  WK01-ALL-BUT-FLAG                 PIC X(1)
                                                 VALUE SPACES.
           05  WK01-FLAG-ALL-FIELDS-CHANGED      PIC X(1)  VALUE 'Y'.
           05  WK01-FLAG-ANY-FIELDS-CHANGED      PIC X(1)  VALUE 'N'.
           05  WK01-FLAG-ALL-FIELDS-ERROR        PIC X(1)  VALUE 'Y'.
           05  WK01-FLAG-ANY-FIELDS-ERROR        PIC X(1)  VALUE 'N'.
           05  WK01-FLAG-ALL-FIELDS-ERASE        PIC X(1)  VALUE 'Y'.
           05  WK01-FLAG-ANY-FIELDS-ERASE        PIC X(1)  VALUE 'Y'.

           05  WK01-VARDATA                      PIC X(11880)
                                                 VALUE SPACES.
           05  FILLER                            PIC X(100)
                                                 VALUE SPACES.
           04  WK01-ELEMENT-AREA.

               10  WK01-ID-SY00-Z              PIC X(1)
                                               VALUE SPACE.
               10  WK01-ID-SY00-F              PIC X(1)
                                               VALUE SPACE.
               10  WK01-ID-SY00-A              PIC X(1)
                                               VALUE SPACE.
               10  WK01-ID-SY00-V              PIC X(1)
                                               VALUE SPACE.
               10  WK01-ID-SY00-O              PIC X(1)
                                               VALUE SPACE.
               10  WK01-ID-SY00       PIC X(8)
                                               VALUE SPACES.
               10  WK01-NAME-6001-SY00-Z              PIC X(1)
                                               VALUE SPACE.
               10  WK01-NAME-6001-SY00-F              PIC X(1)
                                               VALUE SPACE.
               10  WK01-NAME-6001-SY00-A              PIC X(1)
                                               VALUE SPACE.
               10  WK01-NAME-6001-SY00-V              PIC X(1)
                                               VALUE SPACE.
               10  WK01-NAME-6001-SY00-O              PIC X(1)
                                               VALUE SPACE.
               10  WK01-NAME-6001-SY00       PIC X(35)
                                               VALUE SPACES.
               10  WK01-DATE-Z              PIC X(1)
                                               VALUE SPACE.
               10  WK01-DATE-F              PIC X(1)
                                               VALUE SPACE.
               10  WK01-DATE-A              PIC X(1)
                                               VALUE SPACE.
               10  WK01-DATE-V              PIC X(1)
                                               VALUE SPACE.
               10  WK01-DATE-O              PIC X(1)
                                               VALUE SPACE.
               10  WK01-DATE       PIC X(8)
                                               VALUE SPACES.
               10  WK01-HH-MM-TIME-SY00-Z              PIC X(1)
                                               VALUE SPACE.
               10  WK01-HH-MM-TIME-SY00-F              PIC X(1)
                                               VALUE SPACE.
               10  WK01-HH-MM-TIME-SY00-A              PIC X(1)
                                               VALUE SPACE.
               10  WK01-HH-MM-TIME-SY00-V              PIC X(1)
                                               VALUE SPACE.
               10  WK01-HH-MM-TIME-SY00-O              PIC X(1)
                                               VALUE SPACE.
               10  WK01-HH-MM-TIME-SY00       PIC X(4)
                                               VALUE SPACES.
               10  WK01-PM-FLAG-SY00-Z              PIC X(1)
                                               VALUE SPACE.
               10  WK01-PM-FLAG-SY00-F              PIC X(1)
                                               VALUE SPACE.
               10  WK01-PM-FLAG-SY00-A              PIC X(1)
                                               VALUE SPACE.
               10  WK01-PM-FLAG-SY00-V              PIC X(1)
                                               VALUE SPACE.
               10  WK01-PM-FLAG-SY00-O              PIC X(1)
                                               VALUE SPACE.
               10  WK01-PM-FLAG-SY00       PIC X(1)
                                               VALUE SPACES.
               10  WK01-USER-ID-Z              PIC X(1)
                                               VALUE SPACE.
               10  WK01-USER-ID-F              PIC X(1)
                                               VALUE SPACE.
               10  WK01-USER-ID-A              PIC X(1)
                                               VALUE SPACE.
               10  WK01-USER-ID-V              PIC X(1)
                                               VALUE SPACE.
               10  WK01-USER-ID-O              PIC X(1)
                                               VALUE SPACE.
               10  WK01-USER-ID       PIC X(32)
                                               VALUE SPACES.
               10  WK01-RSPNS-ID-SY00-Z              PIC X(1)
                                               VALUE SPACE.
               10  WK01-RSPNS-ID-SY00-F              PIC X(1)
                                               VALUE SPACE.
               10  WK01-RSPNS-ID-SY00-A              PIC X(1)
                                               VALUE SPACE.
               10  WK01-RSPNS-ID-SY00-V              PIC X(1)
                                               VALUE SPACE.
               10  WK01-RSPNS-ID-SY00-O              PIC X(1)
                                               VALUE SPACE.
               10  WK01-RSPNS-ID-SY00       PIC X(8)
                                               VALUE SPACES.
               10  WK01-FUNC-DESCRIPTION-Z              PIC X(1)
                                               VALUE SPACE.
               10  WK01-FUNC-DESCRIPTION-F              PIC X(1)
                                               VALUE SPACE.
               10  WK01-FUNC-DESCRIPTION-A              PIC X(1)
                                               VALUE SPACE.
               10  WK01-FUNC-DESCRIPTION-V              PIC X(1)
                                               VALUE SPACE.
               10  WK01-FUNC-DESCRIPTION-O              PIC X(1)
                                               VALUE SPACE.
               10  WK01-FUNC-DESCRIPTION       PIC X(28)
                                               VALUE SPACES.
               10  WK01-STATUS-CODE-SY00-Z              PIC X(1)
                                               VALUE SPACE.
               10  WK01-STATUS-CODE-SY00-F              PIC X(1)
                                               VALUE SPACE.
               10  WK01-STATUS-CODE-SY00-A              PIC X(1)
                                               VALUE SPACE.
               10  WK01-STATUS-CODE-SY00-V              PIC X(1)
                                               VALUE SPACE.
               10  WK01-STATUS-CODE-SY00-O              PIC X(1)
                                               VALUE SPACE.
               10  WK01-STATUS-CODE-SY00       PIC X(1)
                                               VALUE SPACES.
               10  WK01-CODE-CH531-Z              PIC X(1)
                                               VALUE SPACE.
               10  WK01-CODE-CH531-F              PIC X(1)
                                               VALUE SPACE.
               10  WK01-CODE-CH531-A              PIC X(1)
                                               VALUE SPACE.
               10  WK01-CODE-CH531-V              PIC X(1)
                                               VALUE SPACE.
               10  WK01-CODE-CH531-O              PIC X(1)
                                               VALUE SPACE.
               10  WK01-CODE-CH531       PIC X(1)
                                               VALUE SPACES.
               10  WK01-CODE-4013-CH531-Z              PIC X(1)
                                               VALUE SPACE.
               10  WK01-CODE-4013-CH531-F              PIC X(1)
                                               VALUE SPACE.
               10  WK01-CODE-4013-CH531-A              PIC X(1)
                                               VALUE SPACE.
               10  WK01-CODE-4013-CH531-V              PIC X(1)
                                               VALUE SPACE.
               10  WK01-CODE-4013-CH531-O              PIC X(1)
                                               VALUE SPACE.
               10  WK01-CODE-4013-CH531       PIC X(1)
                                               VALUE SPACES.
               10  WK01-ID-4192-CH531-Z              PIC X(1)
                                               VALUE SPACE.
               10  WK01-ID-4192-CH531-F              PIC X(1)
                                               VALUE SPACE.
               10  WK01-ID-4192-CH531-A              PIC X(1)
                                               VALUE SPACE.
               10  WK01-ID-4192-CH531-V              PIC X(1)
                                               VALUE SPACE.
               10  WK01-ID-4192-CH531-O              PIC X(1)
                                               VALUE SPACE.
               10  WK01-ID-4192-CH531       PIC X(8)
                                               VALUE SPACES.
               10  WK01-CODE-4013-CH5A1-Z              PIC X(1)
                                               VALUE SPACE.
               10  WK01-CODE-4013-CH5A1-F              PIC X(1)
                                               VALUE SPACE.
               10  WK01-CODE-4013-CH5A1-A              PIC X(1)
                                               VALUE SPACE.
               10  WK01-CODE-4013-CH5A1-V              PIC X(1)
                                               VALUE SPACE.
               10  WK01-CODE-4013-CH5A1-O              PIC X(1)
                                               VALUE SPACE.
               10  WK01-CODE-4013-CH5A1       PIC X(4)
                                               VALUE SPACES.
               10  WK01-OVRDE-4013-CH531-Z              PIC X(1)
                                               VALUE SPACE.
               10  WK01-OVRDE-4013-CH531-F              PIC X(1)
                                               VALUE SPACE.
               10  WK01-OVRDE-4013-CH531-A              PIC X(1)
                                               VALUE SPACE.
               10  WK01-OVRDE-4013-CH531-V              PIC X(1)
                                               VALUE SPACE.
               10  WK01-OVRDE-4013-CH531-O              PIC X(1)
                                               VALUE SPACE.
               10  WK01-OVRDE-4013-CH531       PIC X(1)
                                               VALUE SPACES.
               10  WK01-PCTG-4013-CH531-Z              PIC X(1)
                                               VALUE SPACE.
               10  WK01-PCTG-4013-CH531-F              PIC X(1)
                                               VALUE SPACE.
               10  WK01-PCTG-4013-CH531-A              PIC X(1)
                                               VALUE SPACE.
               10  WK01-PCTG-4013-CH531-V              PIC X(1)
                                               VALUE SPACE.
               10  WK01-PCTG-4013-CH531-O              PIC X(1)
                                               VALUE SPACE.
               10  WK01-PCTG-4013-CH531       PIC X(7)
                                               VALUE SPACES.
               10  WK01-AMT-4013-CH531-Z              PIC X(1)
                                               VALUE SPACE.
               10  WK01-AMT-4013-CH531-F              PIC X(1)
                                               VALUE SPACE.
               10  WK01-AMT-4013-CH531-A              PIC X(1)
                                               VALUE SPACE.
               10  WK01-AMT-4013-CH531-V              PIC X(1)
                                               VALUE SPACE.
               10  WK01-AMT-4013-CH531-O              PIC X(1)
                                               VALUE SPACE.
               10  WK01-AMT-4013-CH531       PIC X(16)
                                               VALUE SPACES.
               10  WK01-CODE-CH532-Z              PIC X(1)
                                               VALUE SPACE.
               10  WK01-CODE-CH532-F              PIC X(1)
                                               VALUE SPACE.
               10  WK01-CODE-CH532-A              PIC X(1)
                                               VALUE SPACE.
               10  WK01-CODE-CH532-V              PIC X(1)
                                               VALUE SPACE.
               10  WK01-CODE-CH532-O              PIC X(1)
                                               VALUE SPACE.
               10  WK01-CODE-CH532       PIC X(1)
                                               VALUE SPACES.
               10  WK01-CODE-4013-CH532-Z              PIC X(1)
                                               VALUE SPACE.
               10  WK01-CODE-4013-CH532-F              PIC X(1)
                                               VALUE SPACE.
               10  WK01-CODE-4013-CH532-A              PIC X(1)
                                               VALUE SPACE.
               10  WK01-CODE-4013-CH532-V              PIC X(1)
                                               VALUE SPACE.
               10  WK01-CODE-4013-CH532-O              PIC X(1)
                                               VALUE SPACE.
               10  WK01-CODE-4013-CH532       PIC X(1)
                                               VALUE SPACES.
               10  WK01-ID-4192-CH532-Z              PIC X(1)
                                               VALUE SPACE.
               10  WK01-ID-4192-CH532-F              PIC X(1)
                                               VALUE SPACE.
               10  WK01-ID-4192-CH532-A              PIC X(1)
                                               VALUE SPACE.
               10  WK01-ID-4192-CH532-V              PIC X(1)
                                               VALUE SPACE.
               10  WK01-ID-4192-CH532-O              PIC X(1)
                                               VALUE SPACE.
               10  WK01-ID-4192-CH532       PIC X(8)
                                               VALUE SPACES.
               10  WK01-CODE-4013-CH5A2-Z              PIC X(1)
                                               VALUE SPACE.
               10  WK01-CODE-4013-CH5A2-F              PIC X(1)
                                               VALUE SPACE.
               10  WK01-CODE-4013-CH5A2-A              PIC X(1)
                                               VALUE SPACE.
               10  WK01-CODE-4013-CH5A2-V              PIC X(1)
                                               VALUE SPACE.
               10  WK01-CODE-4013-CH5A2-O              PIC X(1)
                                               VALUE SPACE.
               10  WK01-CODE-4013-CH5A2       PIC X(4)
                                               VALUE SPACES.
               10  WK01-OVRDE-4013-CH532-Z              PIC X(1)
                                               VALUE SPACE.
               10  WK01-OVRDE-4013-CH532-F              PIC X(1)
                                               VALUE SPACE.
               10  WK01-OVRDE-4013-CH532-A              PIC X(1)
                                               VALUE SPACE.
               10  WK01-OVRDE-4013-CH532-V              PIC X(1)
                                               VALUE SPACE.
               10  WK01-OVRDE-4013-CH532-O              PIC X(1)
                                               VALUE SPACE.
               10  WK01-OVRDE-4013-CH532       PIC X(1)
                                               VALUE SPACES.
               10  WK01-PCTG-4013-CH532-Z              PIC X(1)
                                               VALUE SPACE.
               10  WK01-PCTG-4013-CH532-F              PIC X(1)
                                               VALUE SPACE.
               10  WK01-PCTG-4013-CH532-A              PIC X(1)
                                               VALUE SPACE.
               10  WK01-PCTG-4013-CH532-V              PIC X(1)
                                               VALUE SPACE.
               10  WK01-PCTG-4013-CH532-O              PIC X(1)
                                               VALUE SPACE.
               10  WK01-PCTG-4013-CH532       PIC X(7)
                                               VALUE SPACES.
               10  WK01-AMT-4013-CH532-Z              PIC X(1)
                                               VALUE SPACE.
               10  WK01-AMT-4013-CH532-F              PIC X(1)
                                               VALUE SPACE.
               10  WK01-AMT-4013-CH532-A              PIC X(1)
                                               VALUE SPACE.
               10  WK01-AMT-4013-CH532-V              PIC X(1)
                                               VALUE SPACE.
               10  WK01-AMT-4013-CH532-O              PIC X(1)
                                               VALUE SPACE.
               10  WK01-AMT-4013-CH532       PIC X(16)
                                               VALUE SPACES.
               10  WK01-CODE-CH533-Z              PIC X(1)
                                               VALUE SPACE.
               10  WK01-CODE-CH533-F              PIC X(1)
                                               VALUE SPACE.
               10  WK01-CODE-CH533-A              PIC X(1)
                                               VALUE SPACE.
               10  WK01-CODE-CH533-V              PIC X(1)
                                               VALUE SPACE.
               10  WK01-CODE-CH533-O              PIC X(1)
                                               VALUE SPACE.
               10  WK01-CODE-CH533       PIC X(1)
                                               VALUE SPACES.
               10  WK01-CODE-4013-CH533-Z              PIC X(1)
                                               VALUE SPACE.
               10  WK01-CODE-4013-CH533-F              PIC X(1)
                                               VALUE SPACE.
               10  WK01-CODE-4013-CH533-A              PIC X(1)
                                               VALUE SPACE.
               10  WK01-CODE-4013-CH533-V              PIC X(1)
                                               VALUE SPACE.
               10  WK01-CODE-4013-CH533-O              PIC X(1)
                                               VALUE SPACE.
               10  WK01-CODE-4013-CH533       PIC X(1)
                                               VALUE SPACES.
               10  WK01-ID-4192-CH533-Z              PIC X(1)
                                               VALUE SPACE.
               10  WK01-ID-4192-CH533-F              PIC X(1)
                                               VALUE SPACE.
               10  WK01-ID-4192-CH533-A              PIC X(1)
                                               VALUE SPACE.
               10  WK01-ID-4192-CH533-V              PIC X(1)
                                               VALUE SPACE.
               10  WK01-ID-4192-CH533-O              PIC X(1)
                                               VALUE SPACE.
               10  WK01-ID-4192-CH533       PIC X(8)
                                               VALUE SPACES.
               10  WK01-CODE-4013-CH5A3-Z              PIC X(1)
                                               VALUE SPACE.
               10  WK01-CODE-4013-CH5A3-F              PIC X(1)
                                               VALUE SPACE.
               10  WK01-CODE-4013-CH5A3-A              PIC X(1)
                                               VALUE SPACE.
               10  WK01-CODE-4013-CH5A3-V              PIC X(1)
                                               VALUE SPACE.
               10  WK01-CODE-4013-CH5A3-O              PIC X(1)
                                               VALUE SPACE.
               10  WK01-CODE-4013-CH5A3       PIC X(4)
                                               VALUE SPACES.
               10  WK01-OVRDE-4013-CH533-Z              PIC X(1)
                                               VALUE SPACE.
               10  WK01-OVRDE-4013-CH533-F              PIC X(1)
                                               VALUE SPACE.
               10  WK01-OVRDE-4013-CH533-A              PIC X(1)
                                               VALUE SPACE.
               10  WK01-OVRDE-4013-CH533-V              PIC X(1)
                                               VALUE SPACE.
               10  WK01-OVRDE-4013-CH533-O              PIC X(1)
                                               VALUE SPACE.
               10  WK01-OVRDE-4013-CH533       PIC X(1)
                                               VALUE SPACES.
               10  WK01-PCTG-4013-CH533-Z              PIC X(1)
                                               VALUE SPACE.
               10  WK01-PCTG-4013-CH533-F              PIC X(1)
                                               VALUE SPACE.
               10  WK01-PCTG-4013-CH533-A              PIC X(1)
                                               VALUE SPACE.
               10  WK01-PCTG-4013-CH533-V              PIC X(1)
                                               VALUE SPACE.
               10  WK01-PCTG-4013-CH533-O              PIC X(1)
                                               VALUE SPACE.
               10  WK01-PCTG-4013-CH533       PIC X(7)
                                               VALUE SPACES.
               10  WK01-AMT-4013-CH533-Z              PIC X(1)
                                               VALUE SPACE.
               10  WK01-AMT-4013-CH533-F              PIC X(1)
                                               VALUE SPACE.
               10  WK01-AMT-4013-CH533-A              PIC X(1)
                                               VALUE SPACE.
               10  WK01-AMT-4013-CH533-V              PIC X(1)
                                               VALUE SPACE.
               10  WK01-AMT-4013-CH533-O              PIC X(1)
                                               VALUE SPACE.
               10  WK01-AMT-4013-CH533       PIC X(16)
                                               VALUE SPACES.
               10  WK01-CODE-CH534-Z              PIC X(1)
                                               VALUE SPACE.
               10  WK01-CODE-CH534-F              PIC X(1)
                                               VALUE SPACE.
               10  WK01-CODE-CH534-A              PIC X(1)
                                               VALUE SPACE.
               10  WK01-CODE-CH534-V              PIC X(1)
                                               VALUE SPACE.
               10  WK01-CODE-CH534-O              PIC X(1)
                                               VALUE SPACE.
               10  WK01-CODE-CH534       PIC X(1)
                                               VALUE SPACES.
               10  WK01-CODE-4013-CH534-Z              PIC X(1)
                                               VALUE SPACE.
               10  WK01-CODE-4013-CH534-F              PIC X(1)
                                               VALUE SPACE.
               10  WK01-CODE-4013-CH534-A              PIC X(1)
                                               VALUE SPACE.
               10  WK01-CODE-4013-CH534-V              PIC X(1)
                                               VALUE SPACE.
               10  WK01-CODE-4013-CH534-O              PIC X(1)
                                               VALUE SPACE.
               10  WK01-CODE-4013-CH534       PIC X(1)
                                               VALUE SPACES.
               10  WK01-ID-4192-CH534-Z              PIC X(1)
                                               VALUE SPACE.
               10  WK01-ID-4192-CH534-F              PIC X(1)
                                               VALUE SPACE.
               10  WK01-ID-4192-CH534-A              PIC X(1)
                                               VALUE SPACE.
               10  WK01-ID-4192-CH534-V              PIC X(1)
                                               VALUE SPACE.
               10  WK01-ID-4192-CH534-O              PIC X(1)
                                               VALUE SPACE.
               10  WK01-ID-4192-CH534       PIC X(8)
                                               VALUE SPACES.
               10  WK01-CODE-4013-CH5A4-Z              PIC X(1)
                                               VALUE SPACE.
               10  WK01-CODE-4013-CH5A4-F              PIC X(1)
                                               VALUE SPACE.
               10  WK01-CODE-4013-CH5A4-A              PIC X(1)
                                               VALUE SPACE.
               10  WK01-CODE-4013-CH5A4-V              PIC X(1)
                                               VALUE SPACE.
               10  WK01-CODE-4013-CH5A4-O              PIC X(1)
                                               VALUE SPACE.
               10  WK01-CODE-4013-CH5A4       PIC X(4)
                                               VALUE SPACES.
               10  WK01-OVRDE-4013-CH534-Z              PIC X(1)
                                               VALUE SPACE.
               10  WK01-OVRDE-4013-CH534-F              PIC X(1)
                                               VALUE SPACE.
               10  WK01-OVRDE-4013-CH534-A              PIC X(1)
                                               VALUE SPACE.
               10  WK01-OVRDE-4013-CH534-V              PIC X(1)
                                               VALUE SPACE.
               10  WK01-OVRDE-4013-CH534-O              PIC X(1)
                                               VALUE SPACE.
               10  WK01-OVRDE-4013-CH534       PIC X(1)
                                               VALUE SPACES.
               10  WK01-PCTG-4013-CH534-Z              PIC X(1)
                                               VALUE SPACE.
               10  WK01-PCTG-4013-CH534-F              PIC X(1)
                                               VALUE SPACE.
               10  WK01-PCTG-4013-CH534-A              PIC X(1)
                                               VALUE SPACE.
               10  WK01-PCTG-4013-CH534-V              PIC X(1)
                                               VALUE SPACE.
               10  WK01-PCTG-4013-CH534-O              PIC X(1)
                                               VALUE SPACE.
               10  WK01-PCTG-4013-CH534       PIC X(7)
                                               VALUE SPACES.
               10  WK01-AMT-4013-CH534-Z              PIC X(1)
                                               VALUE SPACE.
               10  WK01-AMT-4013-CH534-F              PIC X(1)
                                               VALUE SPACE.
               10  WK01-AMT-4013-CH534-A              PIC X(1)
                                               VALUE SPACE.
               10  WK01-AMT-4013-CH534-V              PIC X(1)
                                               VALUE SPACE.
               10  WK01-AMT-4013-CH534-O              PIC X(1)
                                               VALUE SPACE.
               10  WK01-AMT-4013-CH534       PIC X(16)
                                               VALUE SPACES.
               10  WK01-CODE-CH535-Z              PIC X(1)
                                               VALUE SPACE.
               10  WK01-CODE-CH535-F              PIC X(1)
                                               VALUE SPACE.
               10  WK01-CODE-CH535-A              PIC X(1)
                                               VALUE SPACE.
               10  WK01-CODE-CH535-V              PIC X(1)
                                               VALUE SPACE.
               10  WK01-CODE-CH535-O              PIC X(1)
                                               VALUE SPACE.
               10  WK01-CODE-CH535       PIC X(1)
                                               VALUE SPACES.
               10  WK01-CODE-4013-CH535-Z              PIC X(1)
                                               VALUE SPACE.
               10  WK01-CODE-4013-CH535-F              PIC X(1)
                                               VALUE SPACE.
               10  WK01-CODE-4013-CH535-A              PIC X(1)
                                               VALUE SPACE.
               10  WK01-CODE-4013-CH535-V              PIC X(1)
                                               VALUE SPACE.
               10  WK01-CODE-4013-CH535-O              PIC X(1)
                                               VALUE SPACE.
               10  WK01-CODE-4013-CH535       PIC X(1)
                                               VALUE SPACES.
               10  WK01-ID-4192-CH535-Z              PIC X(1)
                                               VALUE SPACE.
               10  WK01-ID-4192-CH535-F              PIC X(1)
                                               VALUE SPACE.
               10  WK01-ID-4192-CH535-A              PIC X(1)
                                               VALUE SPACE.
               10  WK01-ID-4192-CH535-V              PIC X(1)
                                               VALUE SPACE.
               10  WK01-ID-4192-CH535-O              PIC X(1)
                                               VALUE SPACE.
               10  WK01-ID-4192-CH535       PIC X(8)
                                               VALUE SPACES.
               10  WK01-CODE-4013-CH5A5-Z              PIC X(1)
                                               VALUE SPACE.
               10  WK01-CODE-4013-CH5A5-F              PIC X(1)
                                               VALUE SPACE.
               10  WK01-CODE-4013-CH5A5-A              PIC X(1)
                                               VALUE SPACE.
               10  WK01-CODE-4013-CH5A5-V              PIC X(1)
                                               VALUE SPACE.
               10  WK01-CODE-4013-CH5A5-O              PIC X(1)
                                               VALUE SPACE.
               10  WK01-CODE-4013-CH5A5       PIC X(4)
                                               VALUE SPACES.
               10  WK01-OVRDE-4013-CH535-Z              PIC X(1)
                                               VALUE SPACE.
               10  WK01-OVRDE-4013-CH535-F              PIC X(1)
                                               VALUE SPACE.
               10  WK01-OVRDE-4013-CH535-A              PIC X(1)
                                               VALUE SPACE.
               10  WK01-OVRDE-4013-CH535-V              PIC X(1)
                                               VALUE SPACE.
               10  WK01-OVRDE-4013-CH535-O              PIC X(1)
                                               VALUE SPACE.
               10  WK01-OVRDE-4013-CH535       PIC X(1)
                                               VALUE SPACES.
               10  WK01-PCTG-4013-CH535-Z              PIC X(1)
                                               VALUE SPACE.
               10  WK01-PCTG-4013-CH535-F              PIC X(1)
                                               VALUE SPACE.
               10  WK01-PCTG-4013-CH535-A              PIC X(1)
                                               VALUE SPACE.
               10  WK01-PCTG-4013-CH535-V              PIC X(1)
                                               VALUE SPACE.
               10  WK01-PCTG-4013-CH535-O              PIC X(1)
                                               VALUE SPACE.
               10  WK01-PCTG-4013-CH535       PIC X(7)
                                               VALUE SPACES.
               10  WK01-AMT-4013-CH535-Z              PIC X(1)
                                               VALUE SPACE.
               10  WK01-AMT-4013-CH535-F              PIC X(1)
                                               VALUE SPACE.
               10  WK01-AMT-4013-CH535-A              PIC X(1)
                                               VALUE SPACE.
               10  WK01-AMT-4013-CH535-V              PIC X(1)
                                               VALUE SPACE.
               10  WK01-AMT-4013-CH535-O              PIC X(1)
                                               VALUE SPACE.
               10  WK01-AMT-4013-CH535       PIC X(16)
                                               VALUE SPACES.
               10  WK01-CODE-CH536-Z              PIC X(1)
                                               VALUE SPACE.
               10  WK01-CODE-CH536-F              PIC X(1)
                                               VALUE SPACE.
               10  WK01-CODE-CH536-A              PIC X(1)
                                               VALUE SPACE.
               10  WK01-CODE-CH536-V              PIC X(1)
                                               VALUE SPACE.
               10  WK01-CODE-CH536-O              PIC X(1)
                                               VALUE SPACE.
               10  WK01-CODE-CH536       PIC X(1)
                                               VALUE SPACES.
               10  WK01-CODE-4013-CH536-Z              PIC X(1)
                                               VALUE SPACE.
               10  WK01-CODE-4013-CH536-F              PIC X(1)
                                               VALUE SPACE.
               10  WK01-CODE-4013-CH536-A              PIC X(1)
                                               VALUE SPACE.
               10  WK01-CODE-4013-CH536-V              PIC X(1)
                                               VALUE SPACE.
               10  WK01-CODE-4013-CH536-O              PIC X(1)
                                               VALUE SPACE.
               10  WK01-CODE-4013-CH536       PIC X(1)
                                               VALUE SPACES.
               10  WK01-ID-4192-CH536-Z              PIC X(1)
                                               VALUE SPACE.
               10  WK01-ID-4192-CH536-F              PIC X(1)
                                               VALUE SPACE.
               10  WK01-ID-4192-CH536-A              PIC X(1)
                                               VALUE SPACE.
               10  WK01-ID-4192-CH536-V              PIC X(1)
                                               VALUE SPACE.
               10  WK01-ID-4192-CH536-O              PIC X(1)
                                               VALUE SPACE.
               10  WK01-ID-4192-CH536       PIC X(8)
                                               VALUE SPACES.
               10  WK01-CODE-4013-CH5A6-Z              PIC X(1)
                                               VALUE SPACE.
               10  WK01-CODE-4013-CH5A6-F              PIC X(1)
                                               VALUE SPACE.
               10  WK01-CODE-4013-CH5A6-A              PIC X(1)
                                               VALUE SPACE.
               10  WK01-CODE-4013-CH5A6-V              PIC X(1)
                                               VALUE SPACE.
               10  WK01-CODE-4013-CH5A6-O              PIC X(1)
                                               VALUE SPACE.
               10  WK01-CODE-4013-CH5A6       PIC X(4)
                                               VALUE SPACES.
               10  WK01-OVRDE-4013-CH536-Z              PIC X(1)
                                               VALUE SPACE.
               10  WK01-OVRDE-4013-CH536-F              PIC X(1)
                                               VALUE SPACE.
               10  WK01-OVRDE-4013-CH536-A              PIC X(1)
                                               VALUE SPACE.
               10  WK01-OVRDE-4013-CH536-V              PIC X(1)
                                               VALUE SPACE.
               10  WK01-OVRDE-4013-CH536-O              PIC X(1)
                                               VALUE SPACE.
               10  WK01-OVRDE-4013-CH536       PIC X(1)
                                               VALUE SPACES.
               10  WK01-PCTG-4013-CH536-Z              PIC X(1)
                                               VALUE SPACE.
               10  WK01-PCTG-4013-CH536-F              PIC X(1)
                                               VALUE SPACE.
               10  WK01-PCTG-4013-CH536-A              PIC X(1)
                                               VALUE SPACE.
               10  WK01-PCTG-4013-CH536-V              PIC X(1)
                                               VALUE SPACE.
               10  WK01-PCTG-4013-CH536-O              PIC X(1)
                                               VALUE SPACE.
               10  WK01-PCTG-4013-CH536       PIC X(7)
                                               VALUE SPACES.
               10  WK01-AMT-4013-CH536-Z              PIC X(1)
                                               VALUE SPACE.
               10  WK01-AMT-4013-CH536-F              PIC X(1)
                                               VALUE SPACE.
               10  WK01-AMT-4013-CH536-A              PIC X(1)
                                               VALUE SPACE.
               10  WK01-AMT-4013-CH536-V              PIC X(1)
                                               VALUE SPACE.
               10  WK01-AMT-4013-CH536-O              PIC X(1)
                                               VALUE SPACE.
               10  WK01-AMT-4013-CH536       PIC X(16)
                                               VALUE SPACES.
               10  WK01-CODE-CH537-Z              PIC X(1)
                                               VALUE SPACE.
               10  WK01-CODE-CH537-F              PIC X(1)
                                               VALUE SPACE.
               10  WK01-CODE-CH537-A              PIC X(1)
                                               VALUE SPACE.
               10  WK01-CODE-CH537-V              PIC X(1)
                                               VALUE SPACE.
               10  WK01-CODE-CH537-O              PIC X(1)
                                               VALUE SPACE.
               10  WK01-CODE-CH537       PIC X(1)
                                               VALUE SPACES.
               10  WK01-CODE-4013-CH537-Z              PIC X(1)
                                               VALUE SPACE.
               10  WK01-CODE-4013-CH537-F              PIC X(1)
                                               VALUE SPACE.
               10  WK01-CODE-4013-CH537-A              PIC X(1)
                                               VALUE SPACE.
               10  WK01-CODE-4013-CH537-V              PIC X(1)
                                               VALUE SPACE.
               10  WK01-CODE-4013-CH537-O              PIC X(1)
                                               VALUE SPACE.
               10  WK01-CODE-4013-CH537       PIC X(1)
                                               VALUE SPACES.
               10  WK01-ID-4192-CH537-Z              PIC X(1)
                                               VALUE SPACE.
               10  WK01-ID-4192-CH537-F              PIC X(1)
                                               VALUE SPACE.
               10  WK01-ID-4192-CH537-A              PIC X(1)
                                               VALUE SPACE.
               10  WK01-ID-4192-CH537-V              PIC X(1)
                                               VALUE SPACE.
               10  WK01-ID-4192-CH537-O              PIC X(1)
                                               VALUE SPACE.
               10  WK01-ID-4192-CH537       PIC X(8)
                                               VALUE SPACES.
               10  WK01-CODE-4013-CH5A7-Z              PIC X(1)
                                               VALUE SPACE.
               10  WK01-CODE-4013-CH5A7-F              PIC X(1)
                                               VALUE SPACE.
               10  WK01-CODE-4013-CH5A7-A              PIC X(1)
                                               VALUE SPACE.
               10  WK01-CODE-4013-CH5A7-V              PIC X(1)
                                               VALUE SPACE.
               10  WK01-CODE-4013-CH5A7-O              PIC X(1)
                                               VALUE SPACE.
               10  WK01-CODE-4013-CH5A7       PIC X(4)
                                               VALUE SPACES.
               10  WK01-OVRDE-4013-CH537-Z              PIC X(1)
                                               VALUE SPACE.
               10  WK01-OVRDE-4013-CH537-F              PIC X(1)
                                               VALUE SPACE.
               10  WK01-OVRDE-4013-CH537-A              PIC X(1)
                                               VALUE SPACE.
               10  WK01-OVRDE-4013-CH537-V              PIC X(1)
                                               VALUE SPACE.
               10  WK01-OVRDE-4013-CH537-O              PIC X(1)
                                               VALUE SPACE.
               10  WK01-OVRDE-4013-CH537       PIC X(1)
                                               VALUE SPACES.
               10  WK01-PCTG-4013-CH537-Z              PIC X(1)
                                               VALUE SPACE.
               10  WK01-PCTG-4013-CH537-F              PIC X(1)
                                               VALUE SPACE.
               10  WK01-PCTG-4013-CH537-A              PIC X(1)
                                               VALUE SPACE.
               10  WK01-PCTG-4013-CH537-V              PIC X(1)
                                               VALUE SPACE.
               10  WK01-PCTG-4013-CH537-O              PIC X(1)
                                               VALUE SPACE.
               10  WK01-PCTG-4013-CH537       PIC X(7)
                                               VALUE SPACES.
               10  WK01-AMT-4013-CH537-Z              PIC X(1)
                                               VALUE SPACE.
               10  WK01-AMT-4013-CH537-F              PIC X(1)
                                               VALUE SPACE.
               10  WK01-AMT-4013-CH537-A              PIC X(1)
                                               VALUE SPACE.
               10  WK01-AMT-4013-CH537-V              PIC X(1)
                                               VALUE SPACE.
               10  WK01-AMT-4013-CH537-O              PIC X(1)
                                               VALUE SPACE.
               10  WK01-AMT-4013-CH537       PIC X(16)
                                               VALUE SPACES.
               10  WK01-CODE-CH538-Z              PIC X(1)
                                               VALUE SPACE.
               10  WK01-CODE-CH538-F              PIC X(1)
                                               VALUE SPACE.
               10  WK01-CODE-CH538-A              PIC X(1)
                                               VALUE SPACE.
               10  WK01-CODE-CH538-V              PIC X(1)
                                               VALUE SPACE.
               10  WK01-CODE-CH538-O              PIC X(1)
                                               VALUE SPACE.
               10  WK01-CODE-CH538       PIC X(1)
                                               VALUE SPACES.
               10  WK01-CODE-4013-CH538-Z              PIC X(1)
                                               VALUE SPACE.
               10  WK01-CODE-4013-CH538-F              PIC X(1)
                                               VALUE SPACE.
               10  WK01-CODE-4013-CH538-A              PIC X(1)
                                               VALUE SPACE.
               10  WK01-CODE-4013-CH538-V              PIC X(1)
                                               VALUE SPACE.
               10  WK01-CODE-4013-CH538-O              PIC X(1)
                                               VALUE SPACE.
               10  WK01-CODE-4013-CH538       PIC X(1)
                                               VALUE SPACES.
               10  WK01-ID-4192-CH538-Z              PIC X(1)
                                               VALUE SPACE.
               10  WK01-ID-4192-CH538-F              PIC X(1)
                                               VALUE SPACE.
               10  WK01-ID-4192-CH538-A              PIC X(1)
                                               VALUE SPACE.
               10  WK01-ID-4192-CH538-V              PIC X(1)
                                               VALUE SPACE.
               10  WK01-ID-4192-CH538-O              PIC X(1)
                                               VALUE SPACE.
               10  WK01-ID-4192-CH538       PIC X(8)
                                               VALUE SPACES.
               10  WK01-CODE-4013-CH5A8-Z              PIC X(1)
                                               VALUE SPACE.
               10  WK01-CODE-4013-CH5A8-F              PIC X(1)
                                               VALUE SPACE.
               10  WK01-CODE-4013-CH5A8-A              PIC X(1)
                                               VALUE SPACE.
               10  WK01-CODE-4013-CH5A8-V              PIC X(1)
                                               VALUE SPACE.
               10  WK01-CODE-4013-CH5A8-O              PIC X(1)
                                               VALUE SPACE.
               10  WK01-CODE-4013-CH5A8       PIC X(4)
                                               VALUE SPACES.
               10  WK01-OVRDE-4013-CH538-Z              PIC X(1)
                                               VALUE SPACE.
               10  WK01-OVRDE-4013-CH538-F              PIC X(1)
                                               VALUE SPACE.
               10  WK01-OVRDE-4013-CH538-A              PIC X(1)
                                               VALUE SPACE.
               10  WK01-OVRDE-4013-CH538-V              PIC X(1)
                                               VALUE SPACE.
               10  WK01-OVRDE-4013-CH538-O              PIC X(1)
                                               VALUE SPACE.
               10  WK01-OVRDE-4013-CH538       PIC X(1)
                                               VALUE SPACES.
               10  WK01-PCTG-4013-CH538-Z              PIC X(1)
                                               VALUE SPACE.
               10  WK01-PCTG-4013-CH538-F              PIC X(1)
                                               VALUE SPACE.
               10  WK01-PCTG-4013-CH538-A              PIC X(1)
                                               VALUE SPACE.
               10  WK01-PCTG-4013-CH538-V              PIC X(1)
                                               VALUE SPACE.
               10  WK01-PCTG-4013-CH538-O              PIC X(1)
                                               VALUE SPACE.
               10  WK01-PCTG-4013-CH538       PIC X(7)
                                               VALUE SPACES.
               10  WK01-AMT-4013-CH538-Z              PIC X(1)
                                               VALUE SPACE.
               10  WK01-AMT-4013-CH538-F              PIC X(1)
                                               VALUE SPACE.
               10  WK01-AMT-4013-CH538-A              PIC X(1)
                                               VALUE SPACE.
               10  WK01-AMT-4013-CH538-V              PIC X(1)
                                               VALUE SPACE.
               10  WK01-AMT-4013-CH538-O              PIC X(1)
                                               VALUE SPACE.
               10  WK01-AMT-4013-CH538       PIC X(16)
                                               VALUE SPACES.
               10  WK01-CODE-CH539-Z              PIC X(1)
                                               VALUE SPACE.
               10  WK01-CODE-CH539-F              PIC X(1)
                                               VALUE SPACE.
               10  WK01-CODE-CH539-A              PIC X(1)
                                               VALUE SPACE.
               10  WK01-CODE-CH539-V              PIC X(1)
                                               VALUE SPACE.
               10  WK01-CODE-CH539-O              PIC X(1)
                                               VALUE SPACE.
               10  WK01-CODE-CH539       PIC X(1)
                                               VALUE SPACES.
               10  WK01-CODE-4013-CH539-Z              PIC X(1)
                                               VALUE SPACE.
               10  WK01-CODE-4013-CH539-F              PIC X(1)
                                               VALUE SPACE.
               10  WK01-CODE-4013-CH539-A              PIC X(1)
                                               VALUE SPACE.
               10  WK01-CODE-4013-CH539-V              PIC X(1)
                                               VALUE SPACE.
               10  WK01-CODE-4013-CH539-O              PIC X(1)
                                               VALUE SPACE.
               10  WK01-CODE-4013-CH539       PIC X(1)
                                               VALUE SPACES.
               10  WK01-ID-4192-CH539-Z              PIC X(1)
                                               VALUE SPACE.
               10  WK01-ID-4192-CH539-F              PIC X(1)
                                               VALUE SPACE.
               10  WK01-ID-4192-CH539-A              PIC X(1)
                                               VALUE SPACE.
               10  WK01-ID-4192-CH539-V              PIC X(1)
                                               VALUE SPACE.
               10  WK01-ID-4192-CH539-O              PIC X(1)
                                               VALUE SPACE.
               10  WK01-ID-4192-CH539       PIC X(8)
                                               VALUE SPACES.
               10  WK01-CODE-4013-CH5A9-Z              PIC X(1)
                                               VALUE SPACE.
               10  WK01-CODE-4013-CH5A9-F              PIC X(1)
                                               VALUE SPACE.
               10  WK01-CODE-4013-CH5A9-A              PIC X(1)
                                               VALUE SPACE.
               10  WK01-CODE-4013-CH5A9-V              PIC X(1)
                                               VALUE SPACE.
               10  WK01-CODE-4013-CH5A9-O              PIC X(1)
                                               VALUE SPACE.
               10  WK01-CODE-4013-CH5A9       PIC X(4)
                                               VALUE SPACES.
               10  WK01-OVRDE-4013-CH539-Z              PIC X(1)
                                               VALUE SPACE.
               10  WK01-OVRDE-4013-CH539-F              PIC X(1)
                                               VALUE SPACE.
               10  WK01-OVRDE-4013-CH539-A              PIC X(1)
                                               VALUE SPACE.
               10  WK01-OVRDE-4013-CH539-V              PIC X(1)
                                               VALUE SPACE.
               10  WK01-OVRDE-4013-CH539-O              PIC X(1)
                                               VALUE SPACE.
               10  WK01-OVRDE-4013-CH539       PIC X(1)
                                               VALUE SPACES.
               10  WK01-PCTG-4013-CH539-Z              PIC X(1)
                                               VALUE SPACE.
               10  WK01-PCTG-4013-CH539-F              PIC X(1)
                                               VALUE SPACE.
               10  WK01-PCTG-4013-CH539-A              PIC X(1)
                                               VALUE SPACE.
               10  WK01-PCTG-4013-CH539-V              PIC X(1)
                                               VALUE SPACE.
               10  WK01-PCTG-4013-CH539-O              PIC X(1)
                                               VALUE SPACE.
               10  WK01-PCTG-4013-CH539       PIC X(7)
                                               VALUE SPACES.
               10  WK01-AMT-4013-CH539-Z              PIC X(1)
                                               VALUE SPACE.
               10  WK01-AMT-4013-CH539-F              PIC X(1)
                                               VALUE SPACE.
               10  WK01-AMT-4013-CH539-A              PIC X(1)
                                               VALUE SPACE.
               10  WK01-AMT-4013-CH539-V              PIC X(1)
                                               VALUE SPACE.
               10  WK01-AMT-4013-CH539-O              PIC X(1)
                                               VALUE SPACE.
               10  WK01-AMT-4013-CH539       PIC X(16)
                                               VALUE SPACES.
               10  WK01-CODE-CH5310-Z              PIC X(1)
                                               VALUE SPACE.
               10  WK01-CODE-CH5310-F              PIC X(1)
                                               VALUE SPACE.
               10  WK01-CODE-CH5310-A              PIC X(1)
                                               VALUE SPACE.
               10  WK01-CODE-CH5310-V              PIC X(1)
                                               VALUE SPACE.
               10  WK01-CODE-CH5310-O              PIC X(1)
                                               VALUE SPACE.
               10  WK01-CODE-CH5310       PIC X(1)
                                               VALUE SPACES.
               10  WK01-CODE-4013-CH5310-Z              PIC X(1)
                                               VALUE SPACE.
               10  WK01-CODE-4013-CH5310-F              PIC X(1)
                                               VALUE SPACE.
               10  WK01-CODE-4013-CH5310-A              PIC X(1)
                                               VALUE SPACE.
               10  WK01-CODE-4013-CH5310-V              PIC X(1)
                                               VALUE SPACE.
               10  WK01-CODE-4013-CH5310-O              PIC X(1)
                                               VALUE SPACE.
               10  WK01-CODE-4013-CH5310       PIC X(1)
                                               VALUE SPACES.
               10  WK01-ID-4192-CH5310-Z              PIC X(1)
                                               VALUE SPACE.
               10  WK01-ID-4192-CH5310-F              PIC X(1)
                                               VALUE SPACE.
               10  WK01-ID-4192-CH5310-A              PIC X(1)
                                               VALUE SPACE.
               10  WK01-ID-4192-CH5310-V              PIC X(1)
                                               VALUE SPACE.
               10  WK01-ID-4192-CH5310-O              PIC X(1)
                                               VALUE SPACE.
               10  WK01-ID-4192-CH5310       PIC X(8)
                                               VALUE SPACES.
               10  WK01-CODE-4013-CH5A10-Z              PIC X(1)
                                               VALUE SPACE.
               10  WK01-CODE-4013-CH5A10-F              PIC X(1)
                                               VALUE SPACE.
               10  WK01-CODE-4013-CH5A10-A              PIC X(1)
                                               VALUE SPACE.
               10  WK01-CODE-4013-CH5A10-V              PIC X(1)
                                               VALUE SPACE.
               10  WK01-CODE-4013-CH5A10-O              PIC X(1)
                                               VALUE SPACE.
               10  WK01-CODE-4013-CH5A10       PIC X(4)
                                               VALUE SPACES.
               10  WK01-OVRDE-4013-CH5310-Z              PIC X(1)
                                               VALUE SPACE.
               10  WK01-OVRDE-4013-CH5310-F              PIC X(1)
                                               VALUE SPACE.
               10  WK01-OVRDE-4013-CH5310-A              PIC X(1)
                                               VALUE SPACE.
               10  WK01-OVRDE-4013-CH5310-V              PIC X(1)
                                               VALUE SPACE.
               10  WK01-OVRDE-4013-CH5310-O              PIC X(1)
                                               VALUE SPACE.
               10  WK01-OVRDE-4013-CH5310       PIC X(1)
                                               VALUE SPACES.
               10  WK01-PCTG-4013-CH5310-Z              PIC X(1)
                                               VALUE SPACE.
               10  WK01-PCTG-4013-CH5310-F              PIC X(1)
                                               VALUE SPACE.
               10  WK01-PCTG-4013-CH5310-A              PIC X(1)
                                               VALUE SPACE.
               10  WK01-PCTG-4013-CH5310-V              PIC X(1)
                                               VALUE SPACE.
               10  WK01-PCTG-4013-CH5310-O              PIC X(1)
                                               VALUE SPACE.
               10  WK01-PCTG-4013-CH5310       PIC X(7)
                                               VALUE SPACES.
               10  WK01-AMT-4013-CH5310-Z              PIC X(1)
                                               VALUE SPACE.
               10  WK01-AMT-4013-CH5310-F              PIC X(1)
                                               VALUE SPACE.
               10  WK01-AMT-4013-CH5310-A              PIC X(1)
                                               VALUE SPACE.
               10  WK01-AMT-4013-CH5310-V              PIC X(1)
                                               VALUE SPACE.
               10  WK01-AMT-4013-CH5310-O              PIC X(1)
                                               VALUE SPACE.
               10  WK01-AMT-4013-CH5310       PIC X(16)
                                               VALUE SPACES.
               10  WK01-CODE-CH5311-Z              PIC X(1)
                                               VALUE SPACE.
               10  WK01-CODE-CH5311-F              PIC X(1)
                                               VALUE SPACE.
               10  WK01-CODE-CH5311-A              PIC X(1)
                                               VALUE SPACE.
               10  WK01-CODE-CH5311-V              PIC X(1)
                                               VALUE SPACE.
               10  WK01-CODE-CH5311-O              PIC X(1)
                                               VALUE SPACE.
               10  WK01-CODE-CH5311       PIC X(1)
                                               VALUE SPACES.
               10  WK01-CODE-4013-CH5311-Z              PIC X(1)
                                               VALUE SPACE.
               10  WK01-CODE-4013-CH5311-F              PIC X(1)
                                               VALUE SPACE.
               10  WK01-CODE-4013-CH5311-A              PIC X(1)
                                               VALUE SPACE.
               10  WK01-CODE-4013-CH5311-V              PIC X(1)
                                               VALUE SPACE.
               10  WK01-CODE-4013-CH5311-O              PIC X(1)
                                               VALUE SPACE.
               10  WK01-CODE-4013-CH5311       PIC X(1)
                                               VALUE SPACES.
               10  WK01-ID-4192-CH5311-Z              PIC X(1)
                                               VALUE SPACE.
               10  WK01-ID-4192-CH5311-F              PIC X(1)
                                               VALUE SPACE.
               10  WK01-ID-4192-CH5311-A              PIC X(1)
                                               VALUE SPACE.
               10  WK01-ID-4192-CH5311-V              PIC X(1)
                                               VALUE SPACE.
               10  WK01-ID-4192-CH5311-O              PIC X(1)
                                               VALUE SPACE.
               10  WK01-ID-4192-CH5311       PIC X(8)
                                               VALUE SPACES.
               10  WK01-CODE-4013-CH5A11-Z              PIC X(1)
                                               VALUE SPACE.
               10  WK01-CODE-4013-CH5A11-F              PIC X(1)
                                               VALUE SPACE.
               10  WK01-CODE-4013-CH5A11-A              PIC X(1)
                                               VALUE SPACE.
               10  WK01-CODE-4013-CH5A11-V              PIC X(1)
                                               VALUE SPACE.
               10  WK01-CODE-4013-CH5A11-O              PIC X(1)
                                               VALUE SPACE.
               10  WK01-CODE-4013-CH5A11       PIC X(4)
                                               VALUE SPACES.
               10  WK01-OVRDE-4013-CH5311-Z              PIC X(1)
                                               VALUE SPACE.
               10  WK01-OVRDE-4013-CH5311-F              PIC X(1)
                                               VALUE SPACE.
               10  WK01-OVRDE-4013-CH5311-A              PIC X(1)
                                               VALUE SPACE.
               10  WK01-OVRDE-4013-CH5311-V              PIC X(1)
                                               VALUE SPACE.
               10  WK01-OVRDE-4013-CH5311-O              PIC X(1)
                                               VALUE SPACE.
               10  WK01-OVRDE-4013-CH5311       PIC X(1)
                                               VALUE SPACES.
               10  WK01-PCTG-4013-CH5311-Z              PIC X(1)
                                               VALUE SPACE.
               10  WK01-PCTG-4013-CH5311-F              PIC X(1)
                                               VALUE SPACE.
               10  WK01-PCTG-4013-CH5311-A              PIC X(1)
                                               VALUE SPACE.
               10  WK01-PCTG-4013-CH5311-V              PIC X(1)
                                               VALUE SPACE.
               10  WK01-PCTG-4013-CH5311-O              PIC X(1)
                                               VALUE SPACE.
               10  WK01-PCTG-4013-CH5311       PIC X(7)
                                               VALUE SPACES.
               10  WK01-AMT-4013-CH5311-Z              PIC X(1)
                                               VALUE SPACE.
               10  WK01-AMT-4013-CH5311-F              PIC X(1)
                                               VALUE SPACE.
               10  WK01-AMT-4013-CH5311-A              PIC X(1)
                                               VALUE SPACE.
               10  WK01-AMT-4013-CH5311-V              PIC X(1)
                                               VALUE SPACE.
               10  WK01-AMT-4013-CH5311-O              PIC X(1)
                                               VALUE SPACE.
               10  WK01-AMT-4013-CH5311       PIC X(16)
                                               VALUE SPACES.
               10  WK01-CODE-CH5312-Z              PIC X(1)
                                               VALUE SPACE.
               10  WK01-CODE-CH5312-F              PIC X(1)
                                               VALUE SPACE.
               10  WK01-CODE-CH5312-A              PIC X(1)
                                               VALUE SPACE.
               10  WK01-CODE-CH5312-V              PIC X(1)
                                               VALUE SPACE.
               10  WK01-CODE-CH5312-O              PIC X(1)
                                               VALUE SPACE.
               10  WK01-CODE-CH5312       PIC X(1)
                                               VALUE SPACES.
               10  WK01-CODE-4013-CH5312-Z              PIC X(1)
                                               VALUE SPACE.
               10  WK01-CODE-4013-CH5312-F              PIC X(1)
                                               VALUE SPACE.
               10  WK01-CODE-4013-CH5312-A              PIC X(1)
                                               VALUE SPACE.
               10  WK01-CODE-4013-CH5312-V              PIC X(1)
                                               VALUE SPACE.
               10  WK01-CODE-4013-CH5312-O              PIC X(1)
                                               VALUE SPACE.
               10  WK01-CODE-4013-CH5312       PIC X(1)
                                               VALUE SPACES.
               10  WK01-ID-4192-CH5312-Z              PIC X(1)
                                               VALUE SPACE.
               10  WK01-ID-4192-CH5312-F              PIC X(1)
                                               VALUE SPACE.
               10  WK01-ID-4192-CH5312-A              PIC X(1)
                                               VALUE SPACE.
               10  WK01-ID-4192-CH5312-V              PIC X(1)
                                               VALUE SPACE.
               10  WK01-ID-4192-CH5312-O              PIC X(1)
                                               VALUE SPACE.
               10  WK01-ID-4192-CH5312       PIC X(8)
                                               VALUE SPACES.
               10  WK01-CODE-4013-CH5A12-Z              PIC X(1)
                                               VALUE SPACE.
               10  WK01-CODE-4013-CH5A12-F              PIC X(1)
                                               VALUE SPACE.
               10  WK01-CODE-4013-CH5A12-A              PIC X(1)
                                               VALUE SPACE.
               10  WK01-CODE-4013-CH5A12-V              PIC X(1)
                                               VALUE SPACE.
               10  WK01-CODE-4013-CH5A12-O              PIC X(1)
                                               VALUE SPACE.
               10  WK01-CODE-4013-CH5A12       PIC X(4)
                                               VALUE SPACES.
               10  WK01-OVRDE-4013-CH5312-Z              PIC X(1)
                                               VALUE SPACE.
               10  WK01-OVRDE-4013-CH5312-F              PIC X(1)
                                               VALUE SPACE.
               10  WK01-OVRDE-4013-CH5312-A              PIC X(1)
                                               VALUE SPACE.
               10  WK01-OVRDE-4013-CH5312-V              PIC X(1)
                                               VALUE SPACE.
               10  WK01-OVRDE-4013-CH5312-O              PIC X(1)
                                               VALUE SPACE.
               10  WK01-OVRDE-4013-CH5312       PIC X(1)
                                               VALUE SPACES.
               10  WK01-PCTG-4013-CH5312-Z              PIC X(1)
                                               VALUE SPACE.
               10  WK01-PCTG-4013-CH5312-F              PIC X(1)
                                               VALUE SPACE.
               10  WK01-PCTG-4013-CH5312-A              PIC X(1)
                                               VALUE SPACE.
               10  WK01-PCTG-4013-CH5312-V              PIC X(1)
                                               VALUE SPACE.
               10  WK01-PCTG-4013-CH5312-O              PIC X(1)
                                               VALUE SPACE.
               10  WK01-PCTG-4013-CH5312       PIC X(7)
                                               VALUE SPACES.
               10  WK01-AMT-4013-CH5312-Z              PIC X(1)
                                               VALUE SPACE.
               10  WK01-AMT-4013-CH5312-F              PIC X(1)
                                               VALUE SPACE.
               10  WK01-AMT-4013-CH5312-A              PIC X(1)
                                               VALUE SPACE.
               10  WK01-AMT-4013-CH5312-V              PIC X(1)
                                               VALUE SPACE.
               10  WK01-AMT-4013-CH5312-O              PIC X(1)
                                               VALUE SPACE.
               10  WK01-AMT-4013-CH5312       PIC X(16)
                                               VALUE SPACES.
               10  WK01-CODE-CH5313-Z              PIC X(1)
                                               VALUE SPACE.
               10  WK01-CODE-CH5313-F              PIC X(1)
                                               VALUE SPACE.
               10  WK01-CODE-CH5313-A              PIC X(1)
                                               VALUE SPACE.
               10  WK01-CODE-CH5313-V              PIC X(1)
                                               VALUE SPACE.
               10  WK01-CODE-CH5313-O              PIC X(1)
                                               VALUE SPACE.
               10  WK01-CODE-CH5313       PIC X(1)
                                               VALUE SPACES.
               10  WK01-CODE-4013-CH5313-Z              PIC X(1)
                                               VALUE SPACE.
               10  WK01-CODE-4013-CH5313-F              PIC X(1)
                                               VALUE SPACE.
               10  WK01-CODE-4013-CH5313-A              PIC X(1)
                                               VALUE SPACE.
               10  WK01-CODE-4013-CH5313-V              PIC X(1)
                                               VALUE SPACE.
               10  WK01-CODE-4013-CH5313-O              PIC X(1)
                                               VALUE SPACE.
               10  WK01-CODE-4013-CH5313       PIC X(1)
                                               VALUE SPACES.
               10  WK01-ID-4192-CH5313-Z              PIC X(1)
                                               VALUE SPACE.
               10  WK01-ID-4192-CH5313-F              PIC X(1)
                                               VALUE SPACE.
               10  WK01-ID-4192-CH5313-A              PIC X(1)
                                               VALUE SPACE.
               10  WK01-ID-4192-CH5313-V              PIC X(1)
                                               VALUE SPACE.
               10  WK01-ID-4192-CH5313-O              PIC X(1)
                                               VALUE SPACE.
               10  WK01-ID-4192-CH5313       PIC X(8)
                                               VALUE SPACES.
               10  WK01-CODE-4013-CH5A13-Z              PIC X(1)
                                               VALUE SPACE.
               10  WK01-CODE-4013-CH5A13-F              PIC X(1)
                                               VALUE SPACE.
               10  WK01-CODE-4013-CH5A13-A              PIC X(1)
                                               VALUE SPACE.
               10  WK01-CODE-4013-CH5A13-V              PIC X(1)
                                               VALUE SPACE.
               10  WK01-CODE-4013-CH5A13-O              PIC X(1)
                                               VALUE SPACE.
               10  WK01-CODE-4013-CH5A13       PIC X(4)
                                               VALUE SPACES.
               10  WK01-OVRDE-4013-CH5313-Z              PIC X(1)
                                               VALUE SPACE.
               10  WK01-OVRDE-4013-CH5313-F              PIC X(1)
                                               VALUE SPACE.
               10  WK01-OVRDE-4013-CH5313-A              PIC X(1)
                                               VALUE SPACE.
               10  WK01-OVRDE-4013-CH5313-V              PIC X(1)
                                               VALUE SPACE.
               10  WK01-OVRDE-4013-CH5313-O              PIC X(1)
                                               VALUE SPACE.
               10  WK01-OVRDE-4013-CH5313       PIC X(1)
                                               VALUE SPACES.
               10  WK01-PCTG-4013-CH5313-Z              PIC X(1)
                                               VALUE SPACE.
               10  WK01-PCTG-4013-CH5313-F              PIC X(1)
                                               VALUE SPACE.
               10  WK01-PCTG-4013-CH5313-A              PIC X(1)
                                               VALUE SPACE.
               10  WK01-PCTG-4013-CH5313-V              PIC X(1)
                                               VALUE SPACE.
               10  WK01-PCTG-4013-CH5313-O              PIC X(1)
                                               VALUE SPACE.
               10  WK01-PCTG-4013-CH5313       PIC X(7)
                                               VALUE SPACES.
               10  WK01-AMT-4013-CH5313-Z              PIC X(1)
                                               VALUE SPACE.
               10  WK01-AMT-4013-CH5313-F              PIC X(1)
                                               VALUE SPACE.
               10  WK01-AMT-4013-CH5313-A              PIC X(1)
                                               VALUE SPACE.
               10  WK01-AMT-4013-CH5313-V              PIC X(1)
                                               VALUE SPACE.
               10  WK01-AMT-4013-CH5313-O              PIC X(1)
                                               VALUE SPACE.
               10  WK01-AMT-4013-CH5313       PIC X(16)
                                               VALUE SPACES.
               10  WK01-COA-CODE-CH53-Z              PIC X(1)
                                               VALUE SPACE.
               10  WK01-COA-CODE-CH53-F              PIC X(1)
                                               VALUE SPACE.
               10  WK01-COA-CODE-CH53-A              PIC X(1)
                                               VALUE SPACE.
               10  WK01-COA-CODE-CH53-V              PIC X(1)
                                               VALUE SPACE.
               10  WK01-COA-CODE-CH53-O              PIC X(1)
                                               VALUE SPACE.
               10  WK01-COA-CODE-CH53       PIC X(1)
                                               VALUE SPACES.
               10  WK01-USER-ID-CH53-Z              PIC X(1)
                                               VALUE SPACE.
               10  WK01-USER-ID-CH53-F              PIC X(1)
                                               VALUE SPACE.
               10  WK01-USER-ID-CH53-A              PIC X(1)
                                               VALUE SPACE.
               10  WK01-USER-ID-CH53-V              PIC X(1)
                                               VALUE SPACE.
               10  WK01-USER-ID-CH53-O              PIC X(1)
                                               VALUE SPACE.
               10  WK01-USER-ID-CH53       PIC X(8)
                                               VALUE SPACES.
               10  WK01-ZZMESSAGE-Z              PIC X(1)
                                               VALUE SPACE.
               10  WK01-ZZMESSAGE-F              PIC X(1)
                                               VALUE SPACE.
               10  WK01-ZZMESSAGE-A              PIC X(1)
                                               VALUE SPACE.
               10  WK01-ZZMESSAGE-V              PIC X(1)
                                               VALUE SPACE.
               10  WK01-ZZMESSAGE-O              PIC X(1)
                                               VALUE SPACE.
               10  WK01-ZZMESSAGE       PIC X(160)
                                               VALUE SPACES.
               10  WK01-PASSED-ONE-Z              PIC X(1)
                                               VALUE SPACE.
               10  WK01-PASSED-ONE-F              PIC X(1)
                                               VALUE SPACE.
               10  WK01-PASSED-ONE-A              PIC X(1)
                                               VALUE SPACE.
               10  WK01-PASSED-ONE-V              PIC X(1)
                                               VALUE SPACE.
               10  WK01-PASSED-ONE-O              PIC X(1)
                                               VALUE SPACE.
               10  WK01-PASSED-ONE       PIC X(32)
                                               VALUE SPACES.
               10  WK01-MAP-RESPONSE-Z              PIC X(1)
                                               VALUE SPACE.
               10  WK01-MAP-RESPONSE-F              PIC X(1)
                                               VALUE SPACE.
               10  WK01-MAP-RESPONSE-A              PIC X(1)
                                               VALUE SPACE.
               10  WK01-MAP-RESPONSE-V              PIC X(1)
                                               VALUE SPACE.
               10  WK01-MAP-RESPONSE-O              PIC X(1)
                                               VALUE SPACE.
               10  WK01-MAP-RESPONSE       PIC X(8)
                                               VALUE SPACES.
               10  WK01-TEXT-SY00-Z              PIC X(1)
                                               VALUE SPACE.
               10  WK01-TEXT-SY00-F              PIC X(1)
                                               VALUE SPACE.
               10  WK01-TEXT-SY00-A              PIC X(1)
                                               VALUE SPACE.
               10  WK01-TEXT-SY00-V              PIC X(1)
                                               VALUE SPACE.
               10  WK01-TEXT-SY00-O              PIC X(1)
                                               VALUE SPACE.
               10  WK01-TEXT-SY00       PIC X(14)
                                               VALUE SPACES.
           04  WK01-SUBSCRIPTED-WORK-AREA.
               05  FILLER                      PIC X(1).
               05  WK01-CODE-CH53-F             PIC X(1)
                                               OCCURS 13.
               05  WK01-CODE-4013-CH53-F             PIC X(1)
                                               OCCURS 13.
               05  WK01-ID-4192-CH53-F             PIC X(1)
                                               OCCURS 13.
               05  WK01-OVRDE-4013-CH53-F             PIC X(1)
                                               OCCURS 13.
               05  WK01-PCTG-4013-CH53-F             PIC X(1)
                                               OCCURS 13.
               05  WK01-AMT-4013-CH53-F             PIC X(1)
                                               OCCURS 13.
               05  WK01-CODE-4013-CH5A-F             PIC X(1)
                                               OCCURS 13.
