    ***Created by Convert/DC version V8R03 on 12/11/00 at 12:00***

      *%--------------------------------------------------------------%*
           MOVE DCLINK-MESSAGE  TO WK01-ZZMESSAGE.
      *%--------------------------------------------------------------%*
           MOVE AGR-DATE OF ADSO-APPLICATION-GLOBAL-RECORD TO WK01-DATE.
      *%--------------------------------------------------------------%*
           MOVE AGR-USER-ID OF ADSO-APPLICATION-GLOBAL-RECORD TO
                WK01-USER-ID.
      *%--------------------------------------------------------------%*
           MOVE AGR-FUNC-DESCRIPTION OF ADSO-APPLICATION-GLOBAL-RECORD
                TO WK01-FUNC-DESCRIPTION.
      *%--------------------------------------------------------------%*
           MOVE AGR-PASSED-ONE OF ADSO-APPLICATION-GLOBAL-RECORD TO
                WK01-PASSED-ONE.
      *%--------------------------------------------------------------%*
           MOVE AGR-MAP-RESPONSE OF ADSO-APPLICATION-GLOBAL-RECORD TO
                WK01-MAP-RESPONSE.
      *%--------------------------------------------------------------%*
           MOVE TRMNL-ID-SY00 OF FSYWG00M TO WK01-ID-SY00.
      *%--------------------------------------------------------------%*
           MOVE FULL-NAME-6001-SY00 OF FSYWG00M TO WK01-NAME-6001-SY00.
      *%--------------------------------------------------------------%*
           MOVE AM-PM-FLAG-SY00 OF FSYWG00M TO WK01-PM-FLAG-SY00.
      *%--------------------------------------------------------------%*
           MOVE CURR-RSPNS-ID-SY00 OF FSYWG00M TO WK01-RSPNS-ID-SY00.
      *%--------------------------------------------------------------%*
           MOVE ERROR-TEXT-SY00 OF FSYWG00M TO WK01-TEXT-SY00.
      *%--------------------------------------------------------------%*
           MOVE PAGE-STATUS-CODE-SY00 OF FSYWG00M TO
                WK01-STATUS-CODE-SY00.
      *%--------------------------------------------------------------%*
           MOVE WORK-HH-MM-TIME-SY00 OF FSYWG00M TO
                WK01-HH-MM-TIME-SY00.
      *%--------------------------------------------------------------%*
           MOVE DCSD-TEXT-SY01 OF FSYWG01M TO WK01-TEXT-SY01.
      *%--------------------------------------------------------------%*
           MOVE CNFDL-TEXT-SY01 OF FSYWG01M TO WK01-TEXT-SY0A.
      *%--------------------------------------------------------------%*
           MOVE HOLDS-TEXT-SY01 OF FSYWG01M TO WK01-TEXT-SY0B.
      *%--------------------------------------------------------------%*
           MOVE ACTN-CODE-CH07 OF FCHWM07 TO WK01-CODE-CH07.
      *%--------------------------------------------------------------%*
           MOVE PAY-MTHD-DESC-4063-CH07 OF FCHWM07 TO
                WK01-MTHD-DESC-4063-CH07.
      *%--------------------------------------------------------------%*
           MOVE NEXT-CHNG-DATE-CH07 OF FCHWM07 TO WK01-CHNG-DATE-CH07.
      *%--------------------------------------------------------------%*
           MOVE STATUS-DESC-4063-CH07 OF FCHWM07 TO WK01-DESC-4063-CH07.
      *%--------------------------------------------------------------%*
           MOVE END-DATE-4063-CH07 OF FCHWM07 TO WK01-DATE-4063-CH07.
      *%--------------------------------------------------------------%*
           MOVE ACTVY-DATE-4035-CH07 OF FCHWM07 TO WK01-DATE-4035-CH07.
      *%--------------------------------------------------------------%*
           MOVE TIME-STAMP-4063-CH07 OF FCHWM07 TO WK01-STAMP-4063-CH07.
      *%--------------------------------------------------------------%*
           MOVE AGNCY-LAST-NINE-4063-CH07 OF FCHWM07 TO
                WK01-LAST-NINE-4063-CH07.
      *%--------------------------------------------------------------%*
           MOVE RGN-4063-CH07 OF FCHWM07 TO WK01-4063-CH07.
      *%--------------------------------------------------------------%*
           MOVE AM-PM-FLAG-4063-CH07 OF FCHWM07 TO
                WK01-PM-FLAG-4063-CH07.
      *%--------------------------------------------------------------%*
           MOVE PAY-PRCS-IND-4063-CH07 OF FCHWM07 TO
                WK01-PRCS-IND-4063-CH07.
      *%--------------------------------------------------------------%*
           MOVE PAY-PRD-4063-CH07 OF FCHWM07 TO WK01-PRD-4063-CH07.
      *%--------------------------------------------------------------%*
           MOVE PMS-CODE-4063-CH07 OF FCHWM07 TO WK01-CODE-4063-CH07.
      *%--------------------------------------------------------------%*
           MOVE PAN-ID-4063-CH07 OF FCHWM07 TO WK01-ID-4063-CH07.
      *%--------------------------------------------------------------%*
           MOVE BANK-ACCT-CODE-4063-CH07 OF FCHWM07 TO
                WK01-ACCT-CODE-4063-CH07.
      *%--------------------------------------------------------------%*
           MOVE BANK-ACCT-NMBR-4062-CH07 OF FCHWM07 TO
                WK01-ACCT-NMBR-4062-CH07.
      *%--------------------------------------------------------------%*
           MOVE ADR-TYPE-CODE-4063-CH07 OF FCHWM07 TO
                WK01-TYPE-CODE-4063-CH07.
      *%--------------------------------------------------------------%*
           MOVE BANK-NAME-KEY-6311-CH07 OF FCHWM07 TO
                WK01-NAME-KEY-6311-CH07.
      *%--------------------------------------------------------------%*
           MOVE LINE-ADR-6185-CH07 OF FCHWM07(0001) TO
                WK01-ADR-6185-CH071.
      *%--------------------------------------------------------------%*
           MOVE LINE-ADR-6185-CH07 OF FCHWM07(0002) TO
                WK01-ADR-6185-CH072.
      *%--------------------------------------------------------------%*
           MOVE LINE-ADR-6185-CH07 OF FCHWM07(0003) TO
                WK01-ADR-6185-CH073.
      *%--------------------------------------------------------------%*
           MOVE CITY-NAME-6185-CH07 OF FCHWM07 TO WK01-NAME-6185-CH07.
      *%--------------------------------------------------------------%*
           MOVE STATE-CODE-6151-CH07 OF FCHWM07 TO WK01-CODE-6151-CH07.
      *%--------------------------------------------------------------%*
           MOVE ZIP-CODE-6152-CH07 OF FCHWM07 TO WK01-CODE-6152-CH07.
      *%--------------------------------------------------------------%*
           MOVE TLPHN-AREA-CODE-6185-CH07 OF FCHWM07 TO
                WK01-AREA-CODE-6185-CH07.
      *%--------------------------------------------------------------%*
           MOVE TLPHN-XCHNG-ID-6185-CH07 OF FCHWM07 TO
                WK01-XCHNG-ID-6185-CH07.
      *%--------------------------------------------------------------%*
           MOVE TLPHN-SEQ-ID-6185-CH07 OF FCHWM07 TO
                WK01-SEQ-ID-6185-CH07.
      *%--------------------------------------------------------------%*
           MOVE TLPHN-XTNSN-ID-6185-CH07 OF FCHWM07 TO
                WK01-XTNSN-ID-6185-CH07.
      *%--------------------------------------------------------------%*
           MOVE CNTRY-CODE-6153-CH07 OF FCHWM07 TO WK01-CODE-6153-CH07.
      *%--------------------------------------------------------------%*
           MOVE AGNCY-NAME-KEY-6311-CH07 OF FCHWM07 TO
                WK01-NAME-KEY-6311-CH0A.
      *%--------------------------------------------------------------%*
           MOVE CNTCT-NAME-4056-CH07 OF FCHWM07 TO WK01-NAME-4056-CH07.
      *%--------------------------------------------------------------%*
           MOVE BANK-CODE-DESC-4062-CH07 OF FCHWM07 TO
                WK01-CODE-DESC-4062-CH07.
      *%--------------------------------------------------------------%*
           MOVE BANK-ID-LAST-NINE-4062-CH07 OF FCHWM07 TO
                WK01-ID-LAST-NN-4062-CH07.
      *%--------------------------------------------------------------%*
           MOVE COA-CODE-4035-CH07 OF FCHWK07 TO WK01-CODE-4035-CH07.
      *%--------------------------------------------------------------%*
           MOVE START-DATE-4063-CH07 OF FCHWK07 TO WK01-DATE-4063-CH0A.
      *%--------------------------------------------------------------%*
           MOVE PAY-MTHD-CODE-4035-CH07 OF FCHWK07 TO
                WK01-MTHD-CODE-4035-CH07.
      *%--------------------------------------------------------------%*
           MOVE PIN-4063-CH07 OF FCHWM07 TO WK01-4063-CH0A.
