       01  MAP-CONTROL.

    ***Created by Convert/DC version V8R03 on 11/17/00 at 17:00***

           02  FCHMI87-MAP-CONTROL.
           03  FCHMI87T.
           04  WK01-DCXMAPL-PARMS.
               10  WK01-MAPNAME                  PIC X(8)
                                                 VALUE 'FCHMI87I'.
               10  WK01-IKE-LENGTH               PIC S9(8)  COMP
                                                 VALUE 15757.
               10  WK01-TINA-LENGTH              PIC S9(4)  COMP
                                                 VALUE 1276.
           05  WK01-ATTRIBUTES                   PIC X(60)
                                                 VALUE SPACE.
           05  WK01-ATTRIBUTES-ERROR             PIC X(60) VALUE
               'U  BIF'.
           05  WK01-CURSOR-DFLD                  PIC X(36)
                                                 VALUE SPACES.
           05  WK01-CURSOR-DFLD-QUAL             PIC X(30)
                                                 VALUE SPACES.
           05  WK01-ROW                          PIC S9(4) COMP
                                                 VALUE ZERO.
           05  WK01-COLUMN                       PIC S9(4) COMP
                                                 VALUE ZERO.
           05  WK01-ERROR-MSG                    PIC X(80)
                                                 VALUE SPACES.
           05  WK01-MAP-DATA-LEN                 PIC S9(6)
                                                 VALUE ZERO.
           05  WK01-1ST-FLAG                     PIC X(1)
                                                 VALUE 'Y'.
           05  WK01-FLAG-OUTPUT-DATA             PIC X(1)
                                                 VALUE 'Y'.
      *    05  WK01-STATUS-RETURN-FLAG           PIC X(1)
      *                                          VALUE SPACES.
           05  WK01-ALL-BUT-FLAG                 PIC X(1)
                                                 VALUE SPACES.
           05  WK01-FLAG-ALL-FIELDS-CHANGED      PIC X(1)  VALUE 'Y'.
           05  WK01-FLAG-ANY-FIELDS-CHANGED      PIC X(1)  VALUE 'N'.
           05  WK01-FLAG-ALL-FIELDS-ERROR        PIC X(1)  VALUE 'Y'.
           05  WK01-FLAG-ANY-FIELDS-ERROR        PIC X(1)  VALUE 'N'.
           05  WK01-FLAG-ALL-FIELDS-ERASE        PIC X(1)  VALUE 'Y'.
           05  WK01-FLAG-ANY-FIELDS-ERASE        PIC X(1)  VALUE 'Y'.

           05  WK01-VARDATA                      PIC X(11880)
                                                 VALUE SPACES.
           05  FILLER                            PIC X(100)
                                                 VALUE SPACES.
           04  WK01-ELEMENT-AREA.

               10  WK01-ID-SY00-Z              PIC X(1)
                                               VALUE SPACE.
               10  WK01-ID-SY00-F              PIC X(1)
                                               VALUE SPACE.
               10  WK01-ID-SY00-A              PIC X(1)
                                               VALUE SPACE.
               10  WK01-ID-SY00-V              PIC X(1)
                                               VALUE SPACE.
               10  WK01-ID-SY00-O              PIC X(1)
                                               VALUE SPACE.
               10  WK01-ID-SY00       PIC X(8)
                                               VALUE SPACES.
               10  WK01-NAME-6000-CH871-Z              PIC X(1)
                                               VALUE SPACE.
               10  WK01-NAME-6000-CH871-F              PIC X(1)
                                               VALUE SPACE.
               10  WK01-NAME-6000-CH871-A              PIC X(1)
                                               VALUE SPACE.
               10  WK01-NAME-6000-CH871-V              PIC X(1)
                                               VALUE SPACE.
               10  WK01-NAME-6000-CH871-O              PIC X(1)
                                               VALUE SPACE.
               10  WK01-NAME-6000-CH871       PIC X(35)
                                               VALUE SPACES.
               10  WK01-DATE-Z              PIC X(1)
                                               VALUE SPACE.
               10  WK01-DATE-F              PIC X(1)
                                               VALUE SPACE.
               10  WK01-DATE-A              PIC X(1)
                                               VALUE SPACE.
               10  WK01-DATE-V              PIC X(1)
                                               VALUE SPACE.
               10  WK01-DATE-O              PIC X(1)
                                               VALUE SPACE.
               10  WK01-DATE       PIC X(8)
                                               VALUE SPACES.
               10  WK01-HH-MM-TIME-SY00-Z              PIC X(1)
                                               VALUE SPACE.
               10  WK01-HH-MM-TIME-SY00-F              PIC X(1)
                                               VALUE SPACE.
               10  WK01-HH-MM-TIME-SY00-A              PIC X(1)
                                               VALUE SPACE.
               10  WK01-HH-MM-TIME-SY00-V              PIC X(1)
                                               VALUE SPACE.
               10  WK01-HH-MM-TIME-SY00-O              PIC X(1)
                                               VALUE SPACE.
               10  WK01-HH-MM-TIME-SY00       PIC X(4)
                                               VALUE SPACES.
               10  WK01-PM-FLAG-SY00-Z              PIC X(1)
                                               VALUE SPACE.
               10  WK01-PM-FLAG-SY00-F              PIC X(1)
                                               VALUE SPACE.
               10  WK01-PM-FLAG-SY00-A              PIC X(1)
                                               VALUE SPACE.
               10  WK01-PM-FLAG-SY00-V              PIC X(1)
                                               VALUE SPACE.
               10  WK01-PM-FLAG-SY00-O              PIC X(1)
                                               VALUE SPACE.
               10  WK01-PM-FLAG-SY00       PIC X(1)
                                               VALUE SPACES.
               10  WK01-USER-ID-Z              PIC X(1)
                                               VALUE SPACE.
               10  WK01-USER-ID-F              PIC X(1)
                                               VALUE SPACE.
               10  WK01-USER-ID-A              PIC X(1)
                                               VALUE SPACE.
               10  WK01-USER-ID-V              PIC X(1)
                                               VALUE SPACE.
               10  WK01-USER-ID-O              PIC X(1)
                                               VALUE SPACE.
               10  WK01-USER-ID       PIC X(32)
                                               VALUE SPACES.
               10  WK01-RSPNS-ID-SY00-Z              PIC X(1)
                                               VALUE SPACE.
               10  WK01-RSPNS-ID-SY00-F              PIC X(1)
                                               VALUE SPACE.
               10  WK01-RSPNS-ID-SY00-A              PIC X(1)
                                               VALUE SPACE.
               10  WK01-RSPNS-ID-SY00-V              PIC X(1)
                                               VALUE SPACE.
               10  WK01-RSPNS-ID-SY00-O              PIC X(1)
                                               VALUE SPACE.
               10  WK01-RSPNS-ID-SY00       PIC X(8)
                                               VALUE SPACES.
               10  WK01-FUNC-DESCRIPTION-Z              PIC X(1)
                                               VALUE SPACE.
               10  WK01-FUNC-DESCRIPTION-F              PIC X(1)
                                               VALUE SPACE.
               10  WK01-FUNC-DESCRIPTION-A              PIC X(1)
                                               VALUE SPACE.
               10  WK01-FUNC-DESCRIPTION-V              PIC X(1)
                                               VALUE SPACE.
               10  WK01-FUNC-DESCRIPTION-O              PIC X(1)
                                               VALUE SPACE.
               10  WK01-FUNC-DESCRIPTION       PIC X(28)
                                               VALUE SPACES.
               10  WK01-STATUS-CODE-SY00-Z              PIC X(1)
                                               VALUE SPACE.
               10  WK01-STATUS-CODE-SY00-F              PIC X(1)
                                               VALUE SPACE.
               10  WK01-STATUS-CODE-SY00-A              PIC X(1)
                                               VALUE SPACE.
               10  WK01-STATUS-CODE-SY00-V              PIC X(1)
                                               VALUE SPACE.
               10  WK01-STATUS-CODE-SY00-O              PIC X(1)
                                               VALUE SPACE.
               10  WK01-STATUS-CODE-SY00       PIC X(1)
                                               VALUE SPACES.
               10  WK01-NAME-6000-CH872-Z              PIC X(1)
                                               VALUE SPACE.
               10  WK01-NAME-6000-CH872-F              PIC X(1)
                                               VALUE SPACE.
               10  WK01-NAME-6000-CH872-A              PIC X(1)
                                               VALUE SPACE.
               10  WK01-NAME-6000-CH872-V              PIC X(1)
                                               VALUE SPACE.
               10  WK01-NAME-6000-CH872-O              PIC X(1)
                                               VALUE SPACE.
               10  WK01-NAME-6000-CH872       PIC X(35)
                                               VALUE SPACES.
               10  WK01-ADR-6000-CH871-Z              PIC X(1)
                                               VALUE SPACE.
               10  WK01-ADR-6000-CH871-F              PIC X(1)
                                               VALUE SPACE.
               10  WK01-ADR-6000-CH871-A              PIC X(1)
                                               VALUE SPACE.
               10  WK01-ADR-6000-CH871-V              PIC X(1)
                                               VALUE SPACE.
               10  WK01-ADR-6000-CH871-O              PIC X(1)
                                               VALUE SPACE.
               10  WK01-ADR-6000-CH871       PIC X(35)
                                               VALUE SPACES.
               10  WK01-ADR-6000-CH872-Z              PIC X(1)
                                               VALUE SPACE.
               10  WK01-ADR-6000-CH872-F              PIC X(1)
                                               VALUE SPACE.
               10  WK01-ADR-6000-CH872-A              PIC X(1)
                                               VALUE SPACE.
               10  WK01-ADR-6000-CH872-V              PIC X(1)
                                               VALUE SPACE.
               10  WK01-ADR-6000-CH872-O              PIC X(1)
                                               VALUE SPACE.
               10  WK01-ADR-6000-CH872       PIC X(35)
                                               VALUE SPACES.
               10  WK01-ADR-6000-CH873-Z              PIC X(1)
                                               VALUE SPACE.
               10  WK01-ADR-6000-CH873-F              PIC X(1)
                                               VALUE SPACE.
               10  WK01-ADR-6000-CH873-A              PIC X(1)
                                               VALUE SPACE.
               10  WK01-ADR-6000-CH873-V              PIC X(1)
                                               VALUE SPACE.
               10  WK01-ADR-6000-CH873-O              PIC X(1)
                                               VALUE SPACE.
               10  WK01-ADR-6000-CH873       PIC X(35)
                                               VALUE SPACES.
               10  WK01-ADR-6000-CH874-Z              PIC X(1)
                                               VALUE SPACE.
               10  WK01-ADR-6000-CH874-F              PIC X(1)
                                               VALUE SPACE.
               10  WK01-ADR-6000-CH874-A              PIC X(1)
                                               VALUE SPACE.
               10  WK01-ADR-6000-CH874-V              PIC X(1)
                                               VALUE SPACE.
               10  WK01-ADR-6000-CH874-O              PIC X(1)
                                               VALUE SPACE.
               10  WK01-ADR-6000-CH874       PIC X(35)
                                               VALUE SPACES.
               10  WK01-ADR-6000-CH875-Z              PIC X(1)
                                               VALUE SPACE.
               10  WK01-ADR-6000-CH875-F              PIC X(1)
                                               VALUE SPACE.
               10  WK01-ADR-6000-CH875-A              PIC X(1)
                                               VALUE SPACE.
               10  WK01-ADR-6000-CH875-V              PIC X(1)
                                               VALUE SPACE.
               10  WK01-ADR-6000-CH875-O              PIC X(1)
                                               VALUE SPACE.
               10  WK01-ADR-6000-CH875       PIC X(35)
                                               VALUE SPACES.
               10  WK01-CODE-CH871-Z              PIC X(1)
                                               VALUE SPACE.
               10  WK01-CODE-CH871-F              PIC X(1)
                                               VALUE SPACE.
               10  WK01-CODE-CH871-A              PIC X(1)
                                               VALUE SPACE.
               10  WK01-CODE-CH871-V              PIC X(1)
                                               VALUE SPACE.
               10  WK01-CODE-CH871-O              PIC X(1)
                                               VALUE SPACE.
               10  WK01-CODE-CH871       PIC X(1)
                                               VALUE SPACES.
               10  WK01-CODE-6001-CH871-Z              PIC X(1)
                                               VALUE SPACE.
               10  WK01-CODE-6001-CH871-F              PIC X(1)
                                               VALUE SPACE.
               10  WK01-CODE-6001-CH871-A              PIC X(1)
                                               VALUE SPACE.
               10  WK01-CODE-6001-CH871-V              PIC X(1)
                                               VALUE SPACE.
               10  WK01-CODE-6001-CH871-O              PIC X(1)
                                               VALUE SPACE.
               10  WK01-CODE-6001-CH871       PIC X(6)
                                               VALUE SPACES.
               10  WK01-NAME-6001-CH871-Z              PIC X(1)
                                               VALUE SPACE.
               10  WK01-NAME-6001-CH871-F              PIC X(1)
                                               VALUE SPACE.
               10  WK01-NAME-6001-CH871-A              PIC X(1)
                                               VALUE SPACE.
               10  WK01-NAME-6001-CH871-V              PIC X(1)
                                               VALUE SPACE.
               10  WK01-NAME-6001-CH871-O              PIC X(1)
                                               VALUE SPACE.
               10  WK01-NAME-6001-CH871       PIC X(35)
                                               VALUE SPACES.
               10  WK01-NAME-6001-CH8A1-Z              PIC X(1)
                                               VALUE SPACE.
               10  WK01-NAME-6001-CH8A1-F              PIC X(1)
                                               VALUE SPACE.
               10  WK01-NAME-6001-CH8A1-A              PIC X(1)
                                               VALUE SPACE.
               10  WK01-NAME-6001-CH8A1-V              PIC X(1)
                                               VALUE SPACE.
               10  WK01-NAME-6001-CH8A1-O              PIC X(1)
                                               VALUE SPACE.
               10  WK01-NAME-6001-CH8A1       PIC X(10)
                                               VALUE SPACES.
               10  WK01-CODE-6001-CH8A1-Z              PIC X(1)
                                               VALUE SPACE.
               10  WK01-CODE-6001-CH8A1-F              PIC X(1)
                                               VALUE SPACE.
               10  WK01-CODE-6001-CH8A1-A              PIC X(1)
                                               VALUE SPACE.
               10  WK01-CODE-6001-CH8A1-V              PIC X(1)
                                               VALUE SPACE.
               10  WK01-CODE-6001-CH8A1-O              PIC X(1)
                                               VALUE SPACE.
               10  WK01-CODE-6001-CH8A1       PIC X(2)
                                               VALUE SPACES.
               10  WK01-CODE-CH872-Z              PIC X(1)
                                               VALUE SPACE.
               10  WK01-CODE-CH872-F              PIC X(1)
                                               VALUE SPACE.
               10  WK01-CODE-CH872-A              PIC X(1)
                                               VALUE SPACE.
               10  WK01-CODE-CH872-V              PIC X(1)
                                               VALUE SPACE.
               10  WK01-CODE-CH872-O              PIC X(1)
                                               VALUE SPACE.
               10  WK01-CODE-CH872       PIC X(1)
                                               VALUE SPACES.
               10  WK01-CODE-6001-CH872-Z              PIC X(1)
                                               VALUE SPACE.
               10  WK01-CODE-6001-CH872-F              PIC X(1)
                                               VALUE SPACE.
               10  WK01-CODE-6001-CH872-A              PIC X(1)
                                               VALUE SPACE.
               10  WK01-CODE-6001-CH872-V              PIC X(1)
                                               VALUE SPACE.
               10  WK01-CODE-6001-CH872-O              PIC X(1)
                                               VALUE SPACE.
               10  WK01-CODE-6001-CH872       PIC X(6)
                                               VALUE SPACES.
               10  WK01-NAME-6001-CH872-Z              PIC X(1)
                                               VALUE SPACE.
               10  WK01-NAME-6001-CH872-F              PIC X(1)
                                               VALUE SPACE.
               10  WK01-NAME-6001-CH872-A              PIC X(1)
                                               VALUE SPACE.
               10  WK01-NAME-6001-CH872-V              PIC X(1)
                                               VALUE SPACE.
               10  WK01-NAME-6001-CH872-O              PIC X(1)
                                               VALUE SPACE.
               10  WK01-NAME-6001-CH872       PIC X(35)
                                               VALUE SPACES.
               10  WK01-NAME-6001-CH8A2-Z              PIC X(1)
                                               VALUE SPACE.
               10  WK01-NAME-6001-CH8A2-F              PIC X(1)
                                               VALUE SPACE.
               10  WK01-NAME-6001-CH8A2-A              PIC X(1)
                                               VALUE SPACE.
               10  WK01-NAME-6001-CH8A2-V              PIC X(1)
                                               VALUE SPACE.
               10  WK01-NAME-6001-CH8A2-O              PIC X(1)
                                               VALUE SPACE.
               10  WK01-NAME-6001-CH8A2       PIC X(10)
                                               VALUE SPACES.
               10  WK01-CODE-6001-CH8A2-Z              PIC X(1)
                                               VALUE SPACE.
               10  WK01-CODE-6001-CH8A2-F              PIC X(1)
                                               VALUE SPACE.
               10  WK01-CODE-6001-CH8A2-A              PIC X(1)
                                               VALUE SPACE.
               10  WK01-CODE-6001-CH8A2-V              PIC X(1)
                                               VALUE SPACE.
               10  WK01-CODE-6001-CH8A2-O              PIC X(1)
                                               VALUE SPACE.
               10  WK01-CODE-6001-CH8A2       PIC X(2)
                                               VALUE SPACES.
               10  WK01-CODE-CH873-Z              PIC X(1)
                                               VALUE SPACE.
               10  WK01-CODE-CH873-F              PIC X(1)
                                               VALUE SPACE.
               10  WK01-CODE-CH873-A              PIC X(1)
                                               VALUE SPACE.
               10  WK01-CODE-CH873-V              PIC X(1)
                                               VALUE SPACE.
               10  WK01-CODE-CH873-O              PIC X(1)
                                               VALUE SPACE.
               10  WK01-CODE-CH873       PIC X(1)
                                               VALUE SPACES.
               10  WK01-CODE-6001-CH873-Z              PIC X(1)
                                               VALUE SPACE.
               10  WK01-CODE-6001-CH873-F              PIC X(1)
                                               VALUE SPACE.
               10  WK01-CODE-6001-CH873-A              PIC X(1)
                                               VALUE SPACE.
               10  WK01-CODE-6001-CH873-V              PIC X(1)
                                               VALUE SPACE.
               10  WK01-CODE-6001-CH873-O              PIC X(1)
                                               VALUE SPACE.
               10  WK01-CODE-6001-CH873       PIC X(6)
                                               VALUE SPACES.
               10  WK01-NAME-6001-CH873-Z              PIC X(1)
                                               VALUE SPACE.
               10  WK01-NAME-6001-CH873-F              PIC X(1)
                                               VALUE SPACE.
               10  WK01-NAME-6001-CH873-A              PIC X(1)
                                               VALUE SPACE.
               10  WK01-NAME-6001-CH873-V              PIC X(1)
                                               VALUE SPACE.
               10  WK01-NAME-6001-CH873-O              PIC X(1)
                                               VALUE SPACE.
               10  WK01-NAME-6001-CH873       PIC X(35)
                                               VALUE SPACES.
               10  WK01-NAME-6001-CH8A3-Z              PIC X(1)
                                               VALUE SPACE.
               10  WK01-NAME-6001-CH8A3-F              PIC X(1)
                                               VALUE SPACE.
               10  WK01-NAME-6001-CH8A3-A              PIC X(1)
                                               VALUE SPACE.
               10  WK01-NAME-6001-CH8A3-V              PIC X(1)
                                               VALUE SPACE.
               10  WK01-NAME-6001-CH8A3-O              PIC X(1)
                                               VALUE SPACE.
               10  WK01-NAME-6001-CH8A3       PIC X(10)
                                               VALUE SPACES.
               10  WK01-CODE-6001-CH8A3-Z              PIC X(1)
                                               VALUE SPACE.
               10  WK01-CODE-6001-CH8A3-F              PIC X(1)
                                               VALUE SPACE.
               10  WK01-CODE-6001-CH8A3-A              PIC X(1)
                                               VALUE SPACE.
               10  WK01-CODE-6001-CH8A3-V              PIC X(1)
                                               VALUE SPACE.
               10  WK01-CODE-6001-CH8A3-O              PIC X(1)
                                               VALUE SPACE.
               10  WK01-CODE-6001-CH8A3       PIC X(2)
                                               VALUE SPACES.
               10  WK01-CODE-CH874-Z              PIC X(1)
                                               VALUE SPACE.
               10  WK01-CODE-CH874-F              PIC X(1)
                                               VALUE SPACE.
               10  WK01-CODE-CH874-A              PIC X(1)
                                               VALUE SPACE.
               10  WK01-CODE-CH874-V              PIC X(1)
                                               VALUE SPACE.
               10  WK01-CODE-CH874-O              PIC X(1)
                                               VALUE SPACE.
               10  WK01-CODE-CH874       PIC X(1)
                                               VALUE SPACES.
               10  WK01-CODE-6001-CH874-Z              PIC X(1)
                                               VALUE SPACE.
               10  WK01-CODE-6001-CH874-F              PIC X(1)
                                               VALUE SPACE.
               10  WK01-CODE-6001-CH874-A              PIC X(1)
                                               VALUE SPACE.
               10  WK01-CODE-6001-CH874-V              PIC X(1)
                                               VALUE SPACE.
               10  WK01-CODE-6001-CH874-O              PIC X(1)
                                               VALUE SPACE.
               10  WK01-CODE-6001-CH874       PIC X(6)
                                               VALUE SPACES.
               10  WK01-NAME-6001-CH874-Z              PIC X(1)
                                               VALUE SPACE.
               10  WK01-NAME-6001-CH874-F              PIC X(1)
                                               VALUE SPACE.
               10  WK01-NAME-6001-CH874-A              PIC X(1)
                                               VALUE SPACE.
               10  WK01-NAME-6001-CH874-V              PIC X(1)
                                               VALUE SPACE.
               10  WK01-NAME-6001-CH874-O              PIC X(1)
                                               VALUE SPACE.
               10  WK01-NAME-6001-CH874       PIC X(35)
                                               VALUE SPACES.
               10  WK01-NAME-6001-CH8A4-Z              PIC X(1)
                                               VALUE SPACE.
               10  WK01-NAME-6001-CH8A4-F              PIC X(1)
                                               VALUE SPACE.
               10  WK01-NAME-6001-CH8A4-A              PIC X(1)
                                               VALUE SPACE.
               10  WK01-NAME-6001-CH8A4-V              PIC X(1)
                                               VALUE SPACE.
               10  WK01-NAME-6001-CH8A4-O              PIC X(1)
                                               VALUE SPACE.
               10  WK01-NAME-6001-CH8A4       PIC X(10)
                                               VALUE SPACES.
               10  WK01-CODE-6001-CH8A4-Z              PIC X(1)
                                               VALUE SPACE.
               10  WK01-CODE-6001-CH8A4-F              PIC X(1)
                                               VALUE SPACE.
               10  WK01-CODE-6001-CH8A4-A              PIC X(1)
                                               VALUE SPACE.
               10  WK01-CODE-6001-CH8A4-V              PIC X(1)
                                               VALUE SPACE.
               10  WK01-CODE-6001-CH8A4-O              PIC X(1)
                                               VALUE SPACE.
               10  WK01-CODE-6001-CH8A4       PIC X(2)
                                               VALUE SPACES.
               10  WK01-CODE-CH875-Z              PIC X(1)
                                               VALUE SPACE.
               10  WK01-CODE-CH875-F              PIC X(1)
                                               VALUE SPACE.
               10  WK01-CODE-CH875-A              PIC X(1)
                                               VALUE SPACE.
               10  WK01-CODE-CH875-V              PIC X(1)
                                               VALUE SPACE.
               10  WK01-CODE-CH875-O              PIC X(1)
                                               VALUE SPACE.
               10  WK01-CODE-CH875       PIC X(1)
                                               VALUE SPACES.
               10  WK01-CODE-6001-CH875-Z              PIC X(1)
                                               VALUE SPACE.
               10  WK01-CODE-6001-CH875-F              PIC X(1)
                                               VALUE SPACE.
               10  WK01-CODE-6001-CH875-A              PIC X(1)
                                               VALUE SPACE.
               10  WK01-CODE-6001-CH875-V              PIC X(1)
                                               VALUE SPACE.
               10  WK01-CODE-6001-CH875-O              PIC X(1)
                                               VALUE SPACE.
               10  WK01-CODE-6001-CH875       PIC X(6)
                                               VALUE SPACES.
               10  WK01-NAME-6001-CH875-Z              PIC X(1)
                                               VALUE SPACE.
               10  WK01-NAME-6001-CH875-F              PIC X(1)
                                               VALUE SPACE.
               10  WK01-NAME-6001-CH875-A              PIC X(1)
                                               VALUE SPACE.
               10  WK01-NAME-6001-CH875-V              PIC X(1)
                                               VALUE SPACE.
               10  WK01-NAME-6001-CH875-O              PIC X(1)
                                               VALUE SPACE.
               10  WK01-NAME-6001-CH875       PIC X(35)
                                               VALUE SPACES.
               10  WK01-NAME-6001-CH8A5-Z              PIC X(1)
                                               VALUE SPACE.
               10  WK01-NAME-6001-CH8A5-F              PIC X(1)
                                               VALUE SPACE.
               10  WK01-NAME-6001-CH8A5-A              PIC X(1)
                                               VALUE SPACE.
               10  WK01-NAME-6001-CH8A5-V              PIC X(1)
                                               VALUE SPACE.
               10  WK01-NAME-6001-CH8A5-O              PIC X(1)
                                               VALUE SPACE.
               10  WK01-NAME-6001-CH8A5       PIC X(10)
                                               VALUE SPACES.
               10  WK01-CODE-6001-CH8A5-Z              PIC X(1)
                                               VALUE SPACE.
               10  WK01-CODE-6001-CH8A5-F              PIC X(1)
                                               VALUE SPACE.
               10  WK01-CODE-6001-CH8A5-A              PIC X(1)
                                               VALUE SPACE.
               10  WK01-CODE-6001-CH8A5-V              PIC X(1)
                                               VALUE SPACE.
               10  WK01-CODE-6001-CH8A5-O              PIC X(1)
                                               VALUE SPACE.
               10  WK01-CODE-6001-CH8A5       PIC X(2)
                                               VALUE SPACES.
               10  WK01-CODE-CH876-Z              PIC X(1)
                                               VALUE SPACE.
               10  WK01-CODE-CH876-F              PIC X(1)
                                               VALUE SPACE.
               10  WK01-CODE-CH876-A              PIC X(1)
                                               VALUE SPACE.
               10  WK01-CODE-CH876-V              PIC X(1)
                                               VALUE SPACE.
               10  WK01-CODE-CH876-O              PIC X(1)
                                               VALUE SPACE.
               10  WK01-CODE-CH876       PIC X(1)
                                               VALUE SPACES.
               10  WK01-CODE-6001-CH876-Z              PIC X(1)
                                               VALUE SPACE.
               10  WK01-CODE-6001-CH876-F              PIC X(1)
                                               VALUE SPACE.
               10  WK01-CODE-6001-CH876-A              PIC X(1)
                                               VALUE SPACE.
               10  WK01-CODE-6001-CH876-V              PIC X(1)
                                               VALUE SPACE.
               10  WK01-CODE-6001-CH876-O              PIC X(1)
                                               VALUE SPACE.
               10  WK01-CODE-6001-CH876       PIC X(6)
                                               VALUE SPACES.
               10  WK01-NAME-6001-CH876-Z              PIC X(1)
                                               VALUE SPACE.
               10  WK01-NAME-6001-CH876-F              PIC X(1)
                                               VALUE SPACE.
               10  WK01-NAME-6001-CH876-A              PIC X(1)
                                               VALUE SPACE.
               10  WK01-NAME-6001-CH876-V              PIC X(1)
                                               VALUE SPACE.
               10  WK01-NAME-6001-CH876-O              PIC X(1)
                                               VALUE SPACE.
               10  WK01-NAME-6001-CH876       PIC X(35)
                                               VALUE SPACES.
               10  WK01-NAME-6001-CH8A6-Z              PIC X(1)
                                               VALUE SPACE.
               10  WK01-NAME-6001-CH8A6-F              PIC X(1)
                                               VALUE SPACE.
               10  WK01-NAME-6001-CH8A6-A              PIC X(1)
                                               VALUE SPACE.
               10  WK01-NAME-6001-CH8A6-V              PIC X(1)
                                               VALUE SPACE.
               10  WK01-NAME-6001-CH8A6-O              PIC X(1)
                                               VALUE SPACE.
               10  WK01-NAME-6001-CH8A6       PIC X(10)
                                               VALUE SPACES.
               10  WK01-CODE-6001-CH8A6-Z              PIC X(1)
                                               VALUE SPACE.
               10  WK01-CODE-6001-CH8A6-F              PIC X(1)
                                               VALUE SPACE.
               10  WK01-CODE-6001-CH8A6-A              PIC X(1)
                                               VALUE SPACE.
               10  WK01-CODE-6001-CH8A6-V              PIC X(1)
                                               VALUE SPACE.
               10  WK01-CODE-6001-CH8A6-O              PIC X(1)
                                               VALUE SPACE.
               10  WK01-CODE-6001-CH8A6       PIC X(2)
                                               VALUE SPACES.
               10  WK01-CODE-CH877-Z              PIC X(1)
                                               VALUE SPACE.
               10  WK01-CODE-CH877-F              PIC X(1)
                                               VALUE SPACE.
               10  WK01-CODE-CH877-A              PIC X(1)
                                               VALUE SPACE.
               10  WK01-CODE-CH877-V              PIC X(1)
                                               VALUE SPACE.
               10  WK01-CODE-CH877-O              PIC X(1)
                                               VALUE SPACE.
               10  WK01-CODE-CH877       PIC X(1)
                                               VALUE SPACES.
               10  WK01-CODE-6001-CH877-Z              PIC X(1)
                                               VALUE SPACE.
               10  WK01-CODE-6001-CH877-F              PIC X(1)
                                               VALUE SPACE.
               10  WK01-CODE-6001-CH877-A              PIC X(1)
                                               VALUE SPACE.
               10  WK01-CODE-6001-CH877-V              PIC X(1)
                                               VALUE SPACE.
               10  WK01-CODE-6001-CH877-O              PIC X(1)
                                               VALUE SPACE.
               10  WK01-CODE-6001-CH877       PIC X(6)
                                               VALUE SPACES.
               10  WK01-NAME-6001-CH877-Z              PIC X(1)
                                               VALUE SPACE.
               10  WK01-NAME-6001-CH877-F              PIC X(1)
                                               VALUE SPACE.
               10  WK01-NAME-6001-CH877-A              PIC X(1)
                                               VALUE SPACE.
               10  WK01-NAME-6001-CH877-V              PIC X(1)
                                               VALUE SPACE.
               10  WK01-NAME-6001-CH877-O              PIC X(1)
                                               VALUE SPACE.
               10  WK01-NAME-6001-CH877       PIC X(35)
                                               VALUE SPACES.
               10  WK01-NAME-6001-CH8A7-Z              PIC X(1)
                                               VALUE SPACE.
               10  WK01-NAME-6001-CH8A7-F              PIC X(1)
                                               VALUE SPACE.
               10  WK01-NAME-6001-CH8A7-A              PIC X(1)
                                               VALUE SPACE.
               10  WK01-NAME-6001-CH8A7-V              PIC X(1)
                                               VALUE SPACE.
               10  WK01-NAME-6001-CH8A7-O              PIC X(1)
                                               VALUE SPACE.
               10  WK01-NAME-6001-CH8A7       PIC X(10)
                                               VALUE SPACES.
               10  WK01-CODE-6001-CH8A7-Z              PIC X(1)
                                               VALUE SPACE.
               10  WK01-CODE-6001-CH8A7-F              PIC X(1)
                                               VALUE SPACE.
               10  WK01-CODE-6001-CH8A7-A              PIC X(1)
                                               VALUE SPACE.
               10  WK01-CODE-6001-CH8A7-V              PIC X(1)
                                               VALUE SPACE.
               10  WK01-CODE-6001-CH8A7-O              PIC X(1)
                                               VALUE SPACE.
               10  WK01-CODE-6001-CH8A7       PIC X(2)
                                               VALUE SPACES.
               10  WK01-CODE-CH878-Z              PIC X(1)
                                               VALUE SPACE.
               10  WK01-CODE-CH878-F              PIC X(1)
                                               VALUE SPACE.
               10  WK01-CODE-CH878-A              PIC X(1)
                                               VALUE SPACE.
               10  WK01-CODE-CH878-V              PIC X(1)
                                               VALUE SPACE.
               10  WK01-CODE-CH878-O              PIC X(1)
                                               VALUE SPACE.
               10  WK01-CODE-CH878       PIC X(1)
                                               VALUE SPACES.
               10  WK01-CODE-6001-CH878-Z              PIC X(1)
                                               VALUE SPACE.
               10  WK01-CODE-6001-CH878-F              PIC X(1)
                                               VALUE SPACE.
               10  WK01-CODE-6001-CH878-A              PIC X(1)
                                               VALUE SPACE.
               10  WK01-CODE-6001-CH878-V              PIC X(1)
                                               VALUE SPACE.
               10  WK01-CODE-6001-CH878-O              PIC X(1)
                                               VALUE SPACE.
               10  WK01-CODE-6001-CH878       PIC X(6)
                                               VALUE SPACES.
               10  WK01-NAME-6001-CH878-Z              PIC X(1)
                                               VALUE SPACE.
               10  WK01-NAME-6001-CH878-F              PIC X(1)
                                               VALUE SPACE.
               10  WK01-NAME-6001-CH878-A              PIC X(1)
                                               VALUE SPACE.
               10  WK01-NAME-6001-CH878-V              PIC X(1)
                                               VALUE SPACE.
               10  WK01-NAME-6001-CH878-O              PIC X(1)
                                               VALUE SPACE.
               10  WK01-NAME-6001-CH878       PIC X(35)
                                               VALUE SPACES.
               10  WK01-NAME-6001-CH8A8-Z              PIC X(1)
                                               VALUE SPACE.
               10  WK01-NAME-6001-CH8A8-F              PIC X(1)
                                               VALUE SPACE.
               10  WK01-NAME-6001-CH8A8-A              PIC X(1)
                                               VALUE SPACE.
               10  WK01-NAME-6001-CH8A8-V              PIC X(1)
                                               VALUE SPACE.
               10  WK01-NAME-6001-CH8A8-O              PIC X(1)
                                               VALUE SPACE.
               10  WK01-NAME-6001-CH8A8       PIC X(10)
                                               VALUE SPACES.
               10  WK01-CODE-6001-CH8A8-Z              PIC X(1)
                                               VALUE SPACE.
               10  WK01-CODE-6001-CH8A8-F              PIC X(1)
                                               VALUE SPACE.
               10  WK01-CODE-6001-CH8A8-A              PIC X(1)
                                               VALUE SPACE.
               10  WK01-CODE-6001-CH8A8-V              PIC X(1)
                                               VALUE SPACE.
               10  WK01-CODE-6001-CH8A8-O              PIC X(1)
                                               VALUE SPACE.
               10  WK01-CODE-6001-CH8A8       PIC X(2)
                                               VALUE SPACES.
               10  WK01-ZZMESSAGE-Z              PIC X(1)
                                               VALUE SPACE.
               10  WK01-ZZMESSAGE-F              PIC X(1)
                                               VALUE SPACE.
               10  WK01-ZZMESSAGE-A              PIC X(1)
                                               VALUE SPACE.
               10  WK01-ZZMESSAGE-V              PIC X(1)
                                               VALUE SPACE.
               10  WK01-ZZMESSAGE-O              PIC X(1)
                                               VALUE SPACE.
               10  WK01-ZZMESSAGE       PIC X(160)
                                               VALUE SPACES.
               10  WK01-PASSED-ONE-Z              PIC X(1)
                                               VALUE SPACE.
               10  WK01-PASSED-ONE-F              PIC X(1)
                                               VALUE SPACE.
               10  WK01-PASSED-ONE-A              PIC X(1)
                                               VALUE SPACE.
               10  WK01-PASSED-ONE-V              PIC X(1)
                                               VALUE SPACE.
               10  WK01-PASSED-ONE-O              PIC X(1)
                                               VALUE SPACE.
               10  WK01-PASSED-ONE       PIC X(32)
                                               VALUE SPACES.
               10  WK01-MAP-RESPONSE-Z              PIC X(1)
                                               VALUE SPACE.
               10  WK01-MAP-RESPONSE-F              PIC X(1)
                                               VALUE SPACE.
               10  WK01-MAP-RESPONSE-A              PIC X(1)
                                               VALUE SPACE.
               10  WK01-MAP-RESPONSE-V              PIC X(1)
                                               VALUE SPACE.
               10  WK01-MAP-RESPONSE-O              PIC X(1)
                                               VALUE SPACE.
               10  WK01-MAP-RESPONSE       PIC X(8)
                                               VALUE SPACES.
               10  WK01-TEXT-SY00-Z              PIC X(1)
                                               VALUE SPACE.
               10  WK01-TEXT-SY00-F              PIC X(1)
                                               VALUE SPACE.
               10  WK01-TEXT-SY00-A              PIC X(1)
                                               VALUE SPACE.
               10  WK01-TEXT-SY00-V              PIC X(1)
                                               VALUE SPACE.
               10  WK01-TEXT-SY00-O              PIC X(1)
                                               VALUE SPACE.
               10  WK01-TEXT-SY00       PIC X(14)
                                               VALUE SPACES.
           04  WK01-SUBSCRIPTED-WORK-AREA.
               05  FILLER                      PIC X(1).
               05  WK01-NAME-6000-CH87-F             PIC X(1)
                                               OCCURS 8.
               05  WK01-ADR-6000-CH87-F             PIC X(1)
                                               OCCURS 8.
               05  WK01-CODE-CH87-F             PIC X(1)
                                               OCCURS 8.
               05  WK01-CODE-6001-CH87-F             PIC X(1)
                                               OCCURS 8.
               05  WK01-NAME-6001-CH87-F             PIC X(1)
                                               OCCURS 8.
               05  WK01-NAME-6001-CH8A-F             PIC X(1)
                                               OCCURS 8.
               05  WK01-CODE-6001-CH8A-F             PIC X(1)
                                               OCCURS 8.
