       01  MAP-CONTROL.

    ***Created by Convert/DC version V8R03 on 11/01/00 at 09:00***

           02  FCHMU49-MAP-CONTROL.
           03  FCHMU49T.
           04  WK01-DCXMAPL-PARMS.
               10  WK01-MAPNAME                  PIC X(8)
                                                 VALUE 'FCHMU49I'.
               10  WK01-IKE-LENGTH               PIC S9(8)  COMP
                                                 VALUE 17598.
               10  WK01-TINA-LENGTH              PIC S9(4)  COMP
                                                 VALUE 1613.
           05  WK01-ATTRIBUTES                   PIC X(60)
                                                 VALUE SPACE.
           05  WK01-ATTRIBUTES-ERROR             PIC X(60) VALUE
               'U  BIF'.
           05  WK01-CURSOR-DFLD                  PIC X(36)
                                                 VALUE SPACES.
           05  WK01-CURSOR-DFLD-QUAL             PIC X(30)
                                                 VALUE SPACES.
           05  WK01-ROW                          PIC S9(4) COMP
                                                 VALUE ZERO.
           05  WK01-COLUMN                       PIC S9(4) COMP
                                                 VALUE ZERO.
           05  WK01-ERROR-MSG                    PIC X(80)
                                                 VALUE SPACES.
           05  WK01-MAP-DATA-LEN                 PIC S9(6)
                                                 VALUE ZERO.
           05  WK01-1ST-FLAG                     PIC X(1)
                                                 VALUE 'Y'.
           05  WK01-FLAG-OUTPUT-DATA             PIC X(1)
                                                 VALUE 'Y'.
      *    05  WK01-STATUS-RETURN-FLAG           PIC X(1)
      *                                          VALUE SPACES.
           05  WK01-ALL-BUT-FLAG                 PIC X(1)
                                                 VALUE SPACES.
           05  WK01-FLAG-ALL-FIELDS-CHANGED      PIC X(1)  VALUE 'Y'.
           05  WK01-FLAG-ANY-FIELDS-CHANGED      PIC X(1)  VALUE 'N'.
           05  WK01-FLAG-ALL-FIELDS-ERROR        PIC X(1)  VALUE 'Y'.
           05  WK01-FLAG-ANY-FIELDS-ERROR        PIC X(1)  VALUE 'N'.
           05  WK01-FLAG-ALL-FIELDS-ERASE        PIC X(1)  VALUE 'Y'.
           05  WK01-FLAG-ANY-FIELDS-ERASE        PIC X(1)  VALUE 'Y'.

           05  WK01-VARDATA                      PIC X(11880)
                                                 VALUE SPACES.
           05  FILLER                            PIC X(100)
                                                 VALUE SPACES.
           04  WK01-ELEMENT-AREA.

               10  WK01-ID-SY00-Z              PIC X(1)
                                               VALUE SPACE.
               10  WK01-ID-SY00-F              PIC X(1)
                                               VALUE SPACE.
               10  WK01-ID-SY00-A              PIC X(1)
                                               VALUE SPACE.
               10  WK01-ID-SY00-V              PIC X(1)
                                               VALUE SPACE.
               10  WK01-ID-SY00-O              PIC X(1)
                                               VALUE SPACE.
               10  WK01-ID-SY00       PIC X(8)
                                               VALUE SPACES.
               10  WK01-NAME-6001-SY00-Z              PIC X(1)
                                               VALUE SPACE.
               10  WK01-NAME-6001-SY00-F              PIC X(1)
                                               VALUE SPACE.
               10  WK01-NAME-6001-SY00-A              PIC X(1)
                                               VALUE SPACE.
               10  WK01-NAME-6001-SY00-V              PIC X(1)
                                               VALUE SPACE.
               10  WK01-NAME-6001-SY00-O              PIC X(1)
                                               VALUE SPACE.
               10  WK01-NAME-6001-SY00       PIC X(35)
                                               VALUE SPACES.
               10  WK01-DATE-Z              PIC X(1)
                                               VALUE SPACE.
               10  WK01-DATE-F              PIC X(1)
                                               VALUE SPACE.
               10  WK01-DATE-A              PIC X(1)
                                               VALUE SPACE.
               10  WK01-DATE-V              PIC X(1)
                                               VALUE SPACE.
               10  WK01-DATE-O              PIC X(1)
                                               VALUE SPACE.
               10  WK01-DATE       PIC X(8)
                                               VALUE SPACES.
               10  WK01-HH-MM-TIME-SY00-Z              PIC X(1)
                                               VALUE SPACE.
               10  WK01-HH-MM-TIME-SY00-F              PIC X(1)
                                               VALUE SPACE.
               10  WK01-HH-MM-TIME-SY00-A              PIC X(1)
                                               VALUE SPACE.
               10  WK01-HH-MM-TIME-SY00-V              PIC X(1)
                                               VALUE SPACE.
               10  WK01-HH-MM-TIME-SY00-O              PIC X(1)
                                               VALUE SPACE.
               10  WK01-HH-MM-TIME-SY00       PIC X(4)
                                               VALUE SPACES.
               10  WK01-PM-FLAG-SY00-Z              PIC X(1)
                                               VALUE SPACE.
               10  WK01-PM-FLAG-SY00-F              PIC X(1)
                                               VALUE SPACE.
               10  WK01-PM-FLAG-SY00-A              PIC X(1)
                                               VALUE SPACE.
               10  WK01-PM-FLAG-SY00-V              PIC X(1)
                                               VALUE SPACE.
               10  WK01-PM-FLAG-SY00-O              PIC X(1)
                                               VALUE SPACE.
               10  WK01-PM-FLAG-SY00       PIC X(1)
                                               VALUE SPACES.
               10  WK01-USER-ID-Z              PIC X(1)
                                               VALUE SPACE.
               10  WK01-USER-ID-F              PIC X(1)
                                               VALUE SPACE.
               10  WK01-USER-ID-A              PIC X(1)
                                               VALUE SPACE.
               10  WK01-USER-ID-V              PIC X(1)
                                               VALUE SPACE.
               10  WK01-USER-ID-O              PIC X(1)
                                               VALUE SPACE.
               10  WK01-USER-ID       PIC X(32)
                                               VALUE SPACES.
               10  WK01-RSPNS-ID-SY00-Z              PIC X(1)
                                               VALUE SPACE.
               10  WK01-RSPNS-ID-SY00-F              PIC X(1)
                                               VALUE SPACE.
               10  WK01-RSPNS-ID-SY00-A              PIC X(1)
                                               VALUE SPACE.
               10  WK01-RSPNS-ID-SY00-V              PIC X(1)
                                               VALUE SPACE.
               10  WK01-RSPNS-ID-SY00-O              PIC X(1)
                                               VALUE SPACE.
               10  WK01-RSPNS-ID-SY00       PIC X(8)
                                               VALUE SPACES.
               10  WK01-FUNC-DESCRIPTION-Z              PIC X(1)
                                               VALUE SPACE.
               10  WK01-FUNC-DESCRIPTION-F              PIC X(1)
                                               VALUE SPACE.
               10  WK01-FUNC-DESCRIPTION-A              PIC X(1)
                                               VALUE SPACE.
               10  WK01-FUNC-DESCRIPTION-V              PIC X(1)
                                               VALUE SPACE.
               10  WK01-FUNC-DESCRIPTION-O              PIC X(1)
                                               VALUE SPACE.
               10  WK01-FUNC-DESCRIPTION       PIC X(28)
                                               VALUE SPACES.
               10  WK01-STATUS-CODE-SY00-Z              PIC X(1)
                                               VALUE SPACE.
               10  WK01-STATUS-CODE-SY00-F              PIC X(1)
                                               VALUE SPACE.
               10  WK01-STATUS-CODE-SY00-A              PIC X(1)
                                               VALUE SPACE.
               10  WK01-STATUS-CODE-SY00-V              PIC X(1)
                                               VALUE SPACE.
               10  WK01-STATUS-CODE-SY00-O              PIC X(1)
                                               VALUE SPACE.
               10  WK01-STATUS-CODE-SY00       PIC X(1)
                                               VALUE SPACES.
               10  WK01-CODE-CH4A11-Z              PIC X(1)
                                               VALUE SPACE.
               10  WK01-CODE-CH4A11-F              PIC X(1)
                                               VALUE SPACE.
               10  WK01-CODE-CH4A11-A              PIC X(1)
                                               VALUE SPACE.
               10  WK01-CODE-CH4A11-V              PIC X(1)
                                               VALUE SPACE.
               10  WK01-CODE-CH4A11-O              PIC X(1)
                                               VALUE SPACE.
               10  WK01-CODE-CH4A11       PIC X(1)
                                               VALUE SPACES.
               10  WK01-CODE-4060-CH491-Z              PIC X(1)
                                               VALUE SPACE.
               10  WK01-CODE-4060-CH491-F              PIC X(1)
                                               VALUE SPACE.
               10  WK01-CODE-4060-CH491-A              PIC X(1)
                                               VALUE SPACE.
               10  WK01-CODE-4060-CH491-V              PIC X(1)
                                               VALUE SPACE.
               10  WK01-CODE-4060-CH491-O              PIC X(1)
                                               VALUE SPACE.
               10  WK01-CODE-4060-CH491       PIC X(8)
                                               VALUE SPACES.
               10  WK01-TITLE-4060-CH491-Z              PIC X(1)
                                               VALUE SPACE.
               10  WK01-TITLE-4060-CH491-F              PIC X(1)
                                               VALUE SPACE.
               10  WK01-TITLE-4060-CH491-A              PIC X(1)
                                               VALUE SPACE.
               10  WK01-TITLE-4060-CH491-V              PIC X(1)
                                               VALUE SPACE.
               10  WK01-TITLE-4060-CH491-O              PIC X(1)
                                               VALUE SPACE.
               10  WK01-TITLE-4060-CH491       PIC X(60)
                                               VALUE SPACES.
               10  WK01-OF-COPIES-4060-CH491-Z              PIC X(1)
                                               VALUE SPACE.
               10  WK01-OF-COPIES-4060-CH491-F              PIC X(1)
                                               VALUE SPACE.
               10  WK01-OF-COPIES-4060-CH491-A              PIC X(1)
                                               VALUE SPACE.
               10  WK01-OF-COPIES-4060-CH491-V              PIC X(1)
                                               VALUE SPACE.
               10  WK01-OF-COPIES-4060-CH491-O              PIC X(1)
                                               VALUE SPACE.
               10  WK01-OF-COPIES-4060-CH491       PIC X(3)
                                               VALUE SPACES.
               10  WK01-CODE-CH4A12-Z              PIC X(1)
                                               VALUE SPACE.
               10  WK01-CODE-CH4A12-F              PIC X(1)
                                               VALUE SPACE.
               10  WK01-CODE-CH4A12-A              PIC X(1)
                                               VALUE SPACE.
               10  WK01-CODE-CH4A12-V              PIC X(1)
                                               VALUE SPACE.
               10  WK01-CODE-CH4A12-O              PIC X(1)
                                               VALUE SPACE.
               10  WK01-CODE-CH4A12       PIC X(1)
                                               VALUE SPACES.
               10  WK01-CODE-4060-CH492-Z              PIC X(1)
                                               VALUE SPACE.
               10  WK01-CODE-4060-CH492-F              PIC X(1)
                                               VALUE SPACE.
               10  WK01-CODE-4060-CH492-A              PIC X(1)
                                               VALUE SPACE.
               10  WK01-CODE-4060-CH492-V              PIC X(1)
                                               VALUE SPACE.
               10  WK01-CODE-4060-CH492-O              PIC X(1)
                                               VALUE SPACE.
               10  WK01-CODE-4060-CH492       PIC X(8)
                                               VALUE SPACES.
               10  WK01-TITLE-4060-CH492-Z              PIC X(1)
                                               VALUE SPACE.
               10  WK01-TITLE-4060-CH492-F              PIC X(1)
                                               VALUE SPACE.
               10  WK01-TITLE-4060-CH492-A              PIC X(1)
                                               VALUE SPACE.
               10  WK01-TITLE-4060-CH492-V              PIC X(1)
                                               VALUE SPACE.
               10  WK01-TITLE-4060-CH492-O              PIC X(1)
                                               VALUE SPACE.
               10  WK01-TITLE-4060-CH492       PIC X(60)
                                               VALUE SPACES.
               10  WK01-OF-COPIES-4060-CH492-Z              PIC X(1)
                                               VALUE SPACE.
               10  WK01-OF-COPIES-4060-CH492-F              PIC X(1)
                                               VALUE SPACE.
               10  WK01-OF-COPIES-4060-CH492-A              PIC X(1)
                                               VALUE SPACE.
               10  WK01-OF-COPIES-4060-CH492-V              PIC X(1)
                                               VALUE SPACE.
               10  WK01-OF-COPIES-4060-CH492-O              PIC X(1)
                                               VALUE SPACE.
               10  WK01-OF-COPIES-4060-CH492       PIC X(3)
                                               VALUE SPACES.
               10  WK01-CODE-CH4A13-Z              PIC X(1)
                                               VALUE SPACE.
               10  WK01-CODE-CH4A13-F              PIC X(1)
                                               VALUE SPACE.
               10  WK01-CODE-CH4A13-A              PIC X(1)
                                               VALUE SPACE.
               10  WK01-CODE-CH4A13-V              PIC X(1)
                                               VALUE SPACE.
               10  WK01-CODE-CH4A13-O              PIC X(1)
                                               VALUE SPACE.
               10  WK01-CODE-CH4A13       PIC X(1)
                                               VALUE SPACES.
               10  WK01-CODE-4060-CH493-Z              PIC X(1)
                                               VALUE SPACE.
               10  WK01-CODE-4060-CH493-F              PIC X(1)
                                               VALUE SPACE.
               10  WK01-CODE-4060-CH493-A              PIC X(1)
                                               VALUE SPACE.
               10  WK01-CODE-4060-CH493-V              PIC X(1)
                                               VALUE SPACE.
               10  WK01-CODE-4060-CH493-O              PIC X(1)
                                               VALUE SPACE.
               10  WK01-CODE-4060-CH493       PIC X(8)
                                               VALUE SPACES.
               10  WK01-TITLE-4060-CH493-Z              PIC X(1)
                                               VALUE SPACE.
               10  WK01-TITLE-4060-CH493-F              PIC X(1)
                                               VALUE SPACE.
               10  WK01-TITLE-4060-CH493-A              PIC X(1)
                                               VALUE SPACE.
               10  WK01-TITLE-4060-CH493-V              PIC X(1)
                                               VALUE SPACE.
               10  WK01-TITLE-4060-CH493-O              PIC X(1)
                                               VALUE SPACE.
               10  WK01-TITLE-4060-CH493       PIC X(60)
                                               VALUE SPACES.
               10  WK01-OF-COPIES-4060-CH493-Z              PIC X(1)
                                               VALUE SPACE.
               10  WK01-OF-COPIES-4060-CH493-F              PIC X(1)
                                               VALUE SPACE.
               10  WK01-OF-COPIES-4060-CH493-A              PIC X(1)
                                               VALUE SPACE.
               10  WK01-OF-COPIES-4060-CH493-V              PIC X(1)
                                               VALUE SPACE.
               10  WK01-OF-COPIES-4060-CH493-O              PIC X(1)
                                               VALUE SPACE.
               10  WK01-OF-COPIES-4060-CH493       PIC X(3)
                                               VALUE SPACES.
               10  WK01-CODE-CH4A14-Z              PIC X(1)
                                               VALUE SPACE.
               10  WK01-CODE-CH4A14-F              PIC X(1)
                                               VALUE SPACE.
               10  WK01-CODE-CH4A14-A              PIC X(1)
                                               VALUE SPACE.
               10  WK01-CODE-CH4A14-V              PIC X(1)
                                               VALUE SPACE.
               10  WK01-CODE-CH4A14-O              PIC X(1)
                                               VALUE SPACE.
               10  WK01-CODE-CH4A14       PIC X(1)
                                               VALUE SPACES.
               10  WK01-CODE-4060-CH494-Z              PIC X(1)
                                               VALUE SPACE.
               10  WK01-CODE-4060-CH494-F              PIC X(1)
                                               VALUE SPACE.
               10  WK01-CODE-4060-CH494-A              PIC X(1)
                                               VALUE SPACE.
               10  WK01-CODE-4060-CH494-V              PIC X(1)
                                               VALUE SPACE.
               10  WK01-CODE-4060-CH494-O              PIC X(1)
                                               VALUE SPACE.
               10  WK01-CODE-4060-CH494       PIC X(8)
                                               VALUE SPACES.
               10  WK01-TITLE-4060-CH494-Z              PIC X(1)
                                               VALUE SPACE.
               10  WK01-TITLE-4060-CH494-F              PIC X(1)
                                               VALUE SPACE.
               10  WK01-TITLE-4060-CH494-A              PIC X(1)
                                               VALUE SPACE.
               10  WK01-TITLE-4060-CH494-V              PIC X(1)
                                               VALUE SPACE.
               10  WK01-TITLE-4060-CH494-O              PIC X(1)
                                               VALUE SPACE.
               10  WK01-TITLE-4060-CH494       PIC X(60)
                                               VALUE SPACES.
               10  WK01-OF-COPIES-4060-CH494-Z              PIC X(1)
                                               VALUE SPACE.
               10  WK01-OF-COPIES-4060-CH494-F              PIC X(1)
                                               VALUE SPACE.
               10  WK01-OF-COPIES-4060-CH494-A              PIC X(1)
                                               VALUE SPACE.
               10  WK01-OF-COPIES-4060-CH494-V              PIC X(1)
                                               VALUE SPACE.
               10  WK01-OF-COPIES-4060-CH494-O              PIC X(1)
                                               VALUE SPACE.
               10  WK01-OF-COPIES-4060-CH494       PIC X(3)
                                               VALUE SPACES.
               10  WK01-CODE-CH4A15-Z              PIC X(1)
                                               VALUE SPACE.
               10  WK01-CODE-CH4A15-F              PIC X(1)
                                               VALUE SPACE.
               10  WK01-CODE-CH4A15-A              PIC X(1)
                                               VALUE SPACE.
               10  WK01-CODE-CH4A15-V              PIC X(1)
                                               VALUE SPACE.
               10  WK01-CODE-CH4A15-O              PIC X(1)
                                               VALUE SPACE.
               10  WK01-CODE-CH4A15       PIC X(1)
                                               VALUE SPACES.
               10  WK01-CODE-4060-CH495-Z              PIC X(1)
                                               VALUE SPACE.
               10  WK01-CODE-4060-CH495-F              PIC X(1)
                                               VALUE SPACE.
               10  WK01-CODE-4060-CH495-A              PIC X(1)
                                               VALUE SPACE.
               10  WK01-CODE-4060-CH495-V              PIC X(1)
                                               VALUE SPACE.
               10  WK01-CODE-4060-CH495-O              PIC X(1)
                                               VALUE SPACE.
               10  WK01-CODE-4060-CH495       PIC X(8)
                                               VALUE SPACES.
               10  WK01-TITLE-4060-CH495-Z              PIC X(1)
                                               VALUE SPACE.
               10  WK01-TITLE-4060-CH495-F              PIC X(1)
                                               VALUE SPACE.
               10  WK01-TITLE-4060-CH495-A              PIC X(1)
                                               VALUE SPACE.
               10  WK01-TITLE-4060-CH495-V              PIC X(1)
                                               VALUE SPACE.
               10  WK01-TITLE-4060-CH495-O              PIC X(1)
                                               VALUE SPACE.
               10  WK01-TITLE-4060-CH495       PIC X(60)
                                               VALUE SPACES.
               10  WK01-OF-COPIES-4060-CH495-Z              PIC X(1)
                                               VALUE SPACE.
               10  WK01-OF-COPIES-4060-CH495-F              PIC X(1)
                                               VALUE SPACE.
               10  WK01-OF-COPIES-4060-CH495-A              PIC X(1)
                                               VALUE SPACE.
               10  WK01-OF-COPIES-4060-CH495-V              PIC X(1)
                                               VALUE SPACE.
               10  WK01-OF-COPIES-4060-CH495-O              PIC X(1)
                                               VALUE SPACE.
               10  WK01-OF-COPIES-4060-CH495       PIC X(3)
                                               VALUE SPACES.
               10  WK01-CODE-CH4A16-Z              PIC X(1)
                                               VALUE SPACE.
               10  WK01-CODE-CH4A16-F              PIC X(1)
                                               VALUE SPACE.
               10  WK01-CODE-CH4A16-A              PIC X(1)
                                               VALUE SPACE.
               10  WK01-CODE-CH4A16-V              PIC X(1)
                                               VALUE SPACE.
               10  WK01-CODE-CH4A16-O              PIC X(1)
                                               VALUE SPACE.
               10  WK01-CODE-CH4A16       PIC X(1)
                                               VALUE SPACES.
               10  WK01-CODE-4060-CH496-Z              PIC X(1)
                                               VALUE SPACE.
               10  WK01-CODE-4060-CH496-F              PIC X(1)
                                               VALUE SPACE.
               10  WK01-CODE-4060-CH496-A              PIC X(1)
                                               VALUE SPACE.
               10  WK01-CODE-4060-CH496-V              PIC X(1)
                                               VALUE SPACE.
               10  WK01-CODE-4060-CH496-O              PIC X(1)
                                               VALUE SPACE.
               10  WK01-CODE-4060-CH496       PIC X(8)
                                               VALUE SPACES.
               10  WK01-TITLE-4060-CH496-Z              PIC X(1)
                                               VALUE SPACE.
               10  WK01-TITLE-4060-CH496-F              PIC X(1)
                                               VALUE SPACE.
               10  WK01-TITLE-4060-CH496-A              PIC X(1)
                                               VALUE SPACE.
               10  WK01-TITLE-4060-CH496-V              PIC X(1)
                                               VALUE SPACE.
               10  WK01-TITLE-4060-CH496-O              PIC X(1)
                                               VALUE SPACE.
               10  WK01-TITLE-4060-CH496       PIC X(60)
                                               VALUE SPACES.
               10  WK01-OF-COPIES-4060-CH496-Z              PIC X(1)
                                               VALUE SPACE.
               10  WK01-OF-COPIES-4060-CH496-F              PIC X(1)
                                               VALUE SPACE.
               10  WK01-OF-COPIES-4060-CH496-A              PIC X(1)
                                               VALUE SPACE.
               10  WK01-OF-COPIES-4060-CH496-V              PIC X(1)
                                               VALUE SPACE.
               10  WK01-OF-COPIES-4060-CH496-O              PIC X(1)
                                               VALUE SPACE.
               10  WK01-OF-COPIES-4060-CH496       PIC X(3)
                                               VALUE SPACES.
               10  WK01-CODE-CH4A17-Z              PIC X(1)
                                               VALUE SPACE.
               10  WK01-CODE-CH4A17-F              PIC X(1)
                                               VALUE SPACE.
               10  WK01-CODE-CH4A17-A              PIC X(1)
                                               VALUE SPACE.
               10  WK01-CODE-CH4A17-V              PIC X(1)
                                               VALUE SPACE.
               10  WK01-CODE-CH4A17-O              PIC X(1)
                                               VALUE SPACE.
               10  WK01-CODE-CH4A17       PIC X(1)
                                               VALUE SPACES.
               10  WK01-CODE-4060-CH497-Z              PIC X(1)
                                               VALUE SPACE.
               10  WK01-CODE-4060-CH497-F              PIC X(1)
                                               VALUE SPACE.
               10  WK01-CODE-4060-CH497-A              PIC X(1)
                                               VALUE SPACE.
               10  WK01-CODE-4060-CH497-V              PIC X(1)
                                               VALUE SPACE.
               10  WK01-CODE-4060-CH497-O              PIC X(1)
                                               VALUE SPACE.
               10  WK01-CODE-4060-CH497       PIC X(8)
                                               VALUE SPACES.
               10  WK01-TITLE-4060-CH497-Z              PIC X(1)
                                               VALUE SPACE.
               10  WK01-TITLE-4060-CH497-F              PIC X(1)
                                               VALUE SPACE.
               10  WK01-TITLE-4060-CH497-A              PIC X(1)
                                               VALUE SPACE.
               10  WK01-TITLE-4060-CH497-V              PIC X(1)
                                               VALUE SPACE.
               10  WK01-TITLE-4060-CH497-O              PIC X(1)
                                               VALUE SPACE.
               10  WK01-TITLE-4060-CH497       PIC X(60)
                                               VALUE SPACES.
               10  WK01-OF-COPIES-4060-CH497-Z              PIC X(1)
                                               VALUE SPACE.
               10  WK01-OF-COPIES-4060-CH497-F              PIC X(1)
                                               VALUE SPACE.
               10  WK01-OF-COPIES-4060-CH497-A              PIC X(1)
                                               VALUE SPACE.
               10  WK01-OF-COPIES-4060-CH497-V              PIC X(1)
                                               VALUE SPACE.
               10  WK01-OF-COPIES-4060-CH497-O              PIC X(1)
                                               VALUE SPACE.
               10  WK01-OF-COPIES-4060-CH497       PIC X(3)
                                               VALUE SPACES.
               10  WK01-CODE-CH4A18-Z              PIC X(1)
                                               VALUE SPACE.
               10  WK01-CODE-CH4A18-F              PIC X(1)
                                               VALUE SPACE.
               10  WK01-CODE-CH4A18-A              PIC X(1)
                                               VALUE SPACE.
               10  WK01-CODE-CH4A18-V              PIC X(1)
                                               VALUE SPACE.
               10  WK01-CODE-CH4A18-O              PIC X(1)
                                               VALUE SPACE.
               10  WK01-CODE-CH4A18       PIC X(1)
                                               VALUE SPACES.
               10  WK01-CODE-4060-CH498-Z              PIC X(1)
                                               VALUE SPACE.
               10  WK01-CODE-4060-CH498-F              PIC X(1)
                                               VALUE SPACE.
               10  WK01-CODE-4060-CH498-A              PIC X(1)
                                               VALUE SPACE.
               10  WK01-CODE-4060-CH498-V              PIC X(1)
                                               VALUE SPACE.
               10  WK01-CODE-4060-CH498-O              PIC X(1)
                                               VALUE SPACE.
               10  WK01-CODE-4060-CH498       PIC X(8)
                                               VALUE SPACES.
               10  WK01-TITLE-4060-CH498-Z              PIC X(1)
                                               VALUE SPACE.
               10  WK01-TITLE-4060-CH498-F              PIC X(1)
                                               VALUE SPACE.
               10  WK01-TITLE-4060-CH498-A              PIC X(1)
                                               VALUE SPACE.
               10  WK01-TITLE-4060-CH498-V              PIC X(1)
                                               VALUE SPACE.
               10  WK01-TITLE-4060-CH498-O              PIC X(1)
                                               VALUE SPACE.
               10  WK01-TITLE-4060-CH498       PIC X(60)
                                               VALUE SPACES.
               10  WK01-OF-COPIES-4060-CH498-Z              PIC X(1)
                                               VALUE SPACE.
               10  WK01-OF-COPIES-4060-CH498-F              PIC X(1)
                                               VALUE SPACE.
               10  WK01-OF-COPIES-4060-CH498-A              PIC X(1)
                                               VALUE SPACE.
               10  WK01-OF-COPIES-4060-CH498-V              PIC X(1)
                                               VALUE SPACE.
               10  WK01-OF-COPIES-4060-CH498-O              PIC X(1)
                                               VALUE SPACE.
               10  WK01-OF-COPIES-4060-CH498       PIC X(3)
                                               VALUE SPACES.
               10  WK01-CODE-CH4A19-Z              PIC X(1)
                                               VALUE SPACE.
               10  WK01-CODE-CH4A19-F              PIC X(1)
                                               VALUE SPACE.
               10  WK01-CODE-CH4A19-A              PIC X(1)
                                               VALUE SPACE.
               10  WK01-CODE-CH4A19-V              PIC X(1)
                                               VALUE SPACE.
               10  WK01-CODE-CH4A19-O              PIC X(1)
                                               VALUE SPACE.
               10  WK01-CODE-CH4A19       PIC X(1)
                                               VALUE SPACES.
               10  WK01-CODE-4060-CH499-Z              PIC X(1)
                                               VALUE SPACE.
               10  WK01-CODE-4060-CH499-F              PIC X(1)
                                               VALUE SPACE.
               10  WK01-CODE-4060-CH499-A              PIC X(1)
                                               VALUE SPACE.
               10  WK01-CODE-4060-CH499-V              PIC X(1)
                                               VALUE SPACE.
               10  WK01-CODE-4060-CH499-O              PIC X(1)
                                               VALUE SPACE.
               10  WK01-CODE-4060-CH499       PIC X(8)
                                               VALUE SPACES.
               10  WK01-TITLE-4060-CH499-Z              PIC X(1)
                                               VALUE SPACE.
               10  WK01-TITLE-4060-CH499-F              PIC X(1)
                                               VALUE SPACE.
               10  WK01-TITLE-4060-CH499-A              PIC X(1)
                                               VALUE SPACE.
               10  WK01-TITLE-4060-CH499-V              PIC X(1)
                                               VALUE SPACE.
               10  WK01-TITLE-4060-CH499-O              PIC X(1)
                                               VALUE SPACE.
               10  WK01-TITLE-4060-CH499       PIC X(60)
                                               VALUE SPACES.
               10  WK01-OF-COPIES-4060-CH499-Z              PIC X(1)
                                               VALUE SPACE.
               10  WK01-OF-COPIES-4060-CH499-F              PIC X(1)
                                               VALUE SPACE.
               10  WK01-OF-COPIES-4060-CH499-A              PIC X(1)
                                               VALUE SPACE.
               10  WK01-OF-COPIES-4060-CH499-V              PIC X(1)
                                               VALUE SPACE.
               10  WK01-OF-COPIES-4060-CH499-O              PIC X(1)
                                               VALUE SPACE.
               10  WK01-OF-COPIES-4060-CH499       PIC X(3)
                                               VALUE SPACES.
               10  WK01-CODE-CH4A110-Z              PIC X(1)
                                               VALUE SPACE.
               10  WK01-CODE-CH4A110-F              PIC X(1)
                                               VALUE SPACE.
               10  WK01-CODE-CH4A110-A              PIC X(1)
                                               VALUE SPACE.
               10  WK01-CODE-CH4A110-V              PIC X(1)
                                               VALUE SPACE.
               10  WK01-CODE-CH4A110-O              PIC X(1)
                                               VALUE SPACE.
               10  WK01-CODE-CH4A110       PIC X(1)
                                               VALUE SPACES.
               10  WK01-CODE-4060-CH4910-Z              PIC X(1)
                                               VALUE SPACE.
               10  WK01-CODE-4060-CH4910-F              PIC X(1)
                                               VALUE SPACE.
               10  WK01-CODE-4060-CH4910-A              PIC X(1)
                                               VALUE SPACE.
               10  WK01-CODE-4060-CH4910-V              PIC X(1)
                                               VALUE SPACE.
               10  WK01-CODE-4060-CH4910-O              PIC X(1)
                                               VALUE SPACE.
               10  WK01-CODE-4060-CH4910       PIC X(8)
                                               VALUE SPACES.
               10  WK01-TITLE-4060-CH4910-Z              PIC X(1)
                                               VALUE SPACE.
               10  WK01-TITLE-4060-CH4910-F              PIC X(1)
                                               VALUE SPACE.
               10  WK01-TITLE-4060-CH4910-A              PIC X(1)
                                               VALUE SPACE.
               10  WK01-TITLE-4060-CH4910-V              PIC X(1)
                                               VALUE SPACE.
               10  WK01-TITLE-4060-CH4910-O              PIC X(1)
                                               VALUE SPACE.
               10  WK01-TITLE-4060-CH4910       PIC X(60)
                                               VALUE SPACES.
               10  WK01-OF-COPIES-4060-CH4910-Z              PIC X(1)
                                               VALUE SPACE.
               10  WK01-OF-COPIES-4060-CH4910-F              PIC X(1)
                                               VALUE SPACE.
               10  WK01-OF-COPIES-4060-CH4910-A              PIC X(1)
                                               VALUE SPACE.
               10  WK01-OF-COPIES-4060-CH4910-V              PIC X(1)
                                               VALUE SPACE.
               10  WK01-OF-COPIES-4060-CH4910-O              PIC X(1)
                                               VALUE SPACE.
               10  WK01-OF-COPIES-4060-CH4910       PIC X(3)
                                               VALUE SPACES.
               10  WK01-CODE-CH4A111-Z              PIC X(1)
                                               VALUE SPACE.
               10  WK01-CODE-CH4A111-F              PIC X(1)
                                               VALUE SPACE.
               10  WK01-CODE-CH4A111-A              PIC X(1)
                                               VALUE SPACE.
               10  WK01-CODE-CH4A111-V              PIC X(1)
                                               VALUE SPACE.
               10  WK01-CODE-CH4A111-O              PIC X(1)
                                               VALUE SPACE.
               10  WK01-CODE-CH4A111       PIC X(1)
                                               VALUE SPACES.
               10  WK01-CODE-4060-CH4911-Z              PIC X(1)
                                               VALUE SPACE.
               10  WK01-CODE-4060-CH4911-F              PIC X(1)
                                               VALUE SPACE.
               10  WK01-CODE-4060-CH4911-A              PIC X(1)
                                               VALUE SPACE.
               10  WK01-CODE-4060-CH4911-V              PIC X(1)
                                               VALUE SPACE.
               10  WK01-CODE-4060-CH4911-O              PIC X(1)
                                               VALUE SPACE.
               10  WK01-CODE-4060-CH4911       PIC X(8)
                                               VALUE SPACES.
               10  WK01-TITLE-4060-CH4911-Z              PIC X(1)
                                               VALUE SPACE.
               10  WK01-TITLE-4060-CH4911-F              PIC X(1)
                                               VALUE SPACE.
               10  WK01-TITLE-4060-CH4911-A              PIC X(1)
                                               VALUE SPACE.
               10  WK01-TITLE-4060-CH4911-V              PIC X(1)
                                               VALUE SPACE.
               10  WK01-TITLE-4060-CH4911-O              PIC X(1)
                                               VALUE SPACE.
               10  WK01-TITLE-4060-CH4911       PIC X(60)
                                               VALUE SPACES.
               10  WK01-OF-COPIES-4060-CH4911-Z              PIC X(1)
                                               VALUE SPACE.
               10  WK01-OF-COPIES-4060-CH4911-F              PIC X(1)
                                               VALUE SPACE.
               10  WK01-OF-COPIES-4060-CH4911-A              PIC X(1)
                                               VALUE SPACE.
               10  WK01-OF-COPIES-4060-CH4911-V              PIC X(1)
                                               VALUE SPACE.
               10  WK01-OF-COPIES-4060-CH4911-O              PIC X(1)
                                               VALUE SPACE.
               10  WK01-OF-COPIES-4060-CH4911       PIC X(3)
                                               VALUE SPACES.
               10  WK01-CODE-CH4A112-Z              PIC X(1)
                                               VALUE SPACE.
               10  WK01-CODE-CH4A112-F              PIC X(1)
                                               VALUE SPACE.
               10  WK01-CODE-CH4A112-A              PIC X(1)
                                               VALUE SPACE.
               10  WK01-CODE-CH4A112-V              PIC X(1)
                                               VALUE SPACE.
               10  WK01-CODE-CH4A112-O              PIC X(1)
                                               VALUE SPACE.
               10  WK01-CODE-CH4A112       PIC X(1)
                                               VALUE SPACES.
               10  WK01-CODE-4060-CH4912-Z              PIC X(1)
                                               VALUE SPACE.
               10  WK01-CODE-4060-CH4912-F              PIC X(1)
                                               VALUE SPACE.
               10  WK01-CODE-4060-CH4912-A              PIC X(1)
                                               VALUE SPACE.
               10  WK01-CODE-4060-CH4912-V              PIC X(1)
                                               VALUE SPACE.
               10  WK01-CODE-4060-CH4912-O              PIC X(1)
                                               VALUE SPACE.
               10  WK01-CODE-4060-CH4912       PIC X(8)
                                               VALUE SPACES.
               10  WK01-TITLE-4060-CH4912-Z              PIC X(1)
                                               VALUE SPACE.
               10  WK01-TITLE-4060-CH4912-F              PIC X(1)
                                               VALUE SPACE.
               10  WK01-TITLE-4060-CH4912-A              PIC X(1)
                                               VALUE SPACE.
               10  WK01-TITLE-4060-CH4912-V              PIC X(1)
                                               VALUE SPACE.
               10  WK01-TITLE-4060-CH4912-O              PIC X(1)
                                               VALUE SPACE.
               10  WK01-TITLE-4060-CH4912       PIC X(60)
                                               VALUE SPACES.
               10  WK01-OF-COPIES-4060-CH4912-Z              PIC X(1)
                                               VALUE SPACE.
               10  WK01-OF-COPIES-4060-CH4912-F              PIC X(1)
                                               VALUE SPACE.
               10  WK01-OF-COPIES-4060-CH4912-A              PIC X(1)
                                               VALUE SPACE.
               10  WK01-OF-COPIES-4060-CH4912-V              PIC X(1)
                                               VALUE SPACE.
               10  WK01-OF-COPIES-4060-CH4912-O              PIC X(1)
                                               VALUE SPACE.
               10  WK01-OF-COPIES-4060-CH4912       PIC X(3)
                                               VALUE SPACES.
               10  WK01-CODE-CH4A113-Z              PIC X(1)
                                               VALUE SPACE.
               10  WK01-CODE-CH4A113-F              PIC X(1)
                                               VALUE SPACE.
               10  WK01-CODE-CH4A113-A              PIC X(1)
                                               VALUE SPACE.
               10  WK01-CODE-CH4A113-V              PIC X(1)
                                               VALUE SPACE.
               10  WK01-CODE-CH4A113-O              PIC X(1)
                                               VALUE SPACE.
               10  WK01-CODE-CH4A113       PIC X(1)
                                               VALUE SPACES.
               10  WK01-CODE-4060-CH4913-Z              PIC X(1)
                                               VALUE SPACE.
               10  WK01-CODE-4060-CH4913-F              PIC X(1)
                                               VALUE SPACE.
               10  WK01-CODE-4060-CH4913-A              PIC X(1)
                                               VALUE SPACE.
               10  WK01-CODE-4060-CH4913-V              PIC X(1)
                                               VALUE SPACE.
               10  WK01-CODE-4060-CH4913-O              PIC X(1)
                                               VALUE SPACE.
               10  WK01-CODE-4060-CH4913       PIC X(8)
                                               VALUE SPACES.
               10  WK01-TITLE-4060-CH4913-Z              PIC X(1)
                                               VALUE SPACE.
               10  WK01-TITLE-4060-CH4913-F              PIC X(1)
                                               VALUE SPACE.
               10  WK01-TITLE-4060-CH4913-A              PIC X(1)
                                               VALUE SPACE.
               10  WK01-TITLE-4060-CH4913-V              PIC X(1)
                                               VALUE SPACE.
               10  WK01-TITLE-4060-CH4913-O              PIC X(1)
                                               VALUE SPACE.
               10  WK01-TITLE-4060-CH4913       PIC X(60)
                                               VALUE SPACES.
               10  WK01-OF-COPIES-4060-CH4913-Z              PIC X(1)
                                               VALUE SPACE.
               10  WK01-OF-COPIES-4060-CH4913-F              PIC X(1)
                                               VALUE SPACE.
               10  WK01-OF-COPIES-4060-CH4913-A              PIC X(1)
                                               VALUE SPACE.
               10  WK01-OF-COPIES-4060-CH4913-V              PIC X(1)
                                               VALUE SPACE.
               10  WK01-OF-COPIES-4060-CH4913-O              PIC X(1)
                                               VALUE SPACE.
               10  WK01-OF-COPIES-4060-CH4913       PIC X(3)
                                               VALUE SPACES.
               10  WK01-CODE-CH49-Z              PIC X(1)
                                               VALUE SPACE.
               10  WK01-CODE-CH49-F              PIC X(1)
                                               VALUE SPACE.
               10  WK01-CODE-CH49-A              PIC X(1)
                                               VALUE SPACE.
               10  WK01-CODE-CH49-V              PIC X(1)
                                               VALUE SPACE.
               10  WK01-CODE-CH49-O              PIC X(1)
                                               VALUE SPACE.
               10  WK01-CODE-CH49       PIC X(8)
                                               VALUE SPACES.
               10  WK01-ZZMESSAGE-Z              PIC X(1)
                                               VALUE SPACE.
               10  WK01-ZZMESSAGE-F              PIC X(1)
                                               VALUE SPACE.
               10  WK01-ZZMESSAGE-A              PIC X(1)
                                               VALUE SPACE.
               10  WK01-ZZMESSAGE-V              PIC X(1)
                                               VALUE SPACE.
               10  WK01-ZZMESSAGE-O              PIC X(1)
                                               VALUE SPACE.
               10  WK01-ZZMESSAGE       PIC X(160)
                                               VALUE SPACES.
               10  WK01-PASSED-ONE-Z              PIC X(1)
                                               VALUE SPACE.
               10  WK01-PASSED-ONE-F              PIC X(1)
                                               VALUE SPACE.
               10  WK01-PASSED-ONE-A              PIC X(1)
                                               VALUE SPACE.
               10  WK01-PASSED-ONE-V              PIC X(1)
                                               VALUE SPACE.
               10  WK01-PASSED-ONE-O              PIC X(1)
                                               VALUE SPACE.
               10  WK01-PASSED-ONE       PIC X(32)
                                               VALUE SPACES.
               10  WK01-MAP-RESPONSE-Z              PIC X(1)
                                               VALUE SPACE.
               10  WK01-MAP-RESPONSE-F              PIC X(1)
                                               VALUE SPACE.
               10  WK01-MAP-RESPONSE-A              PIC X(1)
                                               VALUE SPACE.
               10  WK01-MAP-RESPONSE-V              PIC X(1)
                                               VALUE SPACE.
               10  WK01-MAP-RESPONSE-O              PIC X(1)
                                               VALUE SPACE.
               10  WK01-MAP-RESPONSE       PIC X(8)
                                               VALUE SPACES.
               10  WK01-TEXT-SY00-Z              PIC X(1)
                                               VALUE SPACE.
               10  WK01-TEXT-SY00-F              PIC X(1)
                                               VALUE SPACE.
               10  WK01-TEXT-SY00-A              PIC X(1)
                                               VALUE SPACE.
               10  WK01-TEXT-SY00-V              PIC X(1)
                                               VALUE SPACE.
               10  WK01-TEXT-SY00-O              PIC X(1)
                                               VALUE SPACE.
               10  WK01-TEXT-SY00       PIC X(14)
                                               VALUE SPACES.
           04  WK01-SUBSCRIPTED-WORK-AREA.
               05  FILLER                      PIC X(1).
               05  WK01-CODE-4060-CH49-F             PIC X(1)
                                               OCCURS 13.
               05  WK01-TITLE-4060-CH49-F             PIC X(1)
                                               OCCURS 13.
               05  WK01-OF-COPIES-4060-CH49-F             PIC X(1)
                                               OCCURS 13.
               05  WK01-CODE-CH4A1-F             PIC X(1)
                                               OCCURS 13.
