    ***Created by Convert/DC version V8R03 on 12/12/00 at 12:00***

      *%--------------------------------------------------------------%*
           MOVE DCLINK-MESSAGE  TO WK01-ZZMESSAGE.
      *%--------------------------------------------------------------%*
           MOVE AGR-DATE OF ADSO-APPLICATION-GLOBAL-RECORD TO WK01-DATE.
      *%--------------------------------------------------------------%*
           MOVE AGR-USER-ID OF ADSO-APPLICATION-GLOBAL-RECORD TO
                WK01-USER-ID.
      *%--------------------------------------------------------------%*
           MOVE AGR-FUNC-DESCRIPTION OF ADSO-APPLICATION-GLOBAL-RECORD
                TO WK01-FUNC-DESCRIPTION.
      *%--------------------------------------------------------------%*
           MOVE AGR-PASSED-ONE OF ADSO-APPLICATION-GLOBAL-RECORD TO
                WK01-PASSED-ONE.
      *%--------------------------------------------------------------%*
           MOVE AGR-MAP-RESPONSE OF ADSO-APPLICATION-GLOBAL-RECORD TO
                WK01-MAP-RESPONSE.
      *%--------------------------------------------------------------%*
           MOVE TRMNL-ID-SY00 OF FSYWG00M TO WK01-ID-SY00.
      *%--------------------------------------------------------------%*
           MOVE FULL-NAME-6001-SY00 OF FSYWG00M TO WK01-NAME-6001-SY00.
      *%--------------------------------------------------------------%*
           MOVE AM-PM-FLAG-SY00 OF FSYWG00M TO WK01-PM-FLAG-SY00.
      *%--------------------------------------------------------------%*
           MOVE CURR-RSPNS-ID-SY00 OF FSYWG00M TO WK01-RSPNS-ID-SY00.
      *%--------------------------------------------------------------%*
           MOVE ERROR-TEXT-SY00 OF FSYWG00M TO WK01-TEXT-SY00.
      *%--------------------------------------------------------------%*
           MOVE PAGE-STATUS-CODE-SY00 OF FSYWG00M TO
                WK01-STATUS-CODE-SY00.
      *%--------------------------------------------------------------%*
           MOVE WORK-HH-MM-TIME-SY00 OF FSYWG00M TO
                WK01-HH-MM-TIME-SY00.
      *%--------------------------------------------------------------%*
           MOVE DCSD-TEXT-SY01 OF FSYWG01M TO WK01-TEXT-SY01.
      *%--------------------------------------------------------------%*
           MOVE CNFDL-TEXT-SY01 OF FSYWG01M TO WK01-TEXT-SY0A.
      *%--------------------------------------------------------------%*
           MOVE HOLDS-TEXT-SY01 OF FSYWG01M TO WK01-TEXT-SY0B.
      *%--------------------------------------------------------------%*
           MOVE COA-CODE-4030-CH51 OF FCHWK51 TO WK01-CODE-4030-CH51.
      *%--------------------------------------------------------------%*
           MOVE COST-SHARE-CODE-4030-CH51 OF FCHWK51 TO
                WK01-SHARE-CODE-4030-CH51.
      *%--------------------------------------------------------------%*
           MOVE COST-SHARE-DESC-4064-CH51 OF FCHWM51 TO
                WK01-SHARE-DESC-4064-CH51.
      *%--------------------------------------------------------------%*
           MOVE COST-SHARE-BASIS-4064-CH51 OF FCHWM51 TO
                WK01-SHARE-BASS-4064-CH51.
      *%--------------------------------------------------------------%*
           MOVE COST-SHARE-MEMO-IND-4064-CH51 OF FCHWM51 TO
                WK01-SHR-MM-IND-4064-CH51.
      *%--------------------------------------------------------------%*
           MOVE APPLY-TO-BASIS-IND-4064-CH51 OF FCHWM51 TO
                WK01-TO-BSS-IND-4064-CH51.
      *%--------------------------------------------------------------%*
           MOVE COST-SHARE-STNDD-PCT-4064-CH51 OF FCHWM51 TO
                WK01-SHR-STNDD-PCT-4064-CH5.
      *%--------------------------------------------------------------%*
           MOVE CMPLT-IND-4064-CH51 OF FCHWM51 TO WK01-IND-4064-CH51.
      *%--------------------------------------------------------------%*
           MOVE CNTRB-TOTAL-PCT-4031-CH51 OF FCHWM51 TO
                WK01-TOTAL-PCT-4031-CH51.
      *%--------------------------------------------------------------%*
           MOVE COST-SHARE-CRDT-ACCT-4031-CH51 OF FCHWM51(0001) TO
                WK01-SHR-CRDT-ACCT-4031-CH51.
      *%--------------------------------------------------------------%*
           MOVE COST-SHARE-CRDT-ACCT-4031-CH51 OF FCHWM51(0002) TO
                WK01-SHR-CRDT-ACCT-4031-CH52.
      *%--------------------------------------------------------------%*
           MOVE COST-SHARE-CRDT-ACCT-4031-CH51 OF FCHWM51(0003) TO
                WK01-SHR-CRDT-ACCT-4031-CH53.
      *%--------------------------------------------------------------%*
           MOVE COST-SHARE-CRDT-ACCT-4031-CH51 OF FCHWM51(0004) TO
                WK01-SHR-CRDT-ACCT-4031-CH54.
      *%--------------------------------------------------------------%*
           MOVE COST-SHARE-CRDT-ACCT-4031-CH51 OF FCHWM51(0005) TO
                WK01-SHR-CRDT-ACCT-4031-CH55.
      *%--------------------------------------------------------------%*
           MOVE COST-SHARE-CRDT-ACCT-4031-CH51 OF FCHWM51(0006) TO
                WK01-SHR-CRDT-ACCT-4031-CH56.
      *%--------------------------------------------------------------%*
           MOVE COST-SHARE-CRDT-ACCT-4031-CH51 OF FCHWM51(0007) TO
                WK01-SHR-CRDT-ACCT-4031-CH57.
      *%--------------------------------------------------------------%*
           MOVE COST-SHARE-CRDT-ACCT-4031-CH51 OF FCHWM51(0008) TO
                WK01-SHR-CRDT-ACCT-4031-CH58.
      *%--------------------------------------------------------------%*
           MOVE COST-SHARE-CRDT-ACCT-4031-CH51 OF FCHWM51(0009) TO
                WK01-SHR-CRDT-ACCT-4031-CH59.
      *%--------------------------------------------------------------%*
           MOVE LCTN-CODE-4031-CH51 OF FCHWM51(0001) TO
                WK01-CODE-4031-CH511.
      *%--------------------------------------------------------------%*
           MOVE LCTN-CODE-4031-CH51 OF FCHWM51(0009) TO
                WK01-CODE-4031-CH519.
      *%--------------------------------------------------------------%*
           MOVE LCTN-CODE-4031-CH51 OF FCHWM51(0002) TO
                WK01-CODE-4031-CH512.
      *%--------------------------------------------------------------%*
           MOVE LCTN-CODE-4031-CH51 OF FCHWM51(0003) TO
                WK01-CODE-4031-CH513.
      *%--------------------------------------------------------------%*
           MOVE LCTN-CODE-4031-CH51 OF FCHWM51(0004) TO
                WK01-CODE-4031-CH514.
      *%--------------------------------------------------------------%*
           MOVE LCTN-CODE-4031-CH51 OF FCHWM51(0005) TO
                WK01-CODE-4031-CH515.
      *%--------------------------------------------------------------%*
           MOVE LCTN-CODE-4031-CH51 OF FCHWM51(0006) TO
                WK01-CODE-4031-CH516.
      *%--------------------------------------------------------------%*
           MOVE LCTN-CODE-4031-CH51 OF FCHWM51(0007) TO
                WK01-CODE-4031-CH517.
      *%--------------------------------------------------------------%*
           MOVE LCTN-CODE-4031-CH51 OF FCHWM51(0008) TO
                WK01-CODE-4031-CH518.
      *%--------------------------------------------------------------%*
           MOVE ACTVY-CODE-4031-CH51 OF FCHWM51(0001) TO
                WK01-CODE-4031-CH5A1.
      *%--------------------------------------------------------------%*
           MOVE ACTVY-CODE-4031-CH51 OF FCHWM51(0002) TO
                WK01-CODE-4031-CH5A2.
      *%--------------------------------------------------------------%*
           MOVE ACTVY-CODE-4031-CH51 OF FCHWM51(0003) TO
                WK01-CODE-4031-CH5A3.
      *%--------------------------------------------------------------%*
           MOVE ACTVY-CODE-4031-CH51 OF FCHWM51(0004) TO
                WK01-CODE-4031-CH5A4.
      *%--------------------------------------------------------------%*
           MOVE ACTVY-CODE-4031-CH51 OF FCHWM51(0005) TO
                WK01-CODE-4031-CH5A5.
      *%--------------------------------------------------------------%*
           MOVE ACTVY-CODE-4031-CH51 OF FCHWM51(0006) TO
                WK01-CODE-4031-CH5A6.
      *%--------------------------------------------------------------%*
           MOVE ACTVY-CODE-4031-CH51 OF FCHWM51(0007) TO
                WK01-CODE-4031-CH5A7.
      *%--------------------------------------------------------------%*
           MOVE ACTVY-CODE-4031-CH51 OF FCHWM51(0008) TO
                WK01-CODE-4031-CH5A8.
      *%--------------------------------------------------------------%*
           MOVE ACTVY-CODE-4031-CH51 OF FCHWM51(0009) TO
                WK01-CODE-4031-CH5A9.
      *%--------------------------------------------------------------%*
           MOVE PRGRM-CODE-4031-CH51 OF FCHWM51(0001) TO
                WK01-CODE-4031-CH5B1.
      *%--------------------------------------------------------------%*
           MOVE PRGRM-CODE-4031-CH51 OF FCHWM51(0002) TO
                WK01-CODE-4031-CH5B2.
      *%--------------------------------------------------------------%*
           MOVE PRGRM-CODE-4031-CH51 OF FCHWM51(0003) TO
                WK01-CODE-4031-CH5B3.
      *%--------------------------------------------------------------%*
           MOVE PRGRM-CODE-4031-CH51 OF FCHWM51(0004) TO
                WK01-CODE-4031-CH5B4.
      *%--------------------------------------------------------------%*
           MOVE PRGRM-CODE-4031-CH51 OF FCHWM51(0005) TO
                WK01-CODE-4031-CH5B5.
      *%--------------------------------------------------------------%*
           MOVE PRGRM-CODE-4031-CH51 OF FCHWM51(0006) TO
                WK01-CODE-4031-CH5B6.
      *%--------------------------------------------------------------%*
           MOVE PRGRM-CODE-4031-CH51 OF FCHWM51(0007) TO
                WK01-CODE-4031-CH5B7.
      *%--------------------------------------------------------------%*
           MOVE PRGRM-CODE-4031-CH51 OF FCHWM51(0008) TO
                WK01-CODE-4031-CH5B8.
      *%--------------------------------------------------------------%*
           MOVE PRGRM-CODE-4031-CH51 OF FCHWM51(0009) TO
                WK01-CODE-4031-CH5B9.
      *%--------------------------------------------------------------%*
           MOVE ACCT-CODE-4031-CH51 OF FCHWM51(0001) TO
                WK01-CODE-4031-CH5C1.
      *%--------------------------------------------------------------%*
           MOVE ACCT-CODE-4031-CH51 OF FCHWM51(0002) TO
                WK01-CODE-4031-CH5C2.
      *%--------------------------------------------------------------%*
           MOVE ACCT-CODE-4031-CH51 OF FCHWM51(0003) TO
                WK01-CODE-4031-CH5C3.
      *%--------------------------------------------------------------%*
           MOVE ACCT-CODE-4031-CH51 OF FCHWM51(0004) TO
                WK01-CODE-4031-CH5C4.
      *%--------------------------------------------------------------%*
           MOVE ACCT-CODE-4031-CH51 OF FCHWM51(0005) TO
                WK01-CODE-4031-CH5C5.
      *%--------------------------------------------------------------%*
           MOVE ACCT-CODE-4031-CH51 OF FCHWM51(0006) TO
                WK01-CODE-4031-CH5C6.
      *%--------------------------------------------------------------%*
           MOVE ACCT-CODE-4031-CH51 OF FCHWM51(0007) TO
                WK01-CODE-4031-CH5C7.
      *%--------------------------------------------------------------%*
           MOVE ACCT-CODE-4031-CH51 OF FCHWM51(0008) TO
                WK01-CODE-4031-CH5C8.
      *%--------------------------------------------------------------%*
           MOVE ACCT-CODE-4031-CH51 OF FCHWM51(0009) TO
                WK01-CODE-4031-CH5C9.
      *%--------------------------------------------------------------%*
           MOVE ORGZN-CODE-4031-CH51 OF FCHWM51(0001) TO
                WK01-CODE-4031-CH5D1.
      *%--------------------------------------------------------------%*
           MOVE ORGZN-CODE-4031-CH51 OF FCHWM51(0002) TO
                WK01-CODE-4031-CH5D2.
      *%--------------------------------------------------------------%*
           MOVE ORGZN-CODE-4031-CH51 OF FCHWM51(0003) TO
                WK01-CODE-4031-CH5D3.
      *%--------------------------------------------------------------%*
           MOVE ORGZN-CODE-4031-CH51 OF FCHWM51(0004) TO
                WK01-CODE-4031-CH5D4.
      *%--------------------------------------------------------------%*
           MOVE ORGZN-CODE-4031-CH51 OF FCHWM51(0005) TO
                WK01-CODE-4031-CH5D5.
      *%--------------------------------------------------------------%*
           MOVE ORGZN-CODE-4031-CH51 OF FCHWM51(0006) TO
                WK01-CODE-4031-CH5D6.
      *%--------------------------------------------------------------%*
           MOVE ORGZN-CODE-4031-CH51 OF FCHWM51(0007) TO
                WK01-CODE-4031-CH5D7.
      *%--------------------------------------------------------------%*
           MOVE ORGZN-CODE-4031-CH51 OF FCHWM51(0008) TO
                WK01-CODE-4031-CH5D8.
      *%--------------------------------------------------------------%*
           MOVE ORGZN-CODE-4031-CH51 OF FCHWM51(0009) TO
                WK01-CODE-4031-CH5D9.
      *%--------------------------------------------------------------%*
           MOVE FUND-CODE-4031-CH51 OF FCHWM51(0001) TO
                WK01-CODE-4031-CH5E1.
      *%--------------------------------------------------------------%*
           MOVE FUND-CODE-4031-CH51 OF FCHWM51(0002) TO
                WK01-CODE-4031-CH5E2.
      *%--------------------------------------------------------------%*
           MOVE FUND-CODE-4031-CH51 OF FCHWM51(0003) TO
                WK01-CODE-4031-CH5E3.
      *%--------------------------------------------------------------%*
           MOVE FUND-CODE-4031-CH51 OF FCHWM51(0004) TO
                WK01-CODE-4031-CH5E4.
      *%--------------------------------------------------------------%*
           MOVE FUND-CODE-4031-CH51 OF FCHWM51(0005) TO
                WK01-CODE-4031-CH5E5.
      *%--------------------------------------------------------------%*
           MOVE FUND-CODE-4031-CH51 OF FCHWM51(0006) TO
                WK01-CODE-4031-CH5E6.
      *%--------------------------------------------------------------%*
           MOVE FUND-CODE-4031-CH51 OF FCHWM51(0007) TO
                WK01-CODE-4031-CH5E7.
      *%--------------------------------------------------------------%*
           MOVE FUND-CODE-4031-CH51 OF FCHWM51(0008) TO
                WK01-CODE-4031-CH5E8.
      *%--------------------------------------------------------------%*
           MOVE FUND-CODE-4031-CH51 OF FCHWM51(0009) TO
                WK01-CODE-4031-CH5E9.
      *%--------------------------------------------------------------%*
           MOVE ACCT-INDX-CODE-4031-CH51 OF FCHWM51(0001) TO
                WK01-INDX-CODE-4031-CH511.
      *%--------------------------------------------------------------%*
           MOVE ACCT-INDX-CODE-4031-CH51 OF FCHWM51(0002) TO
                WK01-INDX-CODE-4031-CH512.
      *%--------------------------------------------------------------%*
           MOVE ACCT-INDX-CODE-4031-CH51 OF FCHWM51(0003) TO
                WK01-INDX-CODE-4031-CH513.
      *%--------------------------------------------------------------%*
           MOVE ACCT-INDX-CODE-4031-CH51 OF FCHWM51(0004) TO
                WK01-INDX-CODE-4031-CH514.
      *%--------------------------------------------------------------%*
           MOVE ACCT-INDX-CODE-4031-CH51 OF FCHWM51(0005) TO
                WK01-INDX-CODE-4031-CH515.
      *%--------------------------------------------------------------%*
           MOVE ACCT-INDX-CODE-4031-CH51 OF FCHWM51(0006) TO
                WK01-INDX-CODE-4031-CH516.
      *%--------------------------------------------------------------%*
           MOVE ACCT-INDX-CODE-4031-CH51 OF FCHWM51(0007) TO
                WK01-INDX-CODE-4031-CH517.
      *%--------------------------------------------------------------%*
           MOVE ACCT-INDX-CODE-4031-CH51 OF FCHWM51(0008) TO
                WK01-INDX-CODE-4031-CH518.
      *%--------------------------------------------------------------%*
           MOVE ACCT-INDX-CODE-4031-CH51 OF FCHWM51(0009) TO
                WK01-INDX-CODE-4031-CH519.
      *%--------------------------------------------------------------%*
           MOVE CNTRB-PCT-4031-CH51 OF FCHWM51(0001) TO
                WK01-PCT-4031-CH511.
      *%--------------------------------------------------------------%*
           MOVE CNTRB-PCT-4031-CH51 OF FCHWM51(0002) TO
                WK01-PCT-4031-CH512.
      *%--------------------------------------------------------------%*
           MOVE CNTRB-PCT-4031-CH51 OF FCHWM51(0003) TO
                WK01-PCT-4031-CH513.
      *%--------------------------------------------------------------%*
           MOVE CNTRB-PCT-4031-CH51 OF FCHWM51(0004) TO
                WK01-PCT-4031-CH514.
      *%--------------------------------------------------------------%*
           MOVE CNTRB-PCT-4031-CH51 OF FCHWM51(0005) TO
                WK01-PCT-4031-CH515.
      *%--------------------------------------------------------------%*
           MOVE CNTRB-PCT-4031-CH51 OF FCHWM51(0006) TO
                WK01-PCT-4031-CH516.
      *%--------------------------------------------------------------%*
           MOVE CNTRB-PCT-4031-CH51 OF FCHWM51(0007) TO
                WK01-PCT-4031-CH517.
      *%--------------------------------------------------------------%*
           MOVE CNTRB-PCT-4031-CH51 OF FCHWM51(0008) TO
                WK01-PCT-4031-CH518.
      *%--------------------------------------------------------------%*
           MOVE CNTRB-PCT-4031-CH51 OF FCHWM51(0009) TO
                WK01-PCT-4031-CH519.
      *%--------------------------------------------------------------%*
           MOVE ACTN-CODE-CH51 OF FCHWM51(0001) TO WK01-CODE-CH511.
      *%--------------------------------------------------------------%*
           MOVE ACTN-CODE-CH51 OF FCHWM51(0002) TO WK01-CODE-CH512.
      *%--------------------------------------------------------------%*
           MOVE ACTN-CODE-CH51 OF FCHWM51(0003) TO WK01-CODE-CH513.
      *%--------------------------------------------------------------%*
           MOVE ACTN-CODE-CH51 OF FCHWM51(0004) TO WK01-CODE-CH514.
      *%--------------------------------------------------------------%*
           MOVE ACTN-CODE-CH51 OF FCHWM51(0005) TO WK01-CODE-CH515.
      *%--------------------------------------------------------------%*
           MOVE ACTN-CODE-CH51 OF FCHWM51(0006) TO WK01-CODE-CH516.
      *%--------------------------------------------------------------%*
           MOVE ACTN-CODE-CH51 OF FCHWM51(0007) TO WK01-CODE-CH517.
      *%--------------------------------------------------------------%*
           MOVE ACTN-CODE-CH51 OF FCHWM51(0008) TO WK01-CODE-CH518.
      *%--------------------------------------------------------------%*
           MOVE ACTN-CODE-CH51 OF FCHWM51(0009) TO WK01-CODE-CH519.
