    ***Created by Convert/DC version V8R03 on 11/20/00 at 10:00***

      *%--------------------------------------------------------------%*
           MOVE AGR-DATE OF ADSO-APPLICATION-GLOBAL-RECORD TO WK01-DATE.
      *%--------------------------------------------------------------%*
           MOVE AGR-USER-ID OF ADSO-APPLICATION-GLOBAL-RECORD TO
                WK01-USER-ID.
      *%--------------------------------------------------------------%*
           MOVE AGR-FUNC-DESCRIPTION OF ADSO-APPLICATION-GLOBAL-RECORD
                TO WK01-FUNC-DESCRIPTION.
      *%--------------------------------------------------------------%*
           MOVE TRMNL-ID-SY00 OF FSYWG00M TO WK01-ID-SY00.
      *%--------------------------------------------------------------%*
           MOVE FULL-NAME-6001-SY00 OF FSYWG00M TO WK01-NAME-6001-SY00.
      *%--------------------------------------------------------------%*
           MOVE AM-PM-FLAG-SY00 OF FSYWG00M TO WK01-PM-FLAG-SY00.
      *%--------------------------------------------------------------%*
           MOVE CURR-RSPNS-ID-SY00 OF FSYWG00M TO WK01-RSPNS-ID-SY00.
      *%--------------------------------------------------------------%*
           MOVE PAGE-STATUS-CODE-SY00 OF FSYWG00M TO
                WK01-STATUS-CODE-SY00.
      *%--------------------------------------------------------------%*
           MOVE WORK-HH-MM-TIME-SY00 OF FSYWG00M TO
                WK01-HH-MM-TIME-SY00.
      *%--------------------------------------------------------------%*
           MOVE DCLINK-MESSAGE  TO WK01-ZZMESSAGE.
      *%--------------------------------------------------------------%*
           MOVE ERROR-TEXT-SY00 OF FSYWG00M TO WK01-TEXT-SY00.
      *%--------------------------------------------------------------%*
           MOVE AGR-PASSED-ONE OF ADSO-APPLICATION-GLOBAL-RECORD TO
                WK01-PASSED-ONE.
      *%--------------------------------------------------------------%*
           MOVE AGR-MAP-RESPONSE OF ADSO-APPLICATION-GLOBAL-RECORD TO
                WK01-MAP-RESPONSE.
      *%--------------------------------------------------------------%*
           MOVE RQST-COA-CODE-CH53 OF FCHWK53 TO WK01-COA-CODE-CH53.
      *%--------------------------------------------------------------%*
           MOVE RQST-USER-ID-CH53 OF FCHWK53 TO WK01-USER-ID-CH53.
      *%--------------------------------------------------------------%*
           MOVE ACTN-CODE-CH53 OF FCHWM53(0001) TO WK01-CODE-CH531.
      *%--------------------------------------------------------------%*
           MOVE ACTN-CODE-CH53 OF FCHWM53(0002) TO WK01-CODE-CH532.
      *%--------------------------------------------------------------%*
           MOVE ACTN-CODE-CH53 OF FCHWM53(0003) TO WK01-CODE-CH533.
      *%--------------------------------------------------------------%*
           MOVE ACTN-CODE-CH53 OF FCHWM53(0004) TO WK01-CODE-CH534.
      *%--------------------------------------------------------------%*
           MOVE ACTN-CODE-CH53 OF FCHWM53(0005) TO WK01-CODE-CH535.
      *%--------------------------------------------------------------%*
           MOVE ACTN-CODE-CH53 OF FCHWM53(0006) TO WK01-CODE-CH536.
      *%--------------------------------------------------------------%*
           MOVE ACTN-CODE-CH53 OF FCHWM53(0007) TO WK01-CODE-CH537.
      *%--------------------------------------------------------------%*
           MOVE ACTN-CODE-CH53 OF FCHWM53(0008) TO WK01-CODE-CH538.
      *%--------------------------------------------------------------%*
           MOVE ACTN-CODE-CH53 OF FCHWM53(0009) TO WK01-CODE-CH539.
      *%--------------------------------------------------------------%*
           MOVE ACTN-CODE-CH53 OF FCHWM53(0010) TO WK01-CODE-CH5310.
      *%--------------------------------------------------------------%*
           MOVE ACTN-CODE-CH53 OF FCHWM53(0011) TO WK01-CODE-CH5311.
      *%--------------------------------------------------------------%*
           MOVE ACTN-CODE-CH53 OF FCHWM53(0012) TO WK01-CODE-CH5312.
      *%--------------------------------------------------------------%*
           MOVE ACTN-CODE-CH53 OF FCHWM53(0013) TO WK01-CODE-CH5313.
      *%--------------------------------------------------------------%*
           MOVE COA-CODE-4013-CH53 OF FCHWM53(0001) TO
                WK01-CODE-4013-CH531.
      *%--------------------------------------------------------------%*
           MOVE COA-CODE-4013-CH53 OF FCHWM53(0002) TO
                WK01-CODE-4013-CH532.
      *%--------------------------------------------------------------%*
           MOVE COA-CODE-4013-CH53 OF FCHWM53(0003) TO
                WK01-CODE-4013-CH533.
      *%--------------------------------------------------------------%*
           MOVE COA-CODE-4013-CH53 OF FCHWM53(0004) TO
                WK01-CODE-4013-CH534.
      *%--------------------------------------------------------------%*
           MOVE COA-CODE-4013-CH53 OF FCHWM53(0005) TO
                WK01-CODE-4013-CH535.
      *%--------------------------------------------------------------%*
           MOVE COA-CODE-4013-CH53 OF FCHWM53(0006) TO
                WK01-CODE-4013-CH536.
      *%--------------------------------------------------------------%*
           MOVE COA-CODE-4013-CH53 OF FCHWM53(0007) TO
                WK01-CODE-4013-CH537.
      *%--------------------------------------------------------------%*
           MOVE COA-CODE-4013-CH53 OF FCHWM53(0008) TO
                WK01-CODE-4013-CH538.
      *%--------------------------------------------------------------%*
           MOVE COA-CODE-4013-CH53 OF FCHWM53(0009) TO
                WK01-CODE-4013-CH539.
      *%--------------------------------------------------------------%*
           MOVE COA-CODE-4013-CH53 OF FCHWM53(0010) TO
                WK01-CODE-4013-CH5310.
      *%--------------------------------------------------------------%*
           MOVE COA-CODE-4013-CH53 OF FCHWM53(0011) TO
                WK01-CODE-4013-CH5311.
      *%--------------------------------------------------------------%*
           MOVE COA-CODE-4013-CH53 OF FCHWM53(0012) TO
                WK01-CODE-4013-CH5312.
      *%--------------------------------------------------------------%*
           MOVE COA-CODE-4013-CH53 OF FCHWM53(0013) TO
                WK01-CODE-4013-CH5313.
      *%--------------------------------------------------------------%*
           MOVE USER-ID-4192-CH53 OF FCHWM53(0001) TO
                WK01-ID-4192-CH531.
      *%--------------------------------------------------------------%*
           MOVE USER-ID-4192-CH53 OF FCHWM53(0002) TO
                WK01-ID-4192-CH532.
      *%--------------------------------------------------------------%*
           MOVE USER-ID-4192-CH53 OF FCHWM53(0003) TO
                WK01-ID-4192-CH533.
      *%--------------------------------------------------------------%*
           MOVE USER-ID-4192-CH53 OF FCHWM53(0004) TO
                WK01-ID-4192-CH534.
      *%--------------------------------------------------------------%*
           MOVE USER-ID-4192-CH53 OF FCHWM53(0005) TO
                WK01-ID-4192-CH535.
      *%--------------------------------------------------------------%*
           MOVE USER-ID-4192-CH53 OF FCHWM53(0006) TO
                WK01-ID-4192-CH536.
      *%--------------------------------------------------------------%*
           MOVE USER-ID-4192-CH53 OF FCHWM53(0007) TO
                WK01-ID-4192-CH537.
      *%--------------------------------------------------------------%*
           MOVE USER-ID-4192-CH53 OF FCHWM53(0008) TO
                WK01-ID-4192-CH538.
      *%--------------------------------------------------------------%*
           MOVE USER-ID-4192-CH53 OF FCHWM53(0009) TO
                WK01-ID-4192-CH539.
      *%--------------------------------------------------------------%*
           MOVE USER-ID-4192-CH53 OF FCHWM53(0010) TO
                WK01-ID-4192-CH5310.
      *%--------------------------------------------------------------%*
           MOVE USER-ID-4192-CH53 OF FCHWM53(0011) TO
                WK01-ID-4192-CH5311.
      *%--------------------------------------------------------------%*
           MOVE USER-ID-4192-CH53 OF FCHWM53(0012) TO
                WK01-ID-4192-CH5312.
      *%--------------------------------------------------------------%*
           MOVE USER-ID-4192-CH53 OF FCHWM53(0013) TO
                WK01-ID-4192-CH5313.
      *%--------------------------------------------------------------%*
           MOVE NSF-OVRDE-4013-CH53 OF FCHWM53(0001) TO
                WK01-OVRDE-4013-CH531.
      *%--------------------------------------------------------------%*
           MOVE NSF-OVRDE-4013-CH53 OF FCHWM53(0002) TO
                WK01-OVRDE-4013-CH532.
      *%--------------------------------------------------------------%*
           MOVE NSF-OVRDE-4013-CH53 OF FCHWM53(0003) TO
                WK01-OVRDE-4013-CH533.
      *%--------------------------------------------------------------%*
           MOVE NSF-OVRDE-4013-CH53 OF FCHWM53(0004) TO
                WK01-OVRDE-4013-CH534.
      *%--------------------------------------------------------------%*
           MOVE NSF-OVRDE-4013-CH53 OF FCHWM53(0005) TO
                WK01-OVRDE-4013-CH535.
      *%--------------------------------------------------------------%*
           MOVE NSF-OVRDE-4013-CH53 OF FCHWM53(0006) TO
                WK01-OVRDE-4013-CH536.
      *%--------------------------------------------------------------%*
           MOVE NSF-OVRDE-4013-CH53 OF FCHWM53(0007) TO
                WK01-OVRDE-4013-CH537.
      *%--------------------------------------------------------------%*
           MOVE NSF-OVRDE-4013-CH53 OF FCHWM53(0008) TO
                WK01-OVRDE-4013-CH538.
      *%--------------------------------------------------------------%*
           MOVE NSF-OVRDE-4013-CH53 OF FCHWM53(0009) TO
                WK01-OVRDE-4013-CH539.
      *%--------------------------------------------------------------%*
           MOVE NSF-OVRDE-4013-CH53 OF FCHWM53(0010) TO
                WK01-OVRDE-4013-CH5310.
      *%--------------------------------------------------------------%*
           MOVE NSF-OVRDE-4013-CH53 OF FCHWM53(0011) TO
                WK01-OVRDE-4013-CH5311.
      *%--------------------------------------------------------------%*
           MOVE NSF-OVRDE-4013-CH53 OF FCHWM53(0012) TO
                WK01-OVRDE-4013-CH5312.
      *%--------------------------------------------------------------%*
           MOVE NSF-OVRDE-4013-CH53 OF FCHWM53(0013) TO
                WK01-OVRDE-4013-CH5313.
      *%--------------------------------------------------------------%*
           MOVE TLRNC-PCTG-4013-CH53 OF FCHWM53(0001) TO
                WK01-PCTG-4013-CH531.
      *%--------------------------------------------------------------%*
           MOVE TLRNC-PCTG-4013-CH53 OF FCHWM53(0002) TO
                WK01-PCTG-4013-CH532.
      *%--------------------------------------------------------------%*
           MOVE TLRNC-PCTG-4013-CH53 OF FCHWM53(0003) TO
                WK01-PCTG-4013-CH533.
      *%--------------------------------------------------------------%*
           MOVE TLRNC-PCTG-4013-CH53 OF FCHWM53(0004) TO
                WK01-PCTG-4013-CH534.
      *%--------------------------------------------------------------%*
           MOVE TLRNC-PCTG-4013-CH53 OF FCHWM53(0005) TO
                WK01-PCTG-4013-CH535.
      *%--------------------------------------------------------------%*
           MOVE TLRNC-PCTG-4013-CH53 OF FCHWM53(0006) TO
                WK01-PCTG-4013-CH536.
      *%--------------------------------------------------------------%*
           MOVE TLRNC-PCTG-4013-CH53 OF FCHWM53(0007) TO
                WK01-PCTG-4013-CH537.
      *%--------------------------------------------------------------%*
           MOVE TLRNC-PCTG-4013-CH53 OF FCHWM53(0008) TO
                WK01-PCTG-4013-CH538.
      *%--------------------------------------------------------------%*
           MOVE TLRNC-PCTG-4013-CH53 OF FCHWM53(0009) TO
                WK01-PCTG-4013-CH539.
      *%--------------------------------------------------------------%*
           MOVE TLRNC-PCTG-4013-CH53 OF FCHWM53(0010) TO
                WK01-PCTG-4013-CH5310.
      *%--------------------------------------------------------------%*
           MOVE TLRNC-PCTG-4013-CH53 OF FCHWM53(0011) TO
                WK01-PCTG-4013-CH5311.
      *%--------------------------------------------------------------%*
           MOVE TLRNC-PCTG-4013-CH53 OF FCHWM53(0012) TO
                WK01-PCTG-4013-CH5312.
      *%--------------------------------------------------------------%*
           MOVE TLRNC-PCTG-4013-CH53 OF FCHWM53(0013) TO
                WK01-PCTG-4013-CH5313.
      *%--------------------------------------------------------------%*
           MOVE TLRNC-AMT-4013-CH53 OF FCHWM53(0001) TO
                WK01-AMT-4013-CH531.
      *%--------------------------------------------------------------%*
           MOVE TLRNC-AMT-4013-CH53 OF FCHWM53(0002) TO
                WK01-AMT-4013-CH532.
      *%--------------------------------------------------------------%*
           MOVE TLRNC-AMT-4013-CH53 OF FCHWM53(0003) TO
                WK01-AMT-4013-CH533.
      *%--------------------------------------------------------------%*
           MOVE TLRNC-AMT-4013-CH53 OF FCHWM53(0004) TO
                WK01-AMT-4013-CH534.
      *%--------------------------------------------------------------%*
           MOVE TLRNC-AMT-4013-CH53 OF FCHWM53(0005) TO
                WK01-AMT-4013-CH535.
      *%--------------------------------------------------------------%*
           MOVE TLRNC-AMT-4013-CH53 OF FCHWM53(0006) TO
                WK01-AMT-4013-CH536.
      *%--------------------------------------------------------------%*
           MOVE TLRNC-AMT-4013-CH53 OF FCHWM53(0007) TO
                WK01-AMT-4013-CH537.
      *%--------------------------------------------------------------%*
           MOVE TLRNC-AMT-4013-CH53 OF FCHWM53(0008) TO
                WK01-AMT-4013-CH538.
      *%--------------------------------------------------------------%*
           MOVE TLRNC-AMT-4013-CH53 OF FCHWM53(0009) TO
                WK01-AMT-4013-CH539.
      *%--------------------------------------------------------------%*
           MOVE TLRNC-AMT-4013-CH53 OF FCHWM53(0010) TO
                WK01-AMT-4013-CH5310.
      *%--------------------------------------------------------------%*
           MOVE TLRNC-AMT-4013-CH53 OF FCHWM53(0011) TO
                WK01-AMT-4013-CH5311.
      *%--------------------------------------------------------------%*
           MOVE TLRNC-AMT-4013-CH53 OF FCHWM53(0012) TO
                WK01-AMT-4013-CH5312.
      *%--------------------------------------------------------------%*
           MOVE TLRNC-AMT-4013-CH53 OF FCHWM53(0013) TO
                WK01-AMT-4013-CH5313.
      *%--------------------------------------------------------------%*
           MOVE BUYER-CODE-4013-CH53 OF FCHWM53(0001) TO
                WK01-CODE-4013-CH5A1.
      *%--------------------------------------------------------------%*
           MOVE BUYER-CODE-4013-CH53 OF FCHWM53(0002) TO
                WK01-CODE-4013-CH5A2.
      *%--------------------------------------------------------------%*
           MOVE BUYER-CODE-4013-CH53 OF FCHWM53(0003) TO
                WK01-CODE-4013-CH5A3.
      *%--------------------------------------------------------------%*
           MOVE BUYER-CODE-4013-CH53 OF FCHWM53(0004) TO
                WK01-CODE-4013-CH5A4.
      *%--------------------------------------------------------------%*
           MOVE BUYER-CODE-4013-CH53 OF FCHWM53(0005) TO
                WK01-CODE-4013-CH5A5.
      *%--------------------------------------------------------------%*
           MOVE BUYER-CODE-4013-CH53 OF FCHWM53(0006) TO
                WK01-CODE-4013-CH5A6.
      *%--------------------------------------------------------------%*
           MOVE BUYER-CODE-4013-CH53 OF FCHWM53(0007) TO
                WK01-CODE-4013-CH5A7.
      *%--------------------------------------------------------------%*
           MOVE BUYER-CODE-4013-CH53 OF FCHWM53(0008) TO
                WK01-CODE-4013-CH5A8.
      *%--------------------------------------------------------------%*
           MOVE BUYER-CODE-4013-CH53 OF FCHWM53(0009) TO
                WK01-CODE-4013-CH5A9.
      *%--------------------------------------------------------------%*
           MOVE BUYER-CODE-4013-CH53 OF FCHWM53(0010) TO
                WK01-CODE-4013-CH5A10.
      *%--------------------------------------------------------------%*
           MOVE BUYER-CODE-4013-CH53 OF FCHWM53(0011) TO
                WK01-CODE-4013-CH5A11.
      *%--------------------------------------------------------------%*
           MOVE BUYER-CODE-4013-CH53 OF FCHWM53(0012) TO
                WK01-CODE-4013-CH5A12.
      *%--------------------------------------------------------------%*
           MOVE BUYER-CODE-4013-CH53 OF FCHWM53(0013) TO
                WK01-CODE-4013-CH5A13.
