       01  MAP-CONTROL.

    ***Created by Convert/DC version V8R03 on 11/01/00 at 10:00***

           02  FCHMI63-MAP-CONTROL.
           03  FCHMI63T.
           04  WK01-DCXMAPL-PARMS.
               10  WK01-MAPNAME                  PIC X(8)
                                                 VALUE 'FCHMI63I'.
               10  WK01-IKE-LENGTH               PIC S9(8)  COMP
                                                 VALUE 24962.
               10  WK01-TINA-LENGTH              PIC S9(4)  COMP
                                                 VALUE 1439.
           05  WK01-ATTRIBUTES                   PIC X(60)
                                                 VALUE SPACE.
           05  WK01-ATTRIBUTES-ERROR             PIC X(60) VALUE
               'U  BIF'.
           05  WK01-CURSOR-DFLD                  PIC X(36)
                                                 VALUE SPACES.
           05  WK01-CURSOR-DFLD-QUAL             PIC X(30)
                                                 VALUE SPACES.
           05  WK01-ROW                          PIC S9(4) COMP
                                                 VALUE ZERO.
           05  WK01-COLUMN                       PIC S9(4) COMP
                                                 VALUE ZERO.
           05  WK01-ERROR-MSG                    PIC X(80)
                                                 VALUE SPACES.
           05  WK01-MAP-DATA-LEN                 PIC S9(6)
                                                 VALUE ZERO.
           05  WK01-1ST-FLAG                     PIC X(1)
                                                 VALUE 'Y'.
           05  WK01-FLAG-OUTPUT-DATA             PIC X(1)
                                                 VALUE 'Y'.
      *    05  WK01-STATUS-RETURN-FLAG           PIC X(1)
      *                                          VALUE SPACES.
           05  WK01-ALL-BUT-FLAG                 PIC X(1)
                                                 VALUE SPACES.
           05  WK01-FLAG-ALL-FIELDS-CHANGED      PIC X(1)  VALUE 'Y'.
           05  WK01-FLAG-ANY-FIELDS-CHANGED      PIC X(1)  VALUE 'N'.
           05  WK01-FLAG-ALL-FIELDS-ERROR        PIC X(1)  VALUE 'Y'.
           05  WK01-FLAG-ANY-FIELDS-ERROR        PIC X(1)  VALUE 'N'.
           05  WK01-FLAG-ALL-FIELDS-ERASE        PIC X(1)  VALUE 'Y'.
           05  WK01-FLAG-ANY-FIELDS-ERASE        PIC X(1)  VALUE 'Y'.

           05  WK01-VARDATA                      PIC X(11880)
                                                 VALUE SPACES.
           05  FILLER                            PIC X(100)
                                                 VALUE SPACES.
           04  WK01-ELEMENT-AREA.

               10  WK01-ID-SY00-Z              PIC X(1)
                                               VALUE SPACE.
               10  WK01-ID-SY00-F              PIC X(1)
                                               VALUE SPACE.
               10  WK01-ID-SY00-A              PIC X(1)
                                               VALUE SPACE.
               10  WK01-ID-SY00-V              PIC X(1)
                                               VALUE SPACE.
               10  WK01-ID-SY00-O              PIC X(1)
                                               VALUE SPACE.
               10  WK01-ID-SY00       PIC X(8)
                                               VALUE SPACES.
               10  WK01-NAME-6001-SY00-Z              PIC X(1)
                                               VALUE SPACE.
               10  WK01-NAME-6001-SY00-F              PIC X(1)
                                               VALUE SPACE.
               10  WK01-NAME-6001-SY00-A              PIC X(1)
                                               VALUE SPACE.
               10  WK01-NAME-6001-SY00-V              PIC X(1)
                                               VALUE SPACE.
               10  WK01-NAME-6001-SY00-O              PIC X(1)
                                               VALUE SPACE.
               10  WK01-NAME-6001-SY00       PIC X(35)
                                               VALUE SPACES.
               10  WK01-DATE-Z              PIC X(1)
                                               VALUE SPACE.
               10  WK01-DATE-F              PIC X(1)
                                               VALUE SPACE.
               10  WK01-DATE-A              PIC X(1)
                                               VALUE SPACE.
               10  WK01-DATE-V              PIC X(1)
                                               VALUE SPACE.
               10  WK01-DATE-O              PIC X(1)
                                               VALUE SPACE.
               10  WK01-DATE       PIC X(8)
                                               VALUE SPACES.
               10  WK01-HH-MM-TIME-SY00-Z              PIC X(1)
                                               VALUE SPACE.
               10  WK01-HH-MM-TIME-SY00-F              PIC X(1)
                                               VALUE SPACE.
               10  WK01-HH-MM-TIME-SY00-A              PIC X(1)
                                               VALUE SPACE.
               10  WK01-HH-MM-TIME-SY00-V              PIC X(1)
                                               VALUE SPACE.
               10  WK01-HH-MM-TIME-SY00-O              PIC X(1)
                                               VALUE SPACE.
               10  WK01-HH-MM-TIME-SY00       PIC X(4)
                                               VALUE SPACES.
               10  WK01-PM-FLAG-SY00-Z              PIC X(1)
                                               VALUE SPACE.
               10  WK01-PM-FLAG-SY00-F              PIC X(1)
                                               VALUE SPACE.
               10  WK01-PM-FLAG-SY00-A              PIC X(1)
                                               VALUE SPACE.
               10  WK01-PM-FLAG-SY00-V              PIC X(1)
                                               VALUE SPACE.
               10  WK01-PM-FLAG-SY00-O              PIC X(1)
                                               VALUE SPACE.
               10  WK01-PM-FLAG-SY00       PIC X(1)
                                               VALUE SPACES.
               10  WK01-USER-ID-Z              PIC X(1)
                                               VALUE SPACE.
               10  WK01-USER-ID-F              PIC X(1)
                                               VALUE SPACE.
               10  WK01-USER-ID-A              PIC X(1)
                                               VALUE SPACE.
               10  WK01-USER-ID-V              PIC X(1)
                                               VALUE SPACE.
               10  WK01-USER-ID-O              PIC X(1)
                                               VALUE SPACE.
               10  WK01-USER-ID       PIC X(32)
                                               VALUE SPACES.
               10  WK01-RSPNS-ID-SY00-Z              PIC X(1)
                                               VALUE SPACE.
               10  WK01-RSPNS-ID-SY00-F              PIC X(1)
                                               VALUE SPACE.
               10  WK01-RSPNS-ID-SY00-A              PIC X(1)
                                               VALUE SPACE.
               10  WK01-RSPNS-ID-SY00-V              PIC X(1)
                                               VALUE SPACE.
               10  WK01-RSPNS-ID-SY00-O              PIC X(1)
                                               VALUE SPACE.
               10  WK01-RSPNS-ID-SY00       PIC X(8)
                                               VALUE SPACES.
               10  WK01-FUNC-DESCRIPTION-Z              PIC X(1)
                                               VALUE SPACE.
               10  WK01-FUNC-DESCRIPTION-F              PIC X(1)
                                               VALUE SPACE.
               10  WK01-FUNC-DESCRIPTION-A              PIC X(1)
                                               VALUE SPACE.
               10  WK01-FUNC-DESCRIPTION-V              PIC X(1)
                                               VALUE SPACE.
               10  WK01-FUNC-DESCRIPTION-O              PIC X(1)
                                               VALUE SPACE.
               10  WK01-FUNC-DESCRIPTION       PIC X(28)
                                               VALUE SPACES.
               10  WK01-STATUS-CODE-SY00-Z              PIC X(1)
                                               VALUE SPACE.
               10  WK01-STATUS-CODE-SY00-F              PIC X(1)
                                               VALUE SPACE.
               10  WK01-STATUS-CODE-SY00-A              PIC X(1)
                                               VALUE SPACE.
               10  WK01-STATUS-CODE-SY00-V              PIC X(1)
                                               VALUE SPACE.
               10  WK01-STATUS-CODE-SY00-O              PIC X(1)
                                               VALUE SPACE.
               10  WK01-STATUS-CODE-SY00       PIC X(1)
                                               VALUE SPACES.
               10  WK01-DATE-CH63-Z              PIC X(1)
                                               VALUE SPACE.
               10  WK01-DATE-CH63-F              PIC X(1)
                                               VALUE SPACE.
               10  WK01-DATE-CH63-A              PIC X(1)
                                               VALUE SPACE.
               10  WK01-DATE-CH63-V              PIC X(1)
                                               VALUE SPACE.
               10  WK01-DATE-CH63-O              PIC X(1)
                                               VALUE SPACE.
               10  WK01-DATE-CH63       PIC X(6)
                                               VALUE SPACES.
               10  WK01-STATUS-CH63-Z              PIC X(1)
                                               VALUE SPACE.
               10  WK01-STATUS-CH63-F              PIC X(1)
                                               VALUE SPACE.
               10  WK01-STATUS-CH63-A              PIC X(1)
                                               VALUE SPACE.
               10  WK01-STATUS-CH63-V              PIC X(1)
                                               VALUE SPACE.
               10  WK01-STATUS-CH63-O              PIC X(1)
                                               VALUE SPACE.
               10  WK01-STATUS-CH63       PIC X(1)
                                               VALUE SPACES.
               10  WK01-CODE-CH631-Z              PIC X(1)
                                               VALUE SPACE.
               10  WK01-CODE-CH631-F              PIC X(1)
                                               VALUE SPACE.
               10  WK01-CODE-CH631-A              PIC X(1)
                                               VALUE SPACE.
               10  WK01-CODE-CH631-V              PIC X(1)
                                               VALUE SPACE.
               10  WK01-CODE-CH631-O              PIC X(1)
                                               VALUE SPACE.
               10  WK01-CODE-CH631       PIC X(1)
                                               VALUE SPACES.
               10  WK01-CODE-4001-CH631-Z              PIC X(1)
                                               VALUE SPACE.
               10  WK01-CODE-4001-CH631-F              PIC X(1)
                                               VALUE SPACE.
               10  WK01-CODE-4001-CH631-A              PIC X(1)
                                               VALUE SPACE.
               10  WK01-CODE-4001-CH631-V              PIC X(1)
                                               VALUE SPACE.
               10  WK01-CODE-4001-CH631-O              PIC X(1)
                                               VALUE SPACE.
               10  WK01-CODE-4001-CH631       PIC X(1)
                                               VALUE SPACES.
               10  WK01-CODE-4001-CH6A1-Z              PIC X(1)
                                               VALUE SPACE.
               10  WK01-CODE-4001-CH6A1-F              PIC X(1)
                                               VALUE SPACE.
               10  WK01-CODE-4001-CH6A1-A              PIC X(1)
                                               VALUE SPACE.
               10  WK01-CODE-4001-CH6A1-V              PIC X(1)
                                               VALUE SPACE.
               10  WK01-CODE-4001-CH6A1-O              PIC X(1)
                                               VALUE SPACE.
               10  WK01-CODE-4001-CH6A1       PIC X(6)
                                               VALUE SPACES.
               10  WK01-TITLE-4005-CH631-Z              PIC X(1)
                                               VALUE SPACE.
               10  WK01-TITLE-4005-CH631-F              PIC X(1)
                                               VALUE SPACE.
               10  WK01-TITLE-4005-CH631-A              PIC X(1)
                                               VALUE SPACE.
               10  WK01-TITLE-4005-CH631-V              PIC X(1)
                                               VALUE SPACE.
               10  WK01-TITLE-4005-CH631-O              PIC X(1)
                                               VALUE SPACE.
               10  WK01-TITLE-4005-CH631       PIC X(35)
                                               VALUE SPACES.
               10  WK01-4005-CH631-Z              PIC X(1)
                                               VALUE SPACE.
               10  WK01-4005-CH631-F              PIC X(1)
                                               VALUE SPACE.
               10  WK01-4005-CH631-A              PIC X(1)
                                               VALUE SPACE.
               10  WK01-4005-CH631-V              PIC X(1)
                                               VALUE SPACE.
               10  WK01-4005-CH631-O              PIC X(1)
                                               VALUE SPACE.
               10  WK01-4005-CH631       PIC X(1)
                                               VALUE SPACES.
               10  WK01-DATE-4005-CH631-Z              PIC X(1)
                                               VALUE SPACE.
               10  WK01-DATE-4005-CH631-F              PIC X(1)
                                               VALUE SPACE.
               10  WK01-DATE-4005-CH631-A              PIC X(1)
                                               VALUE SPACE.
               10  WK01-DATE-4005-CH631-V              PIC X(1)
                                               VALUE SPACE.
               10  WK01-DATE-4005-CH631-O              PIC X(1)
                                               VALUE SPACE.
               10  WK01-DATE-4005-CH631       PIC X(6)
                                               VALUE SPACES.
               10  WK01-DATE-4005-CH6A1-Z              PIC X(1)
                                               VALUE SPACE.
               10  WK01-DATE-4005-CH6A1-F              PIC X(1)
                                               VALUE SPACE.
               10  WK01-DATE-4005-CH6A1-A              PIC X(1)
                                               VALUE SPACE.
               10  WK01-DATE-4005-CH6A1-V              PIC X(1)
                                               VALUE SPACE.
               10  WK01-DATE-4005-CH6A1-O              PIC X(1)
                                               VALUE SPACE.
               10  WK01-DATE-4005-CH6A1       PIC X(6)
                                               VALUE SPACES.
               10  WK01-CODE-CH632-Z              PIC X(1)
                                               VALUE SPACE.
               10  WK01-CODE-CH632-F              PIC X(1)
                                               VALUE SPACE.
               10  WK01-CODE-CH632-A              PIC X(1)
                                               VALUE SPACE.
               10  WK01-CODE-CH632-V              PIC X(1)
                                               VALUE SPACE.
               10  WK01-CODE-CH632-O              PIC X(1)
                                               VALUE SPACE.
               10  WK01-CODE-CH632       PIC X(1)
                                               VALUE SPACES.
               10  WK01-CODE-4001-CH632-Z              PIC X(1)
                                               VALUE SPACE.
               10  WK01-CODE-4001-CH632-F              PIC X(1)
                                               VALUE SPACE.
               10  WK01-CODE-4001-CH632-A              PIC X(1)
                                               VALUE SPACE.
               10  WK01-CODE-4001-CH632-V              PIC X(1)
                                               VALUE SPACE.
               10  WK01-CODE-4001-CH632-O              PIC X(1)
                                               VALUE SPACE.
               10  WK01-CODE-4001-CH632       PIC X(1)
                                               VALUE SPACES.
               10  WK01-CODE-4001-CH6A2-Z              PIC X(1)
                                               VALUE SPACE.
               10  WK01-CODE-4001-CH6A2-F              PIC X(1)
                                               VALUE SPACE.
               10  WK01-CODE-4001-CH6A2-A              PIC X(1)
                                               VALUE SPACE.
               10  WK01-CODE-4001-CH6A2-V              PIC X(1)
                                               VALUE SPACE.
               10  WK01-CODE-4001-CH6A2-O              PIC X(1)
                                               VALUE SPACE.
               10  WK01-CODE-4001-CH6A2       PIC X(6)
                                               VALUE SPACES.
               10  WK01-TITLE-4005-CH632-Z              PIC X(1)
                                               VALUE SPACE.
               10  WK01-TITLE-4005-CH632-F              PIC X(1)
                                               VALUE SPACE.
               10  WK01-TITLE-4005-CH632-A              PIC X(1)
                                               VALUE SPACE.
               10  WK01-TITLE-4005-CH632-V              PIC X(1)
                                               VALUE SPACE.
               10  WK01-TITLE-4005-CH632-O              PIC X(1)
                                               VALUE SPACE.
               10  WK01-TITLE-4005-CH632       PIC X(35)
                                               VALUE SPACES.
               10  WK01-4005-CH632-Z              PIC X(1)
                                               VALUE SPACE.
               10  WK01-4005-CH632-F              PIC X(1)
                                               VALUE SPACE.
               10  WK01-4005-CH632-A              PIC X(1)
                                               VALUE SPACE.
               10  WK01-4005-CH632-V              PIC X(1)
                                               VALUE SPACE.
               10  WK01-4005-CH632-O              PIC X(1)
                                               VALUE SPACE.
               10  WK01-4005-CH632       PIC X(1)
                                               VALUE SPACES.
               10  WK01-DATE-4005-CH632-Z              PIC X(1)
                                               VALUE SPACE.
               10  WK01-DATE-4005-CH632-F              PIC X(1)
                                               VALUE SPACE.
               10  WK01-DATE-4005-CH632-A              PIC X(1)
                                               VALUE SPACE.
               10  WK01-DATE-4005-CH632-V              PIC X(1)
                                               VALUE SPACE.
               10  WK01-DATE-4005-CH632-O              PIC X(1)
                                               VALUE SPACE.
               10  WK01-DATE-4005-CH632       PIC X(6)
                                               VALUE SPACES.
               10  WK01-DATE-4005-CH6A2-Z              PIC X(1)
                                               VALUE SPACE.
               10  WK01-DATE-4005-CH6A2-F              PIC X(1)
                                               VALUE SPACE.
               10  WK01-DATE-4005-CH6A2-A              PIC X(1)
                                               VALUE SPACE.
               10  WK01-DATE-4005-CH6A2-V              PIC X(1)
                                               VALUE SPACE.
               10  WK01-DATE-4005-CH6A2-O              PIC X(1)
                                               VALUE SPACE.
               10  WK01-DATE-4005-CH6A2       PIC X(6)
                                               VALUE SPACES.
               10  WK01-CODE-CH633-Z              PIC X(1)
                                               VALUE SPACE.
               10  WK01-CODE-CH633-F              PIC X(1)
                                               VALUE SPACE.
               10  WK01-CODE-CH633-A              PIC X(1)
                                               VALUE SPACE.
               10  WK01-CODE-CH633-V              PIC X(1)
                                               VALUE SPACE.
               10  WK01-CODE-CH633-O              PIC X(1)
                                               VALUE SPACE.
               10  WK01-CODE-CH633       PIC X(1)
                                               VALUE SPACES.
               10  WK01-CODE-4001-CH633-Z              PIC X(1)
                                               VALUE SPACE.
               10  WK01-CODE-4001-CH633-F              PIC X(1)
                                               VALUE SPACE.
               10  WK01-CODE-4001-CH633-A              PIC X(1)
                                               VALUE SPACE.
               10  WK01-CODE-4001-CH633-V              PIC X(1)
                                               VALUE SPACE.
               10  WK01-CODE-4001-CH633-O              PIC X(1)
                                               VALUE SPACE.
               10  WK01-CODE-4001-CH633       PIC X(1)
                                               VALUE SPACES.
               10  WK01-CODE-4001-CH6A3-Z              PIC X(1)
                                               VALUE SPACE.
               10  WK01-CODE-4001-CH6A3-F              PIC X(1)
                                               VALUE SPACE.
               10  WK01-CODE-4001-CH6A3-A              PIC X(1)
                                               VALUE SPACE.
               10  WK01-CODE-4001-CH6A3-V              PIC X(1)
                                               VALUE SPACE.
               10  WK01-CODE-4001-CH6A3-O              PIC X(1)
                                               VALUE SPACE.
               10  WK01-CODE-4001-CH6A3       PIC X(6)
                                               VALUE SPACES.
               10  WK01-TITLE-4005-CH633-Z              PIC X(1)
                                               VALUE SPACE.
               10  WK01-TITLE-4005-CH633-F              PIC X(1)
                                               VALUE SPACE.
               10  WK01-TITLE-4005-CH633-A              PIC X(1)
                                               VALUE SPACE.
               10  WK01-TITLE-4005-CH633-V              PIC X(1)
                                               VALUE SPACE.
               10  WK01-TITLE-4005-CH633-O              PIC X(1)
                                               VALUE SPACE.
               10  WK01-TITLE-4005-CH633       PIC X(35)
                                               VALUE SPACES.
               10  WK01-4005-CH633-Z              PIC X(1)
                                               VALUE SPACE.
               10  WK01-4005-CH633-F              PIC X(1)
                                               VALUE SPACE.
               10  WK01-4005-CH633-A              PIC X(1)
                                               VALUE SPACE.
               10  WK01-4005-CH633-V              PIC X(1)
                                               VALUE SPACE.
               10  WK01-4005-CH633-O              PIC X(1)
                                               VALUE SPACE.
               10  WK01-4005-CH633       PIC X(1)
                                               VALUE SPACES.
               10  WK01-DATE-4005-CH633-Z              PIC X(1)
                                               VALUE SPACE.
               10  WK01-DATE-4005-CH633-F              PIC X(1)
                                               VALUE SPACE.
               10  WK01-DATE-4005-CH633-A              PIC X(1)
                                               VALUE SPACE.
               10  WK01-DATE-4005-CH633-V              PIC X(1)
                                               VALUE SPACE.
               10  WK01-DATE-4005-CH633-O              PIC X(1)
                                               VALUE SPACE.
               10  WK01-DATE-4005-CH633       PIC X(6)
                                               VALUE SPACES.
               10  WK01-DATE-4005-CH6A3-Z              PIC X(1)
                                               VALUE SPACE.
               10  WK01-DATE-4005-CH6A3-F              PIC X(1)
                                               VALUE SPACE.
               10  WK01-DATE-4005-CH6A3-A              PIC X(1)
                                               VALUE SPACE.
               10  WK01-DATE-4005-CH6A3-V              PIC X(1)
                                               VALUE SPACE.
               10  WK01-DATE-4005-CH6A3-O              PIC X(1)
                                               VALUE SPACE.
               10  WK01-DATE-4005-CH6A3       PIC X(6)
                                               VALUE SPACES.
               10  WK01-CODE-CH634-Z              PIC X(1)
                                               VALUE SPACE.
               10  WK01-CODE-CH634-F              PIC X(1)
                                               VALUE SPACE.
               10  WK01-CODE-CH634-A              PIC X(1)
                                               VALUE SPACE.
               10  WK01-CODE-CH634-V              PIC X(1)
                                               VALUE SPACE.
               10  WK01-CODE-CH634-O              PIC X(1)
                                               VALUE SPACE.
               10  WK01-CODE-CH634       PIC X(1)
                                               VALUE SPACES.
               10  WK01-CODE-4001-CH634-Z              PIC X(1)
                                               VALUE SPACE.
               10  WK01-CODE-4001-CH634-F              PIC X(1)
                                               VALUE SPACE.
               10  WK01-CODE-4001-CH634-A              PIC X(1)
                                               VALUE SPACE.
               10  WK01-CODE-4001-CH634-V              PIC X(1)
                                               VALUE SPACE.
               10  WK01-CODE-4001-CH634-O              PIC X(1)
                                               VALUE SPACE.
               10  WK01-CODE-4001-CH634       PIC X(1)
                                               VALUE SPACES.
               10  WK01-CODE-4001-CH6A4-Z              PIC X(1)
                                               VALUE SPACE.
               10  WK01-CODE-4001-CH6A4-F              PIC X(1)
                                               VALUE SPACE.
               10  WK01-CODE-4001-CH6A4-A              PIC X(1)
                                               VALUE SPACE.
               10  WK01-CODE-4001-CH6A4-V              PIC X(1)
                                               VALUE SPACE.
               10  WK01-CODE-4001-CH6A4-O              PIC X(1)
                                               VALUE SPACE.
               10  WK01-CODE-4001-CH6A4       PIC X(6)
                                               VALUE SPACES.
               10  WK01-TITLE-4005-CH634-Z              PIC X(1)
                                               VALUE SPACE.
               10  WK01-TITLE-4005-CH634-F              PIC X(1)
                                               VALUE SPACE.
               10  WK01-TITLE-4005-CH634-A              PIC X(1)
                                               VALUE SPACE.
               10  WK01-TITLE-4005-CH634-V              PIC X(1)
                                               VALUE SPACE.
               10  WK01-TITLE-4005-CH634-O              PIC X(1)
                                               VALUE SPACE.
               10  WK01-TITLE-4005-CH634       PIC X(35)
                                               VALUE SPACES.
               10  WK01-4005-CH634-Z              PIC X(1)
                                               VALUE SPACE.
               10  WK01-4005-CH634-F              PIC X(1)
                                               VALUE SPACE.
               10  WK01-4005-CH634-A              PIC X(1)
                                               VALUE SPACE.
               10  WK01-4005-CH634-V              PIC X(1)
                                               VALUE SPACE.
               10  WK01-4005-CH634-O              PIC X(1)
                                               VALUE SPACE.
               10  WK01-4005-CH634       PIC X(1)
                                               VALUE SPACES.
               10  WK01-DATE-4005-CH634-Z              PIC X(1)
                                               VALUE SPACE.
               10  WK01-DATE-4005-CH634-F              PIC X(1)
                                               VALUE SPACE.
               10  WK01-DATE-4005-CH634-A              PIC X(1)
                                               VALUE SPACE.
               10  WK01-DATE-4005-CH634-V              PIC X(1)
                                               VALUE SPACE.
               10  WK01-DATE-4005-CH634-O              PIC X(1)
                                               VALUE SPACE.
               10  WK01-DATE-4005-CH634       PIC X(6)
                                               VALUE SPACES.
               10  WK01-DATE-4005-CH6A4-Z              PIC X(1)
                                               VALUE SPACE.
               10  WK01-DATE-4005-CH6A4-F              PIC X(1)
                                               VALUE SPACE.
               10  WK01-DATE-4005-CH6A4-A              PIC X(1)
                                               VALUE SPACE.
               10  WK01-DATE-4005-CH6A4-V              PIC X(1)
                                               VALUE SPACE.
               10  WK01-DATE-4005-CH6A4-O              PIC X(1)
                                               VALUE SPACE.
               10  WK01-DATE-4005-CH6A4       PIC X(6)
                                               VALUE SPACES.
               10  WK01-CODE-CH635-Z              PIC X(1)
                                               VALUE SPACE.
               10  WK01-CODE-CH635-F              PIC X(1)
                                               VALUE SPACE.
               10  WK01-CODE-CH635-A              PIC X(1)
                                               VALUE SPACE.
               10  WK01-CODE-CH635-V              PIC X(1)
                                               VALUE SPACE.
               10  WK01-CODE-CH635-O              PIC X(1)
                                               VALUE SPACE.
               10  WK01-CODE-CH635       PIC X(1)
                                               VALUE SPACES.
               10  WK01-CODE-4001-CH635-Z              PIC X(1)
                                               VALUE SPACE.
               10  WK01-CODE-4001-CH635-F              PIC X(1)
                                               VALUE SPACE.
               10  WK01-CODE-4001-CH635-A              PIC X(1)
                                               VALUE SPACE.
               10  WK01-CODE-4001-CH635-V              PIC X(1)
                                               VALUE SPACE.
               10  WK01-CODE-4001-CH635-O              PIC X(1)
                                               VALUE SPACE.
               10  WK01-CODE-4001-CH635       PIC X(1)
                                               VALUE SPACES.
               10  WK01-CODE-4001-CH6A5-Z              PIC X(1)
                                               VALUE SPACE.
               10  WK01-CODE-4001-CH6A5-F              PIC X(1)
                                               VALUE SPACE.
               10  WK01-CODE-4001-CH6A5-A              PIC X(1)
                                               VALUE SPACE.
               10  WK01-CODE-4001-CH6A5-V              PIC X(1)
                                               VALUE SPACE.
               10  WK01-CODE-4001-CH6A5-O              PIC X(1)
                                               VALUE SPACE.
               10  WK01-CODE-4001-CH6A5       PIC X(6)
                                               VALUE SPACES.
               10  WK01-TITLE-4005-CH635-Z              PIC X(1)
                                               VALUE SPACE.
               10  WK01-TITLE-4005-CH635-F              PIC X(1)
                                               VALUE SPACE.
               10  WK01-TITLE-4005-CH635-A              PIC X(1)
                                               VALUE SPACE.
               10  WK01-TITLE-4005-CH635-V              PIC X(1)
                                               VALUE SPACE.
               10  WK01-TITLE-4005-CH635-O              PIC X(1)
                                               VALUE SPACE.
               10  WK01-TITLE-4005-CH635       PIC X(35)
                                               VALUE SPACES.
               10  WK01-4005-CH635-Z              PIC X(1)
                                               VALUE SPACE.
               10  WK01-4005-CH635-F              PIC X(1)
                                               VALUE SPACE.
               10  WK01-4005-CH635-A              PIC X(1)
                                               VALUE SPACE.
               10  WK01-4005-CH635-V              PIC X(1)
                                               VALUE SPACE.
               10  WK01-4005-CH635-O              PIC X(1)
                                               VALUE SPACE.
               10  WK01-4005-CH635       PIC X(1)
                                               VALUE SPACES.
               10  WK01-DATE-4005-CH635-Z              PIC X(1)
                                               VALUE SPACE.
               10  WK01-DATE-4005-CH635-F              PIC X(1)
                                               VALUE SPACE.
               10  WK01-DATE-4005-CH635-A              PIC X(1)
                                               VALUE SPACE.
               10  WK01-DATE-4005-CH635-V              PIC X(1)
                                               VALUE SPACE.
               10  WK01-DATE-4005-CH635-O              PIC X(1)
                                               VALUE SPACE.
               10  WK01-DATE-4005-CH635       PIC X(6)
                                               VALUE SPACES.
               10  WK01-DATE-4005-CH6A5-Z              PIC X(1)
                                               VALUE SPACE.
               10  WK01-DATE-4005-CH6A5-F              PIC X(1)
                                               VALUE SPACE.
               10  WK01-DATE-4005-CH6A5-A              PIC X(1)
                                               VALUE SPACE.
               10  WK01-DATE-4005-CH6A5-V              PIC X(1)
                                               VALUE SPACE.
               10  WK01-DATE-4005-CH6A5-O              PIC X(1)
                                               VALUE SPACE.
               10  WK01-DATE-4005-CH6A5       PIC X(6)
                                               VALUE SPACES.
               10  WK01-CODE-CH636-Z              PIC X(1)
                                               VALUE SPACE.
               10  WK01-CODE-CH636-F              PIC X(1)
                                               VALUE SPACE.
               10  WK01-CODE-CH636-A              PIC X(1)
                                               VALUE SPACE.
               10  WK01-CODE-CH636-V              PIC X(1)
                                               VALUE SPACE.
               10  WK01-CODE-CH636-O              PIC X(1)
                                               VALUE SPACE.
               10  WK01-CODE-CH636       PIC X(1)
                                               VALUE SPACES.
               10  WK01-CODE-4001-CH636-Z              PIC X(1)
                                               VALUE SPACE.
               10  WK01-CODE-4001-CH636-F              PIC X(1)
                                               VALUE SPACE.
               10  WK01-CODE-4001-CH636-A              PIC X(1)
                                               VALUE SPACE.
               10  WK01-CODE-4001-CH636-V              PIC X(1)
                                               VALUE SPACE.
               10  WK01-CODE-4001-CH636-O              PIC X(1)
                                               VALUE SPACE.
               10  WK01-CODE-4001-CH636       PIC X(1)
                                               VALUE SPACES.
               10  WK01-CODE-4001-CH6A6-Z              PIC X(1)
                                               VALUE SPACE.
               10  WK01-CODE-4001-CH6A6-F              PIC X(1)
                                               VALUE SPACE.
               10  WK01-CODE-4001-CH6A6-A              PIC X(1)
                                               VALUE SPACE.
               10  WK01-CODE-4001-CH6A6-V              PIC X(1)
                                               VALUE SPACE.
               10  WK01-CODE-4001-CH6A6-O              PIC X(1)
                                               VALUE SPACE.
               10  WK01-CODE-4001-CH6A6       PIC X(6)
                                               VALUE SPACES.
               10  WK01-TITLE-4005-CH636-Z              PIC X(1)
                                               VALUE SPACE.
               10  WK01-TITLE-4005-CH636-F              PIC X(1)
                                               VALUE SPACE.
               10  WK01-TITLE-4005-CH636-A              PIC X(1)
                                               VALUE SPACE.
               10  WK01-TITLE-4005-CH636-V              PIC X(1)
                                               VALUE SPACE.
               10  WK01-TITLE-4005-CH636-O              PIC X(1)
                                               VALUE SPACE.
               10  WK01-TITLE-4005-CH636       PIC X(35)
                                               VALUE SPACES.
               10  WK01-4005-CH636-Z              PIC X(1)
                                               VALUE SPACE.
               10  WK01-4005-CH636-F              PIC X(1)
                                               VALUE SPACE.
               10  WK01-4005-CH636-A              PIC X(1)
                                               VALUE SPACE.
               10  WK01-4005-CH636-V              PIC X(1)
                                               VALUE SPACE.
               10  WK01-4005-CH636-O              PIC X(1)
                                               VALUE SPACE.
               10  WK01-4005-CH636       PIC X(1)
                                               VALUE SPACES.
               10  WK01-DATE-4005-CH636-Z              PIC X(1)
                                               VALUE SPACE.
               10  WK01-DATE-4005-CH636-F              PIC X(1)
                                               VALUE SPACE.
               10  WK01-DATE-4005-CH636-A              PIC X(1)
                                               VALUE SPACE.
               10  WK01-DATE-4005-CH636-V              PIC X(1)
                                               VALUE SPACE.
               10  WK01-DATE-4005-CH636-O              PIC X(1)
                                               VALUE SPACE.
               10  WK01-DATE-4005-CH636       PIC X(6)
                                               VALUE SPACES.
               10  WK01-DATE-4005-CH6A6-Z              PIC X(1)
                                               VALUE SPACE.
               10  WK01-DATE-4005-CH6A6-F              PIC X(1)
                                               VALUE SPACE.
               10  WK01-DATE-4005-CH6A6-A              PIC X(1)
                                               VALUE SPACE.
               10  WK01-DATE-4005-CH6A6-V              PIC X(1)
                                               VALUE SPACE.
               10  WK01-DATE-4005-CH6A6-O              PIC X(1)
                                               VALUE SPACE.
               10  WK01-DATE-4005-CH6A6       PIC X(6)
                                               VALUE SPACES.
               10  WK01-CODE-CH637-Z              PIC X(1)
                                               VALUE SPACE.
               10  WK01-CODE-CH637-F              PIC X(1)
                                               VALUE SPACE.
               10  WK01-CODE-CH637-A              PIC X(1)
                                               VALUE SPACE.
               10  WK01-CODE-CH637-V              PIC X(1)
                                               VALUE SPACE.
               10  WK01-CODE-CH637-O              PIC X(1)
                                               VALUE SPACE.
               10  WK01-CODE-CH637       PIC X(1)
                                               VALUE SPACES.
               10  WK01-CODE-4001-CH637-Z              PIC X(1)
                                               VALUE SPACE.
               10  WK01-CODE-4001-CH637-F              PIC X(1)
                                               VALUE SPACE.
               10  WK01-CODE-4001-CH637-A              PIC X(1)
                                               VALUE SPACE.
               10  WK01-CODE-4001-CH637-V              PIC X(1)
                                               VALUE SPACE.
               10  WK01-CODE-4001-CH637-O              PIC X(1)
                                               VALUE SPACE.
               10  WK01-CODE-4001-CH637       PIC X(1)
                                               VALUE SPACES.
               10  WK01-CODE-4001-CH6A7-Z              PIC X(1)
                                               VALUE SPACE.
               10  WK01-CODE-4001-CH6A7-F              PIC X(1)
                                               VALUE SPACE.
               10  WK01-CODE-4001-CH6A7-A              PIC X(1)
                                               VALUE SPACE.
               10  WK01-CODE-4001-CH6A7-V              PIC X(1)
                                               VALUE SPACE.
               10  WK01-CODE-4001-CH6A7-O              PIC X(1)
                                               VALUE SPACE.
               10  WK01-CODE-4001-CH6A7       PIC X(6)
                                               VALUE SPACES.
               10  WK01-TITLE-4005-CH637-Z              PIC X(1)
                                               VALUE SPACE.
               10  WK01-TITLE-4005-CH637-F              PIC X(1)
                                               VALUE SPACE.
               10  WK01-TITLE-4005-CH637-A              PIC X(1)
                                               VALUE SPACE.
               10  WK01-TITLE-4005-CH637-V              PIC X(1)
                                               VALUE SPACE.
               10  WK01-TITLE-4005-CH637-O              PIC X(1)
                                               VALUE SPACE.
               10  WK01-TITLE-4005-CH637       PIC X(35)
                                               VALUE SPACES.
               10  WK01-4005-CH637-Z              PIC X(1)
                                               VALUE SPACE.
               10  WK01-4005-CH637-F              PIC X(1)
                                               VALUE SPACE.
               10  WK01-4005-CH637-A              PIC X(1)
                                               VALUE SPACE.
               10  WK01-4005-CH637-V              PIC X(1)
                                               VALUE SPACE.
               10  WK01-4005-CH637-O              PIC X(1)
                                               VALUE SPACE.
               10  WK01-4005-CH637       PIC X(1)
                                               VALUE SPACES.
               10  WK01-DATE-4005-CH637-Z              PIC X(1)
                                               VALUE SPACE.
               10  WK01-DATE-4005-CH637-F              PIC X(1)
                                               VALUE SPACE.
               10  WK01-DATE-4005-CH637-A              PIC X(1)
                                               VALUE SPACE.
               10  WK01-DATE-4005-CH637-V              PIC X(1)
                                               VALUE SPACE.
               10  WK01-DATE-4005-CH637-O              PIC X(1)
                                               VALUE SPACE.
               10  WK01-DATE-4005-CH637       PIC X(6)
                                               VALUE SPACES.
               10  WK01-DATE-4005-CH6A7-Z              PIC X(1)
                                               VALUE SPACE.
               10  WK01-DATE-4005-CH6A7-F              PIC X(1)
                                               VALUE SPACE.
               10  WK01-DATE-4005-CH6A7-A              PIC X(1)
                                               VALUE SPACE.
               10  WK01-DATE-4005-CH6A7-V              PIC X(1)
                                               VALUE SPACE.
               10  WK01-DATE-4005-CH6A7-O              PIC X(1)
                                               VALUE SPACE.
               10  WK01-DATE-4005-CH6A7       PIC X(6)
                                               VALUE SPACES.
               10  WK01-CODE-CH638-Z              PIC X(1)
                                               VALUE SPACE.
               10  WK01-CODE-CH638-F              PIC X(1)
                                               VALUE SPACE.
               10  WK01-CODE-CH638-A              PIC X(1)
                                               VALUE SPACE.
               10  WK01-CODE-CH638-V              PIC X(1)
                                               VALUE SPACE.
               10  WK01-CODE-CH638-O              PIC X(1)
                                               VALUE SPACE.
               10  WK01-CODE-CH638       PIC X(1)
                                               VALUE SPACES.
               10  WK01-CODE-4001-CH638-Z              PIC X(1)
                                               VALUE SPACE.
               10  WK01-CODE-4001-CH638-F              PIC X(1)
                                               VALUE SPACE.
               10  WK01-CODE-4001-CH638-A              PIC X(1)
                                               VALUE SPACE.
               10  WK01-CODE-4001-CH638-V              PIC X(1)
                                               VALUE SPACE.
               10  WK01-CODE-4001-CH638-O              PIC X(1)
                                               VALUE SPACE.
               10  WK01-CODE-4001-CH638       PIC X(1)
                                               VALUE SPACES.
               10  WK01-CODE-4001-CH6A8-Z              PIC X(1)
                                               VALUE SPACE.
               10  WK01-CODE-4001-CH6A8-F              PIC X(1)
                                               VALUE SPACE.
               10  WK01-CODE-4001-CH6A8-A              PIC X(1)
                                               VALUE SPACE.
               10  WK01-CODE-4001-CH6A8-V              PIC X(1)
                                               VALUE SPACE.
               10  WK01-CODE-4001-CH6A8-O              PIC X(1)
                                               VALUE SPACE.
               10  WK01-CODE-4001-CH6A8       PIC X(6)
                                               VALUE SPACES.
               10  WK01-TITLE-4005-CH638-Z              PIC X(1)
                                               VALUE SPACE.
               10  WK01-TITLE-4005-CH638-F              PIC X(1)
                                               VALUE SPACE.
               10  WK01-TITLE-4005-CH638-A              PIC X(1)
                                               VALUE SPACE.
               10  WK01-TITLE-4005-CH638-V              PIC X(1)
                                               VALUE SPACE.
               10  WK01-TITLE-4005-CH638-O              PIC X(1)
                                               VALUE SPACE.
               10  WK01-TITLE-4005-CH638       PIC X(35)
                                               VALUE SPACES.
               10  WK01-4005-CH638-Z              PIC X(1)
                                               VALUE SPACE.
               10  WK01-4005-CH638-F              PIC X(1)
                                               VALUE SPACE.
               10  WK01-4005-CH638-A              PIC X(1)
                                               VALUE SPACE.
               10  WK01-4005-CH638-V              PIC X(1)
                                               VALUE SPACE.
               10  WK01-4005-CH638-O              PIC X(1)
                                               VALUE SPACE.
               10  WK01-4005-CH638       PIC X(1)
                                               VALUE SPACES.
               10  WK01-DATE-4005-CH638-Z              PIC X(1)
                                               VALUE SPACE.
               10  WK01-DATE-4005-CH638-F              PIC X(1)
                                               VALUE SPACE.
               10  WK01-DATE-4005-CH638-A              PIC X(1)
                                               VALUE SPACE.
               10  WK01-DATE-4005-CH638-V              PIC X(1)
                                               VALUE SPACE.
               10  WK01-DATE-4005-CH638-O              PIC X(1)
                                               VALUE SPACE.
               10  WK01-DATE-4005-CH638       PIC X(6)
                                               VALUE SPACES.
               10  WK01-DATE-4005-CH6A8-Z              PIC X(1)
                                               VALUE SPACE.
               10  WK01-DATE-4005-CH6A8-F              PIC X(1)
                                               VALUE SPACE.
               10  WK01-DATE-4005-CH6A8-A              PIC X(1)
                                               VALUE SPACE.
               10  WK01-DATE-4005-CH6A8-V              PIC X(1)
                                               VALUE SPACE.
               10  WK01-DATE-4005-CH6A8-O              PIC X(1)
                                               VALUE SPACE.
               10  WK01-DATE-4005-CH6A8       PIC X(6)
                                               VALUE SPACES.
               10  WK01-CODE-CH639-Z              PIC X(1)
                                               VALUE SPACE.
               10  WK01-CODE-CH639-F              PIC X(1)
                                               VALUE SPACE.
               10  WK01-CODE-CH639-A              PIC X(1)
                                               VALUE SPACE.
               10  WK01-CODE-CH639-V              PIC X(1)
                                               VALUE SPACE.
               10  WK01-CODE-CH639-O              PIC X(1)
                                               VALUE SPACE.
               10  WK01-CODE-CH639       PIC X(1)
                                               VALUE SPACES.
               10  WK01-CODE-4001-CH639-Z              PIC X(1)
                                               VALUE SPACE.
               10  WK01-CODE-4001-CH639-F              PIC X(1)
                                               VALUE SPACE.
               10  WK01-CODE-4001-CH639-A              PIC X(1)
                                               VALUE SPACE.
               10  WK01-CODE-4001-CH639-V              PIC X(1)
                                               VALUE SPACE.
               10  WK01-CODE-4001-CH639-O              PIC X(1)
                                               VALUE SPACE.
               10  WK01-CODE-4001-CH639       PIC X(1)
                                               VALUE SPACES.
               10  WK01-CODE-4001-CH6A9-Z              PIC X(1)
                                               VALUE SPACE.
               10  WK01-CODE-4001-CH6A9-F              PIC X(1)
                                               VALUE SPACE.
               10  WK01-CODE-4001-CH6A9-A              PIC X(1)
                                               VALUE SPACE.
               10  WK01-CODE-4001-CH6A9-V              PIC X(1)
                                               VALUE SPACE.
               10  WK01-CODE-4001-CH6A9-O              PIC X(1)
                                               VALUE SPACE.
               10  WK01-CODE-4001-CH6A9       PIC X(6)
                                               VALUE SPACES.
               10  WK01-TITLE-4005-CH639-Z              PIC X(1)
                                               VALUE SPACE.
               10  WK01-TITLE-4005-CH639-F              PIC X(1)
                                               VALUE SPACE.
               10  WK01-TITLE-4005-CH639-A              PIC X(1)
                                               VALUE SPACE.
               10  WK01-TITLE-4005-CH639-V              PIC X(1)
                                               VALUE SPACE.
               10  WK01-TITLE-4005-CH639-O              PIC X(1)
                                               VALUE SPACE.
               10  WK01-TITLE-4005-CH639       PIC X(35)
                                               VALUE SPACES.
               10  WK01-4005-CH639-Z              PIC X(1)
                                               VALUE SPACE.
               10  WK01-4005-CH639-F              PIC X(1)
                                               VALUE SPACE.
               10  WK01-4005-CH639-A              PIC X(1)
                                               VALUE SPACE.
               10  WK01-4005-CH639-V              PIC X(1)
                                               VALUE SPACE.
               10  WK01-4005-CH639-O              PIC X(1)
                                               VALUE SPACE.
               10  WK01-4005-CH639       PIC X(1)
                                               VALUE SPACES.
               10  WK01-DATE-4005-CH639-Z              PIC X(1)
                                               VALUE SPACE.
               10  WK01-DATE-4005-CH639-F              PIC X(1)
                                               VALUE SPACE.
               10  WK01-DATE-4005-CH639-A              PIC X(1)
                                               VALUE SPACE.
               10  WK01-DATE-4005-CH639-V              PIC X(1)
                                               VALUE SPACE.
               10  WK01-DATE-4005-CH639-O              PIC X(1)
                                               VALUE SPACE.
               10  WK01-DATE-4005-CH639       PIC X(6)
                                               VALUE SPACES.
               10  WK01-DATE-4005-CH6A9-Z              PIC X(1)
                                               VALUE SPACE.
               10  WK01-DATE-4005-CH6A9-F              PIC X(1)
                                               VALUE SPACE.
               10  WK01-DATE-4005-CH6A9-A              PIC X(1)
                                               VALUE SPACE.
               10  WK01-DATE-4005-CH6A9-V              PIC X(1)
                                               VALUE SPACE.
               10  WK01-DATE-4005-CH6A9-O              PIC X(1)
                                               VALUE SPACE.
               10  WK01-DATE-4005-CH6A9       PIC X(6)
                                               VALUE SPACES.
               10  WK01-CODE-CH6310-Z              PIC X(1)
                                               VALUE SPACE.
               10  WK01-CODE-CH6310-F              PIC X(1)
                                               VALUE SPACE.
               10  WK01-CODE-CH6310-A              PIC X(1)
                                               VALUE SPACE.
               10  WK01-CODE-CH6310-V              PIC X(1)
                                               VALUE SPACE.
               10  WK01-CODE-CH6310-O              PIC X(1)
                                               VALUE SPACE.
               10  WK01-CODE-CH6310       PIC X(1)
                                               VALUE SPACES.
               10  WK01-CODE-4001-CH6310-Z              PIC X(1)
                                               VALUE SPACE.
               10  WK01-CODE-4001-CH6310-F              PIC X(1)
                                               VALUE SPACE.
               10  WK01-CODE-4001-CH6310-A              PIC X(1)
                                               VALUE SPACE.
               10  WK01-CODE-4001-CH6310-V              PIC X(1)
                                               VALUE SPACE.
               10  WK01-CODE-4001-CH6310-O              PIC X(1)
                                               VALUE SPACE.
               10  WK01-CODE-4001-CH6310       PIC X(1)
                                               VALUE SPACES.
               10  WK01-CODE-4001-CH6A10-Z              PIC X(1)
                                               VALUE SPACE.
               10  WK01-CODE-4001-CH6A10-F              PIC X(1)
                                               VALUE SPACE.
               10  WK01-CODE-4001-CH6A10-A              PIC X(1)
                                               VALUE SPACE.
               10  WK01-CODE-4001-CH6A10-V              PIC X(1)
                                               VALUE SPACE.
               10  WK01-CODE-4001-CH6A10-O              PIC X(1)
                                               VALUE SPACE.
               10  WK01-CODE-4001-CH6A10       PIC X(6)
                                               VALUE SPACES.
               10  WK01-TITLE-4005-CH6310-Z              PIC X(1)
                                               VALUE SPACE.
               10  WK01-TITLE-4005-CH6310-F              PIC X(1)
                                               VALUE SPACE.
               10  WK01-TITLE-4005-CH6310-A              PIC X(1)
                                               VALUE SPACE.
               10  WK01-TITLE-4005-CH6310-V              PIC X(1)
                                               VALUE SPACE.
               10  WK01-TITLE-4005-CH6310-O              PIC X(1)
                                               VALUE SPACE.
               10  WK01-TITLE-4005-CH6310       PIC X(35)
                                               VALUE SPACES.
               10  WK01-4005-CH6310-Z              PIC X(1)
                                               VALUE SPACE.
               10  WK01-4005-CH6310-F              PIC X(1)
                                               VALUE SPACE.
               10  WK01-4005-CH6310-A              PIC X(1)
                                               VALUE SPACE.
               10  WK01-4005-CH6310-V              PIC X(1)
                                               VALUE SPACE.
               10  WK01-4005-CH6310-O              PIC X(1)
                                               VALUE SPACE.
               10  WK01-4005-CH6310       PIC X(1)
                                               VALUE SPACES.
               10  WK01-DATE-4005-CH6310-Z              PIC X(1)
                                               VALUE SPACE.
               10  WK01-DATE-4005-CH6310-F              PIC X(1)
                                               VALUE SPACE.
               10  WK01-DATE-4005-CH6310-A              PIC X(1)
                                               VALUE SPACE.
               10  WK01-DATE-4005-CH6310-V              PIC X(1)
                                               VALUE SPACE.
               10  WK01-DATE-4005-CH6310-O              PIC X(1)
                                               VALUE SPACE.
               10  WK01-DATE-4005-CH6310       PIC X(6)
                                               VALUE SPACES.
               10  WK01-DATE-4005-CH6A10-Z              PIC X(1)
                                               VALUE SPACE.
               10  WK01-DATE-4005-CH6A10-F              PIC X(1)
                                               VALUE SPACE.
               10  WK01-DATE-4005-CH6A10-A              PIC X(1)
                                               VALUE SPACE.
               10  WK01-DATE-4005-CH6A10-V              PIC X(1)
                                               VALUE SPACE.
               10  WK01-DATE-4005-CH6A10-O              PIC X(1)
                                               VALUE SPACE.
               10  WK01-DATE-4005-CH6A10       PIC X(6)
                                               VALUE SPACES.
               10  WK01-CODE-CH6311-Z              PIC X(1)
                                               VALUE SPACE.
               10  WK01-CODE-CH6311-F              PIC X(1)
                                               VALUE SPACE.
               10  WK01-CODE-CH6311-A              PIC X(1)
                                               VALUE SPACE.
               10  WK01-CODE-CH6311-V              PIC X(1)
                                               VALUE SPACE.
               10  WK01-CODE-CH6311-O              PIC X(1)
                                               VALUE SPACE.
               10  WK01-CODE-CH6311       PIC X(1)
                                               VALUE SPACES.
               10  WK01-CODE-4001-CH6311-Z              PIC X(1)
                                               VALUE SPACE.
               10  WK01-CODE-4001-CH6311-F              PIC X(1)
                                               VALUE SPACE.
               10  WK01-CODE-4001-CH6311-A              PIC X(1)
                                               VALUE SPACE.
               10  WK01-CODE-4001-CH6311-V              PIC X(1)
                                               VALUE SPACE.
               10  WK01-CODE-4001-CH6311-O              PIC X(1)
                                               VALUE SPACE.
               10  WK01-CODE-4001-CH6311       PIC X(1)
                                               VALUE SPACES.
               10  WK01-CODE-4001-CH6A11-Z              PIC X(1)
                                               VALUE SPACE.
               10  WK01-CODE-4001-CH6A11-F              PIC X(1)
                                               VALUE SPACE.
               10  WK01-CODE-4001-CH6A11-A              PIC X(1)
                                               VALUE SPACE.
               10  WK01-CODE-4001-CH6A11-V              PIC X(1)
                                               VALUE SPACE.
               10  WK01-CODE-4001-CH6A11-O              PIC X(1)
                                               VALUE SPACE.
               10  WK01-CODE-4001-CH6A11       PIC X(6)
                                               VALUE SPACES.
               10  WK01-TITLE-4005-CH6311-Z              PIC X(1)
                                               VALUE SPACE.
               10  WK01-TITLE-4005-CH6311-F              PIC X(1)
                                               VALUE SPACE.
               10  WK01-TITLE-4005-CH6311-A              PIC X(1)
                                               VALUE SPACE.
               10  WK01-TITLE-4005-CH6311-V              PIC X(1)
                                               VALUE SPACE.
               10  WK01-TITLE-4005-CH6311-O              PIC X(1)
                                               VALUE SPACE.
               10  WK01-TITLE-4005-CH6311       PIC X(35)
                                               VALUE SPACES.
               10  WK01-4005-CH6311-Z              PIC X(1)
                                               VALUE SPACE.
               10  WK01-4005-CH6311-F              PIC X(1)
                                               VALUE SPACE.
               10  WK01-4005-CH6311-A              PIC X(1)
                                               VALUE SPACE.
               10  WK01-4005-CH6311-V              PIC X(1)
                                               VALUE SPACE.
               10  WK01-4005-CH6311-O              PIC X(1)
                                               VALUE SPACE.
               10  WK01-4005-CH6311       PIC X(1)
                                               VALUE SPACES.
               10  WK01-DATE-4005-CH6311-Z              PIC X(1)
                                               VALUE SPACE.
               10  WK01-DATE-4005-CH6311-F              PIC X(1)
                                               VALUE SPACE.
               10  WK01-DATE-4005-CH6311-A              PIC X(1)
                                               VALUE SPACE.
               10  WK01-DATE-4005-CH6311-V              PIC X(1)
                                               VALUE SPACE.
               10  WK01-DATE-4005-CH6311-O              PIC X(1)
                                               VALUE SPACE.
               10  WK01-DATE-4005-CH6311       PIC X(6)
                                               VALUE SPACES.
               10  WK01-DATE-4005-CH6A11-Z              PIC X(1)
                                               VALUE SPACE.
               10  WK01-DATE-4005-CH6A11-F              PIC X(1)
                                               VALUE SPACE.
               10  WK01-DATE-4005-CH6A11-A              PIC X(1)
                                               VALUE SPACE.
               10  WK01-DATE-4005-CH6A11-V              PIC X(1)
                                               VALUE SPACE.
               10  WK01-DATE-4005-CH6A11-O              PIC X(1)
                                               VALUE SPACE.
               10  WK01-DATE-4005-CH6A11       PIC X(6)
                                               VALUE SPACES.
               10  WK01-COA-CODE-CH63-Z              PIC X(1)
                                               VALUE SPACE.
               10  WK01-COA-CODE-CH63-F              PIC X(1)
                                               VALUE SPACE.
               10  WK01-COA-CODE-CH63-A              PIC X(1)
                                               VALUE SPACE.
               10  WK01-COA-CODE-CH63-V              PIC X(1)
                                               VALUE SPACE.
               10  WK01-COA-CODE-CH63-O              PIC X(1)
                                               VALUE SPACE.
               10  WK01-COA-CODE-CH63       PIC X(1)
                                               VALUE SPACES.
               10  WK01-FUND-CODE-CH63-Z              PIC X(1)
                                               VALUE SPACE.
               10  WK01-FUND-CODE-CH63-F              PIC X(1)
                                               VALUE SPACE.
               10  WK01-FUND-CODE-CH63-A              PIC X(1)
                                               VALUE SPACE.
               10  WK01-FUND-CODE-CH63-V              PIC X(1)
                                               VALUE SPACE.
               10  WK01-FUND-CODE-CH63-O              PIC X(1)
                                               VALUE SPACE.
               10  WK01-FUND-CODE-CH63       PIC X(6)
                                               VALUE SPACES.
               10  WK01-ZZMESSAGE-Z              PIC X(1)
                                               VALUE SPACE.
               10  WK01-ZZMESSAGE-F              PIC X(1)
                                               VALUE SPACE.
               10  WK01-ZZMESSAGE-A              PIC X(1)
                                               VALUE SPACE.
               10  WK01-ZZMESSAGE-V              PIC X(1)
                                               VALUE SPACE.
               10  WK01-ZZMESSAGE-O              PIC X(1)
                                               VALUE SPACE.
               10  WK01-ZZMESSAGE       PIC X(160)
                                               VALUE SPACES.
               10  WK01-PASSED-ONE-Z              PIC X(1)
                                               VALUE SPACE.
               10  WK01-PASSED-ONE-F              PIC X(1)
                                               VALUE SPACE.
               10  WK01-PASSED-ONE-A              PIC X(1)
                                               VALUE SPACE.
               10  WK01-PASSED-ONE-V              PIC X(1)
                                               VALUE SPACE.
               10  WK01-PASSED-ONE-O              PIC X(1)
                                               VALUE SPACE.
               10  WK01-PASSED-ONE       PIC X(32)
                                               VALUE SPACES.
               10  WK01-MAP-RESPONSE-Z              PIC X(1)
                                               VALUE SPACE.
               10  WK01-MAP-RESPONSE-F              PIC X(1)
                                               VALUE SPACE.
               10  WK01-MAP-RESPONSE-A              PIC X(1)
                                               VALUE SPACE.
               10  WK01-MAP-RESPONSE-V              PIC X(1)
                                               VALUE SPACE.
               10  WK01-MAP-RESPONSE-O              PIC X(1)
                                               VALUE SPACE.
               10  WK01-MAP-RESPONSE       PIC X(8)
                                               VALUE SPACES.
               10  WK01-TEXT-SY00-Z              PIC X(1)
                                               VALUE SPACE.
               10  WK01-TEXT-SY00-F              PIC X(1)
                                               VALUE SPACE.
               10  WK01-TEXT-SY00-A              PIC X(1)
                                               VALUE SPACE.
               10  WK01-TEXT-SY00-V              PIC X(1)
                                               VALUE SPACE.
               10  WK01-TEXT-SY00-O              PIC X(1)
                                               VALUE SPACE.
               10  WK01-TEXT-SY00       PIC X(14)
                                               VALUE SPACES.
           04  WK01-SUBSCRIPTED-WORK-AREA.
               05  FILLER                      PIC X(1).
               05  WK01-CODE-4001-CH63-F             PIC X(1)
                                               OCCURS 11.
               05  WK01-CODE-4001-CH6A-F             PIC X(1)
                                               OCCURS 11.
               05  WK01-TITLE-4005-CH63-F             PIC X(1)
                                               OCCURS 11.
               05  WK01-4005-CH63-F             PIC X(1)
                                               OCCURS 11.
               05  WK01-DATE-4005-CH63-F             PIC X(1)
                                               OCCURS 11.
               05  WK01-DATE-4005-CH6A-F             PIC X(1)
                                               OCCURS 11.
               05  WK01-CODE-CH63-F             PIC X(1)
                                               OCCURS 11.
