    ***Created by Convert/DC version V8R03 on 11/01/00 at 10:00***

      *%--------------------------------------------------------------%*
           MOVE DCLINK-MESSAGE  TO WK01-ZZMESSAGE.
      *%--------------------------------------------------------------%*
           MOVE AGR-DATE OF ADSO-APPLICATION-GLOBAL-RECORD TO WK01-DATE.
      *%--------------------------------------------------------------%*
           MOVE AGR-USER-ID OF ADSO-APPLICATION-GLOBAL-RECORD TO
                WK01-USER-ID.
      *%--------------------------------------------------------------%*
           MOVE AGR-FUNC-DESCRIPTION OF ADSO-APPLICATION-GLOBAL-RECORD
                TO WK01-FUNC-DESCRIPTION.
      *%--------------------------------------------------------------%*
FCSAH *    MOVE AGR-PASSED-ONE OF ADSO-APPLICATION-GLOBAL-RECORD TO
FCSAH      MOVE SPACES TO WK01-PASSED-ONE.
      *%--------------------------------------------------------------%*
           MOVE AGR-MAP-RESPONSE OF ADSO-APPLICATION-GLOBAL-RECORD TO
                WK01-MAP-RESPONSE.
      *%--------------------------------------------------------------%*
           MOVE TRMNL-ID-SY00 OF FSYWG00M TO WK01-ID-SY00.
      *%--------------------------------------------------------------%*
           MOVE FULL-NAME-6001-SY00 OF FSYWG00M TO WK01-NAME-6001-SY00.
      *%--------------------------------------------------------------%*
           MOVE AM-PM-FLAG-SY00 OF FSYWG00M TO WK01-PM-FLAG-SY00.
      *%--------------------------------------------------------------%*
           MOVE CURR-RSPNS-ID-SY00 OF FSYWG00M TO WK01-RSPNS-ID-SY00.
      *%--------------------------------------------------------------%*
           MOVE ERROR-TEXT-SY00 OF FSYWG00M TO WK01-TEXT-SY00.
      *%--------------------------------------------------------------%*
           MOVE PAGE-STATUS-CODE-SY00 OF FSYWG00M TO
                WK01-STATUS-CODE-SY00.
      *%--------------------------------------------------------------%*
           MOVE WORK-HH-MM-TIME-SY00 OF FSYWG00M TO
                WK01-HH-MM-TIME-SY00.
      *%--------------------------------------------------------------%*
           MOVE RQST-MGR-LAST-NINE-CH65 OF FCHWK65 TO
                WK01-MGR-LAST-NINE-CH65.
      *%--------------------------------------------------------------%*
           MOVE ACTN-CODE-CH65 OF FCHWM65(0001) TO WK01-CODE-CH651.
      *%--------------------------------------------------------------%*
           MOVE ACTN-CODE-CH65 OF FCHWM65(0002) TO WK01-CODE-CH652.
      *%--------------------------------------------------------------%*
           MOVE ACTN-CODE-CH65 OF FCHWM65(0003) TO WK01-CODE-CH653.
      *%--------------------------------------------------------------%*
           MOVE ACTN-CODE-CH65 OF FCHWM65(0004) TO WK01-CODE-CH654.
      *%--------------------------------------------------------------%*
           MOVE ACTN-CODE-CH65 OF FCHWM65(0005) TO WK01-CODE-CH655.
      *%--------------------------------------------------------------%*
           MOVE ACTN-CODE-CH65 OF FCHWM65(0006) TO WK01-CODE-CH656.
      *%--------------------------------------------------------------%*
           MOVE ACTN-CODE-CH65 OF FCHWM65(0007) TO WK01-CODE-CH657.
      *%--------------------------------------------------------------%*
           MOVE ACTN-CODE-CH65 OF FCHWM65(0008) TO WK01-CODE-CH658.
      *%--------------------------------------------------------------%*
           MOVE ACTN-CODE-CH65 OF FCHWM65(0009) TO WK01-CODE-CH659.
      *%--------------------------------------------------------------%*
           MOVE ACTN-CODE-CH65 OF FCHWM65(0010) TO WK01-CODE-CH6510.
      *%--------------------------------------------------------------%*
           MOVE ACTN-CODE-CH65 OF FCHWM65(0011) TO WK01-CODE-CH6511.
      *%--------------------------------------------------------------%*
           MOVE MGR-LAST-NINE-4019-CH65 OF FCHWM65(0001) TO
                WK01-LAST-NINE-4019-CH651.
      *%--------------------------------------------------------------%*
           MOVE MGR-LAST-NINE-4019-CH65 OF FCHWM65(0002) TO
                WK01-LAST-NINE-4019-CH652.
      *%--------------------------------------------------------------%*
           MOVE MGR-LAST-NINE-4019-CH65 OF FCHWM65(0003) TO
                WK01-LAST-NINE-4019-CH653.
      *%--------------------------------------------------------------%*
           MOVE MGR-LAST-NINE-4019-CH65 OF FCHWM65(0004) TO
                WK01-LAST-NINE-4019-CH654.
      *%--------------------------------------------------------------%*
           MOVE MGR-LAST-NINE-4019-CH65 OF FCHWM65(0005) TO
                WK01-LAST-NINE-4019-CH655.
      *%--------------------------------------------------------------%*
           MOVE MGR-LAST-NINE-4019-CH65 OF FCHWM65(0006) TO
                WK01-LAST-NINE-4019-CH656.
      *%--------------------------------------------------------------%*
           MOVE MGR-LAST-NINE-4019-CH65 OF FCHWM65(0007) TO
                WK01-LAST-NINE-4019-CH657.
      *%--------------------------------------------------------------%*
           MOVE MGR-LAST-NINE-4019-CH65 OF FCHWM65(0008) TO
                WK01-LAST-NINE-4019-CH658.
      *%--------------------------------------------------------------%*
           MOVE MGR-LAST-NINE-4019-CH65 OF FCHWM65(0009) TO
                WK01-LAST-NINE-4019-CH659.
      *%--------------------------------------------------------------%*
           MOVE MGR-LAST-NINE-4019-CH65 OF FCHWM65(0010) TO
                WK01-LAST-NINE-4019-CH6510.
      *%--------------------------------------------------------------%*
           MOVE MGR-LAST-NINE-4019-CH65 OF FCHWM65(0011) TO
                WK01-LAST-NINE-4019-CH6511.
      *%--------------------------------------------------------------%*
           MOVE STATUS-4020-CH65 OF FCHWM65(0001) TO WK01-4020-CH651.
      *%--------------------------------------------------------------%*
           MOVE STATUS-4020-CH65 OF FCHWM65(0002) TO WK01-4020-CH652.
      *%--------------------------------------------------------------%*
           MOVE STATUS-4020-CH65 OF FCHWM65(0003) TO WK01-4020-CH653.
      *%--------------------------------------------------------------%*
           MOVE STATUS-4020-CH65 OF FCHWM65(0004) TO WK01-4020-CH654.
      *%--------------------------------------------------------------%*
           MOVE STATUS-4020-CH65 OF FCHWM65(0005) TO WK01-4020-CH655.
      *%--------------------------------------------------------------%*
           MOVE STATUS-4020-CH65 OF FCHWM65(0006) TO WK01-4020-CH656.
      *%--------------------------------------------------------------%*
           MOVE STATUS-4020-CH65 OF FCHWM65(0007) TO WK01-4020-CH657.
      *%--------------------------------------------------------------%*
           MOVE STATUS-4020-CH65 OF FCHWM65(0008) TO WK01-4020-CH658.
      *%--------------------------------------------------------------%*
           MOVE STATUS-4020-CH65 OF FCHWM65(0009) TO WK01-4020-CH659.
      *%--------------------------------------------------------------%*
           MOVE STATUS-4020-CH65 OF FCHWM65(0010) TO WK01-4020-CH6510.
      *%--------------------------------------------------------------%*
           MOVE STATUS-4020-CH65 OF FCHWM65(0011) TO WK01-4020-CH6511.
      *%--------------------------------------------------------------%*
           MOVE MGR-NAME-6117-CH65 OF FCHWM65(0001) TO
                WK01-NAME-6117-CH651.
      *%--------------------------------------------------------------%*
           MOVE MGR-NAME-6117-CH65 OF FCHWM65(0002) TO
                WK01-NAME-6117-CH652.
      *%--------------------------------------------------------------%*
           MOVE MGR-NAME-6117-CH65 OF FCHWM65(0003) TO
                WK01-NAME-6117-CH653.
      *%--------------------------------------------------------------%*
           MOVE MGR-NAME-6117-CH65 OF FCHWM65(0004) TO
                WK01-NAME-6117-CH654.
      *%--------------------------------------------------------------%*
           MOVE MGR-NAME-6117-CH65 OF FCHWM65(0005) TO
                WK01-NAME-6117-CH655.
      *%--------------------------------------------------------------%*
           MOVE MGR-NAME-6117-CH65 OF FCHWM65(0006) TO
                WK01-NAME-6117-CH656.
      *%--------------------------------------------------------------%*
           MOVE MGR-NAME-6117-CH65 OF FCHWM65(0007) TO
                WK01-NAME-6117-CH657.
      *%--------------------------------------------------------------%*
           MOVE MGR-NAME-6117-CH65 OF FCHWM65(0008) TO
                WK01-NAME-6117-CH658.
      *%--------------------------------------------------------------%*
           MOVE MGR-NAME-6117-CH65 OF FCHWM65(0009) TO
                WK01-NAME-6117-CH659.
      *%--------------------------------------------------------------%*
           MOVE MGR-NAME-6117-CH65 OF FCHWM65(0010) TO
                WK01-NAME-6117-CH6510.
      *%--------------------------------------------------------------%*
           MOVE MGR-NAME-6117-CH65 OF FCHWM65(0011) TO
                WK01-NAME-6117-CH6511.
      *%--------------------------------------------------------------%*
           MOVE START-DATE-4020-CH65 OF FCHWM65(0001) TO
                WK01-DATE-4020-CH651.
      *%--------------------------------------------------------------%*
           MOVE START-DATE-4020-CH65 OF FCHWM65(0002) TO
                WK01-DATE-4020-CH652.
      *%--------------------------------------------------------------%*
           MOVE START-DATE-4020-CH65 OF FCHWM65(0003) TO
                WK01-DATE-4020-CH653.
      *%--------------------------------------------------------------%*
           MOVE START-DATE-4020-CH65 OF FCHWM65(0004) TO
                WK01-DATE-4020-CH654.
      *%--------------------------------------------------------------%*
           MOVE START-DATE-4020-CH65 OF FCHWM65(0005) TO
                WK01-DATE-4020-CH655.
      *%--------------------------------------------------------------%*
           MOVE START-DATE-4020-CH65 OF FCHWM65(0006) TO
                WK01-DATE-4020-CH656.
      *%--------------------------------------------------------------%*
           MOVE START-DATE-4020-CH65 OF FCHWM65(0007) TO
                WK01-DATE-4020-CH657.
      *%--------------------------------------------------------------%*
           MOVE START-DATE-4020-CH65 OF FCHWM65(0008) TO
                WK01-DATE-4020-CH658.
      *%--------------------------------------------------------------%*
           MOVE START-DATE-4020-CH65 OF FCHWM65(0009) TO
                WK01-DATE-4020-CH659.
      *%--------------------------------------------------------------%*
           MOVE START-DATE-4020-CH65 OF FCHWM65(0010) TO
                WK01-DATE-4020-CH6510.
      *%--------------------------------------------------------------%*
           MOVE START-DATE-4020-CH65 OF FCHWM65(0011) TO
                WK01-DATE-4020-CH6511.
      *%--------------------------------------------------------------%*
           MOVE END-DATE-4020-CH65 OF FCHWM65(0001) TO
                WK01-DATE-4020-CH6A1.
      *%--------------------------------------------------------------%*
           MOVE END-DATE-4020-CH65 OF FCHWM65(0002) TO
                WK01-DATE-4020-CH6A2.
      *%--------------------------------------------------------------%*
           MOVE END-DATE-4020-CH65 OF FCHWM65(0003) TO
                WK01-DATE-4020-CH6A3.
      *%--------------------------------------------------------------%*
           MOVE END-DATE-4020-CH65 OF FCHWM65(0004) TO
                WK01-DATE-4020-CH6A4.
      *%--------------------------------------------------------------%*
           MOVE END-DATE-4020-CH65 OF FCHWM65(0005) TO
                WK01-DATE-4020-CH6A5.
      *%--------------------------------------------------------------%*
           MOVE END-DATE-4020-CH65 OF FCHWM65(0006) TO
                WK01-DATE-4020-CH6A6.
      *%--------------------------------------------------------------%*
           MOVE END-DATE-4020-CH65 OF FCHWM65(0007) TO
                WK01-DATE-4020-CH6A7.
      *%--------------------------------------------------------------%*
           MOVE END-DATE-4020-CH65 OF FCHWM65(0008) TO
                WK01-DATE-4020-CH6A8.
      *%--------------------------------------------------------------%*
           MOVE END-DATE-4020-CH65 OF FCHWM65(0009) TO
                WK01-DATE-4020-CH6A9.
      *%--------------------------------------------------------------%*
           MOVE END-DATE-4020-CH65 OF FCHWM65(0010) TO
                WK01-DATE-4020-CH6A10.
      *%--------------------------------------------------------------%*
           MOVE END-DATE-4020-CH65 OF FCHWM65(0011) TO
                WK01-DATE-4020-CH6A11.
