       01  MAP-CONTROL.

    ***Created by Convert/DC version V8R03 on 11/17/00 at 17:00***

           02  FCHMI89-MAP-CONTROL.
           03  FCHMI89T.
           04  WK01-DCXMAPL-PARMS.
               10  WK01-MAPNAME                  PIC X(8)
                                                 VALUE 'FCHMI89I'.
               10  WK01-IKE-LENGTH               PIC S9(8)  COMP
                                                 VALUE 13916.
               10  WK01-TINA-LENGTH              PIC S9(4)  COMP
                                                 VALUE 1361.
           05  WK01-ATTRIBUTES                   PIC X(60)
                                                 VALUE SPACE.
           05  WK01-ATTRIBUTES-ERROR             PIC X(60) VALUE
               'U  BIF'.
           05  WK01-CURSOR-DFLD                  PIC X(36)
                                                 VALUE SPACES.
           05  WK01-CURSOR-DFLD-QUAL             PIC X(30)
                                                 VALUE SPACES.
           05  WK01-ROW                          PIC S9(4) COMP
                                                 VALUE ZERO.
           05  WK01-COLUMN                       PIC S9(4) COMP
                                                 VALUE ZERO.
           05  WK01-ERROR-MSG                    PIC X(80)
                                                 VALUE SPACES.
           05  WK01-MAP-DATA-LEN                 PIC S9(6)
                                                 VALUE ZERO.
           05  WK01-1ST-FLAG                     PIC X(1)
                                                 VALUE 'Y'.
           05  WK01-FLAG-OUTPUT-DATA             PIC X(1)
                                                 VALUE 'Y'.
      *    05  WK01-STATUS-RETURN-FLAG           PIC X(1)
      *                                          VALUE SPACES.
           05  WK01-ALL-BUT-FLAG                 PIC X(1)
                                                 VALUE SPACES.
           05  WK01-FLAG-ALL-FIELDS-CHANGED      PIC X(1)  VALUE 'Y'.
           05  WK01-FLAG-ANY-FIELDS-CHANGED      PIC X(1)  VALUE 'N'.
           05  WK01-FLAG-ALL-FIELDS-ERROR        PIC X(1)  VALUE 'Y'.
           05  WK01-FLAG-ANY-FIELDS-ERROR        PIC X(1)  VALUE 'N'.
           05  WK01-FLAG-ALL-FIELDS-ERASE        PIC X(1)  VALUE 'Y'.
           05  WK01-FLAG-ANY-FIELDS-ERASE        PIC X(1)  VALUE 'Y'.

           05  WK01-VARDATA                      PIC X(11880)
                                                 VALUE SPACES.
           05  FILLER                            PIC X(100)
                                                 VALUE SPACES.
           04  WK01-ELEMENT-AREA.

               10  WK01-ID-SY00-Z              PIC X(1)
                                               VALUE SPACE.
               10  WK01-ID-SY00-F              PIC X(1)
                                               VALUE SPACE.
               10  WK01-ID-SY00-A              PIC X(1)
                                               VALUE SPACE.
               10  WK01-ID-SY00-V              PIC X(1)
                                               VALUE SPACE.
               10  WK01-ID-SY00-O              PIC X(1)
                                               VALUE SPACE.
               10  WK01-ID-SY00       PIC X(8)
                                               VALUE SPACES.
               10  WK01-NAME-6001-SY00-Z              PIC X(1)
                                               VALUE SPACE.
               10  WK01-NAME-6001-SY00-F              PIC X(1)
                                               VALUE SPACE.
               10  WK01-NAME-6001-SY00-A              PIC X(1)
                                               VALUE SPACE.
               10  WK01-NAME-6001-SY00-V              PIC X(1)
                                               VALUE SPACE.
               10  WK01-NAME-6001-SY00-O              PIC X(1)
                                               VALUE SPACE.
               10  WK01-NAME-6001-SY00       PIC X(35)
                                               VALUE SPACES.
               10  WK01-DATE-Z              PIC X(1)
                                               VALUE SPACE.
               10  WK01-DATE-F              PIC X(1)
                                               VALUE SPACE.
               10  WK01-DATE-A              PIC X(1)
                                               VALUE SPACE.
               10  WK01-DATE-V              PIC X(1)
                                               VALUE SPACE.
               10  WK01-DATE-O              PIC X(1)
                                               VALUE SPACE.
               10  WK01-DATE       PIC X(8)
                                               VALUE SPACES.
               10  WK01-HH-MM-TIME-SY00-Z              PIC X(1)
                                               VALUE SPACE.
               10  WK01-HH-MM-TIME-SY00-F              PIC X(1)
                                               VALUE SPACE.
               10  WK01-HH-MM-TIME-SY00-A              PIC X(1)
                                               VALUE SPACE.
               10  WK01-HH-MM-TIME-SY00-V              PIC X(1)
                                               VALUE SPACE.
               10  WK01-HH-MM-TIME-SY00-O              PIC X(1)
                                               VALUE SPACE.
               10  WK01-HH-MM-TIME-SY00       PIC X(4)
                                               VALUE SPACES.
               10  WK01-PM-FLAG-SY00-Z              PIC X(1)
                                               VALUE SPACE.
               10  WK01-PM-FLAG-SY00-F              PIC X(1)
                                               VALUE SPACE.
               10  WK01-PM-FLAG-SY00-A              PIC X(1)
                                               VALUE SPACE.
               10  WK01-PM-FLAG-SY00-V              PIC X(1)
                                               VALUE SPACE.
               10  WK01-PM-FLAG-SY00-O              PIC X(1)
                                               VALUE SPACE.
               10  WK01-PM-FLAG-SY00       PIC X(1)
                                               VALUE SPACES.
               10  WK01-USER-ID-Z              PIC X(1)
                                               VALUE SPACE.
               10  WK01-USER-ID-F              PIC X(1)
                                               VALUE SPACE.
               10  WK01-USER-ID-A              PIC X(1)
                                               VALUE SPACE.
               10  WK01-USER-ID-V              PIC X(1)
                                               VALUE SPACE.
               10  WK01-USER-ID-O              PIC X(1)
                                               VALUE SPACE.
               10  WK01-USER-ID       PIC X(32)
                                               VALUE SPACES.
               10  WK01-RSPNS-ID-SY00-Z              PIC X(1)
                                               VALUE SPACE.
               10  WK01-RSPNS-ID-SY00-F              PIC X(1)
                                               VALUE SPACE.
               10  WK01-RSPNS-ID-SY00-A              PIC X(1)
                                               VALUE SPACE.
               10  WK01-RSPNS-ID-SY00-V              PIC X(1)
                                               VALUE SPACE.
               10  WK01-RSPNS-ID-SY00-O              PIC X(1)
                                               VALUE SPACE.
               10  WK01-RSPNS-ID-SY00       PIC X(8)
                                               VALUE SPACES.
               10  WK01-FUNC-DESCRIPTION-Z              PIC X(1)
                                               VALUE SPACE.
               10  WK01-FUNC-DESCRIPTION-F              PIC X(1)
                                               VALUE SPACE.
               10  WK01-FUNC-DESCRIPTION-A              PIC X(1)
                                               VALUE SPACE.
               10  WK01-FUNC-DESCRIPTION-V              PIC X(1)
                                               VALUE SPACE.
               10  WK01-FUNC-DESCRIPTION-O              PIC X(1)
                                               VALUE SPACE.
               10  WK01-FUNC-DESCRIPTION       PIC X(28)
                                               VALUE SPACES.
               10  WK01-STATUS-CODE-SY00-Z              PIC X(1)
                                               VALUE SPACE.
               10  WK01-STATUS-CODE-SY00-F              PIC X(1)
                                               VALUE SPACE.
               10  WK01-STATUS-CODE-SY00-A              PIC X(1)
                                               VALUE SPACE.
               10  WK01-STATUS-CODE-SY00-V              PIC X(1)
                                               VALUE SPACE.
               10  WK01-STATUS-CODE-SY00-O              PIC X(1)
                                               VALUE SPACE.
               10  WK01-STATUS-CODE-SY00       PIC X(1)
                                               VALUE SPACES.
               10  WK01-RULE-CLASS-CODE-CH89-Z              PIC X(1)
                                               VALUE SPACE.
               10  WK01-RULE-CLASS-CODE-CH89-F              PIC X(1)
                                               VALUE SPACE.
               10  WK01-RULE-CLASS-CODE-CH89-A              PIC X(1)
                                               VALUE SPACE.
               10  WK01-RULE-CLASS-CODE-CH89-V              PIC X(1)
                                               VALUE SPACE.
               10  WK01-RULE-CLASS-CODE-CH89-O              PIC X(1)
                                               VALUE SPACE.
               10  WK01-RULE-CLASS-CODE-CH89       PIC X(4)
                                               VALUE SPACES.
               10  WK01-CLASS-DSC-R4181-CH89-Z              PIC X(1)
                                               VALUE SPACE.
               10  WK01-CLASS-DSC-R4181-CH89-F              PIC X(1)
                                               VALUE SPACE.
               10  WK01-CLASS-DSC-R4181-CH89-A              PIC X(1)
                                               VALUE SPACE.
               10  WK01-CLASS-DSC-R4181-CH89-V              PIC X(1)
                                               VALUE SPACE.
               10  WK01-CLASS-DSC-R4181-CH89-O              PIC X(1)
                                               VALUE SPACE.
               10  WK01-CLASS-DSC-R4181-CH89       PIC X(35)
                                               VALUE SPACES.
               10  WK01-CLASS-TYP-R4181-CH89-Z              PIC X(1)
                                               VALUE SPACE.
               10  WK01-CLASS-TYP-R4181-CH89-F              PIC X(1)
                                               VALUE SPACE.
               10  WK01-CLASS-TYP-R4181-CH89-A              PIC X(1)
                                               VALUE SPACE.
               10  WK01-CLASS-TYP-R4181-CH89-V              PIC X(1)
                                               VALUE SPACE.
               10  WK01-CLASS-TYP-R4181-CH89-O              PIC X(1)
                                               VALUE SPACE.
               10  WK01-CLASS-TYP-R4181-CH89       PIC X(1)
                                               VALUE SPACES.
               10  WK01-CLSS-TYP-DSC-R4181-CH8-Z              PIC X(1)
                                               VALUE SPACE.
               10  WK01-CLSS-TYP-DSC-R4181-CH8-F              PIC X(1)
                                               VALUE SPACE.
               10  WK01-CLSS-TYP-DSC-R4181-CH8-A              PIC X(1)
                                               VALUE SPACE.
               10  WK01-CLSS-TYP-DSC-R4181-CH8-V              PIC X(1)
                                               VALUE SPACE.
               10  WK01-CLSS-TYP-DSC-R4181-CH8-O              PIC X(1)
                                               VALUE SPACE.
               10  WK01-CLSS-TYP-DSC-R4181-CH8       PIC X(15)
                                               VALUE SPACES.
               10  WK01-EFCTV-DATE-CH89-Z              PIC X(1)
                                               VALUE SPACE.
               10  WK01-EFCTV-DATE-CH89-F              PIC X(1)
                                               VALUE SPACE.
               10  WK01-EFCTV-DATE-CH89-A              PIC X(1)
                                               VALUE SPACE.
               10  WK01-EFCTV-DATE-CH89-V              PIC X(1)
                                               VALUE SPACE.
               10  WK01-EFCTV-DATE-CH89-O              PIC X(1)
                                               VALUE SPACE.
               10  WK01-EFCTV-DATE-CH89       PIC X(6)
                                               VALUE SPACES.
               10  WK01-DATE-R4180-CH89-Z              PIC X(1)
                                               VALUE SPACE.
               10  WK01-DATE-R4180-CH89-F              PIC X(1)
                                               VALUE SPACE.
               10  WK01-DATE-R4180-CH89-A              PIC X(1)
                                               VALUE SPACE.
               10  WK01-DATE-R4180-CH89-V              PIC X(1)
                                               VALUE SPACE.
               10  WK01-DATE-R4180-CH89-O              PIC X(1)
                                               VALUE SPACE.
               10  WK01-DATE-R4180-CH89       PIC X(6)
                                               VALUE SPACES.
               10  WK01-TIME-R4181-CH89-Z              PIC X(1)
                                               VALUE SPACE.
               10  WK01-TIME-R4181-CH89-F              PIC X(1)
                                               VALUE SPACE.
               10  WK01-TIME-R4181-CH89-A              PIC X(1)
                                               VALUE SPACE.
               10  WK01-TIME-R4181-CH89-V              PIC X(1)
                                               VALUE SPACE.
               10  WK01-TIME-R4181-CH89-O              PIC X(1)
                                               VALUE SPACE.
               10  WK01-TIME-R4181-CH89       PIC X(4)
                                               VALUE SPACES.
               10  WK01-PM-FLAG-CH89-Z              PIC X(1)
                                               VALUE SPACE.
               10  WK01-PM-FLAG-CH89-F              PIC X(1)
                                               VALUE SPACE.
               10  WK01-PM-FLAG-CH89-A              PIC X(1)
                                               VALUE SPACE.
               10  WK01-PM-FLAG-CH89-V              PIC X(1)
                                               VALUE SPACE.
               10  WK01-PM-FLAG-CH89-O              PIC X(1)
                                               VALUE SPACE.
               10  WK01-PM-FLAG-CH89       PIC X(1)
                                               VALUE SPACES.
               10  WK01-CODE-CH891-Z              PIC X(1)
                                               VALUE SPACE.
               10  WK01-CODE-CH891-F              PIC X(1)
                                               VALUE SPACE.
               10  WK01-CODE-CH891-A              PIC X(1)
                                               VALUE SPACE.
               10  WK01-CODE-CH891-V              PIC X(1)
                                               VALUE SPACE.
               10  WK01-CODE-CH891-O              PIC X(1)
                                               VALUE SPACE.
               10  WK01-CODE-CH891       PIC X(1)
                                               VALUE SPACES.
               10  WK01-NAME-R4184-CH891-Z              PIC X(1)
                                               VALUE SPACE.
               10  WK01-NAME-R4184-CH891-F              PIC X(1)
                                               VALUE SPACE.
               10  WK01-NAME-R4184-CH891-A              PIC X(1)
                                               VALUE SPACE.
               10  WK01-NAME-R4184-CH891-V              PIC X(1)
                                               VALUE SPACE.
               10  WK01-NAME-R4184-CH891-O              PIC X(1)
                                               VALUE SPACE.
               10  WK01-NAME-R4184-CH891       PIC X(30)
                                               VALUE SPACES.
               10  WK01-DESC-R4012-CH891-Z              PIC X(1)
                                               VALUE SPACE.
               10  WK01-DESC-R4012-CH891-F              PIC X(1)
                                               VALUE SPACE.
               10  WK01-DESC-R4012-CH891-A              PIC X(1)
                                               VALUE SPACE.
               10  WK01-DESC-R4012-CH891-V              PIC X(1)
                                               VALUE SPACE.
               10  WK01-DESC-R4012-CH891-O              PIC X(1)
                                               VALUE SPACE.
               10  WK01-DESC-R4012-CH891       PIC X(35)
                                               VALUE SPACES.
               10  WK01-CODE-CH892-Z              PIC X(1)
                                               VALUE SPACE.
               10  WK01-CODE-CH892-F              PIC X(1)
                                               VALUE SPACE.
               10  WK01-CODE-CH892-A              PIC X(1)
                                               VALUE SPACE.
               10  WK01-CODE-CH892-V              PIC X(1)
                                               VALUE SPACE.
               10  WK01-CODE-CH892-O              PIC X(1)
                                               VALUE SPACE.
               10  WK01-CODE-CH892       PIC X(1)
                                               VALUE SPACES.
               10  WK01-NAME-R4184-CH892-Z              PIC X(1)
                                               VALUE SPACE.
               10  WK01-NAME-R4184-CH892-F              PIC X(1)
                                               VALUE SPACE.
               10  WK01-NAME-R4184-CH892-A              PIC X(1)
                                               VALUE SPACE.
               10  WK01-NAME-R4184-CH892-V              PIC X(1)
                                               VALUE SPACE.
               10  WK01-NAME-R4184-CH892-O              PIC X(1)
                                               VALUE SPACE.
               10  WK01-NAME-R4184-CH892       PIC X(30)
                                               VALUE SPACES.
               10  WK01-DESC-R4012-CH892-Z              PIC X(1)
                                               VALUE SPACE.
               10  WK01-DESC-R4012-CH892-F              PIC X(1)
                                               VALUE SPACE.
               10  WK01-DESC-R4012-CH892-A              PIC X(1)
                                               VALUE SPACE.
               10  WK01-DESC-R4012-CH892-V              PIC X(1)
                                               VALUE SPACE.
               10  WK01-DESC-R4012-CH892-O              PIC X(1)
                                               VALUE SPACE.
               10  WK01-DESC-R4012-CH892       PIC X(35)
                                               VALUE SPACES.
               10  WK01-CODE-CH893-Z              PIC X(1)
                                               VALUE SPACE.
               10  WK01-CODE-CH893-F              PIC X(1)
                                               VALUE SPACE.
               10  WK01-CODE-CH893-A              PIC X(1)
                                               VALUE SPACE.
               10  WK01-CODE-CH893-V              PIC X(1)
                                               VALUE SPACE.
               10  WK01-CODE-CH893-O              PIC X(1)
                                               VALUE SPACE.
               10  WK01-CODE-CH893       PIC X(1)
                                               VALUE SPACES.
               10  WK01-NAME-R4184-CH893-Z              PIC X(1)
                                               VALUE SPACE.
               10  WK01-NAME-R4184-CH893-F              PIC X(1)
                                               VALUE SPACE.
               10  WK01-NAME-R4184-CH893-A              PIC X(1)
                                               VALUE SPACE.
               10  WK01-NAME-R4184-CH893-V              PIC X(1)
                                               VALUE SPACE.
               10  WK01-NAME-R4184-CH893-O              PIC X(1)
                                               VALUE SPACE.
               10  WK01-NAME-R4184-CH893       PIC X(30)
                                               VALUE SPACES.
               10  WK01-DESC-R4012-CH893-Z              PIC X(1)
                                               VALUE SPACE.
               10  WK01-DESC-R4012-CH893-F              PIC X(1)
                                               VALUE SPACE.
               10  WK01-DESC-R4012-CH893-A              PIC X(1)
                                               VALUE SPACE.
               10  WK01-DESC-R4012-CH893-V              PIC X(1)
                                               VALUE SPACE.
               10  WK01-DESC-R4012-CH893-O              PIC X(1)
                                               VALUE SPACE.
               10  WK01-DESC-R4012-CH893       PIC X(35)
                                               VALUE SPACES.
               10  WK01-CODE-CH894-Z              PIC X(1)
                                               VALUE SPACE.
               10  WK01-CODE-CH894-F              PIC X(1)
                                               VALUE SPACE.
               10  WK01-CODE-CH894-A              PIC X(1)
                                               VALUE SPACE.
               10  WK01-CODE-CH894-V              PIC X(1)
                                               VALUE SPACE.
               10  WK01-CODE-CH894-O              PIC X(1)
                                               VALUE SPACE.
               10  WK01-CODE-CH894       PIC X(1)
                                               VALUE SPACES.
               10  WK01-NAME-R4184-CH894-Z              PIC X(1)
                                               VALUE SPACE.
               10  WK01-NAME-R4184-CH894-F              PIC X(1)
                                               VALUE SPACE.
               10  WK01-NAME-R4184-CH894-A              PIC X(1)
                                               VALUE SPACE.
               10  WK01-NAME-R4184-CH894-V              PIC X(1)
                                               VALUE SPACE.
               10  WK01-NAME-R4184-CH894-O              PIC X(1)
                                               VALUE SPACE.
               10  WK01-NAME-R4184-CH894       PIC X(30)
                                               VALUE SPACES.
               10  WK01-DESC-R4012-CH894-Z              PIC X(1)
                                               VALUE SPACE.
               10  WK01-DESC-R4012-CH894-F              PIC X(1)
                                               VALUE SPACE.
               10  WK01-DESC-R4012-CH894-A              PIC X(1)
                                               VALUE SPACE.
               10  WK01-DESC-R4012-CH894-V              PIC X(1)
                                               VALUE SPACE.
               10  WK01-DESC-R4012-CH894-O              PIC X(1)
                                               VALUE SPACE.
               10  WK01-DESC-R4012-CH894       PIC X(35)
                                               VALUE SPACES.
               10  WK01-CODE-CH895-Z              PIC X(1)
                                               VALUE SPACE.
               10  WK01-CODE-CH895-F              PIC X(1)
                                               VALUE SPACE.
               10  WK01-CODE-CH895-A              PIC X(1)
                                               VALUE SPACE.
               10  WK01-CODE-CH895-V              PIC X(1)
                                               VALUE SPACE.
               10  WK01-CODE-CH895-O              PIC X(1)
                                               VALUE SPACE.
               10  WK01-CODE-CH895       PIC X(1)
                                               VALUE SPACES.
               10  WK01-NAME-R4184-CH895-Z              PIC X(1)
                                               VALUE SPACE.
               10  WK01-NAME-R4184-CH895-F              PIC X(1)
                                               VALUE SPACE.
               10  WK01-NAME-R4184-CH895-A              PIC X(1)
                                               VALUE SPACE.
               10  WK01-NAME-R4184-CH895-V              PIC X(1)
                                               VALUE SPACE.
               10  WK01-NAME-R4184-CH895-O              PIC X(1)
                                               VALUE SPACE.
               10  WK01-NAME-R4184-CH895       PIC X(30)
                                               VALUE SPACES.
               10  WK01-DESC-R4012-CH895-Z              PIC X(1)
                                               VALUE SPACE.
               10  WK01-DESC-R4012-CH895-F              PIC X(1)
                                               VALUE SPACE.
               10  WK01-DESC-R4012-CH895-A              PIC X(1)
                                               VALUE SPACE.
               10  WK01-DESC-R4012-CH895-V              PIC X(1)
                                               VALUE SPACE.
               10  WK01-DESC-R4012-CH895-O              PIC X(1)
                                               VALUE SPACE.
               10  WK01-DESC-R4012-CH895       PIC X(35)
                                               VALUE SPACES.
               10  WK01-CODE-CH896-Z              PIC X(1)
                                               VALUE SPACE.
               10  WK01-CODE-CH896-F              PIC X(1)
                                               VALUE SPACE.
               10  WK01-CODE-CH896-A              PIC X(1)
                                               VALUE SPACE.
               10  WK01-CODE-CH896-V              PIC X(1)
                                               VALUE SPACE.
               10  WK01-CODE-CH896-O              PIC X(1)
                                               VALUE SPACE.
               10  WK01-CODE-CH896       PIC X(1)
                                               VALUE SPACES.
               10  WK01-NAME-R4184-CH896-Z              PIC X(1)
                                               VALUE SPACE.
               10  WK01-NAME-R4184-CH896-F              PIC X(1)
                                               VALUE SPACE.
               10  WK01-NAME-R4184-CH896-A              PIC X(1)
                                               VALUE SPACE.
               10  WK01-NAME-R4184-CH896-V              PIC X(1)
                                               VALUE SPACE.
               10  WK01-NAME-R4184-CH896-O              PIC X(1)
                                               VALUE SPACE.
               10  WK01-NAME-R4184-CH896       PIC X(30)
                                               VALUE SPACES.
               10  WK01-DESC-R4012-CH896-Z              PIC X(1)
                                               VALUE SPACE.
               10  WK01-DESC-R4012-CH896-F              PIC X(1)
                                               VALUE SPACE.
               10  WK01-DESC-R4012-CH896-A              PIC X(1)
                                               VALUE SPACE.
               10  WK01-DESC-R4012-CH896-V              PIC X(1)
                                               VALUE SPACE.
               10  WK01-DESC-R4012-CH896-O              PIC X(1)
                                               VALUE SPACE.
               10  WK01-DESC-R4012-CH896       PIC X(35)
                                               VALUE SPACES.
               10  WK01-CODE-CH897-Z              PIC X(1)
                                               VALUE SPACE.
               10  WK01-CODE-CH897-F              PIC X(1)
                                               VALUE SPACE.
               10  WK01-CODE-CH897-A              PIC X(1)
                                               VALUE SPACE.
               10  WK01-CODE-CH897-V              PIC X(1)
                                               VALUE SPACE.
               10  WK01-CODE-CH897-O              PIC X(1)
                                               VALUE SPACE.
               10  WK01-CODE-CH897       PIC X(1)
                                               VALUE SPACES.
               10  WK01-NAME-R4184-CH897-Z              PIC X(1)
                                               VALUE SPACE.
               10  WK01-NAME-R4184-CH897-F              PIC X(1)
                                               VALUE SPACE.
               10  WK01-NAME-R4184-CH897-A              PIC X(1)
                                               VALUE SPACE.
               10  WK01-NAME-R4184-CH897-V              PIC X(1)
                                               VALUE SPACE.
               10  WK01-NAME-R4184-CH897-O              PIC X(1)
                                               VALUE SPACE.
               10  WK01-NAME-R4184-CH897       PIC X(30)
                                               VALUE SPACES.
               10  WK01-DESC-R4012-CH897-Z              PIC X(1)
                                               VALUE SPACE.
               10  WK01-DESC-R4012-CH897-F              PIC X(1)
                                               VALUE SPACE.
               10  WK01-DESC-R4012-CH897-A              PIC X(1)
                                               VALUE SPACE.
               10  WK01-DESC-R4012-CH897-V              PIC X(1)
                                               VALUE SPACE.
               10  WK01-DESC-R4012-CH897-O              PIC X(1)
                                               VALUE SPACE.
               10  WK01-DESC-R4012-CH897       PIC X(35)
                                               VALUE SPACES.
               10  WK01-CODE-CH898-Z              PIC X(1)
                                               VALUE SPACE.
               10  WK01-CODE-CH898-F              PIC X(1)
                                               VALUE SPACE.
               10  WK01-CODE-CH898-A              PIC X(1)
                                               VALUE SPACE.
               10  WK01-CODE-CH898-V              PIC X(1)
                                               VALUE SPACE.
               10  WK01-CODE-CH898-O              PIC X(1)
                                               VALUE SPACE.
               10  WK01-CODE-CH898       PIC X(1)
                                               VALUE SPACES.
               10  WK01-NAME-R4184-CH898-Z              PIC X(1)
                                               VALUE SPACE.
               10  WK01-NAME-R4184-CH898-F              PIC X(1)
                                               VALUE SPACE.
               10  WK01-NAME-R4184-CH898-A              PIC X(1)
                                               VALUE SPACE.
               10  WK01-NAME-R4184-CH898-V              PIC X(1)
                                               VALUE SPACE.
               10  WK01-NAME-R4184-CH898-O              PIC X(1)
                                               VALUE SPACE.
               10  WK01-NAME-R4184-CH898       PIC X(30)
                                               VALUE SPACES.
               10  WK01-DESC-R4012-CH898-Z              PIC X(1)
                                               VALUE SPACE.
               10  WK01-DESC-R4012-CH898-F              PIC X(1)
                                               VALUE SPACE.
               10  WK01-DESC-R4012-CH898-A              PIC X(1)
                                               VALUE SPACE.
               10  WK01-DESC-R4012-CH898-V              PIC X(1)
                                               VALUE SPACE.
               10  WK01-DESC-R4012-CH898-O              PIC X(1)
                                               VALUE SPACE.
               10  WK01-DESC-R4012-CH898       PIC X(35)
                                               VALUE SPACES.
               10  WK01-CODE-CH899-Z              PIC X(1)
                                               VALUE SPACE.
               10  WK01-CODE-CH899-F              PIC X(1)
                                               VALUE SPACE.
               10  WK01-CODE-CH899-A              PIC X(1)
                                               VALUE SPACE.
               10  WK01-CODE-CH899-V              PIC X(1)
                                               VALUE SPACE.
               10  WK01-CODE-CH899-O              PIC X(1)
                                               VALUE SPACE.
               10  WK01-CODE-CH899       PIC X(1)
                                               VALUE SPACES.
               10  WK01-NAME-R4184-CH899-Z              PIC X(1)
                                               VALUE SPACE.
               10  WK01-NAME-R4184-CH899-F              PIC X(1)
                                               VALUE SPACE.
               10  WK01-NAME-R4184-CH899-A              PIC X(1)
                                               VALUE SPACE.
               10  WK01-NAME-R4184-CH899-V              PIC X(1)
                                               VALUE SPACE.
               10  WK01-NAME-R4184-CH899-O              PIC X(1)
                                               VALUE SPACE.
               10  WK01-NAME-R4184-CH899       PIC X(30)
                                               VALUE SPACES.
               10  WK01-DESC-R4012-CH899-Z              PIC X(1)
                                               VALUE SPACE.
               10  WK01-DESC-R4012-CH899-F              PIC X(1)
                                               VALUE SPACE.
               10  WK01-DESC-R4012-CH899-A              PIC X(1)
                                               VALUE SPACE.
               10  WK01-DESC-R4012-CH899-V              PIC X(1)
                                               VALUE SPACE.
               10  WK01-DESC-R4012-CH899-O              PIC X(1)
                                               VALUE SPACE.
               10  WK01-DESC-R4012-CH899       PIC X(35)
                                               VALUE SPACES.
               10  WK01-CODE-CH8910-Z              PIC X(1)
                                               VALUE SPACE.
               10  WK01-CODE-CH8910-F              PIC X(1)
                                               VALUE SPACE.
               10  WK01-CODE-CH8910-A              PIC X(1)
                                               VALUE SPACE.
               10  WK01-CODE-CH8910-V              PIC X(1)
                                               VALUE SPACE.
               10  WK01-CODE-CH8910-O              PIC X(1)
                                               VALUE SPACE.
               10  WK01-CODE-CH8910       PIC X(1)
                                               VALUE SPACES.
               10  WK01-NAME-R4184-CH8910-Z              PIC X(1)
                                               VALUE SPACE.
               10  WK01-NAME-R4184-CH8910-F              PIC X(1)
                                               VALUE SPACE.
               10  WK01-NAME-R4184-CH8910-A              PIC X(1)
                                               VALUE SPACE.
               10  WK01-NAME-R4184-CH8910-V              PIC X(1)
                                               VALUE SPACE.
               10  WK01-NAME-R4184-CH8910-O              PIC X(1)
                                               VALUE SPACE.
               10  WK01-NAME-R4184-CH8910       PIC X(30)
                                               VALUE SPACES.
               10  WK01-DESC-R4012-CH8910-Z              PIC X(1)
                                               VALUE SPACE.
               10  WK01-DESC-R4012-CH8910-F              PIC X(1)
                                               VALUE SPACE.
               10  WK01-DESC-R4012-CH8910-A              PIC X(1)
                                               VALUE SPACE.
               10  WK01-DESC-R4012-CH8910-V              PIC X(1)
                                               VALUE SPACE.
               10  WK01-DESC-R4012-CH8910-O              PIC X(1)
                                               VALUE SPACE.
               10  WK01-DESC-R4012-CH8910       PIC X(35)
                                               VALUE SPACES.
               10  WK01-ELMNT-NAME-CH89-Z              PIC X(1)
                                               VALUE SPACE.
               10  WK01-ELMNT-NAME-CH89-F              PIC X(1)
                                               VALUE SPACE.
               10  WK01-ELMNT-NAME-CH89-A              PIC X(1)
                                               VALUE SPACE.
               10  WK01-ELMNT-NAME-CH89-V              PIC X(1)
                                               VALUE SPACE.
               10  WK01-ELMNT-NAME-CH89-O              PIC X(1)
                                               VALUE SPACE.
               10  WK01-ELMNT-NAME-CH89       PIC X(30)
                                               VALUE SPACES.
               10  WK01-ZZMESSAGE-Z              PIC X(1)
                                               VALUE SPACE.
               10  WK01-ZZMESSAGE-F              PIC X(1)
                                               VALUE SPACE.
               10  WK01-ZZMESSAGE-A              PIC X(1)
                                               VALUE SPACE.
               10  WK01-ZZMESSAGE-V              PIC X(1)
                                               VALUE SPACE.
               10  WK01-ZZMESSAGE-O              PIC X(1)
                                               VALUE SPACE.
               10  WK01-ZZMESSAGE       PIC X(160)
                                               VALUE SPACES.
               10  WK01-PASSED-ONE-Z              PIC X(1)
                                               VALUE SPACE.
               10  WK01-PASSED-ONE-F              PIC X(1)
                                               VALUE SPACE.
               10  WK01-PASSED-ONE-A              PIC X(1)
                                               VALUE SPACE.
               10  WK01-PASSED-ONE-V              PIC X(1)
                                               VALUE SPACE.
               10  WK01-PASSED-ONE-O              PIC X(1)
                                               VALUE SPACE.
               10  WK01-PASSED-ONE       PIC X(32)
                                               VALUE SPACES.
               10  WK01-MAP-RESPONSE-Z              PIC X(1)
                                               VALUE SPACE.
               10  WK01-MAP-RESPONSE-F              PIC X(1)
                                               VALUE SPACE.
               10  WK01-MAP-RESPONSE-A              PIC X(1)
                                               VALUE SPACE.
               10  WK01-MAP-RESPONSE-V              PIC X(1)
                                               VALUE SPACE.
               10  WK01-MAP-RESPONSE-O              PIC X(1)
                                               VALUE SPACE.
               10  WK01-MAP-RESPONSE       PIC X(8)
                                               VALUE SPACES.
               10  WK01-TEXT-SY00-Z              PIC X(1)
                                               VALUE SPACE.
               10  WK01-TEXT-SY00-F              PIC X(1)
                                               VALUE SPACE.
               10  WK01-TEXT-SY00-A              PIC X(1)
                                               VALUE SPACE.
               10  WK01-TEXT-SY00-V              PIC X(1)
                                               VALUE SPACE.
               10  WK01-TEXT-SY00-O              PIC X(1)
                                               VALUE SPACE.
               10  WK01-TEXT-SY00       PIC X(14)
                                               VALUE SPACES.
           04  WK01-SUBSCRIPTED-WORK-AREA.
               05  FILLER                      PIC X(1).
               05  WK01-DESC-R4012-CH89-F             PIC X(1)
                                               OCCURS 10.
               05  WK01-CODE-CH89-F             PIC X(1)
                                               OCCURS 10.
               05  WK01-NAME-R4184-CH89-F             PIC X(1)
                                               OCCURS 10.
