    ***Created by Convert/DC version V8R03 on 11/09/00 at 14:00***

      *%--------------------------------------------------------------%*
           MOVE DCLINK-MESSAGE  TO WK01-ZZMESSAGE.
      *%--------------------------------------------------------------%*
           MOVE AGR-DATE OF ADSO-APPLICATION-GLOBAL-RECORD TO WK01-DATE.
      *%--------------------------------------------------------------%*
           MOVE AGR-USER-ID OF ADSO-APPLICATION-GLOBAL-RECORD TO
                WK01-USER-ID.
      *%--------------------------------------------------------------%*
           MOVE AGR-FUNC-DESCRIPTION OF ADSO-APPLICATION-GLOBAL-RECORD
                TO WK01-FUNC-DESCRIPTION.
      *%--------------------------------------------------------------%*
           MOVE AGR-PASSED-ONE OF ADSO-APPLICATION-GLOBAL-RECORD TO
                WK01-PASSED-ONE.
      *%--------------------------------------------------------------%*
           MOVE AGR-MAP-RESPONSE OF ADSO-APPLICATION-GLOBAL-RECORD TO
                WK01-MAP-RESPONSE.
      *%--------------------------------------------------------------%*
           MOVE TRMNL-ID-SY00 OF FSYWG00M TO WK01-ID-SY00.
      *%--------------------------------------------------------------%*
           MOVE FULL-NAME-6001-SY00 OF FSYWG00M TO WK01-NAME-6001-SY00.
      *%--------------------------------------------------------------%*
           MOVE AM-PM-FLAG-SY00 OF FSYWG00M TO WK01-PM-FLAG-SY00.
      *%--------------------------------------------------------------%*
           MOVE CURR-RSPNS-ID-SY00 OF FSYWG00M TO WK01-RSPNS-ID-SY00.
      *%--------------------------------------------------------------%*
           MOVE ERROR-TEXT-SY00 OF FSYWG00M TO WK01-TEXT-SY00.
      *%--------------------------------------------------------------%*
           MOVE PAGE-STATUS-CODE-SY00 OF FSYWG00M TO
                WK01-STATUS-CODE-SY00.
      *%--------------------------------------------------------------%*
           MOVE WORK-HH-MM-TIME-SY00 OF FSYWG00M TO
                WK01-HH-MM-TIME-SY00.
      *%--------------------------------------------------------------%*
           MOVE SLCTN-DATE-CH76 OF FCHWK76 TO WK01-DATE-CH76.
      *%--------------------------------------------------------------%*
           MOVE SLCTN-STATUS-CH76 OF FCHWK76 TO WK01-STATUS-CH76.
      *%--------------------------------------------------------------%*
           MOVE ACTN-CODE-CH76 OF FCHWM76(0001) TO WK01-CODE-CH761.
      *%--------------------------------------------------------------%*
           MOVE ACTN-CODE-CH76 OF FCHWM76(0002) TO WK01-CODE-CH762.
      *%--------------------------------------------------------------%*
           MOVE ACTN-CODE-CH76 OF FCHWM76(0003) TO WK01-CODE-CH763.
      *%--------------------------------------------------------------%*
           MOVE ACTN-CODE-CH76 OF FCHWM76(0004) TO WK01-CODE-CH764.
      *%--------------------------------------------------------------%*
           MOVE ACTN-CODE-CH76 OF FCHWM76(0005) TO WK01-CODE-CH765.
      *%--------------------------------------------------------------%*
           MOVE ACTN-CODE-CH76 OF FCHWM76(0006) TO WK01-CODE-CH766.
      *%--------------------------------------------------------------%*
           MOVE ACTN-CODE-CH76 OF FCHWM76(0007) TO WK01-CODE-CH767.
      *%--------------------------------------------------------------%*
           MOVE ACTN-CODE-CH76 OF FCHWM76(0008) TO WK01-CODE-CH768.
      *%--------------------------------------------------------------%*
           MOVE ACTN-CODE-CH76 OF FCHWM76(0009) TO WK01-CODE-CH769.
      *%--------------------------------------------------------------%*
           MOVE ACTN-CODE-CH76 OF FCHWM76(0010) TO WK01-CODE-CH7610.
      *%--------------------------------------------------------------%*
           MOVE ACTN-CODE-CH76 OF FCHWM76(0011) TO WK01-CODE-CH7611.
      *%--------------------------------------------------------------%*
           MOVE START-DATE-4181-CH76 OF FCHWM76(0001) TO
                WK01-DATE-4181-CH761.
      *%--------------------------------------------------------------%*
           MOVE START-DATE-4181-CH76 OF FCHWM76(0002) TO
                WK01-DATE-4181-CH762.
      *%--------------------------------------------------------------%*
           MOVE START-DATE-4181-CH76 OF FCHWM76(0003) TO
                WK01-DATE-4181-CH763.
      *%--------------------------------------------------------------%*
           MOVE START-DATE-4181-CH76 OF FCHWM76(0004) TO
                WK01-DATE-4181-CH764.
      *%--------------------------------------------------------------%*
           MOVE START-DATE-4181-CH76 OF FCHWM76(0005) TO
                WK01-DATE-4181-CH765.
      *%--------------------------------------------------------------%*
           MOVE START-DATE-4181-CH76 OF FCHWM76(0006) TO
                WK01-DATE-4181-CH766.
      *%--------------------------------------------------------------%*
           MOVE START-DATE-4181-CH76 OF FCHWM76(0007) TO
                WK01-DATE-4181-CH767.
      *%--------------------------------------------------------------%*
           MOVE START-DATE-4181-CH76 OF FCHWM76(0008) TO
                WK01-DATE-4181-CH768.
      *%--------------------------------------------------------------%*
           MOVE START-DATE-4181-CH76 OF FCHWM76(0009) TO
                WK01-DATE-4181-CH769.
      *%--------------------------------------------------------------%*
           MOVE START-DATE-4181-CH76 OF FCHWM76(0010) TO
                WK01-DATE-4181-CH7610.
      *%--------------------------------------------------------------%*
           MOVE START-DATE-4181-CH76 OF FCHWM76(0011) TO
                WK01-DATE-4181-CH7611.
      *%--------------------------------------------------------------%*
           MOVE END-DATE-4181-CH76 OF FCHWM76(0001) TO
                WK01-DATE-4181-CH7A1.
      *%--------------------------------------------------------------%*
           MOVE END-DATE-4181-CH76 OF FCHWM76(0002) TO
                WK01-DATE-4181-CH7A2.
      *%--------------------------------------------------------------%*
           MOVE END-DATE-4181-CH76 OF FCHWM76(0003) TO
                WK01-DATE-4181-CH7A3.
      *%--------------------------------------------------------------%*
           MOVE END-DATE-4181-CH76 OF FCHWM76(0004) TO
                WK01-DATE-4181-CH7A4.
      *%--------------------------------------------------------------%*
           MOVE END-DATE-4181-CH76 OF FCHWM76(0005) TO
                WK01-DATE-4181-CH7A5.
      *%--------------------------------------------------------------%*
           MOVE END-DATE-4181-CH76 OF FCHWM76(0006) TO
                WK01-DATE-4181-CH7A6.
      *%--------------------------------------------------------------%*
           MOVE END-DATE-4181-CH76 OF FCHWM76(0007) TO
                WK01-DATE-4181-CH7A7.
      *%--------------------------------------------------------------%*
           MOVE END-DATE-4181-CH76 OF FCHWM76(0008) TO
                WK01-DATE-4181-CH7A8.
      *%--------------------------------------------------------------%*
           MOVE END-DATE-4181-CH76 OF FCHWM76(0009) TO
                WK01-DATE-4181-CH7A9.
      *%--------------------------------------------------------------%*
           MOVE END-DATE-4181-CH76 OF FCHWM76(0010) TO
                WK01-DATE-4181-CH7A10.
      *%--------------------------------------------------------------%*
           MOVE END-DATE-4181-CH76 OF FCHWM76(0011) TO
                WK01-DATE-4181-CH7A11.
      *%--------------------------------------------------------------%*
           MOVE RULE-CLASS-CODE-4180-CH76 OF FCHWM76(0001) TO
                WK01-CLASS-CODE-4180-CH761.
      *%--------------------------------------------------------------%*
           MOVE RULE-CLASS-CODE-4180-CH76 OF FCHWM76(0002) TO
                WK01-CLASS-CODE-4180-CH762.
      *%--------------------------------------------------------------%*
           MOVE RULE-CLASS-CODE-4180-CH76 OF FCHWM76(0003) TO
                WK01-CLASS-CODE-4180-CH763.
      *%--------------------------------------------------------------%*
           MOVE RULE-CLASS-CODE-4180-CH76 OF FCHWM76(0004) TO
                WK01-CLASS-CODE-4180-CH764.
      *%--------------------------------------------------------------%*
           MOVE RULE-CLASS-CODE-4180-CH76 OF FCHWM76(0005) TO
                WK01-CLASS-CODE-4180-CH765.
      *%--------------------------------------------------------------%*
           MOVE RULE-CLASS-CODE-4180-CH76 OF FCHWM76(0006) TO
                WK01-CLASS-CODE-4180-CH766.
      *%--------------------------------------------------------------%*
           MOVE RULE-CLASS-CODE-4180-CH76 OF FCHWM76(0007) TO
                WK01-CLASS-CODE-4180-CH767.
      *%--------------------------------------------------------------%*
           MOVE RULE-CLASS-CODE-4180-CH76 OF FCHWM76(0008) TO
                WK01-CLASS-CODE-4180-CH768.
      *%--------------------------------------------------------------%*
           MOVE RULE-CLASS-CODE-4180-CH76 OF FCHWM76(0009) TO
                WK01-CLASS-CODE-4180-CH769.
      *%--------------------------------------------------------------%*
           MOVE RULE-CLASS-CODE-4180-CH76 OF FCHWM76(0010) TO
                WK01-CLASS-CODE-4180-CH7610.
      *%--------------------------------------------------------------%*
           MOVE RULE-CLASS-CODE-4180-CH76 OF FCHWM76(0011) TO
                WK01-CLASS-CODE-4180-CH7611.
      *%--------------------------------------------------------------%*
           MOVE RULE-CLASS-DESC-4181-CH76 OF FCHWM76(0001) TO
                WK01-CLASS-DESC-4181-CH761.
      *%--------------------------------------------------------------%*
           MOVE RULE-CLASS-DESC-4181-CH76 OF FCHWM76(0002) TO
                WK01-CLASS-DESC-4181-CH762.
      *%--------------------------------------------------------------%*
           MOVE RULE-CLASS-DESC-4181-CH76 OF FCHWM76(0003) TO
                WK01-CLASS-DESC-4181-CH763.
      *%--------------------------------------------------------------%*
           MOVE RULE-CLASS-DESC-4181-CH76 OF FCHWM76(0004) TO
                WK01-CLASS-DESC-4181-CH764.
      *%--------------------------------------------------------------%*
           MOVE RULE-CLASS-DESC-4181-CH76 OF FCHWM76(0005) TO
                WK01-CLASS-DESC-4181-CH765.
      *%--------------------------------------------------------------%*
           MOVE RULE-CLASS-DESC-4181-CH76 OF FCHWM76(0006) TO
                WK01-CLASS-DESC-4181-CH766.
      *%--------------------------------------------------------------%*
           MOVE RULE-CLASS-DESC-4181-CH76 OF FCHWM76(0007) TO
                WK01-CLASS-DESC-4181-CH767.
      *%--------------------------------------------------------------%*
           MOVE RULE-CLASS-DESC-4181-CH76 OF FCHWM76(0008) TO
                WK01-CLASS-DESC-4181-CH768.
      *%--------------------------------------------------------------%*
           MOVE RULE-CLASS-DESC-4181-CH76 OF FCHWM76(0009) TO
                WK01-CLASS-DESC-4181-CH769.
      *%--------------------------------------------------------------%*
           MOVE RULE-CLASS-DESC-4181-CH76 OF FCHWM76(0010) TO
                WK01-CLASS-DESC-4181-CH7610.
      *%--------------------------------------------------------------%*
           MOVE RULE-CLASS-DESC-4181-CH76 OF FCHWM76(0011) TO
                WK01-CLASS-DESC-4181-CH7611.
      *%--------------------------------------------------------------%*
           MOVE RULE-CLASS-TYPE-4181-CH76 OF FCHWM76(0001) TO
                WK01-CLASS-TYPE-4181-CH761.
      *%--------------------------------------------------------------%*
           MOVE RULE-CLASS-TYPE-4181-CH76 OF FCHWM76(0002) TO
                WK01-CLASS-TYPE-4181-CH762.
      *%--------------------------------------------------------------%*
           MOVE RULE-CLASS-TYPE-4181-CH76 OF FCHWM76(0003) TO
                WK01-CLASS-TYPE-4181-CH763.
      *%--------------------------------------------------------------%*
           MOVE RULE-CLASS-TYPE-4181-CH76 OF FCHWM76(0004) TO
                WK01-CLASS-TYPE-4181-CH764.
      *%--------------------------------------------------------------%*
           MOVE RULE-CLASS-TYPE-4181-CH76 OF FCHWM76(0005) TO
                WK01-CLASS-TYPE-4181-CH765.
      *%--------------------------------------------------------------%*
           MOVE RULE-CLASS-TYPE-4181-CH76 OF FCHWM76(0006) TO
                WK01-CLASS-TYPE-4181-CH766.
      *%--------------------------------------------------------------%*
           MOVE RULE-CLASS-TYPE-4181-CH76 OF FCHWM76(0007) TO
                WK01-CLASS-TYPE-4181-CH767.
      *%--------------------------------------------------------------%*
           MOVE RULE-CLASS-TYPE-4181-CH76 OF FCHWM76(0008) TO
                WK01-CLASS-TYPE-4181-CH768.
      *%--------------------------------------------------------------%*
           MOVE RULE-CLASS-TYPE-4181-CH76 OF FCHWM76(0009) TO
                WK01-CLASS-TYPE-4181-CH769.
      *%--------------------------------------------------------------%*
           MOVE RULE-CLASS-TYPE-4181-CH76 OF FCHWM76(0010) TO
                WK01-CLASS-TYPE-4181-CH7610.
      *%--------------------------------------------------------------%*
           MOVE RULE-CLASS-TYPE-4181-CH76 OF FCHWM76(0011) TO
                WK01-CLASS-TYPE-4181-CH7611.
      *%--------------------------------------------------------------%*
           MOVE STATUS-4181-CH76 OF FCHWM76(0001) TO WK01-4181-CH761.
      *%--------------------------------------------------------------%*
           MOVE STATUS-4181-CH76 OF FCHWM76(0002) TO WK01-4181-CH762.
      *%--------------------------------------------------------------%*
           MOVE STATUS-4181-CH76 OF FCHWM76(0003) TO WK01-4181-CH763.
      *%--------------------------------------------------------------%*
           MOVE STATUS-4181-CH76 OF FCHWM76(0004) TO WK01-4181-CH764.
      *%--------------------------------------------------------------%*
           MOVE STATUS-4181-CH76 OF FCHWM76(0005) TO WK01-4181-CH765.
      *%--------------------------------------------------------------%*
           MOVE STATUS-4181-CH76 OF FCHWM76(0006) TO WK01-4181-CH766.
      *%--------------------------------------------------------------%*
           MOVE STATUS-4181-CH76 OF FCHWM76(0007) TO WK01-4181-CH767.
      *%--------------------------------------------------------------%*
           MOVE STATUS-4181-CH76 OF FCHWM76(0008) TO WK01-4181-CH768.
      *%--------------------------------------------------------------%*
           MOVE STATUS-4181-CH76 OF FCHWM76(0009) TO WK01-4181-CH769.
      *%--------------------------------------------------------------%*
           MOVE STATUS-4181-CH76 OF FCHWM76(0010) TO WK01-4181-CH7610.
      *%--------------------------------------------------------------%*
           MOVE STATUS-4181-CH76 OF FCHWM76(0011) TO WK01-4181-CH7611.
      *%--------------------------------------------------------------%*
           MOVE RQST-RULE-CLASS-CODE-CH76 OF FCHWK76 TO
                WK01-RULE-CLASS-CODE-CH76.
