       01  MAP-CONTROL.

    ***Created by Convert/DC version V8R03 on 12/12/00 at 15:00***

           02  FCHMU52-MAP-CONTROL.
           03  FCHMU52T.
           04  WK01-DCXMAPL-PARMS.
               10  WK01-MAPNAME                  PIC X(8)
                                                 VALUE 'FCHMU52I'.
               10  WK01-IKE-LENGTH               PIC S9(8)  COMP
                                                 VALUE 30222.
               10  WK01-TINA-LENGTH              PIC S9(4)  COMP
                                                 VALUE 1532.
           05  WK01-ATTRIBUTES                   PIC X(60)
                                                 VALUE SPACE.
           05  WK01-ATTRIBUTES-ERROR             PIC X(60) VALUE
               'U  BIF'.
           05  WK01-CURSOR-DFLD                  PIC X(36)
                                                 VALUE SPACES.
           05  WK01-CURSOR-DFLD-QUAL             PIC X(30)
                                                 VALUE SPACES.
           05  WK01-ROW                          PIC S9(4) COMP
                                                 VALUE ZERO.
           05  WK01-COLUMN                       PIC S9(4) COMP
                                                 VALUE ZERO.
           05  WK01-ERROR-MSG                    PIC X(80)
                                                 VALUE SPACES.
           05  WK01-MAP-DATA-LEN                 PIC S9(6)
                                                 VALUE ZERO.
           05  WK01-1ST-FLAG                     PIC X(1)
                                                 VALUE 'Y'.
           05  WK01-FLAG-OUTPUT-DATA             PIC X(1)
                                                 VALUE 'Y'.
      *    05  WK01-STATUS-RETURN-FLAG           PIC X(1)
      *                                          VALUE SPACES.
           05  WK01-ALL-BUT-FLAG                 PIC X(1)
                                                 VALUE SPACES.
           05  WK01-FLAG-ALL-FIELDS-CHANGED      PIC X(1)  VALUE 'Y'.
           05  WK01-FLAG-ANY-FIELDS-CHANGED      PIC X(1)  VALUE 'N'.
           05  WK01-FLAG-ALL-FIELDS-ERROR        PIC X(1)  VALUE 'Y'.
           05  WK01-FLAG-ANY-FIELDS-ERROR        PIC X(1)  VALUE 'N'.
           05  WK01-FLAG-ALL-FIELDS-ERASE        PIC X(1)  VALUE 'Y'.
           05  WK01-FLAG-ANY-FIELDS-ERASE        PIC X(1)  VALUE 'Y'.

           05  WK01-VARDATA                      PIC X(11880)
                                                 VALUE SPACES.
           05  FILLER                            PIC X(100)
                                                 VALUE SPACES.
           04  WK01-ELEMENT-AREA.

               10  WK01-ID-SY00-Z              PIC X(1)
                                               VALUE SPACE.
               10  WK01-ID-SY00-F              PIC X(1)
                                               VALUE SPACE.
               10  WK01-ID-SY00-A              PIC X(1)
                                               VALUE SPACE.
               10  WK01-ID-SY00-V              PIC X(1)
                                               VALUE SPACE.
               10  WK01-ID-SY00-O              PIC X(1)
                                               VALUE SPACE.
               10  WK01-ID-SY00       PIC X(8)
                                               VALUE SPACES.
               10  WK01-NAME-6001-SY00-Z              PIC X(1)
                                               VALUE SPACE.
               10  WK01-NAME-6001-SY00-F              PIC X(1)
                                               VALUE SPACE.
               10  WK01-NAME-6001-SY00-A              PIC X(1)
                                               VALUE SPACE.
               10  WK01-NAME-6001-SY00-V              PIC X(1)
                                               VALUE SPACE.
               10  WK01-NAME-6001-SY00-O              PIC X(1)
                                               VALUE SPACE.
               10  WK01-NAME-6001-SY00       PIC X(35)
                                               VALUE SPACES.
               10  WK01-DATE-Z              PIC X(1)
                                               VALUE SPACE.
               10  WK01-DATE-F              PIC X(1)
                                               VALUE SPACE.
               10  WK01-DATE-A              PIC X(1)
                                               VALUE SPACE.
               10  WK01-DATE-V              PIC X(1)
                                               VALUE SPACE.
               10  WK01-DATE-O              PIC X(1)
                                               VALUE SPACE.
               10  WK01-DATE       PIC X(8)
                                               VALUE SPACES.
               10  WK01-HH-MM-TIME-SY00-Z              PIC X(1)
                                               VALUE SPACE.
               10  WK01-HH-MM-TIME-SY00-F              PIC X(1)
                                               VALUE SPACE.
               10  WK01-HH-MM-TIME-SY00-A              PIC X(1)
                                               VALUE SPACE.
               10  WK01-HH-MM-TIME-SY00-V              PIC X(1)
                                               VALUE SPACE.
               10  WK01-HH-MM-TIME-SY00-O              PIC X(1)
                                               VALUE SPACE.
               10  WK01-HH-MM-TIME-SY00       PIC X(4)
                                               VALUE SPACES.
               10  WK01-PM-FLAG-SY00-Z              PIC X(1)
                                               VALUE SPACE.
               10  WK01-PM-FLAG-SY00-F              PIC X(1)
                                               VALUE SPACE.
               10  WK01-PM-FLAG-SY00-A              PIC X(1)
                                               VALUE SPACE.
               10  WK01-PM-FLAG-SY00-V              PIC X(1)
                                               VALUE SPACE.
               10  WK01-PM-FLAG-SY00-O              PIC X(1)
                                               VALUE SPACE.
               10  WK01-PM-FLAG-SY00       PIC X(1)
                                               VALUE SPACES.
               10  WK01-USER-ID-Z              PIC X(1)
                                               VALUE SPACE.
               10  WK01-USER-ID-F              PIC X(1)
                                               VALUE SPACE.
               10  WK01-USER-ID-A              PIC X(1)
                                               VALUE SPACE.
               10  WK01-USER-ID-V              PIC X(1)
                                               VALUE SPACE.
               10  WK01-USER-ID-O              PIC X(1)
                                               VALUE SPACE.
               10  WK01-USER-ID       PIC X(32)
                                               VALUE SPACES.
               10  WK01-RSPNS-ID-SY00-Z              PIC X(1)
                                               VALUE SPACE.
               10  WK01-RSPNS-ID-SY00-F              PIC X(1)
                                               VALUE SPACE.
               10  WK01-RSPNS-ID-SY00-A              PIC X(1)
                                               VALUE SPACE.
               10  WK01-RSPNS-ID-SY00-V              PIC X(1)
                                               VALUE SPACE.
               10  WK01-RSPNS-ID-SY00-O              PIC X(1)
                                               VALUE SPACE.
               10  WK01-RSPNS-ID-SY00       PIC X(8)
                                               VALUE SPACES.
               10  WK01-FUNC-DESCRIPTION-Z              PIC X(1)
                                               VALUE SPACE.
               10  WK01-FUNC-DESCRIPTION-F              PIC X(1)
                                               VALUE SPACE.
               10  WK01-FUNC-DESCRIPTION-A              PIC X(1)
                                               VALUE SPACE.
               10  WK01-FUNC-DESCRIPTION-V              PIC X(1)
                                               VALUE SPACE.
               10  WK01-FUNC-DESCRIPTION-O              PIC X(1)
                                               VALUE SPACE.
               10  WK01-FUNC-DESCRIPTION       PIC X(28)
                                               VALUE SPACES.
               10  WK01-STATUS-CODE-SY00-Z              PIC X(1)
                                               VALUE SPACE.
               10  WK01-STATUS-CODE-SY00-F              PIC X(1)
                                               VALUE SPACE.
               10  WK01-STATUS-CODE-SY00-A              PIC X(1)
                                               VALUE SPACE.
               10  WK01-STATUS-CODE-SY00-V              PIC X(1)
                                               VALUE SPACE.
               10  WK01-STATUS-CODE-SY00-O              PIC X(1)
                                               VALUE SPACE.
               10  WK01-STATUS-CODE-SY00       PIC X(1)
                                               VALUE SPACES.
               10  WK01-TEXT-SY01-Z              PIC X(1)
                                               VALUE SPACE.
               10  WK01-TEXT-SY01-F              PIC X(1)
                                               VALUE SPACE.
               10  WK01-TEXT-SY01-A              PIC X(1)
                                               VALUE SPACE.
               10  WK01-TEXT-SY01-V              PIC X(1)
                                               VALUE SPACE.
               10  WK01-TEXT-SY01-O              PIC X(1)
                                               VALUE SPACE.
               10  WK01-TEXT-SY01       PIC X(8)
                                               VALUE SPACES.
               10  WK01-TEXT-SY0A-Z              PIC X(1)
                                               VALUE SPACE.
               10  WK01-TEXT-SY0A-F              PIC X(1)
                                               VALUE SPACE.
               10  WK01-TEXT-SY0A-A              PIC X(1)
                                               VALUE SPACE.
               10  WK01-TEXT-SY0A-V              PIC X(1)
                                               VALUE SPACE.
               10  WK01-TEXT-SY0A-O              PIC X(1)
                                               VALUE SPACE.
               10  WK01-TEXT-SY0A       PIC X(11)
                                               VALUE SPACES.
               10  WK01-TEXT-SY0B-Z              PIC X(1)
                                               VALUE SPACE.
               10  WK01-TEXT-SY0B-F              PIC X(1)
                                               VALUE SPACE.
               10  WK01-TEXT-SY0B-A              PIC X(1)
                                               VALUE SPACE.
               10  WK01-TEXT-SY0B-V              PIC X(1)
                                               VALUE SPACE.
               10  WK01-TEXT-SY0B-O              PIC X(1)
                                               VALUE SPACE.
               10  WK01-TEXT-SY0B       PIC X(5)
                                               VALUE SPACES.
               10  WK01-CODE-4026-CH52-Z              PIC X(1)
                                               VALUE SPACE.
               10  WK01-CODE-4026-CH52-F              PIC X(1)
                                               VALUE SPACE.
               10  WK01-CODE-4026-CH52-A              PIC X(1)
                                               VALUE SPACE.
               10  WK01-CODE-4026-CH52-V              PIC X(1)
                                               VALUE SPACE.
               10  WK01-CODE-4026-CH52-O              PIC X(1)
                                               VALUE SPACE.
               10  WK01-CODE-4026-CH52       PIC X(1)
                                               VALUE SPACES.
               10  WK01-COST-CODE-4026-CH52-Z              PIC X(1)
                                               VALUE SPACE.
               10  WK01-COST-CODE-4026-CH52-F              PIC X(1)
                                               VALUE SPACE.
               10  WK01-COST-CODE-4026-CH52-A              PIC X(1)
                                               VALUE SPACE.
               10  WK01-COST-CODE-4026-CH52-V              PIC X(1)
                                               VALUE SPACE.
               10  WK01-COST-CODE-4026-CH52-O              PIC X(1)
                                               VALUE SPACE.
               10  WK01-COST-CODE-4026-CH52       PIC X(6)
                                               VALUE SPACES.
               10  WK01-COST-DESC-4065-CH52-Z              PIC X(1)
                                               VALUE SPACE.
               10  WK01-COST-DESC-4065-CH52-F              PIC X(1)
                                               VALUE SPACE.
               10  WK01-COST-DESC-4065-CH52-A              PIC X(1)
                                               VALUE SPACE.
               10  WK01-COST-DESC-4065-CH52-V              PIC X(1)
                                               VALUE SPACE.
               10  WK01-COST-DESC-4065-CH52-O              PIC X(1)
                                               VALUE SPACE.
               10  WK01-COST-DESC-4065-CH52       PIC X(35)
                                               VALUE SPACES.
               10  WK01-COST-BASIS-4065-CH52-Z              PIC X(1)
                                               VALUE SPACE.
               10  WK01-COST-BASIS-4065-CH52-F              PIC X(1)
                                               VALUE SPACE.
               10  WK01-COST-BASIS-4065-CH52-A              PIC X(1)
                                               VALUE SPACE.
               10  WK01-COST-BASIS-4065-CH52-V              PIC X(1)
                                               VALUE SPACE.
               10  WK01-COST-BASIS-4065-CH52-O              PIC X(1)
                                               VALUE SPACE.
               10  WK01-COST-BASIS-4065-CH52       PIC X(1)
                                               VALUE SPACES.
               10  WK01-TO-BSS-IND-4065-CH52-Z              PIC X(1)
                                               VALUE SPACE.
               10  WK01-TO-BSS-IND-4065-CH52-F              PIC X(1)
                                               VALUE SPACE.
               10  WK01-TO-BSS-IND-4065-CH52-A              PIC X(1)
                                               VALUE SPACE.
               10  WK01-TO-BSS-IND-4065-CH52-V              PIC X(1)
                                               VALUE SPACE.
               10  WK01-TO-BSS-IND-4065-CH52-O              PIC X(1)
                                               VALUE SPACE.
               10  WK01-TO-BSS-IND-4065-CH52       PIC X(1)
                                               VALUE SPACES.
               10  WK01-CST-STNDD-PCT-4065-CH5-Z              PIC X(1)
                                               VALUE SPACE.
               10  WK01-CST-STNDD-PCT-4065-CH5-F              PIC X(1)
                                               VALUE SPACE.
               10  WK01-CST-STNDD-PCT-4065-CH5-A              PIC X(1)
                                               VALUE SPACE.
               10  WK01-CST-STNDD-PCT-4065-CH5-V              PIC X(1)
                                               VALUE SPACE.
               10  WK01-CST-STNDD-PCT-4065-CH5-O              PIC X(1)
                                               VALUE SPACE.
               10  WK01-CST-STNDD-PCT-4065-CH5       PIC X(7)
                                               VALUE SPACES.
               10  WK01-CODE-CH521-Z              PIC X(1)
                                               VALUE SPACE.
               10  WK01-CODE-CH521-F              PIC X(1)
                                               VALUE SPACE.
               10  WK01-CODE-CH521-A              PIC X(1)
                                               VALUE SPACE.
               10  WK01-CODE-CH521-V              PIC X(1)
                                               VALUE SPACE.
               10  WK01-CODE-CH521-O              PIC X(1)
                                               VALUE SPACE.
               10  WK01-CODE-CH521       PIC X(1)
                                               VALUE SPACES.
               10  WK01-PCT-4028-CH521-Z              PIC X(1)
                                               VALUE SPACE.
               10  WK01-PCT-4028-CH521-F              PIC X(1)
                                               VALUE SPACE.
               10  WK01-PCT-4028-CH521-A              PIC X(1)
                                               VALUE SPACE.
               10  WK01-PCT-4028-CH521-V              PIC X(1)
                                               VALUE SPACE.
               10  WK01-PCT-4028-CH521-O              PIC X(1)
                                               VALUE SPACE.
               10  WK01-PCT-4028-CH521       PIC X(7)
                                               VALUE SPACES.
               10  WK01-INDX-CODE-4028-CH521-Z              PIC X(1)
                                               VALUE SPACE.
               10  WK01-INDX-CODE-4028-CH521-F              PIC X(1)
                                               VALUE SPACE.
               10  WK01-INDX-CODE-4028-CH521-A              PIC X(1)
                                               VALUE SPACE.
               10  WK01-INDX-CODE-4028-CH521-V              PIC X(1)
                                               VALUE SPACE.
               10  WK01-INDX-CODE-4028-CH521-O              PIC X(1)
                                               VALUE SPACE.
               10  WK01-INDX-CODE-4028-CH521       PIC X(10)
                                               VALUE SPACES.
               10  WK01-CODE-4028-CH521-Z              PIC X(1)
                                               VALUE SPACE.
               10  WK01-CODE-4028-CH521-F              PIC X(1)
                                               VALUE SPACE.
               10  WK01-CODE-4028-CH521-A              PIC X(1)
                                               VALUE SPACE.
               10  WK01-CODE-4028-CH521-V              PIC X(1)
                                               VALUE SPACE.
               10  WK01-CODE-4028-CH521-O              PIC X(1)
                                               VALUE SPACE.
               10  WK01-CODE-4028-CH521       PIC X(6)
                                               VALUE SPACES.
               10  WK01-CODE-4028-CH5A1-Z              PIC X(1)
                                               VALUE SPACE.
               10  WK01-CODE-4028-CH5A1-F              PIC X(1)
                                               VALUE SPACE.
               10  WK01-CODE-4028-CH5A1-A              PIC X(1)
                                               VALUE SPACE.
               10  WK01-CODE-4028-CH5A1-V              PIC X(1)
                                               VALUE SPACE.
               10  WK01-CODE-4028-CH5A1-O              PIC X(1)
                                               VALUE SPACE.
               10  WK01-CODE-4028-CH5A1       PIC X(6)
                                               VALUE SPACES.
               10  WK01-CODE-4028-CH5B1-Z              PIC X(1)
                                               VALUE SPACE.
               10  WK01-CODE-4028-CH5B1-F              PIC X(1)
                                               VALUE SPACE.
               10  WK01-CODE-4028-CH5B1-A              PIC X(1)
                                               VALUE SPACE.
               10  WK01-CODE-4028-CH5B1-V              PIC X(1)
                                               VALUE SPACE.
               10  WK01-CODE-4028-CH5B1-O              PIC X(1)
                                               VALUE SPACE.
               10  WK01-CODE-4028-CH5B1       PIC X(6)
                                               VALUE SPACES.
               10  WK01-CODE-4028-CH5C1-Z              PIC X(1)
                                               VALUE SPACE.
               10  WK01-CODE-4028-CH5C1-F              PIC X(1)
                                               VALUE SPACE.
               10  WK01-CODE-4028-CH5C1-A              PIC X(1)
                                               VALUE SPACE.
               10  WK01-CODE-4028-CH5C1-V              PIC X(1)
                                               VALUE SPACE.
               10  WK01-CODE-4028-CH5C1-O              PIC X(1)
                                               VALUE SPACE.
               10  WK01-CODE-4028-CH5C1       PIC X(6)
                                               VALUE SPACES.
               10  WK01-CODE-4028-CH5D1-Z              PIC X(1)
                                               VALUE SPACE.
               10  WK01-CODE-4028-CH5D1-F              PIC X(1)
                                               VALUE SPACE.
               10  WK01-CODE-4028-CH5D1-A              PIC X(1)
                                               VALUE SPACE.
               10  WK01-CODE-4028-CH5D1-V              PIC X(1)
                                               VALUE SPACE.
               10  WK01-CODE-4028-CH5D1-O              PIC X(1)
                                               VALUE SPACE.
               10  WK01-CODE-4028-CH5D1       PIC X(6)
                                               VALUE SPACES.
               10  WK01-CODE-4028-CH5E1-Z              PIC X(1)
                                               VALUE SPACE.
               10  WK01-CODE-4028-CH5E1-F              PIC X(1)
                                               VALUE SPACE.
               10  WK01-CODE-4028-CH5E1-A              PIC X(1)
                                               VALUE SPACE.
               10  WK01-CODE-4028-CH5E1-V              PIC X(1)
                                               VALUE SPACE.
               10  WK01-CODE-4028-CH5E1-O              PIC X(1)
                                               VALUE SPACE.
               10  WK01-CODE-4028-CH5E1       PIC X(6)
                                               VALUE SPACES.
               10  WK01-COST-ACCT-4028-CH521-Z              PIC X(1)
                                               VALUE SPACE.
               10  WK01-COST-ACCT-4028-CH521-F              PIC X(1)
                                               VALUE SPACE.
               10  WK01-COST-ACCT-4028-CH521-A              PIC X(1)
                                               VALUE SPACE.
               10  WK01-COST-ACCT-4028-CH521-V              PIC X(1)
                                               VALUE SPACE.
               10  WK01-COST-ACCT-4028-CH521-O              PIC X(1)
                                               VALUE SPACE.
               10  WK01-COST-ACCT-4028-CH521       PIC X(6)
                                               VALUE SPACES.
               10  WK01-CODE-CH522-Z              PIC X(1)
                                               VALUE SPACE.
               10  WK01-CODE-CH522-F              PIC X(1)
                                               VALUE SPACE.
               10  WK01-CODE-CH522-A              PIC X(1)
                                               VALUE SPACE.
               10  WK01-CODE-CH522-V              PIC X(1)
                                               VALUE SPACE.
               10  WK01-CODE-CH522-O              PIC X(1)
                                               VALUE SPACE.
               10  WK01-CODE-CH522       PIC X(1)
                                               VALUE SPACES.
               10  WK01-PCT-4028-CH522-Z              PIC X(1)
                                               VALUE SPACE.
               10  WK01-PCT-4028-CH522-F              PIC X(1)
                                               VALUE SPACE.
               10  WK01-PCT-4028-CH522-A              PIC X(1)
                                               VALUE SPACE.
               10  WK01-PCT-4028-CH522-V              PIC X(1)
                                               VALUE SPACE.
               10  WK01-PCT-4028-CH522-O              PIC X(1)
                                               VALUE SPACE.
               10  WK01-PCT-4028-CH522       PIC X(7)
                                               VALUE SPACES.
               10  WK01-INDX-CODE-4028-CH522-Z              PIC X(1)
                                               VALUE SPACE.
               10  WK01-INDX-CODE-4028-CH522-F              PIC X(1)
                                               VALUE SPACE.
               10  WK01-INDX-CODE-4028-CH522-A              PIC X(1)
                                               VALUE SPACE.
               10  WK01-INDX-CODE-4028-CH522-V              PIC X(1)
                                               VALUE SPACE.
               10  WK01-INDX-CODE-4028-CH522-O              PIC X(1)
                                               VALUE SPACE.
               10  WK01-INDX-CODE-4028-CH522       PIC X(10)
                                               VALUE SPACES.
               10  WK01-CODE-4028-CH522-Z              PIC X(1)
                                               VALUE SPACE.
               10  WK01-CODE-4028-CH522-F              PIC X(1)
                                               VALUE SPACE.
               10  WK01-CODE-4028-CH522-A              PIC X(1)
                                               VALUE SPACE.
               10  WK01-CODE-4028-CH522-V              PIC X(1)
                                               VALUE SPACE.
               10  WK01-CODE-4028-CH522-O              PIC X(1)
                                               VALUE SPACE.
               10  WK01-CODE-4028-CH522       PIC X(6)
                                               VALUE SPACES.
               10  WK01-CODE-4028-CH5A2-Z              PIC X(1)
                                               VALUE SPACE.
               10  WK01-CODE-4028-CH5A2-F              PIC X(1)
                                               VALUE SPACE.
               10  WK01-CODE-4028-CH5A2-A              PIC X(1)
                                               VALUE SPACE.
               10  WK01-CODE-4028-CH5A2-V              PIC X(1)
                                               VALUE SPACE.
               10  WK01-CODE-4028-CH5A2-O              PIC X(1)
                                               VALUE SPACE.
               10  WK01-CODE-4028-CH5A2       PIC X(6)
                                               VALUE SPACES.
               10  WK01-CODE-4028-CH5B2-Z              PIC X(1)
                                               VALUE SPACE.
               10  WK01-CODE-4028-CH5B2-F              PIC X(1)
                                               VALUE SPACE.
               10  WK01-CODE-4028-CH5B2-A              PIC X(1)
                                               VALUE SPACE.
               10  WK01-CODE-4028-CH5B2-V              PIC X(1)
                                               VALUE SPACE.
               10  WK01-CODE-4028-CH5B2-O              PIC X(1)
                                               VALUE SPACE.
               10  WK01-CODE-4028-CH5B2       PIC X(6)
                                               VALUE SPACES.
               10  WK01-CODE-4028-CH5C2-Z              PIC X(1)
                                               VALUE SPACE.
               10  WK01-CODE-4028-CH5C2-F              PIC X(1)
                                               VALUE SPACE.
               10  WK01-CODE-4028-CH5C2-A              PIC X(1)
                                               VALUE SPACE.
               10  WK01-CODE-4028-CH5C2-V              PIC X(1)
                                               VALUE SPACE.
               10  WK01-CODE-4028-CH5C2-O              PIC X(1)
                                               VALUE SPACE.
               10  WK01-CODE-4028-CH5C2       PIC X(6)
                                               VALUE SPACES.
               10  WK01-CODE-4028-CH5D2-Z              PIC X(1)
                                               VALUE SPACE.
               10  WK01-CODE-4028-CH5D2-F              PIC X(1)
                                               VALUE SPACE.
               10  WK01-CODE-4028-CH5D2-A              PIC X(1)
                                               VALUE SPACE.
               10  WK01-CODE-4028-CH5D2-V              PIC X(1)
                                               VALUE SPACE.
               10  WK01-CODE-4028-CH5D2-O              PIC X(1)
                                               VALUE SPACE.
               10  WK01-CODE-4028-CH5D2       PIC X(6)
                                               VALUE SPACES.
               10  WK01-CODE-4028-CH5E2-Z              PIC X(1)
                                               VALUE SPACE.
               10  WK01-CODE-4028-CH5E2-F              PIC X(1)
                                               VALUE SPACE.
               10  WK01-CODE-4028-CH5E2-A              PIC X(1)
                                               VALUE SPACE.
               10  WK01-CODE-4028-CH5E2-V              PIC X(1)
                                               VALUE SPACE.
               10  WK01-CODE-4028-CH5E2-O              PIC X(1)
                                               VALUE SPACE.
               10  WK01-CODE-4028-CH5E2       PIC X(6)
                                               VALUE SPACES.
               10  WK01-COST-ACCT-4028-CH522-Z              PIC X(1)
                                               VALUE SPACE.
               10  WK01-COST-ACCT-4028-CH522-F              PIC X(1)
                                               VALUE SPACE.
               10  WK01-COST-ACCT-4028-CH522-A              PIC X(1)
                                               VALUE SPACE.
               10  WK01-COST-ACCT-4028-CH522-V              PIC X(1)
                                               VALUE SPACE.
               10  WK01-COST-ACCT-4028-CH522-O              PIC X(1)
                                               VALUE SPACE.
               10  WK01-COST-ACCT-4028-CH522       PIC X(6)
                                               VALUE SPACES.
               10  WK01-CODE-CH523-Z              PIC X(1)
                                               VALUE SPACE.
               10  WK01-CODE-CH523-F              PIC X(1)
                                               VALUE SPACE.
               10  WK01-CODE-CH523-A              PIC X(1)
                                               VALUE SPACE.
               10  WK01-CODE-CH523-V              PIC X(1)
                                               VALUE SPACE.
               10  WK01-CODE-CH523-O              PIC X(1)
                                               VALUE SPACE.
               10  WK01-CODE-CH523       PIC X(1)
                                               VALUE SPACES.
               10  WK01-PCT-4028-CH523-Z              PIC X(1)
                                               VALUE SPACE.
               10  WK01-PCT-4028-CH523-F              PIC X(1)
                                               VALUE SPACE.
               10  WK01-PCT-4028-CH523-A              PIC X(1)
                                               VALUE SPACE.
               10  WK01-PCT-4028-CH523-V              PIC X(1)
                                               VALUE SPACE.
               10  WK01-PCT-4028-CH523-O              PIC X(1)
                                               VALUE SPACE.
               10  WK01-PCT-4028-CH523       PIC X(7)
                                               VALUE SPACES.
               10  WK01-INDX-CODE-4028-CH523-Z              PIC X(1)
                                               VALUE SPACE.
               10  WK01-INDX-CODE-4028-CH523-F              PIC X(1)
                                               VALUE SPACE.
               10  WK01-INDX-CODE-4028-CH523-A              PIC X(1)
                                               VALUE SPACE.
               10  WK01-INDX-CODE-4028-CH523-V              PIC X(1)
                                               VALUE SPACE.
               10  WK01-INDX-CODE-4028-CH523-O              PIC X(1)
                                               VALUE SPACE.
               10  WK01-INDX-CODE-4028-CH523       PIC X(10)
                                               VALUE SPACES.
               10  WK01-CODE-4028-CH523-Z              PIC X(1)
                                               VALUE SPACE.
               10  WK01-CODE-4028-CH523-F              PIC X(1)
                                               VALUE SPACE.
               10  WK01-CODE-4028-CH523-A              PIC X(1)
                                               VALUE SPACE.
               10  WK01-CODE-4028-CH523-V              PIC X(1)
                                               VALUE SPACE.
               10  WK01-CODE-4028-CH523-O              PIC X(1)
                                               VALUE SPACE.
               10  WK01-CODE-4028-CH523       PIC X(6)
                                               VALUE SPACES.
               10  WK01-CODE-4028-CH5A3-Z              PIC X(1)
                                               VALUE SPACE.
               10  WK01-CODE-4028-CH5A3-F              PIC X(1)
                                               VALUE SPACE.
               10  WK01-CODE-4028-CH5A3-A              PIC X(1)
                                               VALUE SPACE.
               10  WK01-CODE-4028-CH5A3-V              PIC X(1)
                                               VALUE SPACE.
               10  WK01-CODE-4028-CH5A3-O              PIC X(1)
                                               VALUE SPACE.
               10  WK01-CODE-4028-CH5A3       PIC X(6)
                                               VALUE SPACES.
               10  WK01-CODE-4028-CH5B3-Z              PIC X(1)
                                               VALUE SPACE.
               10  WK01-CODE-4028-CH5B3-F              PIC X(1)
                                               VALUE SPACE.
               10  WK01-CODE-4028-CH5B3-A              PIC X(1)
                                               VALUE SPACE.
               10  WK01-CODE-4028-CH5B3-V              PIC X(1)
                                               VALUE SPACE.
               10  WK01-CODE-4028-CH5B3-O              PIC X(1)
                                               VALUE SPACE.
               10  WK01-CODE-4028-CH5B3       PIC X(6)
                                               VALUE SPACES.
               10  WK01-CODE-4028-CH5C3-Z              PIC X(1)
                                               VALUE SPACE.
               10  WK01-CODE-4028-CH5C3-F              PIC X(1)
                                               VALUE SPACE.
               10  WK01-CODE-4028-CH5C3-A              PIC X(1)
                                               VALUE SPACE.
               10  WK01-CODE-4028-CH5C3-V              PIC X(1)
                                               VALUE SPACE.
               10  WK01-CODE-4028-CH5C3-O              PIC X(1)
                                               VALUE SPACE.
               10  WK01-CODE-4028-CH5C3       PIC X(6)
                                               VALUE SPACES.
               10  WK01-CODE-4028-CH5D3-Z              PIC X(1)
                                               VALUE SPACE.
               10  WK01-CODE-4028-CH5D3-F              PIC X(1)
                                               VALUE SPACE.
               10  WK01-CODE-4028-CH5D3-A              PIC X(1)
                                               VALUE SPACE.
               10  WK01-CODE-4028-CH5D3-V              PIC X(1)
                                               VALUE SPACE.
               10  WK01-CODE-4028-CH5D3-O              PIC X(1)
                                               VALUE SPACE.
               10  WK01-CODE-4028-CH5D3       PIC X(6)
                                               VALUE SPACES.
               10  WK01-CODE-4028-CH5E3-Z              PIC X(1)
                                               VALUE SPACE.
               10  WK01-CODE-4028-CH5E3-F              PIC X(1)
                                               VALUE SPACE.
               10  WK01-CODE-4028-CH5E3-A              PIC X(1)
                                               VALUE SPACE.
               10  WK01-CODE-4028-CH5E3-V              PIC X(1)
                                               VALUE SPACE.
               10  WK01-CODE-4028-CH5E3-O              PIC X(1)
                                               VALUE SPACE.
               10  WK01-CODE-4028-CH5E3       PIC X(6)
                                               VALUE SPACES.
               10  WK01-COST-ACCT-4028-CH523-Z              PIC X(1)
                                               VALUE SPACE.
               10  WK01-COST-ACCT-4028-CH523-F              PIC X(1)
                                               VALUE SPACE.
               10  WK01-COST-ACCT-4028-CH523-A              PIC X(1)
                                               VALUE SPACE.
               10  WK01-COST-ACCT-4028-CH523-V              PIC X(1)
                                               VALUE SPACE.
               10  WK01-COST-ACCT-4028-CH523-O              PIC X(1)
                                               VALUE SPACE.
               10  WK01-COST-ACCT-4028-CH523       PIC X(6)
                                               VALUE SPACES.
               10  WK01-CODE-CH524-Z              PIC X(1)
                                               VALUE SPACE.
               10  WK01-CODE-CH524-F              PIC X(1)
                                               VALUE SPACE.
               10  WK01-CODE-CH524-A              PIC X(1)
                                               VALUE SPACE.
               10  WK01-CODE-CH524-V              PIC X(1)
                                               VALUE SPACE.
               10  WK01-CODE-CH524-O              PIC X(1)
                                               VALUE SPACE.
               10  WK01-CODE-CH524       PIC X(1)
                                               VALUE SPACES.
               10  WK01-PCT-4028-CH524-Z              PIC X(1)
                                               VALUE SPACE.
               10  WK01-PCT-4028-CH524-F              PIC X(1)
                                               VALUE SPACE.
               10  WK01-PCT-4028-CH524-A              PIC X(1)
                                               VALUE SPACE.
               10  WK01-PCT-4028-CH524-V              PIC X(1)
                                               VALUE SPACE.
               10  WK01-PCT-4028-CH524-O              PIC X(1)
                                               VALUE SPACE.
               10  WK01-PCT-4028-CH524       PIC X(7)
                                               VALUE SPACES.
               10  WK01-INDX-CODE-4028-CH524-Z              PIC X(1)
                                               VALUE SPACE.
               10  WK01-INDX-CODE-4028-CH524-F              PIC X(1)
                                               VALUE SPACE.
               10  WK01-INDX-CODE-4028-CH524-A              PIC X(1)
                                               VALUE SPACE.
               10  WK01-INDX-CODE-4028-CH524-V              PIC X(1)
                                               VALUE SPACE.
               10  WK01-INDX-CODE-4028-CH524-O              PIC X(1)
                                               VALUE SPACE.
               10  WK01-INDX-CODE-4028-CH524       PIC X(10)
                                               VALUE SPACES.
               10  WK01-CODE-4028-CH524-Z              PIC X(1)
                                               VALUE SPACE.
               10  WK01-CODE-4028-CH524-F              PIC X(1)
                                               VALUE SPACE.
               10  WK01-CODE-4028-CH524-A              PIC X(1)
                                               VALUE SPACE.
               10  WK01-CODE-4028-CH524-V              PIC X(1)
                                               VALUE SPACE.
               10  WK01-CODE-4028-CH524-O              PIC X(1)
                                               VALUE SPACE.
               10  WK01-CODE-4028-CH524       PIC X(6)
                                               VALUE SPACES.
               10  WK01-CODE-4028-CH5A4-Z              PIC X(1)
                                               VALUE SPACE.
               10  WK01-CODE-4028-CH5A4-F              PIC X(1)
                                               VALUE SPACE.
               10  WK01-CODE-4028-CH5A4-A              PIC X(1)
                                               VALUE SPACE.
               10  WK01-CODE-4028-CH5A4-V              PIC X(1)
                                               VALUE SPACE.
               10  WK01-CODE-4028-CH5A4-O              PIC X(1)
                                               VALUE SPACE.
               10  WK01-CODE-4028-CH5A4       PIC X(6)
                                               VALUE SPACES.
               10  WK01-CODE-4028-CH5B4-Z              PIC X(1)
                                               VALUE SPACE.
               10  WK01-CODE-4028-CH5B4-F              PIC X(1)
                                               VALUE SPACE.
               10  WK01-CODE-4028-CH5B4-A              PIC X(1)
                                               VALUE SPACE.
               10  WK01-CODE-4028-CH5B4-V              PIC X(1)
                                               VALUE SPACE.
               10  WK01-CODE-4028-CH5B4-O              PIC X(1)
                                               VALUE SPACE.
               10  WK01-CODE-4028-CH5B4       PIC X(6)
                                               VALUE SPACES.
               10  WK01-CODE-4028-CH5C4-Z              PIC X(1)
                                               VALUE SPACE.
               10  WK01-CODE-4028-CH5C4-F              PIC X(1)
                                               VALUE SPACE.
               10  WK01-CODE-4028-CH5C4-A              PIC X(1)
                                               VALUE SPACE.
               10  WK01-CODE-4028-CH5C4-V              PIC X(1)
                                               VALUE SPACE.
               10  WK01-CODE-4028-CH5C4-O              PIC X(1)
                                               VALUE SPACE.
               10  WK01-CODE-4028-CH5C4       PIC X(6)
                                               VALUE SPACES.
               10  WK01-CODE-4028-CH5D4-Z              PIC X(1)
                                               VALUE SPACE.
               10  WK01-CODE-4028-CH5D4-F              PIC X(1)
                                               VALUE SPACE.
               10  WK01-CODE-4028-CH5D4-A              PIC X(1)
                                               VALUE SPACE.
               10  WK01-CODE-4028-CH5D4-V              PIC X(1)
                                               VALUE SPACE.
               10  WK01-CODE-4028-CH5D4-O              PIC X(1)
                                               VALUE SPACE.
               10  WK01-CODE-4028-CH5D4       PIC X(6)
                                               VALUE SPACES.
               10  WK01-CODE-4028-CH5E4-Z              PIC X(1)
                                               VALUE SPACE.
               10  WK01-CODE-4028-CH5E4-F              PIC X(1)
                                               VALUE SPACE.
               10  WK01-CODE-4028-CH5E4-A              PIC X(1)
                                               VALUE SPACE.
               10  WK01-CODE-4028-CH5E4-V              PIC X(1)
                                               VALUE SPACE.
               10  WK01-CODE-4028-CH5E4-O              PIC X(1)
                                               VALUE SPACE.
               10  WK01-CODE-4028-CH5E4       PIC X(6)
                                               VALUE SPACES.
               10  WK01-COST-ACCT-4028-CH524-Z              PIC X(1)
                                               VALUE SPACE.
               10  WK01-COST-ACCT-4028-CH524-F              PIC X(1)
                                               VALUE SPACE.
               10  WK01-COST-ACCT-4028-CH524-A              PIC X(1)
                                               VALUE SPACE.
               10  WK01-COST-ACCT-4028-CH524-V              PIC X(1)
                                               VALUE SPACE.
               10  WK01-COST-ACCT-4028-CH524-O              PIC X(1)
                                               VALUE SPACE.
               10  WK01-COST-ACCT-4028-CH524       PIC X(6)
                                               VALUE SPACES.
               10  WK01-CODE-CH525-Z              PIC X(1)
                                               VALUE SPACE.
               10  WK01-CODE-CH525-F              PIC X(1)
                                               VALUE SPACE.
               10  WK01-CODE-CH525-A              PIC X(1)
                                               VALUE SPACE.
               10  WK01-CODE-CH525-V              PIC X(1)
                                               VALUE SPACE.
               10  WK01-CODE-CH525-O              PIC X(1)
                                               VALUE SPACE.
               10  WK01-CODE-CH525       PIC X(1)
                                               VALUE SPACES.
               10  WK01-PCT-4028-CH525-Z              PIC X(1)
                                               VALUE SPACE.
               10  WK01-PCT-4028-CH525-F              PIC X(1)
                                               VALUE SPACE.
               10  WK01-PCT-4028-CH525-A              PIC X(1)
                                               VALUE SPACE.
               10  WK01-PCT-4028-CH525-V              PIC X(1)
                                               VALUE SPACE.
               10  WK01-PCT-4028-CH525-O              PIC X(1)
                                               VALUE SPACE.
               10  WK01-PCT-4028-CH525       PIC X(7)
                                               VALUE SPACES.
               10  WK01-INDX-CODE-4028-CH525-Z              PIC X(1)
                                               VALUE SPACE.
               10  WK01-INDX-CODE-4028-CH525-F              PIC X(1)
                                               VALUE SPACE.
               10  WK01-INDX-CODE-4028-CH525-A              PIC X(1)
                                               VALUE SPACE.
               10  WK01-INDX-CODE-4028-CH525-V              PIC X(1)
                                               VALUE SPACE.
               10  WK01-INDX-CODE-4028-CH525-O              PIC X(1)
                                               VALUE SPACE.
               10  WK01-INDX-CODE-4028-CH525       PIC X(10)
                                               VALUE SPACES.
               10  WK01-CODE-4028-CH525-Z              PIC X(1)
                                               VALUE SPACE.
               10  WK01-CODE-4028-CH525-F              PIC X(1)
                                               VALUE SPACE.
               10  WK01-CODE-4028-CH525-A              PIC X(1)
                                               VALUE SPACE.
               10  WK01-CODE-4028-CH525-V              PIC X(1)
                                               VALUE SPACE.
               10  WK01-CODE-4028-CH525-O              PIC X(1)
                                               VALUE SPACE.
               10  WK01-CODE-4028-CH525       PIC X(6)
                                               VALUE SPACES.
               10  WK01-CODE-4028-CH5A5-Z              PIC X(1)
                                               VALUE SPACE.
               10  WK01-CODE-4028-CH5A5-F              PIC X(1)
                                               VALUE SPACE.
               10  WK01-CODE-4028-CH5A5-A              PIC X(1)
                                               VALUE SPACE.
               10  WK01-CODE-4028-CH5A5-V              PIC X(1)
                                               VALUE SPACE.
               10  WK01-CODE-4028-CH5A5-O              PIC X(1)
                                               VALUE SPACE.
               10  WK01-CODE-4028-CH5A5       PIC X(6)
                                               VALUE SPACES.
               10  WK01-CODE-4028-CH5B5-Z              PIC X(1)
                                               VALUE SPACE.
               10  WK01-CODE-4028-CH5B5-F              PIC X(1)
                                               VALUE SPACE.
               10  WK01-CODE-4028-CH5B5-A              PIC X(1)
                                               VALUE SPACE.
               10  WK01-CODE-4028-CH5B5-V              PIC X(1)
                                               VALUE SPACE.
               10  WK01-CODE-4028-CH5B5-O              PIC X(1)
                                               VALUE SPACE.
               10  WK01-CODE-4028-CH5B5       PIC X(6)
                                               VALUE SPACES.
               10  WK01-CODE-4028-CH5C5-Z              PIC X(1)
                                               VALUE SPACE.
               10  WK01-CODE-4028-CH5C5-F              PIC X(1)
                                               VALUE SPACE.
               10  WK01-CODE-4028-CH5C5-A              PIC X(1)
                                               VALUE SPACE.
               10  WK01-CODE-4028-CH5C5-V              PIC X(1)
                                               VALUE SPACE.
               10  WK01-CODE-4028-CH5C5-O              PIC X(1)
                                               VALUE SPACE.
               10  WK01-CODE-4028-CH5C5       PIC X(6)
                                               VALUE SPACES.
               10  WK01-CODE-4028-CH5D5-Z              PIC X(1)
                                               VALUE SPACE.
               10  WK01-CODE-4028-CH5D5-F              PIC X(1)
                                               VALUE SPACE.
               10  WK01-CODE-4028-CH5D5-A              PIC X(1)
                                               VALUE SPACE.
               10  WK01-CODE-4028-CH5D5-V              PIC X(1)
                                               VALUE SPACE.
               10  WK01-CODE-4028-CH5D5-O              PIC X(1)
                                               VALUE SPACE.
               10  WK01-CODE-4028-CH5D5       PIC X(6)
                                               VALUE SPACES.
               10  WK01-CODE-4028-CH5E5-Z              PIC X(1)
                                               VALUE SPACE.
               10  WK01-CODE-4028-CH5E5-F              PIC X(1)
                                               VALUE SPACE.
               10  WK01-CODE-4028-CH5E5-A              PIC X(1)
                                               VALUE SPACE.
               10  WK01-CODE-4028-CH5E5-V              PIC X(1)
                                               VALUE SPACE.
               10  WK01-CODE-4028-CH5E5-O              PIC X(1)
                                               VALUE SPACE.
               10  WK01-CODE-4028-CH5E5       PIC X(6)
                                               VALUE SPACES.
               10  WK01-COST-ACCT-4028-CH525-Z              PIC X(1)
                                               VALUE SPACE.
               10  WK01-COST-ACCT-4028-CH525-F              PIC X(1)
                                               VALUE SPACE.
               10  WK01-COST-ACCT-4028-CH525-A              PIC X(1)
                                               VALUE SPACE.
               10  WK01-COST-ACCT-4028-CH525-V              PIC X(1)
                                               VALUE SPACE.
               10  WK01-COST-ACCT-4028-CH525-O              PIC X(1)
                                               VALUE SPACE.
               10  WK01-COST-ACCT-4028-CH525       PIC X(6)
                                               VALUE SPACES.
               10  WK01-CODE-CH526-Z              PIC X(1)
                                               VALUE SPACE.
               10  WK01-CODE-CH526-F              PIC X(1)
                                               VALUE SPACE.
               10  WK01-CODE-CH526-A              PIC X(1)
                                               VALUE SPACE.
               10  WK01-CODE-CH526-V              PIC X(1)
                                               VALUE SPACE.
               10  WK01-CODE-CH526-O              PIC X(1)
                                               VALUE SPACE.
               10  WK01-CODE-CH526       PIC X(1)
                                               VALUE SPACES.
               10  WK01-PCT-4028-CH526-Z              PIC X(1)
                                               VALUE SPACE.
               10  WK01-PCT-4028-CH526-F              PIC X(1)
                                               VALUE SPACE.
               10  WK01-PCT-4028-CH526-A              PIC X(1)
                                               VALUE SPACE.
               10  WK01-PCT-4028-CH526-V              PIC X(1)
                                               VALUE SPACE.
               10  WK01-PCT-4028-CH526-O              PIC X(1)
                                               VALUE SPACE.
               10  WK01-PCT-4028-CH526       PIC X(7)
                                               VALUE SPACES.
               10  WK01-INDX-CODE-4028-CH526-Z              PIC X(1)
                                               VALUE SPACE.
               10  WK01-INDX-CODE-4028-CH526-F              PIC X(1)
                                               VALUE SPACE.
               10  WK01-INDX-CODE-4028-CH526-A              PIC X(1)
                                               VALUE SPACE.
               10  WK01-INDX-CODE-4028-CH526-V              PIC X(1)
                                               VALUE SPACE.
               10  WK01-INDX-CODE-4028-CH526-O              PIC X(1)
                                               VALUE SPACE.
               10  WK01-INDX-CODE-4028-CH526       PIC X(10)
                                               VALUE SPACES.
               10  WK01-CODE-4028-CH526-Z              PIC X(1)
                                               VALUE SPACE.
               10  WK01-CODE-4028-CH526-F              PIC X(1)
                                               VALUE SPACE.
               10  WK01-CODE-4028-CH526-A              PIC X(1)
                                               VALUE SPACE.
               10  WK01-CODE-4028-CH526-V              PIC X(1)
                                               VALUE SPACE.
               10  WK01-CODE-4028-CH526-O              PIC X(1)
                                               VALUE SPACE.
               10  WK01-CODE-4028-CH526       PIC X(6)
                                               VALUE SPACES.
               10  WK01-CODE-4028-CH5A6-Z              PIC X(1)
                                               VALUE SPACE.
               10  WK01-CODE-4028-CH5A6-F              PIC X(1)
                                               VALUE SPACE.
               10  WK01-CODE-4028-CH5A6-A              PIC X(1)
                                               VALUE SPACE.
               10  WK01-CODE-4028-CH5A6-V              PIC X(1)
                                               VALUE SPACE.
               10  WK01-CODE-4028-CH5A6-O              PIC X(1)
                                               VALUE SPACE.
               10  WK01-CODE-4028-CH5A6       PIC X(6)
                                               VALUE SPACES.
               10  WK01-CODE-4028-CH5B6-Z              PIC X(1)
                                               VALUE SPACE.
               10  WK01-CODE-4028-CH5B6-F              PIC X(1)
                                               VALUE SPACE.
               10  WK01-CODE-4028-CH5B6-A              PIC X(1)
                                               VALUE SPACE.
               10  WK01-CODE-4028-CH5B6-V              PIC X(1)
                                               VALUE SPACE.
               10  WK01-CODE-4028-CH5B6-O              PIC X(1)
                                               VALUE SPACE.
               10  WK01-CODE-4028-CH5B6       PIC X(6)
                                               VALUE SPACES.
               10  WK01-CODE-4028-CH5C6-Z              PIC X(1)
                                               VALUE SPACE.
               10  WK01-CODE-4028-CH5C6-F              PIC X(1)
                                               VALUE SPACE.
               10  WK01-CODE-4028-CH5C6-A              PIC X(1)
                                               VALUE SPACE.
               10  WK01-CODE-4028-CH5C6-V              PIC X(1)
                                               VALUE SPACE.
               10  WK01-CODE-4028-CH5C6-O              PIC X(1)
                                               VALUE SPACE.
               10  WK01-CODE-4028-CH5C6       PIC X(6)
                                               VALUE SPACES.
               10  WK01-CODE-4028-CH5D6-Z              PIC X(1)
                                               VALUE SPACE.
               10  WK01-CODE-4028-CH5D6-F              PIC X(1)
                                               VALUE SPACE.
               10  WK01-CODE-4028-CH5D6-A              PIC X(1)
                                               VALUE SPACE.
               10  WK01-CODE-4028-CH5D6-V              PIC X(1)
                                               VALUE SPACE.
               10  WK01-CODE-4028-CH5D6-O              PIC X(1)
                                               VALUE SPACE.
               10  WK01-CODE-4028-CH5D6       PIC X(6)
                                               VALUE SPACES.
               10  WK01-CODE-4028-CH5E6-Z              PIC X(1)
                                               VALUE SPACE.
               10  WK01-CODE-4028-CH5E6-F              PIC X(1)
                                               VALUE SPACE.
               10  WK01-CODE-4028-CH5E6-A              PIC X(1)
                                               VALUE SPACE.
               10  WK01-CODE-4028-CH5E6-V              PIC X(1)
                                               VALUE SPACE.
               10  WK01-CODE-4028-CH5E6-O              PIC X(1)
                                               VALUE SPACE.
               10  WK01-CODE-4028-CH5E6       PIC X(6)
                                               VALUE SPACES.
               10  WK01-COST-ACCT-4028-CH526-Z              PIC X(1)
                                               VALUE SPACE.
               10  WK01-COST-ACCT-4028-CH526-F              PIC X(1)
                                               VALUE SPACE.
               10  WK01-COST-ACCT-4028-CH526-A              PIC X(1)
                                               VALUE SPACE.
               10  WK01-COST-ACCT-4028-CH526-V              PIC X(1)
                                               VALUE SPACE.
               10  WK01-COST-ACCT-4028-CH526-O              PIC X(1)
                                               VALUE SPACE.
               10  WK01-COST-ACCT-4028-CH526       PIC X(6)
                                               VALUE SPACES.
               10  WK01-CODE-CH527-Z              PIC X(1)
                                               VALUE SPACE.
               10  WK01-CODE-CH527-F              PIC X(1)
                                               VALUE SPACE.
               10  WK01-CODE-CH527-A              PIC X(1)
                                               VALUE SPACE.
               10  WK01-CODE-CH527-V              PIC X(1)
                                               VALUE SPACE.
               10  WK01-CODE-CH527-O              PIC X(1)
                                               VALUE SPACE.
               10  WK01-CODE-CH527       PIC X(1)
                                               VALUE SPACES.
               10  WK01-PCT-4028-CH527-Z              PIC X(1)
                                               VALUE SPACE.
               10  WK01-PCT-4028-CH527-F              PIC X(1)
                                               VALUE SPACE.
               10  WK01-PCT-4028-CH527-A              PIC X(1)
                                               VALUE SPACE.
               10  WK01-PCT-4028-CH527-V              PIC X(1)
                                               VALUE SPACE.
               10  WK01-PCT-4028-CH527-O              PIC X(1)
                                               VALUE SPACE.
               10  WK01-PCT-4028-CH527       PIC X(7)
                                               VALUE SPACES.
               10  WK01-INDX-CODE-4028-CH527-Z              PIC X(1)
                                               VALUE SPACE.
               10  WK01-INDX-CODE-4028-CH527-F              PIC X(1)
                                               VALUE SPACE.
               10  WK01-INDX-CODE-4028-CH527-A              PIC X(1)
                                               VALUE SPACE.
               10  WK01-INDX-CODE-4028-CH527-V              PIC X(1)
                                               VALUE SPACE.
               10  WK01-INDX-CODE-4028-CH527-O              PIC X(1)
                                               VALUE SPACE.
               10  WK01-INDX-CODE-4028-CH527       PIC X(10)
                                               VALUE SPACES.
               10  WK01-CODE-4028-CH527-Z              PIC X(1)
                                               VALUE SPACE.
               10  WK01-CODE-4028-CH527-F              PIC X(1)
                                               VALUE SPACE.
               10  WK01-CODE-4028-CH527-A              PIC X(1)
                                               VALUE SPACE.
               10  WK01-CODE-4028-CH527-V              PIC X(1)
                                               VALUE SPACE.
               10  WK01-CODE-4028-CH527-O              PIC X(1)
                                               VALUE SPACE.
               10  WK01-CODE-4028-CH527       PIC X(6)
                                               VALUE SPACES.
               10  WK01-CODE-4028-CH5A7-Z              PIC X(1)
                                               VALUE SPACE.
               10  WK01-CODE-4028-CH5A7-F              PIC X(1)
                                               VALUE SPACE.
               10  WK01-CODE-4028-CH5A7-A              PIC X(1)
                                               VALUE SPACE.
               10  WK01-CODE-4028-CH5A7-V              PIC X(1)
                                               VALUE SPACE.
               10  WK01-CODE-4028-CH5A7-O              PIC X(1)
                                               VALUE SPACE.
               10  WK01-CODE-4028-CH5A7       PIC X(6)
                                               VALUE SPACES.
               10  WK01-CODE-4028-CH5B7-Z              PIC X(1)
                                               VALUE SPACE.
               10  WK01-CODE-4028-CH5B7-F              PIC X(1)
                                               VALUE SPACE.
               10  WK01-CODE-4028-CH5B7-A              PIC X(1)
                                               VALUE SPACE.
               10  WK01-CODE-4028-CH5B7-V              PIC X(1)
                                               VALUE SPACE.
               10  WK01-CODE-4028-CH5B7-O              PIC X(1)
                                               VALUE SPACE.
               10  WK01-CODE-4028-CH5B7       PIC X(6)
                                               VALUE SPACES.
               10  WK01-CODE-4028-CH5C7-Z              PIC X(1)
                                               VALUE SPACE.
               10  WK01-CODE-4028-CH5C7-F              PIC X(1)
                                               VALUE SPACE.
               10  WK01-CODE-4028-CH5C7-A              PIC X(1)
                                               VALUE SPACE.
               10  WK01-CODE-4028-CH5C7-V              PIC X(1)
                                               VALUE SPACE.
               10  WK01-CODE-4028-CH5C7-O              PIC X(1)
                                               VALUE SPACE.
               10  WK01-CODE-4028-CH5C7       PIC X(6)
                                               VALUE SPACES.
               10  WK01-CODE-4028-CH5D7-Z              PIC X(1)
                                               VALUE SPACE.
               10  WK01-CODE-4028-CH5D7-F              PIC X(1)
                                               VALUE SPACE.
               10  WK01-CODE-4028-CH5D7-A              PIC X(1)
                                               VALUE SPACE.
               10  WK01-CODE-4028-CH5D7-V              PIC X(1)
                                               VALUE SPACE.
               10  WK01-CODE-4028-CH5D7-O              PIC X(1)
                                               VALUE SPACE.
               10  WK01-CODE-4028-CH5D7       PIC X(6)
                                               VALUE SPACES.
               10  WK01-CODE-4028-CH5E7-Z              PIC X(1)
                                               VALUE SPACE.
               10  WK01-CODE-4028-CH5E7-F              PIC X(1)
                                               VALUE SPACE.
               10  WK01-CODE-4028-CH5E7-A              PIC X(1)
                                               VALUE SPACE.
               10  WK01-CODE-4028-CH5E7-V              PIC X(1)
                                               VALUE SPACE.
               10  WK01-CODE-4028-CH5E7-O              PIC X(1)
                                               VALUE SPACE.
               10  WK01-CODE-4028-CH5E7       PIC X(6)
                                               VALUE SPACES.
               10  WK01-COST-ACCT-4028-CH527-Z              PIC X(1)
                                               VALUE SPACE.
               10  WK01-COST-ACCT-4028-CH527-F              PIC X(1)
                                               VALUE SPACE.
               10  WK01-COST-ACCT-4028-CH527-A              PIC X(1)
                                               VALUE SPACE.
               10  WK01-COST-ACCT-4028-CH527-V              PIC X(1)
                                               VALUE SPACE.
               10  WK01-COST-ACCT-4028-CH527-O              PIC X(1)
                                               VALUE SPACE.
               10  WK01-COST-ACCT-4028-CH527       PIC X(6)
                                               VALUE SPACES.
               10  WK01-CODE-CH528-Z              PIC X(1)
                                               VALUE SPACE.
               10  WK01-CODE-CH528-F              PIC X(1)
                                               VALUE SPACE.
               10  WK01-CODE-CH528-A              PIC X(1)
                                               VALUE SPACE.
               10  WK01-CODE-CH528-V              PIC X(1)
                                               VALUE SPACE.
               10  WK01-CODE-CH528-O              PIC X(1)
                                               VALUE SPACE.
               10  WK01-CODE-CH528       PIC X(1)
                                               VALUE SPACES.
               10  WK01-PCT-4028-CH528-Z              PIC X(1)
                                               VALUE SPACE.
               10  WK01-PCT-4028-CH528-F              PIC X(1)
                                               VALUE SPACE.
               10  WK01-PCT-4028-CH528-A              PIC X(1)
                                               VALUE SPACE.
               10  WK01-PCT-4028-CH528-V              PIC X(1)
                                               VALUE SPACE.
               10  WK01-PCT-4028-CH528-O              PIC X(1)
                                               VALUE SPACE.
               10  WK01-PCT-4028-CH528       PIC X(7)
                                               VALUE SPACES.
               10  WK01-INDX-CODE-4028-CH528-Z              PIC X(1)
                                               VALUE SPACE.
               10  WK01-INDX-CODE-4028-CH528-F              PIC X(1)
                                               VALUE SPACE.
               10  WK01-INDX-CODE-4028-CH528-A              PIC X(1)
                                               VALUE SPACE.
               10  WK01-INDX-CODE-4028-CH528-V              PIC X(1)
                                               VALUE SPACE.
               10  WK01-INDX-CODE-4028-CH528-O              PIC X(1)
                                               VALUE SPACE.
               10  WK01-INDX-CODE-4028-CH528       PIC X(10)
                                               VALUE SPACES.
               10  WK01-CODE-4028-CH528-Z              PIC X(1)
                                               VALUE SPACE.
               10  WK01-CODE-4028-CH528-F              PIC X(1)
                                               VALUE SPACE.
               10  WK01-CODE-4028-CH528-A              PIC X(1)
                                               VALUE SPACE.
               10  WK01-CODE-4028-CH528-V              PIC X(1)
                                               VALUE SPACE.
               10  WK01-CODE-4028-CH528-O              PIC X(1)
                                               VALUE SPACE.
               10  WK01-CODE-4028-CH528       PIC X(6)
                                               VALUE SPACES.
               10  WK01-CODE-4028-CH5A8-Z              PIC X(1)
                                               VALUE SPACE.
               10  WK01-CODE-4028-CH5A8-F              PIC X(1)
                                               VALUE SPACE.
               10  WK01-CODE-4028-CH5A8-A              PIC X(1)
                                               VALUE SPACE.
               10  WK01-CODE-4028-CH5A8-V              PIC X(1)
                                               VALUE SPACE.
               10  WK01-CODE-4028-CH5A8-O              PIC X(1)
                                               VALUE SPACE.
               10  WK01-CODE-4028-CH5A8       PIC X(6)
                                               VALUE SPACES.
               10  WK01-CODE-4028-CH5B8-Z              PIC X(1)
                                               VALUE SPACE.
               10  WK01-CODE-4028-CH5B8-F              PIC X(1)
                                               VALUE SPACE.
               10  WK01-CODE-4028-CH5B8-A              PIC X(1)
                                               VALUE SPACE.
               10  WK01-CODE-4028-CH5B8-V              PIC X(1)
                                               VALUE SPACE.
               10  WK01-CODE-4028-CH5B8-O              PIC X(1)
                                               VALUE SPACE.
               10  WK01-CODE-4028-CH5B8       PIC X(6)
                                               VALUE SPACES.
               10  WK01-CODE-4028-CH5C8-Z              PIC X(1)
                                               VALUE SPACE.
               10  WK01-CODE-4028-CH5C8-F              PIC X(1)
                                               VALUE SPACE.
               10  WK01-CODE-4028-CH5C8-A              PIC X(1)
                                               VALUE SPACE.
               10  WK01-CODE-4028-CH5C8-V              PIC X(1)
                                               VALUE SPACE.
               10  WK01-CODE-4028-CH5C8-O              PIC X(1)
                                               VALUE SPACE.
               10  WK01-CODE-4028-CH5C8       PIC X(6)
                                               VALUE SPACES.
               10  WK01-CODE-4028-CH5D8-Z              PIC X(1)
                                               VALUE SPACE.
               10  WK01-CODE-4028-CH5D8-F              PIC X(1)
                                               VALUE SPACE.
               10  WK01-CODE-4028-CH5D8-A              PIC X(1)
                                               VALUE SPACE.
               10  WK01-CODE-4028-CH5D8-V              PIC X(1)
                                               VALUE SPACE.
               10  WK01-CODE-4028-CH5D8-O              PIC X(1)
                                               VALUE SPACE.
               10  WK01-CODE-4028-CH5D8       PIC X(6)
                                               VALUE SPACES.
               10  WK01-CODE-4028-CH5E8-Z              PIC X(1)
                                               VALUE SPACE.
               10  WK01-CODE-4028-CH5E8-F              PIC X(1)
                                               VALUE SPACE.
               10  WK01-CODE-4028-CH5E8-A              PIC X(1)
                                               VALUE SPACE.
               10  WK01-CODE-4028-CH5E8-V              PIC X(1)
                                               VALUE SPACE.
               10  WK01-CODE-4028-CH5E8-O              PIC X(1)
                                               VALUE SPACE.
               10  WK01-CODE-4028-CH5E8       PIC X(6)
                                               VALUE SPACES.
               10  WK01-COST-ACCT-4028-CH528-Z              PIC X(1)
                                               VALUE SPACE.
               10  WK01-COST-ACCT-4028-CH528-F              PIC X(1)
                                               VALUE SPACE.
               10  WK01-COST-ACCT-4028-CH528-A              PIC X(1)
                                               VALUE SPACE.
               10  WK01-COST-ACCT-4028-CH528-V              PIC X(1)
                                               VALUE SPACE.
               10  WK01-COST-ACCT-4028-CH528-O              PIC X(1)
                                               VALUE SPACE.
               10  WK01-COST-ACCT-4028-CH528       PIC X(6)
                                               VALUE SPACES.
               10  WK01-CODE-CH529-Z              PIC X(1)
                                               VALUE SPACE.
               10  WK01-CODE-CH529-F              PIC X(1)
                                               VALUE SPACE.
               10  WK01-CODE-CH529-A              PIC X(1)
                                               VALUE SPACE.
               10  WK01-CODE-CH529-V              PIC X(1)
                                               VALUE SPACE.
               10  WK01-CODE-CH529-O              PIC X(1)
                                               VALUE SPACE.
               10  WK01-CODE-CH529       PIC X(1)
                                               VALUE SPACES.
               10  WK01-PCT-4028-CH529-Z              PIC X(1)
                                               VALUE SPACE.
               10  WK01-PCT-4028-CH529-F              PIC X(1)
                                               VALUE SPACE.
               10  WK01-PCT-4028-CH529-A              PIC X(1)
                                               VALUE SPACE.
               10  WK01-PCT-4028-CH529-V              PIC X(1)
                                               VALUE SPACE.
               10  WK01-PCT-4028-CH529-O              PIC X(1)
                                               VALUE SPACE.
               10  WK01-PCT-4028-CH529       PIC X(7)
                                               VALUE SPACES.
               10  WK01-INDX-CODE-4028-CH529-Z              PIC X(1)
                                               VALUE SPACE.
               10  WK01-INDX-CODE-4028-CH529-F              PIC X(1)
                                               VALUE SPACE.
               10  WK01-INDX-CODE-4028-CH529-A              PIC X(1)
                                               VALUE SPACE.
               10  WK01-INDX-CODE-4028-CH529-V              PIC X(1)
                                               VALUE SPACE.
               10  WK01-INDX-CODE-4028-CH529-O              PIC X(1)
                                               VALUE SPACE.
               10  WK01-INDX-CODE-4028-CH529       PIC X(10)
                                               VALUE SPACES.
               10  WK01-CODE-4028-CH529-Z              PIC X(1)
                                               VALUE SPACE.
               10  WK01-CODE-4028-CH529-F              PIC X(1)
                                               VALUE SPACE.
               10  WK01-CODE-4028-CH529-A              PIC X(1)
                                               VALUE SPACE.
               10  WK01-CODE-4028-CH529-V              PIC X(1)
                                               VALUE SPACE.
               10  WK01-CODE-4028-CH529-O              PIC X(1)
                                               VALUE SPACE.
               10  WK01-CODE-4028-CH529       PIC X(6)
                                               VALUE SPACES.
               10  WK01-CODE-4028-CH5A9-Z              PIC X(1)
                                               VALUE SPACE.
               10  WK01-CODE-4028-CH5A9-F              PIC X(1)
                                               VALUE SPACE.
               10  WK01-CODE-4028-CH5A9-A              PIC X(1)
                                               VALUE SPACE.
               10  WK01-CODE-4028-CH5A9-V              PIC X(1)
                                               VALUE SPACE.
               10  WK01-CODE-4028-CH5A9-O              PIC X(1)
                                               VALUE SPACE.
               10  WK01-CODE-4028-CH5A9       PIC X(6)
                                               VALUE SPACES.
               10  WK01-CODE-4028-CH5B9-Z              PIC X(1)
                                               VALUE SPACE.
               10  WK01-CODE-4028-CH5B9-F              PIC X(1)
                                               VALUE SPACE.
               10  WK01-CODE-4028-CH5B9-A              PIC X(1)
                                               VALUE SPACE.
               10  WK01-CODE-4028-CH5B9-V              PIC X(1)
                                               VALUE SPACE.
               10  WK01-CODE-4028-CH5B9-O              PIC X(1)
                                               VALUE SPACE.
               10  WK01-CODE-4028-CH5B9       PIC X(6)
                                               VALUE SPACES.
               10  WK01-CODE-4028-CH5C9-Z              PIC X(1)
                                               VALUE SPACE.
               10  WK01-CODE-4028-CH5C9-F              PIC X(1)
                                               VALUE SPACE.
               10  WK01-CODE-4028-CH5C9-A              PIC X(1)
                                               VALUE SPACE.
               10  WK01-CODE-4028-CH5C9-V              PIC X(1)
                                               VALUE SPACE.
               10  WK01-CODE-4028-CH5C9-O              PIC X(1)
                                               VALUE SPACE.
               10  WK01-CODE-4028-CH5C9       PIC X(6)
                                               VALUE SPACES.
               10  WK01-CODE-4028-CH5D9-Z              PIC X(1)
                                               VALUE SPACE.
               10  WK01-CODE-4028-CH5D9-F              PIC X(1)
                                               VALUE SPACE.
               10  WK01-CODE-4028-CH5D9-A              PIC X(1)
                                               VALUE SPACE.
               10  WK01-CODE-4028-CH5D9-V              PIC X(1)
                                               VALUE SPACE.
               10  WK01-CODE-4028-CH5D9-O              PIC X(1)
                                               VALUE SPACE.
               10  WK01-CODE-4028-CH5D9       PIC X(6)
                                               VALUE SPACES.
               10  WK01-CODE-4028-CH5E9-Z              PIC X(1)
                                               VALUE SPACE.
               10  WK01-CODE-4028-CH5E9-F              PIC X(1)
                                               VALUE SPACE.
               10  WK01-CODE-4028-CH5E9-A              PIC X(1)
                                               VALUE SPACE.
               10  WK01-CODE-4028-CH5E9-V              PIC X(1)
                                               VALUE SPACE.
               10  WK01-CODE-4028-CH5E9-O              PIC X(1)
                                               VALUE SPACE.
               10  WK01-CODE-4028-CH5E9       PIC X(6)
                                               VALUE SPACES.
               10  WK01-COST-ACCT-4028-CH529-Z              PIC X(1)
                                               VALUE SPACE.
               10  WK01-COST-ACCT-4028-CH529-F              PIC X(1)
                                               VALUE SPACE.
               10  WK01-COST-ACCT-4028-CH529-A              PIC X(1)
                                               VALUE SPACE.
               10  WK01-COST-ACCT-4028-CH529-V              PIC X(1)
                                               VALUE SPACE.
               10  WK01-COST-ACCT-4028-CH529-O              PIC X(1)
                                               VALUE SPACE.
               10  WK01-COST-ACCT-4028-CH529       PIC X(6)
                                               VALUE SPACES.
               10  WK01-TOTAL-PCT-4028-CH52-Z              PIC X(1)
                                               VALUE SPACE.
               10  WK01-TOTAL-PCT-4028-CH52-F              PIC X(1)
                                               VALUE SPACE.
               10  WK01-TOTAL-PCT-4028-CH52-A              PIC X(1)
                                               VALUE SPACE.
               10  WK01-TOTAL-PCT-4028-CH52-V              PIC X(1)
                                               VALUE SPACE.
               10  WK01-TOTAL-PCT-4028-CH52-O              PIC X(1)
                                               VALUE SPACE.
               10  WK01-TOTAL-PCT-4028-CH52       PIC X(7)
                                               VALUE SPACES.
               10  WK01-IND-4065-CH52-Z              PIC X(1)
                                               VALUE SPACE.
               10  WK01-IND-4065-CH52-F              PIC X(1)
                                               VALUE SPACE.
               10  WK01-IND-4065-CH52-A              PIC X(1)
                                               VALUE SPACE.
               10  WK01-IND-4065-CH52-V              PIC X(1)
                                               VALUE SPACE.
               10  WK01-IND-4065-CH52-O              PIC X(1)
                                               VALUE SPACE.
               10  WK01-IND-4065-CH52       PIC X(1)
                                               VALUE SPACES.
               10  WK01-ZZMESSAGE-Z              PIC X(1)
                                               VALUE SPACE.
               10  WK01-ZZMESSAGE-F              PIC X(1)
                                               VALUE SPACE.
               10  WK01-ZZMESSAGE-A              PIC X(1)
                                               VALUE SPACE.
               10  WK01-ZZMESSAGE-V              PIC X(1)
                                               VALUE SPACE.
               10  WK01-ZZMESSAGE-O              PIC X(1)
                                               VALUE SPACE.
               10  WK01-ZZMESSAGE       PIC X(160)
                                               VALUE SPACES.
               10  WK01-PASSED-ONE-Z              PIC X(1)
                                               VALUE SPACE.
               10  WK01-PASSED-ONE-F              PIC X(1)
                                               VALUE SPACE.
               10  WK01-PASSED-ONE-A              PIC X(1)
                                               VALUE SPACE.
               10  WK01-PASSED-ONE-V              PIC X(1)
                                               VALUE SPACE.
               10  WK01-PASSED-ONE-O              PIC X(1)
                                               VALUE SPACE.
               10  WK01-PASSED-ONE       PIC X(32)
                                               VALUE SPACES.
               10  WK01-MAP-RESPONSE-Z              PIC X(1)
                                               VALUE SPACE.
               10  WK01-MAP-RESPONSE-F              PIC X(1)
                                               VALUE SPACE.
               10  WK01-MAP-RESPONSE-A              PIC X(1)
                                               VALUE SPACE.
               10  WK01-MAP-RESPONSE-V              PIC X(1)
                                               VALUE SPACE.
               10  WK01-MAP-RESPONSE-O              PIC X(1)
                                               VALUE SPACE.
               10  WK01-MAP-RESPONSE       PIC X(8)
                                               VALUE SPACES.
               10  WK01-TEXT-SY00-Z              PIC X(1)
                                               VALUE SPACE.
               10  WK01-TEXT-SY00-F              PIC X(1)
                                               VALUE SPACE.
               10  WK01-TEXT-SY00-A              PIC X(1)
                                               VALUE SPACE.
               10  WK01-TEXT-SY00-V              PIC X(1)
                                               VALUE SPACE.
               10  WK01-TEXT-SY00-O              PIC X(1)
                                               VALUE SPACE.
               10  WK01-TEXT-SY00       PIC X(14)
                                               VALUE SPACES.
           04  WK01-SUBSCRIPTED-WORK-AREA.
               05  FILLER                      PIC X(1).
               05  WK01-CODE-CH52-F             PIC X(1)
                                               OCCURS 9.
               05  WK01-PCT-4028-CH52-F             PIC X(1)
                                               OCCURS 9.
               05  WK01-INDX-CODE-4028-CH52-F             PIC X(1)
                                               OCCURS 9.
               05  WK01-CODE-4028-CH52-F             PIC X(1)
                                               OCCURS 9.
               05  WK01-CODE-4028-CH5A-F             PIC X(1)
                                               OCCURS 9.
               05  WK01-CODE-4028-CH5B-F             PIC X(1)
                                               OCCURS 9.
               05  WK01-CODE-4028-CH5C-F             PIC X(1)
                                               OCCURS 9.
               05  WK01-CODE-4028-CH5D-F             PIC X(1)
                                               OCCURS 9.
               05  WK01-CODE-4028-CH5E-F             PIC X(1)
                                               OCCURS 9.
               05  WK01-COST-ACCT-4028-CH52-F             PIC X(1)
                                               OCCURS 9.
