    ***Created by Convert/DC version V8R03 on 12/11/00 at 11:00***

      *%--------------------------------------------------------------%*
           IF WK01-ZZMESSAGE-Z = 'Y'
               MOVE WK01-ZZMESSAGE TO DCLINK-MESSAGE
           END-IF.
      *%--------------------------------------------------------------%*
           IF WK01-DATE-Z = 'Y'
               MOVE WK01-DATE TO AGR-DATE OF
                ADSO-APPLICATION-GLOBAL-RECORD
           END-IF.
      *%--------------------------------------------------------------%*
           IF WK01-USER-ID-Z = 'Y'
               MOVE WK01-USER-ID TO AGR-USER-ID OF
                ADSO-APPLICATION-GLOBAL-RECORD
           END-IF.
      *%--------------------------------------------------------------%*
           IF WK01-FUNC-DESCRIPTION-Z = 'Y'
               MOVE WK01-FUNC-DESCRIPTION TO AGR-FUNC-DESCRIPTION OF
                ADSO-APPLICATION-GLOBAL-RECORD
           END-IF.
      *%--------------------------------------------------------------%*
           IF WK01-PASSED-ONE-Z = 'Y'
               MOVE WK01-PASSED-ONE TO AGR-PASSED-ONE OF
                ADSO-APPLICATION-GLOBAL-RECORD
           END-IF.
      *%--------------------------------------------------------------%*
           IF WK01-MAP-RESPONSE-Z = 'Y'
               MOVE WK01-MAP-RESPONSE TO AGR-MAP-RESPONSE OF
                ADSO-APPLICATION-GLOBAL-RECORD
           END-IF.
      *%--------------------------------------------------------------%*
           IF WK01-ID-SY00-Z = 'Y'
               MOVE WK01-ID-SY00 TO TRMNL-ID-SY00 OF FSYWG00M
           END-IF.
      *%--------------------------------------------------------------%*
           IF WK01-NAME-6001-SY00-Z = 'Y'
               MOVE WK01-NAME-6001-SY00 TO FULL-NAME-6001-SY00 OF
                FSYWG00M
           END-IF.
      *%--------------------------------------------------------------%*
           IF WK01-PM-FLAG-SY00-Z = 'Y'
               MOVE WK01-PM-FLAG-SY00 TO AM-PM-FLAG-SY00 OF FSYWG00M
           END-IF.
      *%--------------------------------------------------------------%*
           IF WK01-RSPNS-ID-SY00-Z = 'Y'
               MOVE WK01-RSPNS-ID-SY00 TO CURR-RSPNS-ID-SY00 OF FSYWG00M
           END-IF.
      *%--------------------------------------------------------------%*
           IF WK01-TEXT-SY00-Z = 'Y'
               MOVE WK01-TEXT-SY00 TO ERROR-TEXT-SY00 OF FSYWG00M
           END-IF.
      *%--------------------------------------------------------------%*
           IF WK01-STATUS-CODE-SY00-Z = 'Y'
               MOVE WK01-STATUS-CODE-SY00 TO PAGE-STATUS-CODE-SY00 OF
                FSYWG00M
           END-IF.
      *%--------------------------------------------------------------%*
           IF WK01-HH-MM-TIME-SY00-Z = 'Y'
               MOVE WK01-HH-MM-TIME-SY00 TO WORK-HH-MM-TIME-SY00 OF
                FSYWG00M
           END-IF.
      *%--------------------------------------------------------------%*
           IF WK01-DATE-CH92-Z = 'Y'
               MOVE WK01-DATE-CH92 TO SLCTN-DATE-CH92 OF FCHWK92
           END-IF.
      *%--------------------------------------------------------------%*
           IF WK01-STATUS-CH92-Z = 'Y'
               MOVE WK01-STATUS-CH92 TO SLCTN-STATUS-CH92 OF FCHWK92
           END-IF.
      *%--------------------------------------------------------------%*
           IF WK01-COA-CODE-CH92-Z = 'Y'
               MOVE WK01-COA-CODE-CH92 TO RQST-COA-CODE-CH92 OF FCHWK92
           END-IF.
      *%--------------------------------------------------------------%*
           IF WK01-CODE-CH921-Z = 'Y'
               MOVE WK01-CODE-CH921 TO ACTN-CODE-CH92 OF FCHWM92(0001)
           END-IF.
           MOVE WK01-CODE-CH921-F TO WK01-CODE-CH92-F (1).
      *%--------------------------------------------------------------%*
           IF WK01-CODE-CH922-Z = 'Y'
               MOVE WK01-CODE-CH922 TO ACTN-CODE-CH92 OF FCHWM92(0002)
           END-IF.
           MOVE WK01-CODE-CH922-F TO WK01-CODE-CH92-F (2).
      *%--------------------------------------------------------------%*
           IF WK01-CODE-CH923-Z = 'Y'
               MOVE WK01-CODE-CH923 TO ACTN-CODE-CH92 OF FCHWM92(0003)
           END-IF.
           MOVE WK01-CODE-CH923-F TO WK01-CODE-CH92-F (3).
      *%--------------------------------------------------------------%*
           IF WK01-CODE-CH924-Z = 'Y'
               MOVE WK01-CODE-CH924 TO ACTN-CODE-CH92 OF FCHWM92(0004)
           END-IF.
           MOVE WK01-CODE-CH924-F TO WK01-CODE-CH92-F (4).
      *%--------------------------------------------------------------%*
           IF WK01-CODE-CH925-Z = 'Y'
               MOVE WK01-CODE-CH925 TO ACTN-CODE-CH92 OF FCHWM92(0005)
           END-IF.
           MOVE WK01-CODE-CH925-F TO WK01-CODE-CH92-F (5).
      *%--------------------------------------------------------------%*
           IF WK01-CODE-CH926-Z = 'Y'
               MOVE WK01-CODE-CH926 TO ACTN-CODE-CH92 OF FCHWM92(0006)
           END-IF.
           MOVE WK01-CODE-CH926-F TO WK01-CODE-CH92-F (6).
      *%--------------------------------------------------------------%*
           IF WK01-CODE-CH927-Z = 'Y'
               MOVE WK01-CODE-CH927 TO ACTN-CODE-CH92 OF FCHWM92(0007)
           END-IF.
           MOVE WK01-CODE-CH927-F TO WK01-CODE-CH92-F (7).
      *%--------------------------------------------------------------%*
           IF WK01-CODE-CH928-Z = 'Y'
               MOVE WK01-CODE-CH928 TO ACTN-CODE-CH92 OF FCHWM92(0008)
           END-IF.
           MOVE WK01-CODE-CH928-F TO WK01-CODE-CH92-F (8).
      *%--------------------------------------------------------------%*
           IF WK01-CODE-CH929-Z = 'Y'
               MOVE WK01-CODE-CH929 TO ACTN-CODE-CH92 OF FCHWM92(0009)
           END-IF.
           MOVE WK01-CODE-CH929-F TO WK01-CODE-CH92-F (9).
      *%--------------------------------------------------------------%*
           IF WK01-CODE-CH9210-Z = 'Y'
               MOVE WK01-CODE-CH9210 TO ACTN-CODE-CH92 OF FCHWM92(0010)
           END-IF.
           MOVE WK01-CODE-CH9210-F TO WK01-CODE-CH92-F (10).
      *%--------------------------------------------------------------%*
           IF WK01-CODE-CH9211-Z = 'Y'
               MOVE WK01-CODE-CH9211 TO ACTN-CODE-CH92 OF FCHWM92(0011)
           END-IF.
           MOVE WK01-CODE-CH9211-F TO WK01-CODE-CH92-F (11).
      *%--------------------------------------------------------------%*
           IF WK01-CODE-4016-CH921-Z = 'Y'
               MOVE WK01-CODE-4016-CH921 TO ORGZN-CODE-4016-CH92 OF
                FCHWM92(0001)
           END-IF.
           MOVE WK01-CODE-4016-CH921-F TO WK01-CODE-4016-CH92-F (1).
      *%--------------------------------------------------------------%*
           IF WK01-CODE-4016-CH922-Z = 'Y'
               MOVE WK01-CODE-4016-CH922 TO ORGZN-CODE-4016-CH92 OF
                FCHWM92(0002)
           END-IF.
           MOVE WK01-CODE-4016-CH922-F TO WK01-CODE-4016-CH92-F (2).
      *%--------------------------------------------------------------%*
           IF WK01-CODE-4016-CH923-Z = 'Y'
               MOVE WK01-CODE-4016-CH923 TO ORGZN-CODE-4016-CH92 OF
                FCHWM92(0003)
           END-IF.
           MOVE WK01-CODE-4016-CH923-F TO WK01-CODE-4016-CH92-F (3).
      *%--------------------------------------------------------------%*
           IF WK01-CODE-4016-CH924-Z = 'Y'
               MOVE WK01-CODE-4016-CH924 TO ORGZN-CODE-4016-CH92 OF
                FCHWM92(0004)
           END-IF.
           MOVE WK01-CODE-4016-CH924-F TO WK01-CODE-4016-CH92-F (4).
      *%--------------------------------------------------------------%*
           IF WK01-CODE-4016-CH925-Z = 'Y'
               MOVE WK01-CODE-4016-CH925 TO ORGZN-CODE-4016-CH92 OF
                FCHWM92(0005)
           END-IF.
           MOVE WK01-CODE-4016-CH925-F TO WK01-CODE-4016-CH92-F (5).
      *%--------------------------------------------------------------%*
           IF WK01-CODE-4016-CH926-Z = 'Y'
               MOVE WK01-CODE-4016-CH926 TO ORGZN-CODE-4016-CH92 OF
                FCHWM92(0006)
           END-IF.
           MOVE WK01-CODE-4016-CH926-F TO WK01-CODE-4016-CH92-F (6).
      *%--------------------------------------------------------------%*
           IF WK01-CODE-4016-CH927-Z = 'Y'
               MOVE WK01-CODE-4016-CH927 TO ORGZN-CODE-4016-CH92 OF
                FCHWM92(0007)
           END-IF.
           MOVE WK01-CODE-4016-CH927-F TO WK01-CODE-4016-CH92-F (7).
      *%--------------------------------------------------------------%*
           IF WK01-CODE-4016-CH928-Z = 'Y'
               MOVE WK01-CODE-4016-CH928 TO ORGZN-CODE-4016-CH92 OF
                FCHWM92(0008)
           END-IF.
           MOVE WK01-CODE-4016-CH928-F TO WK01-CODE-4016-CH92-F (8).
      *%--------------------------------------------------------------%*
           IF WK01-CODE-4016-CH929-Z = 'Y'
               MOVE WK01-CODE-4016-CH929 TO ORGZN-CODE-4016-CH92 OF
                FCHWM92(0009)
           END-IF.
           MOVE WK01-CODE-4016-CH929-F TO WK01-CODE-4016-CH92-F (9).
      *%--------------------------------------------------------------%*
           IF WK01-CODE-4016-CH9210-Z = 'Y'
               MOVE WK01-CODE-4016-CH9210 TO ORGZN-CODE-4016-CH92 OF
                FCHWM92(0010)
           END-IF.
           MOVE WK01-CODE-4016-CH9210-F TO WK01-CODE-4016-CH92-F (10).
      *%--------------------------------------------------------------%*
           IF WK01-CODE-4016-CH9211-Z = 'Y'
               MOVE WK01-CODE-4016-CH9211 TO ORGZN-CODE-4016-CH92 OF
                FCHWM92(0011)
           END-IF.
           MOVE WK01-CODE-4016-CH9211-F TO WK01-CODE-4016-CH92-F (11).
      *%--------------------------------------------------------------%*
           IF WK01-CODE-4016-CH9A1-Z = 'Y'
               MOVE WK01-CODE-4016-CH9A1 TO FUND-CODE-4016-CH92 OF
                FCHWM92(0001)
           END-IF.
           MOVE WK01-CODE-4016-CH9A1-F TO WK01-CODE-4016-CH9A-F (1).
      *%--------------------------------------------------------------%*
           IF WK01-CODE-4016-CH9A2-Z = 'Y'
               MOVE WK01-CODE-4016-CH9A2 TO FUND-CODE-4016-CH92 OF
                FCHWM92(0002)
           END-IF.
           MOVE WK01-CODE-4016-CH9A2-F TO WK01-CODE-4016-CH9A-F (2).
      *%--------------------------------------------------------------%*
           IF WK01-CODE-4016-CH9A3-Z = 'Y'
               MOVE WK01-CODE-4016-CH9A3 TO FUND-CODE-4016-CH92 OF
                FCHWM92(0003)
           END-IF.
           MOVE WK01-CODE-4016-CH9A3-F TO WK01-CODE-4016-CH9A-F (3).
      *%--------------------------------------------------------------%*
           IF WK01-CODE-4016-CH9A4-Z = 'Y'
               MOVE WK01-CODE-4016-CH9A4 TO FUND-CODE-4016-CH92 OF
                FCHWM92(0004)
           END-IF.
           MOVE WK01-CODE-4016-CH9A4-F TO WK01-CODE-4016-CH9A-F (4).
      *%--------------------------------------------------------------%*
           IF WK01-CODE-4016-CH9A5-Z = 'Y'
               MOVE WK01-CODE-4016-CH9A5 TO FUND-CODE-4016-CH92 OF
                FCHWM92(0005)
           END-IF.
           MOVE WK01-CODE-4016-CH9A5-F TO WK01-CODE-4016-CH9A-F (5).
      *%--------------------------------------------------------------%*
           IF WK01-CODE-4016-CH9A6-Z = 'Y'
               MOVE WK01-CODE-4016-CH9A6 TO FUND-CODE-4016-CH92 OF
                FCHWM92(0006)
           END-IF.
           MOVE WK01-CODE-4016-CH9A6-F TO WK01-CODE-4016-CH9A-F (6).
      *%--------------------------------------------------------------%*
           IF WK01-CODE-4016-CH9A7-Z = 'Y'
               MOVE WK01-CODE-4016-CH9A7 TO FUND-CODE-4016-CH92 OF
                FCHWM92(0007)
           END-IF.
           MOVE WK01-CODE-4016-CH9A7-F TO WK01-CODE-4016-CH9A-F (7).
      *%--------------------------------------------------------------%*
           IF WK01-CODE-4016-CH9A8-Z = 'Y'
               MOVE WK01-CODE-4016-CH9A8 TO FUND-CODE-4016-CH92 OF
                FCHWM92(0008)
           END-IF.
           MOVE WK01-CODE-4016-CH9A8-F TO WK01-CODE-4016-CH9A-F (8).
      *%--------------------------------------------------------------%*
           IF WK01-CODE-4016-CH9A9-Z = 'Y'
               MOVE WK01-CODE-4016-CH9A9 TO FUND-CODE-4016-CH92 OF
                FCHWM92(0009)
           END-IF.
           MOVE WK01-CODE-4016-CH9A9-F TO WK01-CODE-4016-CH9A-F (9).
      *%--------------------------------------------------------------%*
           IF WK01-CODE-4016-CH9A10-Z = 'Y'
               MOVE WK01-CODE-4016-CH9A10 TO FUND-CODE-4016-CH92 OF
                FCHWM92(0010)
           END-IF.
           MOVE WK01-CODE-4016-CH9A10-F TO WK01-CODE-4016-CH9A-F (10).
      *%--------------------------------------------------------------%*
           IF WK01-CODE-4016-CH9A11-Z = 'Y'
               MOVE WK01-CODE-4016-CH9A11 TO FUND-CODE-4016-CH92 OF
                FCHWM92(0011)
           END-IF.
           MOVE WK01-CODE-4016-CH9A11-F TO WK01-CODE-4016-CH9A-F (11).
      *%--------------------------------------------------------------%*
           IF WK01-CODE-4016-CH9B1-Z = 'Y'
               MOVE WK01-CODE-4016-CH9B1 TO COA-CODE-4016-CH92 OF
                FCHWM92(0001)
           END-IF.
           MOVE WK01-CODE-4016-CH9B1-F TO WK01-CODE-4016-CH9B-F (1).
      *%--------------------------------------------------------------%*
           IF WK01-CODE-4016-CH9B2-Z = 'Y'
               MOVE WK01-CODE-4016-CH9B2 TO COA-CODE-4016-CH92 OF
                FCHWM92(0002)
           END-IF.
           MOVE WK01-CODE-4016-CH9B2-F TO WK01-CODE-4016-CH9B-F (2).
      *%--------------------------------------------------------------%*
           IF WK01-CODE-4016-CH9B3-Z = 'Y'
               MOVE WK01-CODE-4016-CH9B3 TO COA-CODE-4016-CH92 OF
                FCHWM92(0003)
           END-IF.
           MOVE WK01-CODE-4016-CH9B3-F TO WK01-CODE-4016-CH9B-F (3).
      *%--------------------------------------------------------------%*
           IF WK01-CODE-4016-CH9B4-Z = 'Y'
               MOVE WK01-CODE-4016-CH9B4 TO COA-CODE-4016-CH92 OF
                FCHWM92(0004)
           END-IF.
           MOVE WK01-CODE-4016-CH9B4-F TO WK01-CODE-4016-CH9B-F (4).
      *%--------------------------------------------------------------%*
           IF WK01-CODE-4016-CH9B5-Z = 'Y'
               MOVE WK01-CODE-4016-CH9B5 TO COA-CODE-4016-CH92 OF
                FCHWM92(0005)
           END-IF.
           MOVE WK01-CODE-4016-CH9B5-F TO WK01-CODE-4016-CH9B-F (5).
      *%--------------------------------------------------------------%*
           IF WK01-CODE-4016-CH9B6-Z = 'Y'
               MOVE WK01-CODE-4016-CH9B6 TO COA-CODE-4016-CH92 OF
                FCHWM92(0006)
           END-IF.
           MOVE WK01-CODE-4016-CH9B6-F TO WK01-CODE-4016-CH9B-F (6).
      *%--------------------------------------------------------------%*
           IF WK01-CODE-4016-CH9B7-Z = 'Y'
               MOVE WK01-CODE-4016-CH9B7 TO COA-CODE-4016-CH92 OF
                FCHWM92(0007)
           END-IF.
           MOVE WK01-CODE-4016-CH9B7-F TO WK01-CODE-4016-CH9B-F (7).
      *%--------------------------------------------------------------%*
           IF WK01-CODE-4016-CH9B8-Z = 'Y'
               MOVE WK01-CODE-4016-CH9B8 TO COA-CODE-4016-CH92 OF
                FCHWM92(0008)
           END-IF.
           MOVE WK01-CODE-4016-CH9B8-F TO WK01-CODE-4016-CH9B-F (8).
      *%--------------------------------------------------------------%*
           IF WK01-CODE-4016-CH9B9-Z = 'Y'
               MOVE WK01-CODE-4016-CH9B9 TO COA-CODE-4016-CH92 OF
                FCHWM92(0009)
           END-IF.
           MOVE WK01-CODE-4016-CH9B9-F TO WK01-CODE-4016-CH9B-F (9).
      *%--------------------------------------------------------------%*
           IF WK01-CODE-4016-CH9B10-Z = 'Y'
               MOVE WK01-CODE-4016-CH9B10 TO COA-CODE-4016-CH92 OF
                FCHWM92(0010)
           END-IF.
           MOVE WK01-CODE-4016-CH9B10-F TO WK01-CODE-4016-CH9B-F (10).
      *%--------------------------------------------------------------%*
           IF WK01-CODE-4016-CH9B11-Z = 'Y'
               MOVE WK01-CODE-4016-CH9B11 TO COA-CODE-4016-CH92 OF
                FCHWM92(0011)
           END-IF.
           MOVE WK01-CODE-4016-CH9B11-F TO WK01-CODE-4016-CH9B-F (11).
      *%--------------------------------------------------------------%*
           IF WK01-FUND-4017-CH921-Z = 'Y'
               MOVE WK01-FUND-4017-CH921 TO CNTRL-FUND-4017-CH92 OF
                FCHWM92(0001)
           END-IF.
           MOVE WK01-FUND-4017-CH921-F TO WK01-FUND-4017-CH92-F (1).
      *%--------------------------------------------------------------%*
           IF WK01-FUND-4017-CH922-Z = 'Y'
               MOVE WK01-FUND-4017-CH922 TO CNTRL-FUND-4017-CH92 OF
                FCHWM92(0002)
           END-IF.
           MOVE WK01-FUND-4017-CH922-F TO WK01-FUND-4017-CH92-F (2).
      *%--------------------------------------------------------------%*
           IF WK01-FUND-4017-CH923-Z = 'Y'
               MOVE WK01-FUND-4017-CH923 TO CNTRL-FUND-4017-CH92 OF
                FCHWM92(0003)
           END-IF.
           MOVE WK01-FUND-4017-CH923-F TO WK01-FUND-4017-CH92-F (3).
      *%--------------------------------------------------------------%*
           IF WK01-FUND-4017-CH924-Z = 'Y'
               MOVE WK01-FUND-4017-CH924 TO CNTRL-FUND-4017-CH92 OF
                FCHWM92(0004)
           END-IF.
           MOVE WK01-FUND-4017-CH924-F TO WK01-FUND-4017-CH92-F (4).
      *%--------------------------------------------------------------%*
           IF WK01-FUND-4017-CH925-Z = 'Y'
               MOVE WK01-FUND-4017-CH925 TO CNTRL-FUND-4017-CH92 OF
                FCHWM92(0005)
           END-IF.
           MOVE WK01-FUND-4017-CH925-F TO WK01-FUND-4017-CH92-F (5).
      *%--------------------------------------------------------------%*
           IF WK01-FUND-4017-CH926-Z = 'Y'
               MOVE WK01-FUND-4017-CH926 TO CNTRL-FUND-4017-CH92 OF
                FCHWM92(0006)
           END-IF.
           MOVE WK01-FUND-4017-CH926-F TO WK01-FUND-4017-CH92-F (6).
      *%--------------------------------------------------------------%*
           IF WK01-FUND-4017-CH927-Z = 'Y'
               MOVE WK01-FUND-4017-CH927 TO CNTRL-FUND-4017-CH92 OF
                FCHWM92(0007)
           END-IF.
           MOVE WK01-FUND-4017-CH927-F TO WK01-FUND-4017-CH92-F (7).
      *%--------------------------------------------------------------%*
           IF WK01-FUND-4017-CH928-Z = 'Y'
               MOVE WK01-FUND-4017-CH928 TO CNTRL-FUND-4017-CH92 OF
                FCHWM92(0008)
           END-IF.
           MOVE WK01-FUND-4017-CH928-F TO WK01-FUND-4017-CH92-F (8).
      *%--------------------------------------------------------------%*
           IF WK01-FUND-4017-CH929-Z = 'Y'
               MOVE WK01-FUND-4017-CH929 TO CNTRL-FUND-4017-CH92 OF
                FCHWM92(0009)
           END-IF.
           MOVE WK01-FUND-4017-CH929-F TO WK01-FUND-4017-CH92-F (9).
      *%--------------------------------------------------------------%*
           IF WK01-FUND-4017-CH9210-Z = 'Y'
               MOVE WK01-FUND-4017-CH9210 TO CNTRL-FUND-4017-CH92 OF
                FCHWM92(0010)
           END-IF.
           MOVE WK01-FUND-4017-CH9210-F TO WK01-FUND-4017-CH92-F (10).
      *%--------------------------------------------------------------%*
           IF WK01-FUND-4017-CH9211-Z = 'Y'
               MOVE WK01-FUND-4017-CH9211 TO CNTRL-FUND-4017-CH92 OF
                FCHWM92(0011)
           END-IF.
           MOVE WK01-FUND-4017-CH9211-F TO WK01-FUND-4017-CH92-F (11).
      *%--------------------------------------------------------------%*
           IF WK01-ORGZN-4017-CH921-Z = 'Y'
               MOVE WK01-ORGZN-4017-CH921 TO CNTRL-ORGZN-4017-CH92 OF
                FCHWM92(0001)
           END-IF.
           MOVE WK01-ORGZN-4017-CH921-F TO WK01-ORGZN-4017-CH92-F (1).
      *%--------------------------------------------------------------%*
           IF WK01-ORGZN-4017-CH922-Z = 'Y'
               MOVE WK01-ORGZN-4017-CH922 TO CNTRL-ORGZN-4017-CH92 OF
                FCHWM92(0002)
           END-IF.
           MOVE WK01-ORGZN-4017-CH922-F TO WK01-ORGZN-4017-CH92-F (2).
      *%--------------------------------------------------------------%*
           IF WK01-ORGZN-4017-CH923-Z = 'Y'
               MOVE WK01-ORGZN-4017-CH923 TO CNTRL-ORGZN-4017-CH92 OF
                FCHWM92(0003)
           END-IF.
           MOVE WK01-ORGZN-4017-CH923-F TO WK01-ORGZN-4017-CH92-F (3).
      *%--------------------------------------------------------------%*
           IF WK01-ORGZN-4017-CH924-Z = 'Y'
               MOVE WK01-ORGZN-4017-CH924 TO CNTRL-ORGZN-4017-CH92 OF
                FCHWM92(0004)
           END-IF.
           MOVE WK01-ORGZN-4017-CH924-F TO WK01-ORGZN-4017-CH92-F (4).
      *%--------------------------------------------------------------%*
           IF WK01-ORGZN-4017-CH925-Z = 'Y'
               MOVE WK01-ORGZN-4017-CH925 TO CNTRL-ORGZN-4017-CH92 OF
                FCHWM92(0005)
           END-IF.
           MOVE WK01-ORGZN-4017-CH925-F TO WK01-ORGZN-4017-CH92-F (5).
      *%--------------------------------------------------------------%*
           IF WK01-ORGZN-4017-CH926-Z = 'Y'
               MOVE WK01-ORGZN-4017-CH926 TO CNTRL-ORGZN-4017-CH92 OF
                FCHWM92(0006)
           END-IF.
           MOVE WK01-ORGZN-4017-CH926-F TO WK01-ORGZN-4017-CH92-F (6).
      *%--------------------------------------------------------------%*
           IF WK01-ORGZN-4017-CH927-Z = 'Y'
               MOVE WK01-ORGZN-4017-CH927 TO CNTRL-ORGZN-4017-CH92 OF
                FCHWM92(0007)
           END-IF.
           MOVE WK01-ORGZN-4017-CH927-F TO WK01-ORGZN-4017-CH92-F (7).
      *%--------------------------------------------------------------%*
           IF WK01-ORGZN-4017-CH928-Z = 'Y'
               MOVE WK01-ORGZN-4017-CH928 TO CNTRL-ORGZN-4017-CH92 OF
                FCHWM92(0008)
           END-IF.
           MOVE WK01-ORGZN-4017-CH928-F TO WK01-ORGZN-4017-CH92-F (8).
      *%--------------------------------------------------------------%*
           IF WK01-ORGZN-4017-CH929-Z = 'Y'
               MOVE WK01-ORGZN-4017-CH929 TO CNTRL-ORGZN-4017-CH92 OF
                FCHWM92(0009)
           END-IF.
           MOVE WK01-ORGZN-4017-CH929-F TO WK01-ORGZN-4017-CH92-F (9).
      *%--------------------------------------------------------------%*
           IF WK01-ORGZN-4017-CH9210-Z = 'Y'
               MOVE WK01-ORGZN-4017-CH9210 TO CNTRL-ORGZN-4017-CH92 OF
                FCHWM92(0010)
           END-IF.
           MOVE WK01-ORGZN-4017-CH9210-F TO WK01-ORGZN-4017-CH92-F (10).
      *%--------------------------------------------------------------%*
           IF WK01-ORGZN-4017-CH9211-Z = 'Y'
               MOVE WK01-ORGZN-4017-CH9211 TO CNTRL-ORGZN-4017-CH92 OF
                FCHWM92(0011)
           END-IF.
           MOVE WK01-ORGZN-4017-CH9211-F TO WK01-ORGZN-4017-CH92-F (11).
      *%--------------------------------------------------------------%*
           IF WK01-PRD-CODE-4017-CH921-Z = 'Y'
               MOVE WK01-PRD-CODE-4017-CH921 TO
                CNTRL-PRD-CODE-4017-CH92 OF FCHWM92(0001)
           END-IF.
           MOVE WK01-PRD-CODE-4017-CH921-F TO WK01-PRD-CODE-4017-CH92-F
                (1).
      *%--------------------------------------------------------------%*
           IF WK01-PRD-CODE-4017-CH922-Z = 'Y'
               MOVE WK01-PRD-CODE-4017-CH922 TO
                CNTRL-PRD-CODE-4017-CH92 OF FCHWM92(0002)
           END-IF.
           MOVE WK01-PRD-CODE-4017-CH922-F TO WK01-PRD-CODE-4017-CH92-F
                (2).
      *%--------------------------------------------------------------%*
           IF WK01-PRD-CODE-4017-CH923-Z = 'Y'
               MOVE WK01-PRD-CODE-4017-CH923 TO
                CNTRL-PRD-CODE-4017-CH92 OF FCHWM92(0003)
           END-IF.
           MOVE WK01-PRD-CODE-4017-CH923-F TO WK01-PRD-CODE-4017-CH92-F
                (3).
      *%--------------------------------------------------------------%*
           IF WK01-PRD-CODE-4017-CH924-Z = 'Y'
               MOVE WK01-PRD-CODE-4017-CH924 TO
                CNTRL-PRD-CODE-4017-CH92 OF FCHWM92(0004)
           END-IF.
           MOVE WK01-PRD-CODE-4017-CH924-F TO WK01-PRD-CODE-4017-CH92-F
                (4).
      *%--------------------------------------------------------------%*
           IF WK01-PRD-CODE-4017-CH925-Z = 'Y'
               MOVE WK01-PRD-CODE-4017-CH925 TO
                CNTRL-PRD-CODE-4017-CH92 OF FCHWM92(0005)
           END-IF.
           MOVE WK01-PRD-CODE-4017-CH925-F TO WK01-PRD-CODE-4017-CH92-F
                (5).
      *%--------------------------------------------------------------%*
           IF WK01-PRD-CODE-4017-CH926-Z = 'Y'
               MOVE WK01-PRD-CODE-4017-CH926 TO
                CNTRL-PRD-CODE-4017-CH92 OF FCHWM92(0006)
           END-IF.
           MOVE WK01-PRD-CODE-4017-CH926-F TO WK01-PRD-CODE-4017-CH92-F
                (6).
      *%--------------------------------------------------------------%*
           IF WK01-PRD-CODE-4017-CH927-Z = 'Y'
               MOVE WK01-PRD-CODE-4017-CH927 TO
                CNTRL-PRD-CODE-4017-CH92 OF FCHWM92(0007)
           END-IF.
           MOVE WK01-PRD-CODE-4017-CH927-F TO WK01-PRD-CODE-4017-CH92-F
                (7).
      *%--------------------------------------------------------------%*
           IF WK01-PRD-CODE-4017-CH928-Z = 'Y'
               MOVE WK01-PRD-CODE-4017-CH928 TO
                CNTRL-PRD-CODE-4017-CH92 OF FCHWM92(0008)
           END-IF.
           MOVE WK01-PRD-CODE-4017-CH928-F TO WK01-PRD-CODE-4017-CH92-F
                (8).
      *%--------------------------------------------------------------%*
           IF WK01-PRD-CODE-4017-CH929-Z = 'Y'
               MOVE WK01-PRD-CODE-4017-CH929 TO
                CNTRL-PRD-CODE-4017-CH92 OF FCHWM92(0009)
           END-IF.
           MOVE WK01-PRD-CODE-4017-CH929-F TO WK01-PRD-CODE-4017-CH92-F
                (9).
      *%--------------------------------------------------------------%*
           IF WK01-PRD-CODE-4017-CH9210-Z = 'Y'
               MOVE WK01-PRD-CODE-4017-CH9210 TO
                CNTRL-PRD-CODE-4017-CH92 OF FCHWM92(0010)
           END-IF.
           MOVE WK01-PRD-CODE-4017-CH9210-F TO
                WK01-PRD-CODE-4017-CH92-F (10).
      *%--------------------------------------------------------------%*
           IF WK01-PRD-CODE-4017-CH9211-Z = 'Y'
               MOVE WK01-PRD-CODE-4017-CH9211 TO
                CNTRL-PRD-CODE-4017-CH92 OF FCHWM92(0011)
           END-IF.
           MOVE WK01-PRD-CODE-4017-CH9211-F TO
                WK01-PRD-CODE-4017-CH92-F (11).
      *%--------------------------------------------------------------%*
           IF WK01-SVRTY-CODE-4017-CH921-Z = 'Y'
               MOVE WK01-SVRTY-CODE-4017-CH921 TO
                CNTRL-SVRTY-CODE-4017-CH92 OF FCHWM92(0001)
           END-IF.
           MOVE WK01-SVRTY-CODE-4017-CH921-F TO
                WK01-SVRTY-CODE-4017-CH92-F (1).
      *%--------------------------------------------------------------%*
           IF WK01-SVRTY-CODE-4017-CH922-Z = 'Y'
               MOVE WK01-SVRTY-CODE-4017-CH922 TO
                CNTRL-SVRTY-CODE-4017-CH92 OF FCHWM92(0002)
           END-IF.
           MOVE WK01-SVRTY-CODE-4017-CH922-F TO
                WK01-SVRTY-CODE-4017-CH92-F (2).
      *%--------------------------------------------------------------%*
           IF WK01-SVRTY-CODE-4017-CH923-Z = 'Y'
               MOVE WK01-SVRTY-CODE-4017-CH923 TO
                CNTRL-SVRTY-CODE-4017-CH92 OF FCHWM92(0003)
           END-IF.
           MOVE WK01-SVRTY-CODE-4017-CH923-F TO
                WK01-SVRTY-CODE-4017-CH92-F (3).
      *%--------------------------------------------------------------%*
           IF WK01-SVRTY-CODE-4017-CH924-Z = 'Y'
               MOVE WK01-SVRTY-CODE-4017-CH924 TO
                CNTRL-SVRTY-CODE-4017-CH92 OF FCHWM92(0004)
           END-IF.
           MOVE WK01-SVRTY-CODE-4017-CH924-F TO
                WK01-SVRTY-CODE-4017-CH92-F (4).
      *%--------------------------------------------------------------%*
           IF WK01-SVRTY-CODE-4017-CH925-Z = 'Y'
               MOVE WK01-SVRTY-CODE-4017-CH925 TO
                CNTRL-SVRTY-CODE-4017-CH92 OF FCHWM92(0005)
           END-IF.
           MOVE WK01-SVRTY-CODE-4017-CH925-F TO
                WK01-SVRTY-CODE-4017-CH92-F (5).
      *%--------------------------------------------------------------%*
           IF WK01-SVRTY-CODE-4017-CH926-Z = 'Y'
               MOVE WK01-SVRTY-CODE-4017-CH926 TO
                CNTRL-SVRTY-CODE-4017-CH92 OF FCHWM92(0006)
           END-IF.
           MOVE WK01-SVRTY-CODE-4017-CH926-F TO
                WK01-SVRTY-CODE-4017-CH92-F (6).
      *%--------------------------------------------------------------%*
           IF WK01-SVRTY-CODE-4017-CH927-Z = 'Y'
               MOVE WK01-SVRTY-CODE-4017-CH927 TO
                CNTRL-SVRTY-CODE-4017-CH92 OF FCHWM92(0007)
           END-IF.
           MOVE WK01-SVRTY-CODE-4017-CH927-F TO
                WK01-SVRTY-CODE-4017-CH92-F (7).
      *%--------------------------------------------------------------%*
           IF WK01-SVRTY-CODE-4017-CH928-Z = 'Y'
               MOVE WK01-SVRTY-CODE-4017-CH928 TO
                CNTRL-SVRTY-CODE-4017-CH92 OF FCHWM92(0008)
           END-IF.
           MOVE WK01-SVRTY-CODE-4017-CH928-F TO
                WK01-SVRTY-CODE-4017-CH92-F (8).
      *%--------------------------------------------------------------%*
           IF WK01-SVRTY-CODE-4017-CH929-Z = 'Y'
               MOVE WK01-SVRTY-CODE-4017-CH929 TO
                CNTRL-SVRTY-CODE-4017-CH92 OF FCHWM92(0009)
           END-IF.
           MOVE WK01-SVRTY-CODE-4017-CH929-F TO
                WK01-SVRTY-CODE-4017-CH92-F (9).
      *%--------------------------------------------------------------%*
           IF WK01-SVRTY-CODE-4017-CH9210-Z = 'Y'
               MOVE WK01-SVRTY-CODE-4017-CH9210 TO
                CNTRL-SVRTY-CODE-4017-CH92 OF FCHWM92(0010)
           END-IF.
           MOVE WK01-SVRTY-CODE-4017-CH9210-F TO
                WK01-SVRTY-CODE-4017-CH92-F (10).
      *%--------------------------------------------------------------%*
           IF WK01-SVRTY-CODE-4017-CH9211-Z = 'Y'
               MOVE WK01-SVRTY-CODE-4017-CH9211 TO
                CNTRL-SVRTY-CODE-4017-CH92 OF FCHWM92(0011)
           END-IF.
           MOVE WK01-SVRTY-CODE-4017-CH9211-F TO
                WK01-SVRTY-CODE-4017-CH92-F (11).
      *%--------------------------------------------------------------%*
           IF WK01-4017-CH921-Z = 'Y'
               MOVE WK01-4017-CH921 TO STATUS-4017-CH92 OF FCHWM92(0001)
           END-IF.
           MOVE WK01-4017-CH921-F TO WK01-4017-CH92-F (1).
      *%--------------------------------------------------------------%*
           IF WK01-4017-CH922-Z = 'Y'
               MOVE WK01-4017-CH922 TO STATUS-4017-CH92 OF FCHWM92(0002)
           END-IF.
           MOVE WK01-4017-CH922-F TO WK01-4017-CH92-F (2).
      *%--------------------------------------------------------------%*
           IF WK01-4017-CH923-Z = 'Y'
               MOVE WK01-4017-CH923 TO STATUS-4017-CH92 OF FCHWM92(0003)
           END-IF.
           MOVE WK01-4017-CH923-F TO WK01-4017-CH92-F (3).
      *%--------------------------------------------------------------%*
           IF WK01-4017-CH924-Z = 'Y'
               MOVE WK01-4017-CH924 TO STATUS-4017-CH92 OF FCHWM92(0004)
           END-IF.
           MOVE WK01-4017-CH924-F TO WK01-4017-CH92-F (4).
      *%--------------------------------------------------------------%*
           IF WK01-4017-CH925-Z = 'Y'
               MOVE WK01-4017-CH925 TO STATUS-4017-CH92 OF FCHWM92(0005)
           END-IF.
           MOVE WK01-4017-CH925-F TO WK01-4017-CH92-F (5).
      *%--------------------------------------------------------------%*
           IF WK01-4017-CH926-Z = 'Y'
               MOVE WK01-4017-CH926 TO STATUS-4017-CH92 OF FCHWM92(0006)
           END-IF.
           MOVE WK01-4017-CH926-F TO WK01-4017-CH92-F (6).
      *%--------------------------------------------------------------%*
           IF WK01-4017-CH927-Z = 'Y'
               MOVE WK01-4017-CH927 TO STATUS-4017-CH92 OF FCHWM92(0007)
           END-IF.
           MOVE WK01-4017-CH927-F TO WK01-4017-CH92-F (7).
      *%--------------------------------------------------------------%*
           IF WK01-4017-CH928-Z = 'Y'
               MOVE WK01-4017-CH928 TO STATUS-4017-CH92 OF FCHWM92(0008)
           END-IF.
           MOVE WK01-4017-CH928-F TO WK01-4017-CH92-F (8).
      *%--------------------------------------------------------------%*
           IF WK01-4017-CH929-Z = 'Y'
               MOVE WK01-4017-CH929 TO STATUS-4017-CH92 OF FCHWM92(0009)
           END-IF.
           MOVE WK01-4017-CH929-F TO WK01-4017-CH92-F (9).
      *%--------------------------------------------------------------%*
           IF WK01-4017-CH9210-Z = 'Y'
               MOVE WK01-4017-CH9210 TO STATUS-4017-CH92 OF
                FCHWM92(0010)
           END-IF.
           MOVE WK01-4017-CH9210-F TO WK01-4017-CH92-F (10).
      *%--------------------------------------------------------------%*
           IF WK01-4017-CH9211-Z = 'Y'
               MOVE WK01-4017-CH9211 TO STATUS-4017-CH92 OF
                FCHWM92(0011)
           END-IF.
           MOVE WK01-4017-CH9211-F TO WK01-4017-CH92-F (11).
      *%--------------------------------------------------------------%*
           IF WK01-DATE-4017-CH921-Z = 'Y'
               MOVE WK01-DATE-4017-CH921 TO START-DATE-4017-CH92 OF
                FCHWM92(0001)
           END-IF.
           MOVE WK01-DATE-4017-CH921-F TO WK01-DATE-4017-CH92-F (1).
      *%--------------------------------------------------------------%*
           IF WK01-DATE-4017-CH922-Z = 'Y'
               MOVE WK01-DATE-4017-CH922 TO START-DATE-4017-CH92 OF
                FCHWM92(0002)
           END-IF.
           MOVE WK01-DATE-4017-CH922-F TO WK01-DATE-4017-CH92-F (2).
      *%--------------------------------------------------------------%*
           IF WK01-DATE-4017-CH923-Z = 'Y'
               MOVE WK01-DATE-4017-CH923 TO START-DATE-4017-CH92 OF
                FCHWM92(0003)
           END-IF.
           MOVE WK01-DATE-4017-CH923-F TO WK01-DATE-4017-CH92-F (3).
      *%--------------------------------------------------------------%*
           IF WK01-DATE-4017-CH924-Z = 'Y'
               MOVE WK01-DATE-4017-CH924 TO START-DATE-4017-CH92 OF
                FCHWM92(0004)
           END-IF.
           MOVE WK01-DATE-4017-CH924-F TO WK01-DATE-4017-CH92-F (4).
      *%--------------------------------------------------------------%*
           IF WK01-DATE-4017-CH925-Z = 'Y'
               MOVE WK01-DATE-4017-CH925 TO START-DATE-4017-CH92 OF
                FCHWM92(0005)
           END-IF.
           MOVE WK01-DATE-4017-CH925-F TO WK01-DATE-4017-CH92-F (5).
      *%--------------------------------------------------------------%*
           IF WK01-DATE-4017-CH926-Z = 'Y'
               MOVE WK01-DATE-4017-CH926 TO START-DATE-4017-CH92 OF
                FCHWM92(0006)
           END-IF.
           MOVE WK01-DATE-4017-CH926-F TO WK01-DATE-4017-CH92-F (6).
      *%--------------------------------------------------------------%*
           IF WK01-DATE-4017-CH927-Z = 'Y'
               MOVE WK01-DATE-4017-CH927 TO START-DATE-4017-CH92 OF
                FCHWM92(0007)
           END-IF.
           MOVE WK01-DATE-4017-CH927-F TO WK01-DATE-4017-CH92-F (7).
      *%--------------------------------------------------------------%*
           IF WK01-DATE-4017-CH928-Z = 'Y'
               MOVE WK01-DATE-4017-CH928 TO START-DATE-4017-CH92 OF
                FCHWM92(0008)
           END-IF.
           MOVE WK01-DATE-4017-CH928-F TO WK01-DATE-4017-CH92-F (8).
      *%--------------------------------------------------------------%*
           IF WK01-DATE-4017-CH929-Z = 'Y'
               MOVE WK01-DATE-4017-CH929 TO START-DATE-4017-CH92 OF
                FCHWM92(0009)
           END-IF.
           MOVE WK01-DATE-4017-CH929-F TO WK01-DATE-4017-CH92-F (9).
      *%--------------------------------------------------------------%*
           IF WK01-DATE-4017-CH9210-Z = 'Y'
               MOVE WK01-DATE-4017-CH9210 TO START-DATE-4017-CH92 OF
                FCHWM92(0010)
           END-IF.
           MOVE WK01-DATE-4017-CH9210-F TO WK01-DATE-4017-CH92-F (10).
      *%--------------------------------------------------------------%*
           IF WK01-DATE-4017-CH9211-Z = 'Y'
               MOVE WK01-DATE-4017-CH9211 TO START-DATE-4017-CH92 OF
                FCHWM92(0011)
           END-IF.
           MOVE WK01-DATE-4017-CH9211-F TO WK01-DATE-4017-CH92-F (11).
      *%--------------------------------------------------------------%*
           IF WK01-DATE-4017-CH9A1-Z = 'Y'
               MOVE WK01-DATE-4017-CH9A1 TO END-DATE-4017-CH92 OF
                FCHWM92(0001)
           END-IF.
           MOVE WK01-DATE-4017-CH9A1-F TO WK01-DATE-4017-CH9A-F (1).
      *%--------------------------------------------------------------%*
           IF WK01-DATE-4017-CH9A2-Z = 'Y'
               MOVE WK01-DATE-4017-CH9A2 TO END-DATE-4017-CH92 OF
                FCHWM92(0002)
           END-IF.
           MOVE WK01-DATE-4017-CH9A2-F TO WK01-DATE-4017-CH9A-F (2).
      *%--------------------------------------------------------------%*
           IF WK01-DATE-4017-CH9A3-Z = 'Y'
               MOVE WK01-DATE-4017-CH9A3 TO END-DATE-4017-CH92 OF
                FCHWM92(0003)
           END-IF.
           MOVE WK01-DATE-4017-CH9A3-F TO WK01-DATE-4017-CH9A-F (3).
      *%--------------------------------------------------------------%*
           IF WK01-DATE-4017-CH9A4-Z = 'Y'
               MOVE WK01-DATE-4017-CH9A4 TO END-DATE-4017-CH92 OF
                FCHWM92(0004)
           END-IF.
           MOVE WK01-DATE-4017-CH9A4-F TO WK01-DATE-4017-CH9A-F (4).
      *%--------------------------------------------------------------%*
           IF WK01-DATE-4017-CH9A5-Z = 'Y'
               MOVE WK01-DATE-4017-CH9A5 TO END-DATE-4017-CH92 OF
                FCHWM92(0005)
           END-IF.
           MOVE WK01-DATE-4017-CH9A5-F TO WK01-DATE-4017-CH9A-F (5).
      *%--------------------------------------------------------------%*
           IF WK01-DATE-4017-CH9A6-Z = 'Y'
               MOVE WK01-DATE-4017-CH9A6 TO END-DATE-4017-CH92 OF
                FCHWM92(0006)
           END-IF.
           MOVE WK01-DATE-4017-CH9A6-F TO WK01-DATE-4017-CH9A-F (6).
      *%--------------------------------------------------------------%*
           IF WK01-DATE-4017-CH9A7-Z = 'Y'
               MOVE WK01-DATE-4017-CH9A7 TO END-DATE-4017-CH92 OF
                FCHWM92(0007)
           END-IF.
           MOVE WK01-DATE-4017-CH9A7-F TO WK01-DATE-4017-CH9A-F (7).
      *%--------------------------------------------------------------%*
           IF WK01-DATE-4017-CH9A8-Z = 'Y'
               MOVE WK01-DATE-4017-CH9A8 TO END-DATE-4017-CH92 OF
                FCHWM92(0008)
           END-IF.
           MOVE WK01-DATE-4017-CH9A8-F TO WK01-DATE-4017-CH9A-F (8).
      *%--------------------------------------------------------------%*
           IF WK01-DATE-4017-CH9A9-Z = 'Y'
               MOVE WK01-DATE-4017-CH9A9 TO END-DATE-4017-CH92 OF
                FCHWM92(0009)
           END-IF.
           MOVE WK01-DATE-4017-CH9A9-F TO WK01-DATE-4017-CH9A-F (9).
      *%--------------------------------------------------------------%*
           IF WK01-DATE-4017-CH9A10-Z = 'Y'
               MOVE WK01-DATE-4017-CH9A10 TO END-DATE-4017-CH92 OF
                FCHWM92(0010)
           END-IF.
           MOVE WK01-DATE-4017-CH9A10-F TO WK01-DATE-4017-CH9A-F (10).
      *%--------------------------------------------------------------%*
           IF WK01-DATE-4017-CH9A11-Z = 'Y'
               MOVE WK01-DATE-4017-CH9A11 TO END-DATE-4017-CH92 OF
                FCHWM92(0011)
           END-IF.
           MOVE WK01-DATE-4017-CH9A11-F TO WK01-DATE-4017-CH9A-F (11).
      *%--------------------------------------------------------------%*
           IF WK01-FUND-CODE-CH92-Z = 'Y'
               MOVE WK01-FUND-CODE-CH92 TO RQST-FUND-CODE-CH92 OF
                FCHWK92
           END-IF.
      *%--------------------------------------------------------------%*
           IF WK01-ORGZN-CODE-CH92-Z = 'Y'
               MOVE WK01-ORGZN-CODE-CH92 TO RQST-ORGZN-CODE-CH92 OF
                FCHWK92
           END-IF.
