      *---------------------------------------------------------------*
      *                                                               *
      *  RECORD FCHWK02                              04/24/00  12:21  *
      *                                                               *
      *---------------------------------------------------------------*
       01  FCHWK02.
           02  COA-CODE-4002-CH02                       PIC X(1).
           02  ORGZN-CODE-4002-CH02                     PIC X(6).
           02  START-DATE-4010-CH02                     PIC X(6).
