      *---------------------------------------------------------------*
      *                                                               *
      *  RECORD FCHWD83                              04/24/00  12:58  *
      *                                                               *
      *---------------------------------------------------------------*
       01  FCHWD83.
           02  SYSTEM-DATE-CH83               COMP-3    PIC S9(8).
           02  SAVE-DBKEY-ID-4054-CH83
                                     COMP   OCCURS 5    PIC S9(8).
