      *---------------------------------------------------------------*
      *                                                               *
      *  RECORD FCHWD21                              04/24/00  13:01  *
      *                                                               *
      *---------------------------------------------------------------*
       01  FCHWD21.
           02  SAVE-DBKEY-ID-4054-CH21        COMP      PIC S9(8).
           02  SYSTEM-DATE-CH21               COMP-3    PIC S9(8).
