      *---------------------------------------------------------------*
      *                                                               *
      *  RECORD FCHWK19                              04/24/00  12:23  *
      *                                                               *
      *---------------------------------------------------------------*
       01  FCHWK19.
           02  RQST-COA-CODE-4052-CH19                  PIC X(1).
           02  RQST-XTRNL-ENTY-CODE-4052-CH19           PIC X(4).
