      *---------------------------------------------------------------*
      *                                                               *
      *  RECORD FCHWK29                              04/24/00  12:24  *
      *                                                               *
      *---------------------------------------------------------------*
       01  FCHWK29.
           02  DATA-CODE-4038-CH29                      PIC X(6).
