      *---------------------------------------------------------------*
      *                                                               *
      *  RECORD FCHWK84                              04/24/00  12:20  *
      *                                                               *
      *---------------------------------------------------------------*
       01  FCHWK84.
           02  RQST-COA-CODE-CH84                       PIC X(1).
           02  SLCTN-DATE-CH84                          PIC X(6).
           02  SLCTN-STATUS-CH84                        PIC X(1).
