      *---------------------------------------------------------------*
      *                                                               *
      *  RECORD FCHWD40                              04/24/00  13:03  *
      *                                                               *
      *---------------------------------------------------------------*
       01  FCHWD40.
           02  SYSTEM-DATE-CH40               COMP-3    PIC S9(8).
           02  APLCN-DATA-KEY-CH40                      PIC X(30).
