       01  MAP-CONTROL.

    ***Created by Convert/DC version V8R03 on 12/13/00 at 09:00***

           02  FCOMT04-MAP-CONTROL.
           03  FCOMT04T.
           04  WK01-DCXMAPL-PARMS.
               10  WK01-MAPNAME                  PIC X(8)
                                                 VALUE 'FCOMT04I'.
               10  WK01-IKE-LENGTH               PIC S9(8)  COMP
                                                 VALUE 23384.
               10  WK01-TINA-LENGTH              PIC S9(4)  COMP
                                                 VALUE 1435.
           05  WK01-ATTRIBUTES                   PIC X(60)
                                                 VALUE SPACE.
           05  WK01-ATTRIBUTES-ERROR             PIC X(60) VALUE
               'U  BIF'.
           05  WK01-CURSOR-DFLD                  PIC X(36)
                                                 VALUE SPACES.
           05  WK01-CURSOR-DFLD-QUAL             PIC X(30)
                                                 VALUE SPACES.
           05  WK01-ROW                          PIC S9(4) COMP
                                                 VALUE ZERO.
           05  WK01-COLUMN                       PIC S9(4) COMP
                                                 VALUE ZERO.
           05  WK01-ERROR-MSG                    PIC X(80)
                                                 VALUE SPACES.
           05  WK01-MAP-DATA-LEN                 PIC S9(6)
                                                 VALUE ZERO.
           05  WK01-1ST-FLAG                     PIC X(1)
                                                 VALUE 'Y'.
           05  WK01-FLAG-OUTPUT-DATA             PIC X(1)
                                                 VALUE 'Y'.
      *    05  WK01-STATUS-RETURN-FLAG           PIC X(1)
      *                                          VALUE SPACES.
           05  WK01-ALL-BUT-FLAG                 PIC X(1)
                                                 VALUE SPACES.
           05  WK01-FLAG-ALL-FIELDS-CHANGED      PIC X(1)  VALUE 'Y'.
           05  WK01-FLAG-ANY-FIELDS-CHANGED      PIC X(1)  VALUE 'N'.
           05  WK01-FLAG-ALL-FIELDS-ERROR        PIC X(1)  VALUE 'Y'.
           05  WK01-FLAG-ANY-FIELDS-ERROR        PIC X(1)  VALUE 'N'.
           05  WK01-FLAG-ALL-FIELDS-ERASE        PIC X(1)  VALUE 'Y'.
           05  WK01-FLAG-ANY-FIELDS-ERASE        PIC X(1)  VALUE 'Y'.

           05  WK01-VARDATA                      PIC X(11880)
                                                 VALUE SPACES.
           05  FILLER                            PIC X(100)
                                                 VALUE SPACES.
           04  WK01-ELEMENT-AREA.

               10  WK01-ID-SY00-Z              PIC X(1)
                                               VALUE SPACE.
               10  WK01-ID-SY00-F              PIC X(1)
                                               VALUE SPACE.
               10  WK01-ID-SY00-A              PIC X(1)
                                               VALUE SPACE.
               10  WK01-ID-SY00-V              PIC X(1)
                                               VALUE SPACE.
               10  WK01-ID-SY00-O              PIC X(1)
                                               VALUE SPACE.
               10  WK01-ID-SY00       PIC X(8)
                                               VALUE SPACES.
               10  WK01-NAME-6001-SY00-Z              PIC X(1)
                                               VALUE SPACE.
               10  WK01-NAME-6001-SY00-F              PIC X(1)
                                               VALUE SPACE.
               10  WK01-NAME-6001-SY00-A              PIC X(1)
                                               VALUE SPACE.
               10  WK01-NAME-6001-SY00-V              PIC X(1)
                                               VALUE SPACE.
               10  WK01-NAME-6001-SY00-O              PIC X(1)
                                               VALUE SPACE.
               10  WK01-NAME-6001-SY00       PIC X(35)
                                               VALUE SPACES.
               10  WK01-DATE-Z              PIC X(1)
                                               VALUE SPACE.
               10  WK01-DATE-F              PIC X(1)
                                               VALUE SPACE.
               10  WK01-DATE-A              PIC X(1)
                                               VALUE SPACE.
               10  WK01-DATE-V              PIC X(1)
                                               VALUE SPACE.
               10  WK01-DATE-O              PIC X(1)
                                               VALUE SPACE.
               10  WK01-DATE       PIC X(8)
                                               VALUE SPACES.
               10  WK01-HH-MM-TIME-SY00-Z              PIC X(1)
                                               VALUE SPACE.
               10  WK01-HH-MM-TIME-SY00-F              PIC X(1)
                                               VALUE SPACE.
               10  WK01-HH-MM-TIME-SY00-A              PIC X(1)
                                               VALUE SPACE.
               10  WK01-HH-MM-TIME-SY00-V              PIC X(1)
                                               VALUE SPACE.
               10  WK01-HH-MM-TIME-SY00-O              PIC X(1)
                                               VALUE SPACE.
               10  WK01-HH-MM-TIME-SY00       PIC X(4)
                                               VALUE SPACES.
               10  WK01-PM-FLAG-SY00-Z              PIC X(1)
                                               VALUE SPACE.
               10  WK01-PM-FLAG-SY00-F              PIC X(1)
                                               VALUE SPACE.
               10  WK01-PM-FLAG-SY00-A              PIC X(1)
                                               VALUE SPACE.
               10  WK01-PM-FLAG-SY00-V              PIC X(1)
                                               VALUE SPACE.
               10  WK01-PM-FLAG-SY00-O              PIC X(1)
                                               VALUE SPACE.
               10  WK01-PM-FLAG-SY00       PIC X(1)
                                               VALUE SPACES.
               10  WK01-USER-ID-Z              PIC X(1)
                                               VALUE SPACE.
               10  WK01-USER-ID-F              PIC X(1)
                                               VALUE SPACE.
               10  WK01-USER-ID-A              PIC X(1)
                                               VALUE SPACE.
               10  WK01-USER-ID-V              PIC X(1)
                                               VALUE SPACE.
               10  WK01-USER-ID-O              PIC X(1)
                                               VALUE SPACE.
               10  WK01-USER-ID       PIC X(32)
                                               VALUE SPACES.
               10  WK01-RSPNS-ID-SY00-Z              PIC X(1)
                                               VALUE SPACE.
               10  WK01-RSPNS-ID-SY00-F              PIC X(1)
                                               VALUE SPACE.
               10  WK01-RSPNS-ID-SY00-A              PIC X(1)
                                               VALUE SPACE.
               10  WK01-RSPNS-ID-SY00-V              PIC X(1)
                                               VALUE SPACE.
               10  WK01-RSPNS-ID-SY00-O              PIC X(1)
                                               VALUE SPACE.
               10  WK01-RSPNS-ID-SY00       PIC X(8)
                                               VALUE SPACES.
               10  WK01-FUNC-DESCRIPTION-Z              PIC X(1)
                                               VALUE SPACE.
               10  WK01-FUNC-DESCRIPTION-F              PIC X(1)
                                               VALUE SPACE.
               10  WK01-FUNC-DESCRIPTION-A              PIC X(1)
                                               VALUE SPACE.
               10  WK01-FUNC-DESCRIPTION-V              PIC X(1)
                                               VALUE SPACE.
               10  WK01-FUNC-DESCRIPTION-O              PIC X(1)
                                               VALUE SPACE.
               10  WK01-FUNC-DESCRIPTION       PIC X(28)
                                               VALUE SPACES.
               10  WK01-STATUS-CODE-SY00-Z              PIC X(1)
                                               VALUE SPACE.
               10  WK01-STATUS-CODE-SY00-F              PIC X(1)
                                               VALUE SPACE.
               10  WK01-STATUS-CODE-SY00-A              PIC X(1)
                                               VALUE SPACE.
               10  WK01-STATUS-CODE-SY00-V              PIC X(1)
                                               VALUE SPACE.
               10  WK01-STATUS-CODE-SY00-O              PIC X(1)
                                               VALUE SPACE.
               10  WK01-STATUS-CODE-SY00       PIC X(1)
                                               VALUE SPACES.
               10  WK01-VIEW-CO04-Z              PIC X(1)
                                               VALUE SPACE.
               10  WK01-VIEW-CO04-F              PIC X(1)
                                               VALUE SPACE.
               10  WK01-VIEW-CO04-A              PIC X(1)
                                               VALUE SPACE.
               10  WK01-VIEW-CO04-V              PIC X(1)
                                               VALUE SPACE.
               10  WK01-VIEW-CO04-O              PIC X(1)
                                               VALUE SPACE.
               10  WK01-VIEW-CO04       PIC X(8)
                                               VALUE SPACES.
               10  WK01-VIEW-LONG-DESC-CO04-Z              PIC X(1)
                                               VALUE SPACE.
               10  WK01-VIEW-LONG-DESC-CO04-F              PIC X(1)
                                               VALUE SPACE.
               10  WK01-VIEW-LONG-DESC-CO04-A              PIC X(1)
                                               VALUE SPACE.
               10  WK01-VIEW-LONG-DESC-CO04-V              PIC X(1)
                                               VALUE SPACE.
               10  WK01-VIEW-LONG-DESC-CO04-O              PIC X(1)
                                               VALUE SPACE.
               10  WK01-VIEW-LONG-DESC-CO04       PIC X(30)
                                               VALUE SPACES.
               10  WK01-TYPE-CO04-Z              PIC X(1)
                                               VALUE SPACE.
               10  WK01-TYPE-CO04-F              PIC X(1)
                                               VALUE SPACE.
               10  WK01-TYPE-CO04-A              PIC X(1)
                                               VALUE SPACE.
               10  WK01-TYPE-CO04-V              PIC X(1)
                                               VALUE SPACE.
               10  WK01-TYPE-CO04-O              PIC X(1)
                                               VALUE SPACE.
               10  WK01-TYPE-CO04       PIC X(4)
                                               VALUE SPACES.
               10  WK01-TYPE-LONG-DESC-CO04-Z              PIC X(1)
                                               VALUE SPACE.
               10  WK01-TYPE-LONG-DESC-CO04-F              PIC X(1)
                                               VALUE SPACE.
               10  WK01-TYPE-LONG-DESC-CO04-A              PIC X(1)
                                               VALUE SPACE.
               10  WK01-TYPE-LONG-DESC-CO04-V              PIC X(1)
                                               VALUE SPACE.
               10  WK01-TYPE-LONG-DESC-CO04-O              PIC X(1)
                                               VALUE SPACE.
               10  WK01-TYPE-LONG-DESC-CO04       PIC X(30)
                                               VALUE SPACES.
               10  WK01-CODE-CO041-Z              PIC X(1)
                                               VALUE SPACE.
               10  WK01-CODE-CO041-F              PIC X(1)
                                               VALUE SPACE.
               10  WK01-CODE-CO041-A              PIC X(1)
                                               VALUE SPACE.
               10  WK01-CODE-CO041-V              PIC X(1)
                                               VALUE SPACE.
               10  WK01-CODE-CO041-O              PIC X(1)
                                               VALUE SPACE.
               10  WK01-CODE-CO041       PIC X(1)
                                               VALUE SPACES.
               10  WK01-PLAN-CODE-CO041-Z              PIC X(1)
                                               VALUE SPACE.
               10  WK01-PLAN-CODE-CO041-F              PIC X(1)
                                               VALUE SPACE.
               10  WK01-PLAN-CODE-CO041-A              PIC X(1)
                                               VALUE SPACE.
               10  WK01-PLAN-CODE-CO041-V              PIC X(1)
                                               VALUE SPACE.
               10  WK01-PLAN-CODE-CO041-O              PIC X(1)
                                               VALUE SPACE.
               10  WK01-PLAN-CODE-CO041       PIC X(4)
                                               VALUE SPACES.
               10  WK01-PLAN-CD-SHRT-DSC-C041-Z              PIC X(1)
                                               VALUE SPACE.
               10  WK01-PLAN-CD-SHRT-DSC-C041-F              PIC X(1)
                                               VALUE SPACE.
               10  WK01-PLAN-CD-SHRT-DSC-C041-A              PIC X(1)
                                               VALUE SPACE.
               10  WK01-PLAN-CD-SHRT-DSC-C041-V              PIC X(1)
                                               VALUE SPACE.
               10  WK01-PLAN-CD-SHRT-DSC-C041-O              PIC X(1)
                                               VALUE SPACE.
               10  WK01-PLAN-CD-SHRT-DSC-C041       PIC X(10)
                                               VALUE SPACES.
               10  WK01-PLAN-COD-LNG-DSC-C041-Z              PIC X(1)
                                               VALUE SPACE.
               10  WK01-PLAN-COD-LNG-DSC-C041-F              PIC X(1)
                                               VALUE SPACE.
               10  WK01-PLAN-COD-LNG-DSC-C041-A              PIC X(1)
                                               VALUE SPACE.
               10  WK01-PLAN-COD-LNG-DSC-C041-V              PIC X(1)
                                               VALUE SPACE.
               10  WK01-PLAN-COD-LNG-DSC-C041-O              PIC X(1)
                                               VALUE SPACE.
               10  WK01-PLAN-COD-LNG-DSC-C041       PIC X(30)
                                               VALUE SPACES.
               10  WK01-START-DATE-CO041-Z              PIC X(1)
                                               VALUE SPACE.
               10  WK01-START-DATE-CO041-F              PIC X(1)
                                               VALUE SPACE.
               10  WK01-START-DATE-CO041-A              PIC X(1)
                                               VALUE SPACE.
               10  WK01-START-DATE-CO041-V              PIC X(1)
                                               VALUE SPACE.
               10  WK01-START-DATE-CO041-O              PIC X(1)
                                               VALUE SPACE.
               10  WK01-START-DATE-CO041       PIC X(6)
                                               VALUE SPACES.
               10  WK01-END-DATE-CO041-Z              PIC X(1)
                                               VALUE SPACE.
               10  WK01-END-DATE-CO041-F              PIC X(1)
                                               VALUE SPACE.
               10  WK01-END-DATE-CO041-A              PIC X(1)
                                               VALUE SPACE.
               10  WK01-END-DATE-CO041-V              PIC X(1)
                                               VALUE SPACE.
               10  WK01-END-DATE-CO041-O              PIC X(1)
                                               VALUE SPACE.
               10  WK01-END-DATE-CO041       PIC X(6)
                                               VALUE SPACES.
               10  WK01-FLAG-CO041-Z              PIC X(1)
                                               VALUE SPACE.
               10  WK01-FLAG-CO041-F              PIC X(1)
                                               VALUE SPACE.
               10  WK01-FLAG-CO041-A              PIC X(1)
                                               VALUE SPACE.
               10  WK01-FLAG-CO041-V              PIC X(1)
                                               VALUE SPACE.
               10  WK01-FLAG-CO041-O              PIC X(1)
                                               VALUE SPACE.
               10  WK01-FLAG-CO041       PIC X(1)
                                               VALUE SPACES.
               10  WK01-CODE-CO042-Z              PIC X(1)
                                               VALUE SPACE.
               10  WK01-CODE-CO042-F              PIC X(1)
                                               VALUE SPACE.
               10  WK01-CODE-CO042-A              PIC X(1)
                                               VALUE SPACE.
               10  WK01-CODE-CO042-V              PIC X(1)
                                               VALUE SPACE.
               10  WK01-CODE-CO042-O              PIC X(1)
                                               VALUE SPACE.
               10  WK01-CODE-CO042       PIC X(1)
                                               VALUE SPACES.
               10  WK01-PLAN-CODE-CO042-Z              PIC X(1)
                                               VALUE SPACE.
               10  WK01-PLAN-CODE-CO042-F              PIC X(1)
                                               VALUE SPACE.
               10  WK01-PLAN-CODE-CO042-A              PIC X(1)
                                               VALUE SPACE.
               10  WK01-PLAN-CODE-CO042-V              PIC X(1)
                                               VALUE SPACE.
               10  WK01-PLAN-CODE-CO042-O              PIC X(1)
                                               VALUE SPACE.
               10  WK01-PLAN-CODE-CO042       PIC X(4)
                                               VALUE SPACES.
               10  WK01-PLAN-CD-SHRT-DSC-C042-Z              PIC X(1)
                                               VALUE SPACE.
               10  WK01-PLAN-CD-SHRT-DSC-C042-F              PIC X(1)
                                               VALUE SPACE.
               10  WK01-PLAN-CD-SHRT-DSC-C042-A              PIC X(1)
                                               VALUE SPACE.
               10  WK01-PLAN-CD-SHRT-DSC-C042-V              PIC X(1)
                                               VALUE SPACE.
               10  WK01-PLAN-CD-SHRT-DSC-C042-O              PIC X(1)
                                               VALUE SPACE.
               10  WK01-PLAN-CD-SHRT-DSC-C042       PIC X(10)
                                               VALUE SPACES.
               10  WK01-PLAN-COD-LNG-DSC-C042-Z              PIC X(1)
                                               VALUE SPACE.
               10  WK01-PLAN-COD-LNG-DSC-C042-F              PIC X(1)
                                               VALUE SPACE.
               10  WK01-PLAN-COD-LNG-DSC-C042-A              PIC X(1)
                                               VALUE SPACE.
               10  WK01-PLAN-COD-LNG-DSC-C042-V              PIC X(1)
                                               VALUE SPACE.
               10  WK01-PLAN-COD-LNG-DSC-C042-O              PIC X(1)
                                               VALUE SPACE.
               10  WK01-PLAN-COD-LNG-DSC-C042       PIC X(30)
                                               VALUE SPACES.
               10  WK01-START-DATE-CO042-Z              PIC X(1)
                                               VALUE SPACE.
               10  WK01-START-DATE-CO042-F              PIC X(1)
                                               VALUE SPACE.
               10  WK01-START-DATE-CO042-A              PIC X(1)
                                               VALUE SPACE.
               10  WK01-START-DATE-CO042-V              PIC X(1)
                                               VALUE SPACE.
               10  WK01-START-DATE-CO042-O              PIC X(1)
                                               VALUE SPACE.
               10  WK01-START-DATE-CO042       PIC X(6)
                                               VALUE SPACES.
               10  WK01-END-DATE-CO042-Z              PIC X(1)
                                               VALUE SPACE.
               10  WK01-END-DATE-CO042-F              PIC X(1)
                                               VALUE SPACE.
               10  WK01-END-DATE-CO042-A              PIC X(1)
                                               VALUE SPACE.
               10  WK01-END-DATE-CO042-V              PIC X(1)
                                               VALUE SPACE.
               10  WK01-END-DATE-CO042-O              PIC X(1)
                                               VALUE SPACE.
               10  WK01-END-DATE-CO042       PIC X(6)
                                               VALUE SPACES.
               10  WK01-FLAG-CO042-Z              PIC X(1)
                                               VALUE SPACE.
               10  WK01-FLAG-CO042-F              PIC X(1)
                                               VALUE SPACE.
               10  WK01-FLAG-CO042-A              PIC X(1)
                                               VALUE SPACE.
               10  WK01-FLAG-CO042-V              PIC X(1)
                                               VALUE SPACE.
               10  WK01-FLAG-CO042-O              PIC X(1)
                                               VALUE SPACE.
               10  WK01-FLAG-CO042       PIC X(1)
                                               VALUE SPACES.
               10  WK01-CODE-CO043-Z              PIC X(1)
                                               VALUE SPACE.
               10  WK01-CODE-CO043-F              PIC X(1)
                                               VALUE SPACE.
               10  WK01-CODE-CO043-A              PIC X(1)
                                               VALUE SPACE.
               10  WK01-CODE-CO043-V              PIC X(1)
                                               VALUE SPACE.
               10  WK01-CODE-CO043-O              PIC X(1)
                                               VALUE SPACE.
               10  WK01-CODE-CO043       PIC X(1)
                                               VALUE SPACES.
               10  WK01-PLAN-CODE-CO043-Z              PIC X(1)
                                               VALUE SPACE.
               10  WK01-PLAN-CODE-CO043-F              PIC X(1)
                                               VALUE SPACE.
               10  WK01-PLAN-CODE-CO043-A              PIC X(1)
                                               VALUE SPACE.
               10  WK01-PLAN-CODE-CO043-V              PIC X(1)
                                               VALUE SPACE.
               10  WK01-PLAN-CODE-CO043-O              PIC X(1)
                                               VALUE SPACE.
               10  WK01-PLAN-CODE-CO043       PIC X(4)
                                               VALUE SPACES.
               10  WK01-PLAN-CD-SHRT-DSC-C043-Z              PIC X(1)
                                               VALUE SPACE.
               10  WK01-PLAN-CD-SHRT-DSC-C043-F              PIC X(1)
                                               VALUE SPACE.
               10  WK01-PLAN-CD-SHRT-DSC-C043-A              PIC X(1)
                                               VALUE SPACE.
               10  WK01-PLAN-CD-SHRT-DSC-C043-V              PIC X(1)
                                               VALUE SPACE.
               10  WK01-PLAN-CD-SHRT-DSC-C043-O              PIC X(1)
                                               VALUE SPACE.
               10  WK01-PLAN-CD-SHRT-DSC-C043       PIC X(10)
                                               VALUE SPACES.
               10  WK01-PLAN-COD-LNG-DSC-C043-Z              PIC X(1)
                                               VALUE SPACE.
               10  WK01-PLAN-COD-LNG-DSC-C043-F              PIC X(1)
                                               VALUE SPACE.
               10  WK01-PLAN-COD-LNG-DSC-C043-A              PIC X(1)
                                               VALUE SPACE.
               10  WK01-PLAN-COD-LNG-DSC-C043-V              PIC X(1)
                                               VALUE SPACE.
               10  WK01-PLAN-COD-LNG-DSC-C043-O              PIC X(1)
                                               VALUE SPACE.
               10  WK01-PLAN-COD-LNG-DSC-C043       PIC X(30)
                                               VALUE SPACES.
               10  WK01-START-DATE-CO043-Z              PIC X(1)
                                               VALUE SPACE.
               10  WK01-START-DATE-CO043-F              PIC X(1)
                                               VALUE SPACE.
               10  WK01-START-DATE-CO043-A              PIC X(1)
                                               VALUE SPACE.
               10  WK01-START-DATE-CO043-V              PIC X(1)
                                               VALUE SPACE.
               10  WK01-START-DATE-CO043-O              PIC X(1)
                                               VALUE SPACE.
               10  WK01-START-DATE-CO043       PIC X(6)
                                               VALUE SPACES.
               10  WK01-END-DATE-CO043-Z              PIC X(1)
                                               VALUE SPACE.
               10  WK01-END-DATE-CO043-F              PIC X(1)
                                               VALUE SPACE.
               10  WK01-END-DATE-CO043-A              PIC X(1)
                                               VALUE SPACE.
               10  WK01-END-DATE-CO043-V              PIC X(1)
                                               VALUE SPACE.
               10  WK01-END-DATE-CO043-O              PIC X(1)
                                               VALUE SPACE.
               10  WK01-END-DATE-CO043       PIC X(6)
                                               VALUE SPACES.
               10  WK01-FLAG-CO043-Z              PIC X(1)
                                               VALUE SPACE.
               10  WK01-FLAG-CO043-F              PIC X(1)
                                               VALUE SPACE.
               10  WK01-FLAG-CO043-A              PIC X(1)
                                               VALUE SPACE.
               10  WK01-FLAG-CO043-V              PIC X(1)
                                               VALUE SPACE.
               10  WK01-FLAG-CO043-O              PIC X(1)
                                               VALUE SPACE.
               10  WK01-FLAG-CO043       PIC X(1)
                                               VALUE SPACES.
               10  WK01-CODE-CO044-Z              PIC X(1)
                                               VALUE SPACE.
               10  WK01-CODE-CO044-F              PIC X(1)
                                               VALUE SPACE.
               10  WK01-CODE-CO044-A              PIC X(1)
                                               VALUE SPACE.
               10  WK01-CODE-CO044-V              PIC X(1)
                                               VALUE SPACE.
               10  WK01-CODE-CO044-O              PIC X(1)
                                               VALUE SPACE.
               10  WK01-CODE-CO044       PIC X(1)
                                               VALUE SPACES.
               10  WK01-PLAN-CODE-CO044-Z              PIC X(1)
                                               VALUE SPACE.
               10  WK01-PLAN-CODE-CO044-F              PIC X(1)
                                               VALUE SPACE.
               10  WK01-PLAN-CODE-CO044-A              PIC X(1)
                                               VALUE SPACE.
               10  WK01-PLAN-CODE-CO044-V              PIC X(1)
                                               VALUE SPACE.
               10  WK01-PLAN-CODE-CO044-O              PIC X(1)
                                               VALUE SPACE.
               10  WK01-PLAN-CODE-CO044       PIC X(4)
                                               VALUE SPACES.
               10  WK01-PLAN-CD-SHRT-DSC-C044-Z              PIC X(1)
                                               VALUE SPACE.
               10  WK01-PLAN-CD-SHRT-DSC-C044-F              PIC X(1)
                                               VALUE SPACE.
               10  WK01-PLAN-CD-SHRT-DSC-C044-A              PIC X(1)
                                               VALUE SPACE.
               10  WK01-PLAN-CD-SHRT-DSC-C044-V              PIC X(1)
                                               VALUE SPACE.
               10  WK01-PLAN-CD-SHRT-DSC-C044-O              PIC X(1)
                                               VALUE SPACE.
               10  WK01-PLAN-CD-SHRT-DSC-C044       PIC X(10)
                                               VALUE SPACES.
               10  WK01-PLAN-COD-LNG-DSC-C044-Z              PIC X(1)
                                               VALUE SPACE.
               10  WK01-PLAN-COD-LNG-DSC-C044-F              PIC X(1)
                                               VALUE SPACE.
               10  WK01-PLAN-COD-LNG-DSC-C044-A              PIC X(1)
                                               VALUE SPACE.
               10  WK01-PLAN-COD-LNG-DSC-C044-V              PIC X(1)
                                               VALUE SPACE.
               10  WK01-PLAN-COD-LNG-DSC-C044-O              PIC X(1)
                                               VALUE SPACE.
               10  WK01-PLAN-COD-LNG-DSC-C044       PIC X(30)
                                               VALUE SPACES.
               10  WK01-START-DATE-CO044-Z              PIC X(1)
                                               VALUE SPACE.
               10  WK01-START-DATE-CO044-F              PIC X(1)
                                               VALUE SPACE.
               10  WK01-START-DATE-CO044-A              PIC X(1)
                                               VALUE SPACE.
               10  WK01-START-DATE-CO044-V              PIC X(1)
                                               VALUE SPACE.
               10  WK01-START-DATE-CO044-O              PIC X(1)
                                               VALUE SPACE.
               10  WK01-START-DATE-CO044       PIC X(6)
                                               VALUE SPACES.
               10  WK01-END-DATE-CO044-Z              PIC X(1)
                                               VALUE SPACE.
               10  WK01-END-DATE-CO044-F              PIC X(1)
                                               VALUE SPACE.
               10  WK01-END-DATE-CO044-A              PIC X(1)
                                               VALUE SPACE.
               10  WK01-END-DATE-CO044-V              PIC X(1)
                                               VALUE SPACE.
               10  WK01-END-DATE-CO044-O              PIC X(1)
                                               VALUE SPACE.
               10  WK01-END-DATE-CO044       PIC X(6)
                                               VALUE SPACES.
               10  WK01-FLAG-CO044-Z              PIC X(1)
                                               VALUE SPACE.
               10  WK01-FLAG-CO044-F              PIC X(1)
                                               VALUE SPACE.
               10  WK01-FLAG-CO044-A              PIC X(1)
                                               VALUE SPACE.
               10  WK01-FLAG-CO044-V              PIC X(1)
                                               VALUE SPACE.
               10  WK01-FLAG-CO044-O              PIC X(1)
                                               VALUE SPACE.
               10  WK01-FLAG-CO044       PIC X(1)
                                               VALUE SPACES.
               10  WK01-CODE-CO045-Z              PIC X(1)
                                               VALUE SPACE.
               10  WK01-CODE-CO045-F              PIC X(1)
                                               VALUE SPACE.
               10  WK01-CODE-CO045-A              PIC X(1)
                                               VALUE SPACE.
               10  WK01-CODE-CO045-V              PIC X(1)
                                               VALUE SPACE.
               10  WK01-CODE-CO045-O              PIC X(1)
                                               VALUE SPACE.
               10  WK01-CODE-CO045       PIC X(1)
                                               VALUE SPACES.
               10  WK01-PLAN-CODE-CO045-Z              PIC X(1)
                                               VALUE SPACE.
               10  WK01-PLAN-CODE-CO045-F              PIC X(1)
                                               VALUE SPACE.
               10  WK01-PLAN-CODE-CO045-A              PIC X(1)
                                               VALUE SPACE.
               10  WK01-PLAN-CODE-CO045-V              PIC X(1)
                                               VALUE SPACE.
               10  WK01-PLAN-CODE-CO045-O              PIC X(1)
                                               VALUE SPACE.
               10  WK01-PLAN-CODE-CO045       PIC X(4)
                                               VALUE SPACES.
               10  WK01-PLAN-CD-SHRT-DSC-C045-Z              PIC X(1)
                                               VALUE SPACE.
               10  WK01-PLAN-CD-SHRT-DSC-C045-F              PIC X(1)
                                               VALUE SPACE.
               10  WK01-PLAN-CD-SHRT-DSC-C045-A              PIC X(1)
                                               VALUE SPACE.
               10  WK01-PLAN-CD-SHRT-DSC-C045-V              PIC X(1)
                                               VALUE SPACE.
               10  WK01-PLAN-CD-SHRT-DSC-C045-O              PIC X(1)
                                               VALUE SPACE.
               10  WK01-PLAN-CD-SHRT-DSC-C045       PIC X(10)
                                               VALUE SPACES.
               10  WK01-PLAN-COD-LNG-DSC-C045-Z              PIC X(1)
                                               VALUE SPACE.
               10  WK01-PLAN-COD-LNG-DSC-C045-F              PIC X(1)
                                               VALUE SPACE.
               10  WK01-PLAN-COD-LNG-DSC-C045-A              PIC X(1)
                                               VALUE SPACE.
               10  WK01-PLAN-COD-LNG-DSC-C045-V              PIC X(1)
                                               VALUE SPACE.
               10  WK01-PLAN-COD-LNG-DSC-C045-O              PIC X(1)
                                               VALUE SPACE.
               10  WK01-PLAN-COD-LNG-DSC-C045       PIC X(30)
                                               VALUE SPACES.
               10  WK01-START-DATE-CO045-Z              PIC X(1)
                                               VALUE SPACE.
               10  WK01-START-DATE-CO045-F              PIC X(1)
                                               VALUE SPACE.
               10  WK01-START-DATE-CO045-A              PIC X(1)
                                               VALUE SPACE.
               10  WK01-START-DATE-CO045-V              PIC X(1)
                                               VALUE SPACE.
               10  WK01-START-DATE-CO045-O              PIC X(1)
                                               VALUE SPACE.
               10  WK01-START-DATE-CO045       PIC X(6)
                                               VALUE SPACES.
               10  WK01-END-DATE-CO045-Z              PIC X(1)
                                               VALUE SPACE.
               10  WK01-END-DATE-CO045-F              PIC X(1)
                                               VALUE SPACE.
               10  WK01-END-DATE-CO045-A              PIC X(1)
                                               VALUE SPACE.
               10  WK01-END-DATE-CO045-V              PIC X(1)
                                               VALUE SPACE.
               10  WK01-END-DATE-CO045-O              PIC X(1)
                                               VALUE SPACE.
               10  WK01-END-DATE-CO045       PIC X(6)
                                               VALUE SPACES.
               10  WK01-FLAG-CO045-Z              PIC X(1)
                                               VALUE SPACE.
               10  WK01-FLAG-CO045-F              PIC X(1)
                                               VALUE SPACE.
               10  WK01-FLAG-CO045-A              PIC X(1)
                                               VALUE SPACE.
               10  WK01-FLAG-CO045-V              PIC X(1)
                                               VALUE SPACE.
               10  WK01-FLAG-CO045-O              PIC X(1)
                                               VALUE SPACE.
               10  WK01-FLAG-CO045       PIC X(1)
                                               VALUE SPACES.
               10  WK01-CODE-CO046-Z              PIC X(1)
                                               VALUE SPACE.
               10  WK01-CODE-CO046-F              PIC X(1)
                                               VALUE SPACE.
               10  WK01-CODE-CO046-A              PIC X(1)
                                               VALUE SPACE.
               10  WK01-CODE-CO046-V              PIC X(1)
                                               VALUE SPACE.
               10  WK01-CODE-CO046-O              PIC X(1)
                                               VALUE SPACE.
               10  WK01-CODE-CO046       PIC X(1)
                                               VALUE SPACES.
               10  WK01-PLAN-CODE-CO046-Z              PIC X(1)
                                               VALUE SPACE.
               10  WK01-PLAN-CODE-CO046-F              PIC X(1)
                                               VALUE SPACE.
               10  WK01-PLAN-CODE-CO046-A              PIC X(1)
                                               VALUE SPACE.
               10  WK01-PLAN-CODE-CO046-V              PIC X(1)
                                               VALUE SPACE.
               10  WK01-PLAN-CODE-CO046-O              PIC X(1)
                                               VALUE SPACE.
               10  WK01-PLAN-CODE-CO046       PIC X(4)
                                               VALUE SPACES.
               10  WK01-PLAN-CD-SHRT-DSC-C046-Z              PIC X(1)
                                               VALUE SPACE.
               10  WK01-PLAN-CD-SHRT-DSC-C046-F              PIC X(1)
                                               VALUE SPACE.
               10  WK01-PLAN-CD-SHRT-DSC-C046-A              PIC X(1)
                                               VALUE SPACE.
               10  WK01-PLAN-CD-SHRT-DSC-C046-V              PIC X(1)
                                               VALUE SPACE.
               10  WK01-PLAN-CD-SHRT-DSC-C046-O              PIC X(1)
                                               VALUE SPACE.
               10  WK01-PLAN-CD-SHRT-DSC-C046       PIC X(10)
                                               VALUE SPACES.
               10  WK01-PLAN-COD-LNG-DSC-C046-Z              PIC X(1)
                                               VALUE SPACE.
               10  WK01-PLAN-COD-LNG-DSC-C046-F              PIC X(1)
                                               VALUE SPACE.
               10  WK01-PLAN-COD-LNG-DSC-C046-A              PIC X(1)
                                               VALUE SPACE.
               10  WK01-PLAN-COD-LNG-DSC-C046-V              PIC X(1)
                                               VALUE SPACE.
               10  WK01-PLAN-COD-LNG-DSC-C046-O              PIC X(1)
                                               VALUE SPACE.
               10  WK01-PLAN-COD-LNG-DSC-C046       PIC X(30)
                                               VALUE SPACES.
               10  WK01-START-DATE-CO046-Z              PIC X(1)
                                               VALUE SPACE.
               10  WK01-START-DATE-CO046-F              PIC X(1)
                                               VALUE SPACE.
               10  WK01-START-DATE-CO046-A              PIC X(1)
                                               VALUE SPACE.
               10  WK01-START-DATE-CO046-V              PIC X(1)
                                               VALUE SPACE.
               10  WK01-START-DATE-CO046-O              PIC X(1)
                                               VALUE SPACE.
               10  WK01-START-DATE-CO046       PIC X(6)
                                               VALUE SPACES.
               10  WK01-END-DATE-CO046-Z              PIC X(1)
                                               VALUE SPACE.
               10  WK01-END-DATE-CO046-F              PIC X(1)
                                               VALUE SPACE.
               10  WK01-END-DATE-CO046-A              PIC X(1)
                                               VALUE SPACE.
               10  WK01-END-DATE-CO046-V              PIC X(1)
                                               VALUE SPACE.
               10  WK01-END-DATE-CO046-O              PIC X(1)
                                               VALUE SPACE.
               10  WK01-END-DATE-CO046       PIC X(6)
                                               VALUE SPACES.
               10  WK01-FLAG-CO046-Z              PIC X(1)
                                               VALUE SPACE.
               10  WK01-FLAG-CO046-F              PIC X(1)
                                               VALUE SPACE.
               10  WK01-FLAG-CO046-A              PIC X(1)
                                               VALUE SPACE.
               10  WK01-FLAG-CO046-V              PIC X(1)
                                               VALUE SPACE.
               10  WK01-FLAG-CO046-O              PIC X(1)
                                               VALUE SPACE.
               10  WK01-FLAG-CO046       PIC X(1)
                                               VALUE SPACES.
               10  WK01-CODE-CO047-Z              PIC X(1)
                                               VALUE SPACE.
               10  WK01-CODE-CO047-F              PIC X(1)
                                               VALUE SPACE.
               10  WK01-CODE-CO047-A              PIC X(1)
                                               VALUE SPACE.
               10  WK01-CODE-CO047-V              PIC X(1)
                                               VALUE SPACE.
               10  WK01-CODE-CO047-O              PIC X(1)
                                               VALUE SPACE.
               10  WK01-CODE-CO047       PIC X(1)
                                               VALUE SPACES.
               10  WK01-PLAN-CODE-CO047-Z              PIC X(1)
                                               VALUE SPACE.
               10  WK01-PLAN-CODE-CO047-F              PIC X(1)
                                               VALUE SPACE.
               10  WK01-PLAN-CODE-CO047-A              PIC X(1)
                                               VALUE SPACE.
               10  WK01-PLAN-CODE-CO047-V              PIC X(1)
                                               VALUE SPACE.
               10  WK01-PLAN-CODE-CO047-O              PIC X(1)
                                               VALUE SPACE.
               10  WK01-PLAN-CODE-CO047       PIC X(4)
                                               VALUE SPACES.
               10  WK01-PLAN-CD-SHRT-DSC-C047-Z              PIC X(1)
                                               VALUE SPACE.
               10  WK01-PLAN-CD-SHRT-DSC-C047-F              PIC X(1)
                                               VALUE SPACE.
               10  WK01-PLAN-CD-SHRT-DSC-C047-A              PIC X(1)
                                               VALUE SPACE.
               10  WK01-PLAN-CD-SHRT-DSC-C047-V              PIC X(1)
                                               VALUE SPACE.
               10  WK01-PLAN-CD-SHRT-DSC-C047-O              PIC X(1)
                                               VALUE SPACE.
               10  WK01-PLAN-CD-SHRT-DSC-C047       PIC X(10)
                                               VALUE SPACES.
               10  WK01-PLAN-COD-LNG-DSC-C047-Z              PIC X(1)
                                               VALUE SPACE.
               10  WK01-PLAN-COD-LNG-DSC-C047-F              PIC X(1)
                                               VALUE SPACE.
               10  WK01-PLAN-COD-LNG-DSC-C047-A              PIC X(1)
                                               VALUE SPACE.
               10  WK01-PLAN-COD-LNG-DSC-C047-V              PIC X(1)
                                               VALUE SPACE.
               10  WK01-PLAN-COD-LNG-DSC-C047-O              PIC X(1)
                                               VALUE SPACE.
               10  WK01-PLAN-COD-LNG-DSC-C047       PIC X(30)
                                               VALUE SPACES.
               10  WK01-START-DATE-CO047-Z              PIC X(1)
                                               VALUE SPACE.
               10  WK01-START-DATE-CO047-F              PIC X(1)
                                               VALUE SPACE.
               10  WK01-START-DATE-CO047-A              PIC X(1)
                                               VALUE SPACE.
               10  WK01-START-DATE-CO047-V              PIC X(1)
                                               VALUE SPACE.
               10  WK01-START-DATE-CO047-O              PIC X(1)
                                               VALUE SPACE.
               10  WK01-START-DATE-CO047       PIC X(6)
                                               VALUE SPACES.
               10  WK01-END-DATE-CO047-Z              PIC X(1)
                                               VALUE SPACE.
               10  WK01-END-DATE-CO047-F              PIC X(1)
                                               VALUE SPACE.
               10  WK01-END-DATE-CO047-A              PIC X(1)
                                               VALUE SPACE.
               10  WK01-END-DATE-CO047-V              PIC X(1)
                                               VALUE SPACE.
               10  WK01-END-DATE-CO047-O              PIC X(1)
                                               VALUE SPACE.
               10  WK01-END-DATE-CO047       PIC X(6)
                                               VALUE SPACES.
               10  WK01-FLAG-CO047-Z              PIC X(1)
                                               VALUE SPACE.
               10  WK01-FLAG-CO047-F              PIC X(1)
                                               VALUE SPACE.
               10  WK01-FLAG-CO047-A              PIC X(1)
                                               VALUE SPACE.
               10  WK01-FLAG-CO047-V              PIC X(1)
                                               VALUE SPACE.
               10  WK01-FLAG-CO047-O              PIC X(1)
                                               VALUE SPACE.
               10  WK01-FLAG-CO047       PIC X(1)
                                               VALUE SPACES.
               10  WK01-CODE-CO048-Z              PIC X(1)
                                               VALUE SPACE.
               10  WK01-CODE-CO048-F              PIC X(1)
                                               VALUE SPACE.
               10  WK01-CODE-CO048-A              PIC X(1)
                                               VALUE SPACE.
               10  WK01-CODE-CO048-V              PIC X(1)
                                               VALUE SPACE.
               10  WK01-CODE-CO048-O              PIC X(1)
                                               VALUE SPACE.
               10  WK01-CODE-CO048       PIC X(1)
                                               VALUE SPACES.
               10  WK01-PLAN-CODE-CO048-Z              PIC X(1)
                                               VALUE SPACE.
               10  WK01-PLAN-CODE-CO048-F              PIC X(1)
                                               VALUE SPACE.
               10  WK01-PLAN-CODE-CO048-A              PIC X(1)
                                               VALUE SPACE.
               10  WK01-PLAN-CODE-CO048-V              PIC X(1)
                                               VALUE SPACE.
               10  WK01-PLAN-CODE-CO048-O              PIC X(1)
                                               VALUE SPACE.
               10  WK01-PLAN-CODE-CO048       PIC X(4)
                                               VALUE SPACES.
               10  WK01-PLAN-CD-SHRT-DSC-C048-Z              PIC X(1)
                                               VALUE SPACE.
               10  WK01-PLAN-CD-SHRT-DSC-C048-F              PIC X(1)
                                               VALUE SPACE.
               10  WK01-PLAN-CD-SHRT-DSC-C048-A              PIC X(1)
                                               VALUE SPACE.
               10  WK01-PLAN-CD-SHRT-DSC-C048-V              PIC X(1)
                                               VALUE SPACE.
               10  WK01-PLAN-CD-SHRT-DSC-C048-O              PIC X(1)
                                               VALUE SPACE.
               10  WK01-PLAN-CD-SHRT-DSC-C048       PIC X(10)
                                               VALUE SPACES.
               10  WK01-PLAN-COD-LNG-DSC-C048-Z              PIC X(1)
                                               VALUE SPACE.
               10  WK01-PLAN-COD-LNG-DSC-C048-F              PIC X(1)
                                               VALUE SPACE.
               10  WK01-PLAN-COD-LNG-DSC-C048-A              PIC X(1)
                                               VALUE SPACE.
               10  WK01-PLAN-COD-LNG-DSC-C048-V              PIC X(1)
                                               VALUE SPACE.
               10  WK01-PLAN-COD-LNG-DSC-C048-O              PIC X(1)
                                               VALUE SPACE.
               10  WK01-PLAN-COD-LNG-DSC-C048       PIC X(30)
                                               VALUE SPACES.
               10  WK01-START-DATE-CO048-Z              PIC X(1)
                                               VALUE SPACE.
               10  WK01-START-DATE-CO048-F              PIC X(1)
                                               VALUE SPACE.
               10  WK01-START-DATE-CO048-A              PIC X(1)
                                               VALUE SPACE.
               10  WK01-START-DATE-CO048-V              PIC X(1)
                                               VALUE SPACE.
               10  WK01-START-DATE-CO048-O              PIC X(1)
                                               VALUE SPACE.
               10  WK01-START-DATE-CO048       PIC X(6)
                                               VALUE SPACES.
               10  WK01-END-DATE-CO048-Z              PIC X(1)
                                               VALUE SPACE.
               10  WK01-END-DATE-CO048-F              PIC X(1)
                                               VALUE SPACE.
               10  WK01-END-DATE-CO048-A              PIC X(1)
                                               VALUE SPACE.
               10  WK01-END-DATE-CO048-V              PIC X(1)
                                               VALUE SPACE.
               10  WK01-END-DATE-CO048-O              PIC X(1)
                                               VALUE SPACE.
               10  WK01-END-DATE-CO048       PIC X(6)
                                               VALUE SPACES.
               10  WK01-FLAG-CO048-Z              PIC X(1)
                                               VALUE SPACE.
               10  WK01-FLAG-CO048-F              PIC X(1)
                                               VALUE SPACE.
               10  WK01-FLAG-CO048-A              PIC X(1)
                                               VALUE SPACE.
               10  WK01-FLAG-CO048-V              PIC X(1)
                                               VALUE SPACE.
               10  WK01-FLAG-CO048-O              PIC X(1)
                                               VALUE SPACE.
               10  WK01-FLAG-CO048       PIC X(1)
                                               VALUE SPACES.
               10  WK01-CODE-CO049-Z              PIC X(1)
                                               VALUE SPACE.
               10  WK01-CODE-CO049-F              PIC X(1)
                                               VALUE SPACE.
               10  WK01-CODE-CO049-A              PIC X(1)
                                               VALUE SPACE.
               10  WK01-CODE-CO049-V              PIC X(1)
                                               VALUE SPACE.
               10  WK01-CODE-CO049-O              PIC X(1)
                                               VALUE SPACE.
               10  WK01-CODE-CO049       PIC X(1)
                                               VALUE SPACES.
               10  WK01-PLAN-CODE-CO049-Z              PIC X(1)
                                               VALUE SPACE.
               10  WK01-PLAN-CODE-CO049-F              PIC X(1)
                                               VALUE SPACE.
               10  WK01-PLAN-CODE-CO049-A              PIC X(1)
                                               VALUE SPACE.
               10  WK01-PLAN-CODE-CO049-V              PIC X(1)
                                               VALUE SPACE.
               10  WK01-PLAN-CODE-CO049-O              PIC X(1)
                                               VALUE SPACE.
               10  WK01-PLAN-CODE-CO049       PIC X(4)
                                               VALUE SPACES.
               10  WK01-PLAN-CD-SHRT-DSC-C049-Z              PIC X(1)
                                               VALUE SPACE.
               10  WK01-PLAN-CD-SHRT-DSC-C049-F              PIC X(1)
                                               VALUE SPACE.
               10  WK01-PLAN-CD-SHRT-DSC-C049-A              PIC X(1)
                                               VALUE SPACE.
               10  WK01-PLAN-CD-SHRT-DSC-C049-V              PIC X(1)
                                               VALUE SPACE.
               10  WK01-PLAN-CD-SHRT-DSC-C049-O              PIC X(1)
                                               VALUE SPACE.
               10  WK01-PLAN-CD-SHRT-DSC-C049       PIC X(10)
                                               VALUE SPACES.
               10  WK01-PLAN-COD-LNG-DSC-C049-Z              PIC X(1)
                                               VALUE SPACE.
               10  WK01-PLAN-COD-LNG-DSC-C049-F              PIC X(1)
                                               VALUE SPACE.
               10  WK01-PLAN-COD-LNG-DSC-C049-A              PIC X(1)
                                               VALUE SPACE.
               10  WK01-PLAN-COD-LNG-DSC-C049-V              PIC X(1)
                                               VALUE SPACE.
               10  WK01-PLAN-COD-LNG-DSC-C049-O              PIC X(1)
                                               VALUE SPACE.
               10  WK01-PLAN-COD-LNG-DSC-C049       PIC X(30)
                                               VALUE SPACES.
               10  WK01-START-DATE-CO049-Z              PIC X(1)
                                               VALUE SPACE.
               10  WK01-START-DATE-CO049-F              PIC X(1)
                                               VALUE SPACE.
               10  WK01-START-DATE-CO049-A              PIC X(1)
                                               VALUE SPACE.
               10  WK01-START-DATE-CO049-V              PIC X(1)
                                               VALUE SPACE.
               10  WK01-START-DATE-CO049-O              PIC X(1)
                                               VALUE SPACE.
               10  WK01-START-DATE-CO049       PIC X(6)
                                               VALUE SPACES.
               10  WK01-END-DATE-CO049-Z              PIC X(1)
                                               VALUE SPACE.
               10  WK01-END-DATE-CO049-F              PIC X(1)
                                               VALUE SPACE.
               10  WK01-END-DATE-CO049-A              PIC X(1)
                                               VALUE SPACE.
               10  WK01-END-DATE-CO049-V              PIC X(1)
                                               VALUE SPACE.
               10  WK01-END-DATE-CO049-O              PIC X(1)
                                               VALUE SPACE.
               10  WK01-END-DATE-CO049       PIC X(6)
                                               VALUE SPACES.
               10  WK01-FLAG-CO049-Z              PIC X(1)
                                               VALUE SPACE.
               10  WK01-FLAG-CO049-F              PIC X(1)
                                               VALUE SPACE.
               10  WK01-FLAG-CO049-A              PIC X(1)
                                               VALUE SPACE.
               10  WK01-FLAG-CO049-V              PIC X(1)
                                               VALUE SPACE.
               10  WK01-FLAG-CO049-O              PIC X(1)
                                               VALUE SPACE.
               10  WK01-FLAG-CO049       PIC X(1)
                                               VALUE SPACES.
               10  WK01-CODE-CO0410-Z              PIC X(1)
                                               VALUE SPACE.
               10  WK01-CODE-CO0410-F              PIC X(1)
                                               VALUE SPACE.
               10  WK01-CODE-CO0410-A              PIC X(1)
                                               VALUE SPACE.
               10  WK01-CODE-CO0410-V              PIC X(1)
                                               VALUE SPACE.
               10  WK01-CODE-CO0410-O              PIC X(1)
                                               VALUE SPACE.
               10  WK01-CODE-CO0410       PIC X(1)
                                               VALUE SPACES.
               10  WK01-PLAN-CODE-CO0410-Z              PIC X(1)
                                               VALUE SPACE.
               10  WK01-PLAN-CODE-CO0410-F              PIC X(1)
                                               VALUE SPACE.
               10  WK01-PLAN-CODE-CO0410-A              PIC X(1)
                                               VALUE SPACE.
               10  WK01-PLAN-CODE-CO0410-V              PIC X(1)
                                               VALUE SPACE.
               10  WK01-PLAN-CODE-CO0410-O              PIC X(1)
                                               VALUE SPACE.
               10  WK01-PLAN-CODE-CO0410       PIC X(4)
                                               VALUE SPACES.
               10  WK01-PLAN-CD-SHRT-DSC-C0410-Z              PIC X(1)
                                               VALUE SPACE.
               10  WK01-PLAN-CD-SHRT-DSC-C0410-F              PIC X(1)
                                               VALUE SPACE.
               10  WK01-PLAN-CD-SHRT-DSC-C0410-A              PIC X(1)
                                               VALUE SPACE.
               10  WK01-PLAN-CD-SHRT-DSC-C0410-V              PIC X(1)
                                               VALUE SPACE.
               10  WK01-PLAN-CD-SHRT-DSC-C0410-O              PIC X(1)
                                               VALUE SPACE.
               10  WK01-PLAN-CD-SHRT-DSC-C0410       PIC X(10)
                                               VALUE SPACES.
               10  WK01-PLAN-COD-LNG-DSC-C0410-Z              PIC X(1)
                                               VALUE SPACE.
               10  WK01-PLAN-COD-LNG-DSC-C0410-F              PIC X(1)
                                               VALUE SPACE.
               10  WK01-PLAN-COD-LNG-DSC-C0410-A              PIC X(1)
                                               VALUE SPACE.
               10  WK01-PLAN-COD-LNG-DSC-C0410-V              PIC X(1)
                                               VALUE SPACE.
               10  WK01-PLAN-COD-LNG-DSC-C0410-O              PIC X(1)
                                               VALUE SPACE.
               10  WK01-PLAN-COD-LNG-DSC-C0410       PIC X(30)
                                               VALUE SPACES.
               10  WK01-START-DATE-CO0410-Z              PIC X(1)
                                               VALUE SPACE.
               10  WK01-START-DATE-CO0410-F              PIC X(1)
                                               VALUE SPACE.
               10  WK01-START-DATE-CO0410-A              PIC X(1)
                                               VALUE SPACE.
               10  WK01-START-DATE-CO0410-V              PIC X(1)
                                               VALUE SPACE.
               10  WK01-START-DATE-CO0410-O              PIC X(1)
                                               VALUE SPACE.
               10  WK01-START-DATE-CO0410       PIC X(6)
                                               VALUE SPACES.
               10  WK01-END-DATE-CO0410-Z              PIC X(1)
                                               VALUE SPACE.
               10  WK01-END-DATE-CO0410-F              PIC X(1)
                                               VALUE SPACE.
               10  WK01-END-DATE-CO0410-A              PIC X(1)
                                               VALUE SPACE.
               10  WK01-END-DATE-CO0410-V              PIC X(1)
                                               VALUE SPACE.
               10  WK01-END-DATE-CO0410-O              PIC X(1)
                                               VALUE SPACE.
               10  WK01-END-DATE-CO0410       PIC X(6)
                                               VALUE SPACES.
               10  WK01-FLAG-CO0410-Z              PIC X(1)
                                               VALUE SPACE.
               10  WK01-FLAG-CO0410-F              PIC X(1)
                                               VALUE SPACE.
               10  WK01-FLAG-CO0410-A              PIC X(1)
                                               VALUE SPACE.
               10  WK01-FLAG-CO0410-V              PIC X(1)
                                               VALUE SPACE.
               10  WK01-FLAG-CO0410-O              PIC X(1)
                                               VALUE SPACE.
               10  WK01-FLAG-CO0410       PIC X(1)
                                               VALUE SPACES.
               10  WK01-COMM-PLAN-CODE-CO04-Z              PIC X(1)
                                               VALUE SPACE.
               10  WK01-COMM-PLAN-CODE-CO04-F              PIC X(1)
                                               VALUE SPACE.
               10  WK01-COMM-PLAN-CODE-CO04-A              PIC X(1)
                                               VALUE SPACE.
               10  WK01-COMM-PLAN-CODE-CO04-V              PIC X(1)
                                               VALUE SPACE.
               10  WK01-COMM-PLAN-CODE-CO04-O              PIC X(1)
                                               VALUE SPACE.
               10  WK01-COMM-PLAN-CODE-CO04       PIC X(4)
                                               VALUE SPACES.
               10  WK01-ZZMESSAGE-Z              PIC X(1)
                                               VALUE SPACE.
               10  WK01-ZZMESSAGE-F              PIC X(1)
                                               VALUE SPACE.
               10  WK01-ZZMESSAGE-A              PIC X(1)
                                               VALUE SPACE.
               10  WK01-ZZMESSAGE-V              PIC X(1)
                                               VALUE SPACE.
               10  WK01-ZZMESSAGE-O              PIC X(1)
                                               VALUE SPACE.
               10  WK01-ZZMESSAGE       PIC X(160)
                                               VALUE SPACES.
               10  WK01-PASSED-ONE-Z              PIC X(1)
                                               VALUE SPACE.
               10  WK01-PASSED-ONE-F              PIC X(1)
                                               VALUE SPACE.
               10  WK01-PASSED-ONE-A              PIC X(1)
                                               VALUE SPACE.
               10  WK01-PASSED-ONE-V              PIC X(1)
                                               VALUE SPACE.
               10  WK01-PASSED-ONE-O              PIC X(1)
                                               VALUE SPACE.
               10  WK01-PASSED-ONE       PIC X(32)
                                               VALUE SPACES.
               10  WK01-MAP-RESPONSE-Z              PIC X(1)
                                               VALUE SPACE.
               10  WK01-MAP-RESPONSE-F              PIC X(1)
                                               VALUE SPACE.
               10  WK01-MAP-RESPONSE-A              PIC X(1)
                                               VALUE SPACE.
               10  WK01-MAP-RESPONSE-V              PIC X(1)
                                               VALUE SPACE.
               10  WK01-MAP-RESPONSE-O              PIC X(1)
                                               VALUE SPACE.
               10  WK01-MAP-RESPONSE       PIC X(8)
                                               VALUE SPACES.
               10  WK01-TEXT-SY00-Z              PIC X(1)
                                               VALUE SPACE.
               10  WK01-TEXT-SY00-F              PIC X(1)
                                               VALUE SPACE.
               10  WK01-TEXT-SY00-A              PIC X(1)
                                               VALUE SPACE.
               10  WK01-TEXT-SY00-V              PIC X(1)
                                               VALUE SPACE.
               10  WK01-TEXT-SY00-O              PIC X(1)
                                               VALUE SPACE.
               10  WK01-TEXT-SY00       PIC X(14)
                                               VALUE SPACES.
           04  WK01-SUBSCRIPTED-WORK-AREA.
               05  FILLER                      PIC X(1).
               05  WK01-PLAN-CODE-CO04-F             PIC X(1)
                                               OCCURS 10.
               05  WK01-PLAN-CD-SHRT-DSC-C04-F             PIC X(1)
                                               OCCURS 10.
               05  WK01-PLAN-COD-LNG-DSC-C04-F             PIC X(1)
                                               OCCURS 10.
               05  WK01-START-DATE-CO04-F             PIC X(1)
                                               OCCURS 10.
               05  WK01-END-DATE-CO04-F             PIC X(1)
                                               OCCURS 10.
               05  WK01-FLAG-CO04-F             PIC X(1)
                                               OCCURS 10.
               05  WK01-CODE-CO04-F             PIC X(1)
                                               OCCURS 10.
