    ***Created by Convert/DC version V8R03 on 12/13/00 at 15:00***

      *%--------------------------------------------------------------%*
           MOVE DCLINK-MESSAGE  TO WK01-ZZMESSAGE.
      *%--------------------------------------------------------------%*
           MOVE AGR-DATE OF ADSO-APPLICATION-GLOBAL-RECORD TO WK01-DATE.
      *%--------------------------------------------------------------%*
           MOVE AGR-USER-ID OF ADSO-APPLICATION-GLOBAL-RECORD TO
                WK01-USER-ID.
      *%--------------------------------------------------------------%*
           MOVE AGR-FUNC-DESCRIPTION OF ADSO-APPLICATION-GLOBAL-RECORD
                TO WK01-FUNC-DESCRIPTION.
      *%--------------------------------------------------------------%*
           MOVE AGR-PASSED-ONE OF ADSO-APPLICATION-GLOBAL-RECORD TO
                WK01-PASSED-ONE.
      *%--------------------------------------------------------------%*
           MOVE AGR-MAP-RESPONSE OF ADSO-APPLICATION-GLOBAL-RECORD TO
                WK01-MAP-RESPONSE.
      *%--------------------------------------------------------------%*
           MOVE TRMNL-ID-SY00 OF FZYWG00M TO WK01-ID-SY00.
      *%--------------------------------------------------------------%*
           MOVE FULL-NAME-6001-SY00 OF FZYWG00M TO WK01-NAME-6001-SY00.
      *%--------------------------------------------------------------%*
           MOVE AM-PM-FLAG-SY00 OF FZYWG00M TO WK01-PM-FLAG-SY00.
      *%--------------------------------------------------------------%*
           MOVE CURR-RSPNS-ID-SY00 OF FZYWG00M TO WK01-RSPNS-ID-SY00.
      *%--------------------------------------------------------------%*
           MOVE ERROR-TEXT-SY00 OF FZYWG00M TO WK01-TEXT-SY00.
      *%--------------------------------------------------------------%*
           MOVE PAGE-STATUS-CODE-SY00 OF FZYWG00M TO
                WK01-STATUS-CODE-SY00.
      *%--------------------------------------------------------------%*
           MOVE WORK-HH-MM-TIME-SY00 OF FZYWG00M TO
                WK01-HH-MM-TIME-SY00.
      *%--------------------------------------------------------------%*
           MOVE COMM-TEXT-6261-CO08 OF FCOWM08(0001) TO
                WK01-TEXT-6261-CO081.
      *%--------------------------------------------------------------%*
           MOVE COMM-TEXT-6261-CO08 OF FCOWM08(0002) TO
                WK01-TEXT-6261-CO082.
      *%--------------------------------------------------------------%*
           MOVE COMM-TEXT-6261-CO08 OF FCOWM08(0003) TO
                WK01-TEXT-6261-CO083.
      *%--------------------------------------------------------------%*
           MOVE COMM-TEXT-6261-CO08 OF FCOWM08(0004) TO
                WK01-TEXT-6261-CO084.
      *%--------------------------------------------------------------%*
           MOVE COMM-TEXT-6261-CO08 OF FCOWM08(0005) TO
                WK01-TEXT-6261-CO085.
      *%--------------------------------------------------------------%*
           MOVE COMM-TEXT-6261-CO08 OF FCOWM08(0006) TO
                WK01-TEXT-6261-CO086.
      *%--------------------------------------------------------------%*
           MOVE COMM-TEXT-6261-CO08 OF FCOWM08(0007) TO
                WK01-TEXT-6261-CO087.
      *%--------------------------------------------------------------%*
           MOVE COMM-TEXT-6261-CO08 OF FCOWM08(0008) TO
                WK01-TEXT-6261-CO088.
      *%--------------------------------------------------------------%*
           MOVE COMM-TEXT-6261-CO08 OF FCOWM08(0009) TO
                WK01-TEXT-6261-CO089.
      *%--------------------------------------------------------------%*
           MOVE COMM-TEXT-6261-CO08 OF FCOWM08(0010) TO
                WK01-TEXT-6261-CO0810.
      *%--------------------------------------------------------------%*
           MOVE COMM-VIEW-6257-CO08 OF FCOWM08 TO WK01-VIEW-6257-CO08.
      *%--------------------------------------------------------------%*
           MOVE COMM-TYPE-6258-CO08 OF FCOWM08 TO WK01-TYPE-6258-CO08.
      *%--------------------------------------------------------------%*
           MOVE COMM-PLAN-CODE-6259-CO08 OF FCOWM08 TO
                WK01-PLAN-CODE-6259-CO08.
      *%--------------------------------------------------------------%*
           MOVE TEXT-CODE-6260-CO08 OF FCOWK08 TO WK01-CODE-6260-CO08.
      *%--------------------------------------------------------------%*
           MOVE SHORT-DESC-6258-CO08 OF FCOWM08 TO WK01-DESC-6258-CO08.
      *%--------------------------------------------------------------%*
           MOVE SHORT-DESC-6259-CO08 OF FCOWM08 TO WK01-DESC-6259-CO08.
      *%--------------------------------------------------------------%*
           MOVE SHORT-DESC-6260-CO08 OF FCOWM08 TO WK01-DESC-6260-CO08.
      *%--------------------------------------------------------------%*
           MOVE LONG-DESC-6257-CO08 OF FCOWM08 TO WK01-DESC-6257-CO08.
      *%--------------------------------------------------------------%*
           MOVE ACTN-CODE-CO08 OF FCOWM08 TO WK01-CODE-CO08.
      *%--------------------------------------------------------------%*
           MOVE LINE-LGTH-6260-CO08 OF FCOWM08 TO WK01-LGTH-6260-CO08.
      *%--------------------------------------------------------------%*
           MOVE LINES-PER-PAGE-6260-CO08 OF FCOWM08 TO
                WK01-PER-PAGE-6260-CO08.
      *%--------------------------------------------------------------%*
           MOVE TOP-MARGIN-6260-CO08 OF FCOWM08 TO
                WK01-MARGIN-6260-CO08.
      *%--------------------------------------------------------------%*
           MOVE LABEL-ID-6260-CO08 OF FCOWM08 TO WK01-ID-6260-CO08.
      *%--------------------------------------------------------------%*
           MOVE VERIFY-FLAG-6260-CO08 OF FCOWM08 TO WK01-FLAG-6260-CO08.
      *%--------------------------------------------------------------%*
           MOVE COPY-TEXT-CODE-CO08 OF FCOWM08 TO WK01-TEXT-CODE-CO08.
      *%--------------------------------------------------------------%*
           MOVE COPY-LINE-LGTH-CO08 OF FCOWM08 TO WK01-LINE-LGTH-CO08.
      *%--------------------------------------------------------------%*
           MOVE COPY-LINES-PER-PAGE-CO08 OF FCOWM08 TO
                WK01-LINES-PER-PAGE-CO08.
      *%--------------------------------------------------------------%*
           MOVE COPY-TOP-MARGIN-CO08 OF FCOWM08 TO WK01-TOP-MARGIN-CO08.
