    ***Created by Convert/DC version V8R03 on 12/13/00 at 10:00***

      *%--------------------------------------------------------------%*
           IF WK01-ZZMESSAGE-Z = 'Y'
               MOVE WK01-ZZMESSAGE TO DCLINK-MESSAGE
           END-IF.
      *%--------------------------------------------------------------%*
           IF WK01-DATE-Z = 'Y'
               MOVE WK01-DATE TO AGR-DATE OF
                ADSO-APPLICATION-GLOBAL-RECORD
           END-IF.
      *%--------------------------------------------------------------%*
           IF WK01-USER-ID-Z = 'Y'
               MOVE WK01-USER-ID TO AGR-USER-ID OF
                ADSO-APPLICATION-GLOBAL-RECORD
           END-IF.
      *%--------------------------------------------------------------%*
           IF WK01-FUNC-DESCRIPTION-Z = 'Y'
               MOVE WK01-FUNC-DESCRIPTION TO AGR-FUNC-DESCRIPTION OF
                ADSO-APPLICATION-GLOBAL-RECORD
           END-IF.
      *%--------------------------------------------------------------%*
           IF WK01-PASSED-ONE-Z = 'Y'
               MOVE WK01-PASSED-ONE TO AGR-PASSED-ONE OF
                ADSO-APPLICATION-GLOBAL-RECORD
           END-IF.
      *%--------------------------------------------------------------%*
           IF WK01-MAP-RESPONSE-Z = 'Y'
               MOVE WK01-MAP-RESPONSE TO AGR-MAP-RESPONSE OF
                ADSO-APPLICATION-GLOBAL-RECORD
           END-IF.
      *%--------------------------------------------------------------%*
           IF WK01-ID-SY00-Z = 'Y'
               MOVE WK01-ID-SY00 TO TRMNL-ID-SY00 OF FZYWG00M
           END-IF.
      *%--------------------------------------------------------------%*
           IF WK01-NAME-6001-SY00-Z = 'Y'
               MOVE WK01-NAME-6001-SY00 TO FULL-NAME-6001-SY00 OF
                FZYWG00M
           END-IF.
      *%--------------------------------------------------------------%*
           IF WK01-PM-FLAG-SY00-Z = 'Y'
               MOVE WK01-PM-FLAG-SY00 TO AM-PM-FLAG-SY00 OF FZYWG00M
           END-IF.
      *%--------------------------------------------------------------%*
           IF WK01-RSPNS-ID-SY00-Z = 'Y'
               MOVE WK01-RSPNS-ID-SY00 TO CURR-RSPNS-ID-SY00 OF FZYWG00M
           END-IF.
      *%--------------------------------------------------------------%*
           IF WK01-TEXT-SY00-Z = 'Y'
               MOVE WK01-TEXT-SY00 TO ERROR-TEXT-SY00 OF FZYWG00M
           END-IF.
      *%--------------------------------------------------------------%*
           IF WK01-STATUS-CODE-SY00-Z = 'Y'
               MOVE WK01-STATUS-CODE-SY00 TO PAGE-STATUS-CODE-SY00 OF
                FZYWG00M
           END-IF.
      *%--------------------------------------------------------------%*
           IF WK01-HH-MM-TIME-SY00-Z = 'Y'
               MOVE WK01-HH-MM-TIME-SY00 TO WORK-HH-MM-TIME-SY00 OF
                FZYWG00M
           END-IF.
      *%--------------------------------------------------------------%*
           IF WK01-VIEW-6257-CO02-Z = 'Y'
               MOVE WK01-VIEW-6257-CO02 TO COMM-VIEW-6257-CO02 OF
                FCOWK02
           END-IF.
      *%--------------------------------------------------------------%*
           IF WK01-DESC-6257-CO02-Z = 'Y'
               MOVE WK01-DESC-6257-CO02 TO LONG-DESC-6257-CO02 OF
                FCOWM02
           END-IF.
      *%--------------------------------------------------------------%*
           IF WK01-OPTN-1-6262-CO021-Z = 'Y'
               MOVE WK01-OPTN-1-6262-CO021 TO FRMT-OPTN-1-6262-CO02 OF
                FCOWM02(0001)
           END-IF.
           MOVE WK01-OPTN-1-6262-CO021-F TO WK01-OPTN-1-6262-CO02-F (1).
      *%--------------------------------------------------------------%*
           IF WK01-ELMNT-ID-6262-CO021-Z = 'Y'
               MOVE WK01-ELMNT-ID-6262-CO021 TO
                INSRT-ELMNT-ID-6262-CO02 OF FCOWM02(0001)
           END-IF.
           MOVE WK01-ELMNT-ID-6262-CO021-F TO WK01-ELMNT-ID-6262-CO02-F
                (1).
      *%--------------------------------------------------------------%*
           IF WK01-ELMNT-ID-6262-CO022-Z = 'Y'
               MOVE WK01-ELMNT-ID-6262-CO022 TO
                INSRT-ELMNT-ID-6262-CO02 OF FCOWM02(0002)
           END-IF.
           MOVE WK01-ELMNT-ID-6262-CO022-F TO WK01-ELMNT-ID-6262-CO02-F
                (2).
      *%--------------------------------------------------------------%*
           IF WK01-ELMNT-ID-6262-CO023-Z = 'Y'
               MOVE WK01-ELMNT-ID-6262-CO023 TO
                INSRT-ELMNT-ID-6262-CO02 OF FCOWM02(0003)
           END-IF.
           MOVE WK01-ELMNT-ID-6262-CO023-F TO WK01-ELMNT-ID-6262-CO02-F
                (3).
      *%--------------------------------------------------------------%*
           IF WK01-ELMNT-ID-6262-CO024-Z = 'Y'
               MOVE WK01-ELMNT-ID-6262-CO024 TO
                INSRT-ELMNT-ID-6262-CO02 OF FCOWM02(0004)
           END-IF.
           MOVE WK01-ELMNT-ID-6262-CO024-F TO WK01-ELMNT-ID-6262-CO02-F
                (4).
      *%--------------------------------------------------------------%*
           IF WK01-ELMNT-ID-6262-CO025-Z = 'Y'
               MOVE WK01-ELMNT-ID-6262-CO025 TO
                INSRT-ELMNT-ID-6262-CO02 OF FCOWM02(0005)
           END-IF.
           MOVE WK01-ELMNT-ID-6262-CO025-F TO WK01-ELMNT-ID-6262-CO02-F
                (5).
      *%--------------------------------------------------------------%*
           IF WK01-ELMNT-ID-6262-CO026-Z = 'Y'
               MOVE WK01-ELMNT-ID-6262-CO026 TO
                INSRT-ELMNT-ID-6262-CO02 OF FCOWM02(0006)
           END-IF.
           MOVE WK01-ELMNT-ID-6262-CO026-F TO WK01-ELMNT-ID-6262-CO02-F
                (6).
      *%--------------------------------------------------------------%*
           IF WK01-ELMNT-ID-6262-CO027-Z = 'Y'
               MOVE WK01-ELMNT-ID-6262-CO027 TO
                INSRT-ELMNT-ID-6262-CO02 OF FCOWM02(0007)
           END-IF.
           MOVE WK01-ELMNT-ID-6262-CO027-F TO WK01-ELMNT-ID-6262-CO02-F
                (7).
      *%--------------------------------------------------------------%*
           IF WK01-ELMNT-ID-6262-CO028-Z = 'Y'
               MOVE WK01-ELMNT-ID-6262-CO028 TO
                INSRT-ELMNT-ID-6262-CO02 OF FCOWM02(0008)
           END-IF.
           MOVE WK01-ELMNT-ID-6262-CO028-F TO WK01-ELMNT-ID-6262-CO02-F
                (8).
      *%--------------------------------------------------------------%*
           IF WK01-ELMNT-ID-6262-CO029-Z = 'Y'
               MOVE WK01-ELMNT-ID-6262-CO029 TO
                INSRT-ELMNT-ID-6262-CO02 OF FCOWM02(0009)
           END-IF.
           MOVE WK01-ELMNT-ID-6262-CO029-F TO WK01-ELMNT-ID-6262-CO02-F
                (9).
      *%--------------------------------------------------------------%*
           IF WK01-ELMNT-ID-6262-CO0210-Z = 'Y'
               MOVE WK01-ELMNT-ID-6262-CO0210 TO
                INSRT-ELMNT-ID-6262-CO02 OF FCOWM02(0010)
           END-IF.
           MOVE WK01-ELMNT-ID-6262-CO0210-F TO
                WK01-ELMNT-ID-6262-CO02-F (10).
      *%--------------------------------------------------------------%*
           IF WK01-ELMNT-ID-6262-CO0211-Z = 'Y'
               MOVE WK01-ELMNT-ID-6262-CO0211 TO
                INSRT-ELMNT-ID-6262-CO02 OF FCOWM02(0011)
           END-IF.
           MOVE WK01-ELMNT-ID-6262-CO0211-F TO
                WK01-ELMNT-ID-6262-CO02-F (11).
      *%--------------------------------------------------------------%*
           IF WK01-DESC-LGTH-6262-CO021-Z = 'Y'
               MOVE WK01-DESC-LGTH-6262-CO021 TO
                LONG-DESC-LGTH-6262-CO02 OF FCOWM02(0001)
           END-IF.
           MOVE WK01-DESC-LGTH-6262-CO021-F TO
                WK01-DESC-LGTH-6262-CO02-F (1).
      *%--------------------------------------------------------------%*
           IF WK01-DESC-6262-CO021-Z = 'Y'
               MOVE WK01-DESC-6262-CO021 TO LONG-DESC-6262-CO02 OF
                FCOWM02(0001)
           END-IF.
           MOVE WK01-DESC-6262-CO021-F TO WK01-DESC-6262-CO02-F (1).
      *%--------------------------------------------------------------%*
           IF WK01-INSRT-ELMNT-ID-CO02-Z = 'Y'
               MOVE WK01-INSRT-ELMNT-ID-CO02 TO
                RQST-INSRT-ELMNT-ID-CO02 OF FCOWK02
           END-IF.
      *%--------------------------------------------------------------%*
           IF WK01-LGTH-6262-CO021-Z = 'Y'
               MOVE WK01-LGTH-6262-CO021 TO CODE-LGTH-6262-CO02 OF
                FCOWM02(0001)
           END-IF.
           MOVE WK01-LGTH-6262-CO021-F TO WK01-LGTH-6262-CO02-F (1).
      *%--------------------------------------------------------------%*
           IF WK01-DESC-LGTH-6262-CO0A1-Z = 'Y'
               MOVE WK01-DESC-LGTH-6262-CO0A1 TO
                SHORT-DESC-LGTH-6262-CO02 OF FCOWM02(0001)
           END-IF.
           MOVE WK01-DESC-LGTH-6262-CO0A1-F TO
                WK01-DESC-LGTH-6262-CO0A-F (1).
      *%--------------------------------------------------------------%*
           IF WK01-OPTN-2-6262-CO021-Z = 'Y'
               MOVE WK01-OPTN-2-6262-CO021 TO FRMT-OPTN-2-6262-CO02 OF
                FCOWM02(0001)
           END-IF.
           MOVE WK01-OPTN-2-6262-CO021-F TO WK01-OPTN-2-6262-CO02-F (1).
      *%--------------------------------------------------------------%*
           IF WK01-OPTN-3-6262-CO021-Z = 'Y'
               MOVE WK01-OPTN-3-6262-CO021 TO FRMT-OPTN-3-6262-CO02 OF
                FCOWM02(0001)
           END-IF.
           MOVE WK01-OPTN-3-6262-CO021-F TO WK01-OPTN-3-6262-CO02-F (1).
      *%--------------------------------------------------------------%*
           IF WK01-OPTN-4-6262-CO021-Z = 'Y'
               MOVE WK01-OPTN-4-6262-CO021 TO FRMT-OPTN-4-6262-CO02 OF
                FCOWM02(0001)
           END-IF.
           MOVE WK01-OPTN-4-6262-CO021-F TO WK01-OPTN-4-6262-CO02-F (1).
      *%--------------------------------------------------------------%*
           IF WK01-OPTN-5-6262-CO021-Z = 'Y'
               MOVE WK01-OPTN-5-6262-CO021 TO FRMT-OPTN-5-6262-CO02 OF
                FCOWM02(0001)
           END-IF.
           MOVE WK01-OPTN-5-6262-CO021-F TO WK01-OPTN-5-6262-CO02-F (1).
      *%--------------------------------------------------------------%*
           IF WK01-OPTN-6-6262-CO021-Z = 'Y'
               MOVE WK01-OPTN-6-6262-CO021 TO FRMT-OPTN-6-6262-CO02 OF
                FCOWM02(0001)
           END-IF.
           MOVE WK01-OPTN-6-6262-CO021-F TO WK01-OPTN-6-6262-CO02-F (1).
      *%--------------------------------------------------------------%*
           IF WK01-OPTN-7-6262-CO021-Z = 'Y'
               MOVE WK01-OPTN-7-6262-CO021 TO FRMT-OPTN-7-6262-CO02 OF
                FCOWM02(0001)
           END-IF.
           MOVE WK01-OPTN-7-6262-CO021-F TO WK01-OPTN-7-6262-CO02-F (1).
      *%--------------------------------------------------------------%*
           IF WK01-OPTN-8-6262-CO021-Z = 'Y'
               MOVE WK01-OPTN-8-6262-CO021 TO FRMT-OPTN-8-6262-CO02 OF
                FCOWM02(0001)
           END-IF.
           MOVE WK01-OPTN-8-6262-CO021-F TO WK01-OPTN-8-6262-CO02-F (1).
      *%--------------------------------------------------------------%*
           IF WK01-OPTN-9-6262-CO021-Z = 'Y'
               MOVE WK01-OPTN-9-6262-CO021 TO FRMT-OPTN-9-6262-CO02 OF
                FCOWM02(0001)
           END-IF.
           MOVE WK01-OPTN-9-6262-CO021-F TO WK01-OPTN-9-6262-CO02-F (1).
      *%--------------------------------------------------------------%*
           IF WK01-OCCUR-6262-CO021-Z = 'Y'
               MOVE WK01-OCCUR-6262-CO021 TO CODE-OCCUR-6262-CO02 OF
                FCOWM02(0001)
           END-IF.
           MOVE WK01-OCCUR-6262-CO021-F TO WK01-OCCUR-6262-CO02-F (1).
      *%--------------------------------------------------------------%*
           IF WK01-DESC-6262-CO022-Z = 'Y'
               MOVE WK01-DESC-6262-CO022 TO LONG-DESC-6262-CO02 OF
                FCOWM02(0002)
           END-IF.
           MOVE WK01-DESC-6262-CO022-F TO WK01-DESC-6262-CO02-F (2).
      *%--------------------------------------------------------------%*
           IF WK01-DESC-6262-CO023-Z = 'Y'
               MOVE WK01-DESC-6262-CO023 TO LONG-DESC-6262-CO02 OF
                FCOWM02(0003)
           END-IF.
           MOVE WK01-DESC-6262-CO023-F TO WK01-DESC-6262-CO02-F (3).
      *%--------------------------------------------------------------%*
           IF WK01-DESC-6262-CO024-Z = 'Y'
               MOVE WK01-DESC-6262-CO024 TO LONG-DESC-6262-CO02 OF
                FCOWM02(0004)
           END-IF.
           MOVE WK01-DESC-6262-CO024-F TO WK01-DESC-6262-CO02-F (4).
      *%--------------------------------------------------------------%*
           IF WK01-DESC-6262-CO025-Z = 'Y'
               MOVE WK01-DESC-6262-CO025 TO LONG-DESC-6262-CO02 OF
                FCOWM02(0005)
           END-IF.
           MOVE WK01-DESC-6262-CO025-F TO WK01-DESC-6262-CO02-F (5).
      *%--------------------------------------------------------------%*
           IF WK01-DESC-6262-CO026-Z = 'Y'
               MOVE WK01-DESC-6262-CO026 TO LONG-DESC-6262-CO02 OF
                FCOWM02(0006)
           END-IF.
           MOVE WK01-DESC-6262-CO026-F TO WK01-DESC-6262-CO02-F (6).
      *%--------------------------------------------------------------%*
           IF WK01-DESC-6262-CO027-Z = 'Y'
               MOVE WK01-DESC-6262-CO027 TO LONG-DESC-6262-CO02 OF
                FCOWM02(0007)
           END-IF.
           MOVE WK01-DESC-6262-CO027-F TO WK01-DESC-6262-CO02-F (7).
      *%--------------------------------------------------------------%*
           IF WK01-DESC-6262-CO028-Z = 'Y'
               MOVE WK01-DESC-6262-CO028 TO LONG-DESC-6262-CO02 OF
                FCOWM02(0008)
           END-IF.
           MOVE WK01-DESC-6262-CO028-F TO WK01-DESC-6262-CO02-F (8).
      *%--------------------------------------------------------------%*
           IF WK01-DESC-6262-CO029-Z = 'Y'
               MOVE WK01-DESC-6262-CO029 TO LONG-DESC-6262-CO02 OF
                FCOWM02(0009)
           END-IF.
           MOVE WK01-DESC-6262-CO029-F TO WK01-DESC-6262-CO02-F (9).
      *%--------------------------------------------------------------%*
           IF WK01-DESC-6262-CO0210-Z = 'Y'
               MOVE WK01-DESC-6262-CO0210 TO LONG-DESC-6262-CO02 OF
                FCOWM02(0010)
           END-IF.
           MOVE WK01-DESC-6262-CO0210-F TO WK01-DESC-6262-CO02-F (10).
      *%--------------------------------------------------------------%*
           IF WK01-DESC-6262-CO0211-Z = 'Y'
               MOVE WK01-DESC-6262-CO0211 TO LONG-DESC-6262-CO02 OF
                FCOWM02(0011)
           END-IF.
           MOVE WK01-DESC-6262-CO0211-F TO WK01-DESC-6262-CO02-F (11).
      *%--------------------------------------------------------------%*
           IF WK01-LGTH-6262-CO022-Z = 'Y'
               MOVE WK01-LGTH-6262-CO022 TO CODE-LGTH-6262-CO02 OF
                FCOWM02(0002)
           END-IF.
           MOVE WK01-LGTH-6262-CO022-F TO WK01-LGTH-6262-CO02-F (2).
      *%--------------------------------------------------------------%*
           IF WK01-LGTH-6262-CO023-Z = 'Y'
               MOVE WK01-LGTH-6262-CO023 TO CODE-LGTH-6262-CO02 OF
                FCOWM02(0003)
           END-IF.
           MOVE WK01-LGTH-6262-CO023-F TO WK01-LGTH-6262-CO02-F (3).
      *%--------------------------------------------------------------%*
           IF WK01-LGTH-6262-CO024-Z = 'Y'
               MOVE WK01-LGTH-6262-CO024 TO CODE-LGTH-6262-CO02 OF
                FCOWM02(0004)
           END-IF.
           MOVE WK01-LGTH-6262-CO024-F TO WK01-LGTH-6262-CO02-F (4).
      *%--------------------------------------------------------------%*
           IF WK01-LGTH-6262-CO025-Z = 'Y'
               MOVE WK01-LGTH-6262-CO025 TO CODE-LGTH-6262-CO02 OF
                FCOWM02(0005)
           END-IF.
           MOVE WK01-LGTH-6262-CO025-F TO WK01-LGTH-6262-CO02-F (5).
      *%--------------------------------------------------------------%*
           IF WK01-LGTH-6262-CO026-Z = 'Y'
               MOVE WK01-LGTH-6262-CO026 TO CODE-LGTH-6262-CO02 OF
                FCOWM02(0006)
           END-IF.
           MOVE WK01-LGTH-6262-CO026-F TO WK01-LGTH-6262-CO02-F (6).
      *%--------------------------------------------------------------%*
           IF WK01-LGTH-6262-CO027-Z = 'Y'
               MOVE WK01-LGTH-6262-CO027 TO CODE-LGTH-6262-CO02 OF
                FCOWM02(0007)
           END-IF.
           MOVE WK01-LGTH-6262-CO027-F TO WK01-LGTH-6262-CO02-F (7).
      *%--------------------------------------------------------------%*
           IF WK01-LGTH-6262-CO028-Z = 'Y'
               MOVE WK01-LGTH-6262-CO028 TO CODE-LGTH-6262-CO02 OF
                FCOWM02(0008)
           END-IF.
           MOVE WK01-LGTH-6262-CO028-F TO WK01-LGTH-6262-CO02-F (8).
      *%--------------------------------------------------------------%*
           IF WK01-LGTH-6262-CO029-Z = 'Y'
               MOVE WK01-LGTH-6262-CO029 TO CODE-LGTH-6262-CO02 OF
                FCOWM02(0009)
           END-IF.
           MOVE WK01-LGTH-6262-CO029-F TO WK01-LGTH-6262-CO02-F (9).
      *%--------------------------------------------------------------%*
           IF WK01-LGTH-6262-CO0210-Z = 'Y'
               MOVE WK01-LGTH-6262-CO0210 TO CODE-LGTH-6262-CO02 OF
                FCOWM02(0010)
           END-IF.
           MOVE WK01-LGTH-6262-CO0210-F TO WK01-LGTH-6262-CO02-F (10).
      *%--------------------------------------------------------------%*
           IF WK01-LGTH-6262-CO0211-Z = 'Y'
               MOVE WK01-LGTH-6262-CO0211 TO CODE-LGTH-6262-CO02 OF
                FCOWM02(0011)
           END-IF.
           MOVE WK01-LGTH-6262-CO0211-F TO WK01-LGTH-6262-CO02-F (11).
      *%--------------------------------------------------------------%*
           IF WK01-DESC-LGTH-6262-CO022-Z = 'Y'
               MOVE WK01-DESC-LGTH-6262-CO022 TO
                SHORT-DESC-LGTH-6262-CO02 OF FCOWM02(0002)
           END-IF.
           MOVE WK01-DESC-LGTH-6262-CO022-F TO
                WK01-DESC-LGTH-6262-CO02-F (2).
      *%--------------------------------------------------------------%*
           IF WK01-DESC-LGTH-6262-CO023-Z = 'Y'
               MOVE WK01-DESC-LGTH-6262-CO023 TO
                SHORT-DESC-LGTH-6262-CO02 OF FCOWM02(0003)
           END-IF.
           MOVE WK01-DESC-LGTH-6262-CO023-F TO
                WK01-DESC-LGTH-6262-CO02-F (3).
      *%--------------------------------------------------------------%*
           IF WK01-DESC-LGTH-6262-CO024-Z = 'Y'
               MOVE WK01-DESC-LGTH-6262-CO024 TO
                SHORT-DESC-LGTH-6262-CO02 OF FCOWM02(0004)
           END-IF.
           MOVE WK01-DESC-LGTH-6262-CO024-F TO
                WK01-DESC-LGTH-6262-CO02-F (4).
      *%--------------------------------------------------------------%*
           IF WK01-DESC-LGTH-6262-CO025-Z = 'Y'
               MOVE WK01-DESC-LGTH-6262-CO025 TO
                SHORT-DESC-LGTH-6262-CO02 OF FCOWM02(0005)
           END-IF.
           MOVE WK01-DESC-LGTH-6262-CO025-F TO
                WK01-DESC-LGTH-6262-CO02-F (5).
      *%--------------------------------------------------------------%*
           IF WK01-DESC-LGTH-6262-CO026-Z = 'Y'
               MOVE WK01-DESC-LGTH-6262-CO026 TO
                SHORT-DESC-LGTH-6262-CO02 OF FCOWM02(0006)
           END-IF.
           MOVE WK01-DESC-LGTH-6262-CO026-F TO
                WK01-DESC-LGTH-6262-CO02-F (6).
      *%--------------------------------------------------------------%*
           IF WK01-DESC-LGTH-6262-CO027-Z = 'Y'
               MOVE WK01-DESC-LGTH-6262-CO027 TO
                SHORT-DESC-LGTH-6262-CO02 OF FCOWM02(0007)
           END-IF.
           MOVE WK01-DESC-LGTH-6262-CO027-F TO
                WK01-DESC-LGTH-6262-CO02-F (7).
      *%--------------------------------------------------------------%*
           IF WK01-DESC-LGTH-6262-CO028-Z = 'Y'
               MOVE WK01-DESC-LGTH-6262-CO028 TO
                SHORT-DESC-LGTH-6262-CO02 OF FCOWM02(0008)
           END-IF.
           MOVE WK01-DESC-LGTH-6262-CO028-F TO
                WK01-DESC-LGTH-6262-CO02-F (8).
      *%--------------------------------------------------------------%*
           IF WK01-DESC-LGTH-6262-CO029-Z = 'Y'
               MOVE WK01-DESC-LGTH-6262-CO029 TO
                SHORT-DESC-LGTH-6262-CO02 OF FCOWM02(0009)
           END-IF.
           MOVE WK01-DESC-LGTH-6262-CO029-F TO
                WK01-DESC-LGTH-6262-CO02-F (9).
      *%--------------------------------------------------------------%*
           IF WK01-DESC-LGTH-6262-CO0210-Z = 'Y'
               MOVE WK01-DESC-LGTH-6262-CO0210 TO
                SHORT-DESC-LGTH-6262-CO02 OF FCOWM02(0010)
           END-IF.
           MOVE WK01-DESC-LGTH-6262-CO0210-F TO
                WK01-DESC-LGTH-6262-CO02-F (10).
      *%--------------------------------------------------------------%*
           IF WK01-DESC-LGTH-6262-CO0211-Z = 'Y'
               MOVE WK01-DESC-LGTH-6262-CO0211 TO
                SHORT-DESC-LGTH-6262-CO02 OF FCOWM02(0011)
           END-IF.
           MOVE WK01-DESC-LGTH-6262-CO0211-F TO
                WK01-DESC-LGTH-6262-CO02-F (11).
      *%--------------------------------------------------------------%*
           IF WK01-DESC-LGTH-6262-CO0A2-Z = 'Y'
               MOVE WK01-DESC-LGTH-6262-CO0A2 TO
                LONG-DESC-LGTH-6262-CO02 OF FCOWM02(0002)
           END-IF.
           MOVE WK01-DESC-LGTH-6262-CO0A2-F TO
                WK01-DESC-LGTH-6262-CO0A-F (2).
      *%--------------------------------------------------------------%*
           IF WK01-DESC-LGTH-6262-CO0A3-Z = 'Y'
               MOVE WK01-DESC-LGTH-6262-CO0A3 TO
                LONG-DESC-LGTH-6262-CO02 OF FCOWM02(0003)
           END-IF.
           MOVE WK01-DESC-LGTH-6262-CO0A3-F TO
                WK01-DESC-LGTH-6262-CO0A-F (3).
      *%--------------------------------------------------------------%*
           IF WK01-DESC-LGTH-6262-CO0A4-Z = 'Y'
               MOVE WK01-DESC-LGTH-6262-CO0A4 TO
                LONG-DESC-LGTH-6262-CO02 OF FCOWM02(0004)
           END-IF.
           MOVE WK01-DESC-LGTH-6262-CO0A4-F TO
                WK01-DESC-LGTH-6262-CO0A-F (4).
      *%--------------------------------------------------------------%*
           IF WK01-DESC-LGTH-6262-CO0A5-Z = 'Y'
               MOVE WK01-DESC-LGTH-6262-CO0A5 TO
                LONG-DESC-LGTH-6262-CO02 OF FCOWM02(0005)
           END-IF.
           MOVE WK01-DESC-LGTH-6262-CO0A5-F TO
                WK01-DESC-LGTH-6262-CO0A-F (5).
      *%--------------------------------------------------------------%*
           IF WK01-DESC-LGTH-6262-CO0A6-Z = 'Y'
               MOVE WK01-DESC-LGTH-6262-CO0A6 TO
                LONG-DESC-LGTH-6262-CO02 OF FCOWM02(0006)
           END-IF.
           MOVE WK01-DESC-LGTH-6262-CO0A6-F TO
                WK01-DESC-LGTH-6262-CO0A-F (6).
      *%--------------------------------------------------------------%*
           IF WK01-DESC-LGTH-6262-CO0A7-Z = 'Y'
               MOVE WK01-DESC-LGTH-6262-CO0A7 TO
                LONG-DESC-LGTH-6262-CO02 OF FCOWM02(0007)
           END-IF.
           MOVE WK01-DESC-LGTH-6262-CO0A7-F TO
                WK01-DESC-LGTH-6262-CO0A-F (7).
      *%--------------------------------------------------------------%*
           IF WK01-DESC-LGTH-6262-CO0A8-Z = 'Y'
               MOVE WK01-DESC-LGTH-6262-CO0A8 TO
                LONG-DESC-LGTH-6262-CO02 OF FCOWM02(0008)
           END-IF.
           MOVE WK01-DESC-LGTH-6262-CO0A8-F TO
                WK01-DESC-LGTH-6262-CO0A-F (8).
      *%--------------------------------------------------------------%*
           IF WK01-DESC-LGTH-6262-CO0A9-Z = 'Y'
               MOVE WK01-DESC-LGTH-6262-CO0A9 TO
                LONG-DESC-LGTH-6262-CO02 OF FCOWM02(0009)
           END-IF.
           MOVE WK01-DESC-LGTH-6262-CO0A9-F TO
                WK01-DESC-LGTH-6262-CO0A-F (9).
      *%--------------------------------------------------------------%*
           IF WK01-DESC-LGTH-6262-CO0A10-Z = 'Y'
               MOVE WK01-DESC-LGTH-6262-CO0A10 TO
                LONG-DESC-LGTH-6262-CO02 OF FCOWM02(0010)
           END-IF.
           MOVE WK01-DESC-LGTH-6262-CO0A10-F TO
                WK01-DESC-LGTH-6262-CO0A-F (10).
      *%--------------------------------------------------------------%*
           IF WK01-DESC-LGTH-6262-CO0A11-Z = 'Y'
               MOVE WK01-DESC-LGTH-6262-CO0A11 TO
                LONG-DESC-LGTH-6262-CO02 OF FCOWM02(0011)
           END-IF.
           MOVE WK01-DESC-LGTH-6262-CO0A11-F TO
                WK01-DESC-LGTH-6262-CO0A-F (11).
      *%--------------------------------------------------------------%*
           IF WK01-OCCUR-6262-CO022-Z = 'Y'
               MOVE WK01-OCCUR-6262-CO022 TO CODE-OCCUR-6262-CO02 OF
                FCOWM02(0002)
           END-IF.
           MOVE WK01-OCCUR-6262-CO022-F TO WK01-OCCUR-6262-CO02-F (2).
      *%--------------------------------------------------------------%*
           IF WK01-OCCUR-6262-CO023-Z = 'Y'
               MOVE WK01-OCCUR-6262-CO023 TO CODE-OCCUR-6262-CO02 OF
                FCOWM02(0003)
           END-IF.
           MOVE WK01-OCCUR-6262-CO023-F TO WK01-OCCUR-6262-CO02-F (3).
      *%--------------------------------------------------------------%*
           IF WK01-OCCUR-6262-CO024-Z = 'Y'
               MOVE WK01-OCCUR-6262-CO024 TO CODE-OCCUR-6262-CO02 OF
                FCOWM02(0004)
           END-IF.
           MOVE WK01-OCCUR-6262-CO024-F TO WK01-OCCUR-6262-CO02-F (4).
      *%--------------------------------------------------------------%*
           IF WK01-OCCUR-6262-CO025-Z = 'Y'
               MOVE WK01-OCCUR-6262-CO025 TO CODE-OCCUR-6262-CO02 OF
                FCOWM02(0005)
           END-IF.
           MOVE WK01-OCCUR-6262-CO025-F TO WK01-OCCUR-6262-CO02-F (5).
      *%--------------------------------------------------------------%*
           IF WK01-OCCUR-6262-CO026-Z = 'Y'
               MOVE WK01-OCCUR-6262-CO026 TO CODE-OCCUR-6262-CO02 OF
                FCOWM02(0006)
           END-IF.
           MOVE WK01-OCCUR-6262-CO026-F TO WK01-OCCUR-6262-CO02-F (6).
      *%--------------------------------------------------------------%*
           IF WK01-OCCUR-6262-CO027-Z = 'Y'
               MOVE WK01-OCCUR-6262-CO027 TO CODE-OCCUR-6262-CO02 OF
                FCOWM02(0007)
           END-IF.
           MOVE WK01-OCCUR-6262-CO027-F TO WK01-OCCUR-6262-CO02-F (7).
      *%--------------------------------------------------------------%*
           IF WK01-OCCUR-6262-CO028-Z = 'Y'
               MOVE WK01-OCCUR-6262-CO028 TO CODE-OCCUR-6262-CO02 OF
                FCOWM02(0008)
           END-IF.
           MOVE WK01-OCCUR-6262-CO028-F TO WK01-OCCUR-6262-CO02-F (8).
      *%--------------------------------------------------------------%*
           IF WK01-OCCUR-6262-CO029-Z = 'Y'
               MOVE WK01-OCCUR-6262-CO029 TO CODE-OCCUR-6262-CO02 OF
                FCOWM02(0009)
           END-IF.
           MOVE WK01-OCCUR-6262-CO029-F TO WK01-OCCUR-6262-CO02-F (9).
      *%--------------------------------------------------------------%*
           IF WK01-OCCUR-6262-CO0210-Z = 'Y'
               MOVE WK01-OCCUR-6262-CO0210 TO CODE-OCCUR-6262-CO02 OF
                FCOWM02(0010)
           END-IF.
           MOVE WK01-OCCUR-6262-CO0210-F TO WK01-OCCUR-6262-CO02-F (10).
      *%--------------------------------------------------------------%*
           IF WK01-OCCUR-6262-CO0211-Z = 'Y'
               MOVE WK01-OCCUR-6262-CO0211 TO CODE-OCCUR-6262-CO02 OF
                FCOWM02(0011)
           END-IF.
           MOVE WK01-OCCUR-6262-CO0211-F TO WK01-OCCUR-6262-CO02-F (11).
      *%--------------------------------------------------------------%*
           IF WK01-OPTN-1-6262-CO022-Z = 'Y'
               MOVE WK01-OPTN-1-6262-CO022 TO FRMT-OPTN-1-6262-CO02 OF
                FCOWM02(0002)
           END-IF.
           MOVE WK01-OPTN-1-6262-CO022-F TO WK01-OPTN-1-6262-CO02-F (2).
      *%--------------------------------------------------------------%*
           IF WK01-OPTN-1-6262-CO023-Z = 'Y'
               MOVE WK01-OPTN-1-6262-CO023 TO FRMT-OPTN-1-6262-CO02 OF
                FCOWM02(0003)
           END-IF.
           MOVE WK01-OPTN-1-6262-CO023-F TO WK01-OPTN-1-6262-CO02-F (3).
      *%--------------------------------------------------------------%*
           IF WK01-OPTN-1-6262-CO024-Z = 'Y'
               MOVE WK01-OPTN-1-6262-CO024 TO FRMT-OPTN-1-6262-CO02 OF
                FCOWM02(0004)
           END-IF.
           MOVE WK01-OPTN-1-6262-CO024-F TO WK01-OPTN-1-6262-CO02-F (4).
      *%--------------------------------------------------------------%*
           IF WK01-OPTN-1-6262-CO025-Z = 'Y'
               MOVE WK01-OPTN-1-6262-CO025 TO FRMT-OPTN-1-6262-CO02 OF
                FCOWM02(0005)
           END-IF.
           MOVE WK01-OPTN-1-6262-CO025-F TO WK01-OPTN-1-6262-CO02-F (5).
      *%--------------------------------------------------------------%*
           IF WK01-OPTN-1-6262-CO026-Z = 'Y'
               MOVE WK01-OPTN-1-6262-CO026 TO FRMT-OPTN-1-6262-CO02 OF
                FCOWM02(0006)
           END-IF.
           MOVE WK01-OPTN-1-6262-CO026-F TO WK01-OPTN-1-6262-CO02-F (6).
      *%--------------------------------------------------------------%*
           IF WK01-OPTN-1-6262-CO027-Z = 'Y'
               MOVE WK01-OPTN-1-6262-CO027 TO FRMT-OPTN-1-6262-CO02 OF
                FCOWM02(0007)
           END-IF.
           MOVE WK01-OPTN-1-6262-CO027-F TO WK01-OPTN-1-6262-CO02-F (7).
      *%--------------------------------------------------------------%*
           IF WK01-OPTN-1-6262-CO028-Z = 'Y'
               MOVE WK01-OPTN-1-6262-CO028 TO FRMT-OPTN-1-6262-CO02 OF
                FCOWM02(0008)
           END-IF.
           MOVE WK01-OPTN-1-6262-CO028-F TO WK01-OPTN-1-6262-CO02-F (8).
      *%--------------------------------------------------------------%*
           IF WK01-OPTN-1-6262-CO029-Z = 'Y'
               MOVE WK01-OPTN-1-6262-CO029 TO FRMT-OPTN-1-6262-CO02 OF
                FCOWM02(0009)
           END-IF.
           MOVE WK01-OPTN-1-6262-CO029-F TO WK01-OPTN-1-6262-CO02-F (9).
      *%--------------------------------------------------------------%*
           IF WK01-OPTN-1-6262-CO0210-Z = 'Y'
               MOVE WK01-OPTN-1-6262-CO0210 TO FRMT-OPTN-1-6262-CO02 OF
                FCOWM02(0010)
           END-IF.
           MOVE WK01-OPTN-1-6262-CO0210-F TO WK01-OPTN-1-6262-CO02-F
                (10).
      *%--------------------------------------------------------------%*
           IF WK01-OPTN-1-6262-CO0211-Z = 'Y'
               MOVE WK01-OPTN-1-6262-CO0211 TO FRMT-OPTN-1-6262-CO02 OF
                FCOWM02(0011)
           END-IF.
           MOVE WK01-OPTN-1-6262-CO0211-F TO WK01-OPTN-1-6262-CO02-F
                (11).
      *%--------------------------------------------------------------%*
           IF WK01-OPTN-2-6262-CO022-Z = 'Y'
               MOVE WK01-OPTN-2-6262-CO022 TO FRMT-OPTN-2-6262-CO02 OF
                FCOWM02(0002)
           END-IF.
           MOVE WK01-OPTN-2-6262-CO022-F TO WK01-OPTN-2-6262-CO02-F (2).
      *%--------------------------------------------------------------%*
           IF WK01-OPTN-2-6262-CO023-Z = 'Y'
               MOVE WK01-OPTN-2-6262-CO023 TO FRMT-OPTN-2-6262-CO02 OF
                FCOWM02(0003)
           END-IF.
           MOVE WK01-OPTN-2-6262-CO023-F TO WK01-OPTN-2-6262-CO02-F (3).
      *%--------------------------------------------------------------%*
           IF WK01-OPTN-2-6262-CO024-Z = 'Y'
               MOVE WK01-OPTN-2-6262-CO024 TO FRMT-OPTN-2-6262-CO02 OF
                FCOWM02(0004)
           END-IF.
           MOVE WK01-OPTN-2-6262-CO024-F TO WK01-OPTN-2-6262-CO02-F (4).
      *%--------------------------------------------------------------%*
           IF WK01-OPTN-2-6262-CO025-Z = 'Y'
               MOVE WK01-OPTN-2-6262-CO025 TO FRMT-OPTN-2-6262-CO02 OF
                FCOWM02(0005)
           END-IF.
           MOVE WK01-OPTN-2-6262-CO025-F TO WK01-OPTN-2-6262-CO02-F (5).
      *%--------------------------------------------------------------%*
           IF WK01-OPTN-2-6262-CO026-Z = 'Y'
               MOVE WK01-OPTN-2-6262-CO026 TO FRMT-OPTN-2-6262-CO02 OF
                FCOWM02(0006)
           END-IF.
           MOVE WK01-OPTN-2-6262-CO026-F TO WK01-OPTN-2-6262-CO02-F (6).
      *%--------------------------------------------------------------%*
           IF WK01-OPTN-2-6262-CO027-Z = 'Y'
               MOVE WK01-OPTN-2-6262-CO027 TO FRMT-OPTN-2-6262-CO02 OF
                FCOWM02(0007)
           END-IF.
           MOVE WK01-OPTN-2-6262-CO027-F TO WK01-OPTN-2-6262-CO02-F (7).
      *%--------------------------------------------------------------%*
           IF WK01-OPTN-2-6262-CO028-Z = 'Y'
               MOVE WK01-OPTN-2-6262-CO028 TO FRMT-OPTN-2-6262-CO02 OF
                FCOWM02(0008)
           END-IF.
           MOVE WK01-OPTN-2-6262-CO028-F TO WK01-OPTN-2-6262-CO02-F (8).
      *%--------------------------------------------------------------%*
           IF WK01-OPTN-2-6262-CO029-Z = 'Y'
               MOVE WK01-OPTN-2-6262-CO029 TO FRMT-OPTN-2-6262-CO02 OF
                FCOWM02(0009)
           END-IF.
           MOVE WK01-OPTN-2-6262-CO029-F TO WK01-OPTN-2-6262-CO02-F (9).
      *%--------------------------------------------------------------%*
           IF WK01-OPTN-2-6262-CO0210-Z = 'Y'
               MOVE WK01-OPTN-2-6262-CO0210 TO FRMT-OPTN-2-6262-CO02 OF
                FCOWM02(0010)
           END-IF.
           MOVE WK01-OPTN-2-6262-CO0210-F TO WK01-OPTN-2-6262-CO02-F
                (10).
      *%--------------------------------------------------------------%*
           IF WK01-OPTN-2-6262-CO0211-Z = 'Y'
               MOVE WK01-OPTN-2-6262-CO0211 TO FRMT-OPTN-2-6262-CO02 OF
                FCOWM02(0011)
           END-IF.
           MOVE WK01-OPTN-2-6262-CO0211-F TO WK01-OPTN-2-6262-CO02-F
                (11).
      *%--------------------------------------------------------------%*
           IF WK01-OPTN-3-6262-CO022-Z = 'Y'
               MOVE WK01-OPTN-3-6262-CO022 TO FRMT-OPTN-3-6262-CO02 OF
                FCOWM02(0002)
           END-IF.
           MOVE WK01-OPTN-3-6262-CO022-F TO WK01-OPTN-3-6262-CO02-F (2).
      *%--------------------------------------------------------------%*
           IF WK01-OPTN-3-6262-CO023-Z = 'Y'
               MOVE WK01-OPTN-3-6262-CO023 TO FRMT-OPTN-3-6262-CO02 OF
                FCOWM02(0003)
           END-IF.
           MOVE WK01-OPTN-3-6262-CO023-F TO WK01-OPTN-3-6262-CO02-F (3).
      *%--------------------------------------------------------------%*
           IF WK01-OPTN-3-6262-CO024-Z = 'Y'
               MOVE WK01-OPTN-3-6262-CO024 TO FRMT-OPTN-3-6262-CO02 OF
                FCOWM02(0004)
           END-IF.
           MOVE WK01-OPTN-3-6262-CO024-F TO WK01-OPTN-3-6262-CO02-F (4).
      *%--------------------------------------------------------------%*
           IF WK01-OPTN-3-6262-CO025-Z = 'Y'
               MOVE WK01-OPTN-3-6262-CO025 TO FRMT-OPTN-3-6262-CO02 OF
                FCOWM02(0005)
           END-IF.
           MOVE WK01-OPTN-3-6262-CO025-F TO WK01-OPTN-3-6262-CO02-F (5).
      *%--------------------------------------------------------------%*
           IF WK01-OPTN-3-6262-CO026-Z = 'Y'
               MOVE WK01-OPTN-3-6262-CO026 TO FRMT-OPTN-3-6262-CO02 OF
                FCOWM02(0006)
           END-IF.
           MOVE WK01-OPTN-3-6262-CO026-F TO WK01-OPTN-3-6262-CO02-F (6).
      *%--------------------------------------------------------------%*
           IF WK01-OPTN-3-6262-CO027-Z = 'Y'
               MOVE WK01-OPTN-3-6262-CO027 TO FRMT-OPTN-3-6262-CO02 OF
                FCOWM02(0007)
           END-IF.
           MOVE WK01-OPTN-3-6262-CO027-F TO WK01-OPTN-3-6262-CO02-F (7).
      *%--------------------------------------------------------------%*
           IF WK01-OPTN-3-6262-CO028-Z = 'Y'
               MOVE WK01-OPTN-3-6262-CO028 TO FRMT-OPTN-3-6262-CO02 OF
                FCOWM02(0008)
           END-IF.
           MOVE WK01-OPTN-3-6262-CO028-F TO WK01-OPTN-3-6262-CO02-F (8).
      *%--------------------------------------------------------------%*
           IF WK01-OPTN-3-6262-CO029-Z = 'Y'
               MOVE WK01-OPTN-3-6262-CO029 TO FRMT-OPTN-3-6262-CO02 OF
                FCOWM02(0009)
           END-IF.
           MOVE WK01-OPTN-3-6262-CO029-F TO WK01-OPTN-3-6262-CO02-F (9).
      *%--------------------------------------------------------------%*
           IF WK01-OPTN-3-6262-CO0210-Z = 'Y'
               MOVE WK01-OPTN-3-6262-CO0210 TO FRMT-OPTN-3-6262-CO02 OF
                FCOWM02(0010)
           END-IF.
           MOVE WK01-OPTN-3-6262-CO0210-F TO WK01-OPTN-3-6262-CO02-F
                (10).
      *%--------------------------------------------------------------%*
           IF WK01-OPTN-3-6262-CO0211-Z = 'Y'
               MOVE WK01-OPTN-3-6262-CO0211 TO FRMT-OPTN-3-6262-CO02 OF
                FCOWM02(0011)
           END-IF.
           MOVE WK01-OPTN-3-6262-CO0211-F TO WK01-OPTN-3-6262-CO02-F
                (11).
      *%--------------------------------------------------------------%*
           IF WK01-OPTN-4-6262-CO022-Z = 'Y'
               MOVE WK01-OPTN-4-6262-CO022 TO FRMT-OPTN-4-6262-CO02 OF
                FCOWM02(0002)
           END-IF.
           MOVE WK01-OPTN-4-6262-CO022-F TO WK01-OPTN-4-6262-CO02-F (2).
      *%--------------------------------------------------------------%*
           IF WK01-OPTN-4-6262-CO023-Z = 'Y'
               MOVE WK01-OPTN-4-6262-CO023 TO FRMT-OPTN-4-6262-CO02 OF
                FCOWM02(0003)
           END-IF.
           MOVE WK01-OPTN-4-6262-CO023-F TO WK01-OPTN-4-6262-CO02-F (3).
      *%--------------------------------------------------------------%*
           IF WK01-OPTN-4-6262-CO024-Z = 'Y'
               MOVE WK01-OPTN-4-6262-CO024 TO FRMT-OPTN-4-6262-CO02 OF
                FCOWM02(0004)
           END-IF.
           MOVE WK01-OPTN-4-6262-CO024-F TO WK01-OPTN-4-6262-CO02-F (4).
      *%--------------------------------------------------------------%*
           IF WK01-OPTN-4-6262-CO025-Z = 'Y'
               MOVE WK01-OPTN-4-6262-CO025 TO FRMT-OPTN-4-6262-CO02 OF
                FCOWM02(0005)
           END-IF.
           MOVE WK01-OPTN-4-6262-CO025-F TO WK01-OPTN-4-6262-CO02-F (5).
      *%--------------------------------------------------------------%*
           IF WK01-OPTN-4-6262-CO026-Z = 'Y'
               MOVE WK01-OPTN-4-6262-CO026 TO FRMT-OPTN-4-6262-CO02 OF
                FCOWM02(0006)
           END-IF.
           MOVE WK01-OPTN-4-6262-CO026-F TO WK01-OPTN-4-6262-CO02-F (6).
      *%--------------------------------------------------------------%*
           IF WK01-OPTN-4-6262-CO027-Z = 'Y'
               MOVE WK01-OPTN-4-6262-CO027 TO FRMT-OPTN-4-6262-CO02 OF
                FCOWM02(0007)
           END-IF.
           MOVE WK01-OPTN-4-6262-CO027-F TO WK01-OPTN-4-6262-CO02-F (7).
      *%--------------------------------------------------------------%*
           IF WK01-OPTN-4-6262-CO028-Z = 'Y'
               MOVE WK01-OPTN-4-6262-CO028 TO FRMT-OPTN-4-6262-CO02 OF
                FCOWM02(0008)
           END-IF.
           MOVE WK01-OPTN-4-6262-CO028-F TO WK01-OPTN-4-6262-CO02-F (8).
      *%--------------------------------------------------------------%*
           IF WK01-OPTN-4-6262-CO029-Z = 'Y'
               MOVE WK01-OPTN-4-6262-CO029 TO FRMT-OPTN-4-6262-CO02 OF
                FCOWM02(0009)
           END-IF.
           MOVE WK01-OPTN-4-6262-CO029-F TO WK01-OPTN-4-6262-CO02-F (9).
      *%--------------------------------------------------------------%*
           IF WK01-OPTN-4-6262-CO0210-Z = 'Y'
               MOVE WK01-OPTN-4-6262-CO0210 TO FRMT-OPTN-4-6262-CO02 OF
                FCOWM02(0010)
           END-IF.
           MOVE WK01-OPTN-4-6262-CO0210-F TO WK01-OPTN-4-6262-CO02-F
                (10).
      *%--------------------------------------------------------------%*
           IF WK01-OPTN-4-6262-CO0211-Z = 'Y'
               MOVE WK01-OPTN-4-6262-CO0211 TO FRMT-OPTN-4-6262-CO02 OF
                FCOWM02(0011)
           END-IF.
           MOVE WK01-OPTN-4-6262-CO0211-F TO WK01-OPTN-4-6262-CO02-F
                (11).
      *%--------------------------------------------------------------%*
           IF WK01-OPTN-5-6262-CO022-Z = 'Y'
               MOVE WK01-OPTN-5-6262-CO022 TO FRMT-OPTN-5-6262-CO02 OF
                FCOWM02(0002)
           END-IF.
           MOVE WK01-OPTN-5-6262-CO022-F TO WK01-OPTN-5-6262-CO02-F (2).
      *%--------------------------------------------------------------%*
           IF WK01-OPTN-5-6262-CO023-Z = 'Y'
               MOVE WK01-OPTN-5-6262-CO023 TO FRMT-OPTN-5-6262-CO02 OF
                FCOWM02(0003)
           END-IF.
           MOVE WK01-OPTN-5-6262-CO023-F TO WK01-OPTN-5-6262-CO02-F (3).
      *%--------------------------------------------------------------%*
           IF WK01-OPTN-5-6262-CO024-Z = 'Y'
               MOVE WK01-OPTN-5-6262-CO024 TO FRMT-OPTN-5-6262-CO02 OF
                FCOWM02(0004)
           END-IF.
           MOVE WK01-OPTN-5-6262-CO024-F TO WK01-OPTN-5-6262-CO02-F (4).
      *%--------------------------------------------------------------%*
           IF WK01-OPTN-5-6262-CO025-Z = 'Y'
               MOVE WK01-OPTN-5-6262-CO025 TO FRMT-OPTN-5-6262-CO02 OF
                FCOWM02(0005)
           END-IF.
           MOVE WK01-OPTN-5-6262-CO025-F TO WK01-OPTN-5-6262-CO02-F (5).
      *%--------------------------------------------------------------%*
           IF WK01-OPTN-5-6262-CO026-Z = 'Y'
               MOVE WK01-OPTN-5-6262-CO026 TO FRMT-OPTN-5-6262-CO02 OF
                FCOWM02(0006)
           END-IF.
           MOVE WK01-OPTN-5-6262-CO026-F TO WK01-OPTN-5-6262-CO02-F (6).
      *%--------------------------------------------------------------%*
           IF WK01-OPTN-5-6262-CO027-Z = 'Y'
               MOVE WK01-OPTN-5-6262-CO027 TO FRMT-OPTN-5-6262-CO02 OF
                FCOWM02(0007)
           END-IF.
           MOVE WK01-OPTN-5-6262-CO027-F TO WK01-OPTN-5-6262-CO02-F (7).
      *%--------------------------------------------------------------%*
           IF WK01-OPTN-5-6262-CO028-Z = 'Y'
               MOVE WK01-OPTN-5-6262-CO028 TO FRMT-OPTN-5-6262-CO02 OF
                FCOWM02(0008)
           END-IF.
           MOVE WK01-OPTN-5-6262-CO028-F TO WK01-OPTN-5-6262-CO02-F (8).
      *%--------------------------------------------------------------%*
           IF WK01-OPTN-5-6262-CO029-Z = 'Y'
               MOVE WK01-OPTN-5-6262-CO029 TO FRMT-OPTN-5-6262-CO02 OF
                FCOWM02(0009)
           END-IF.
           MOVE WK01-OPTN-5-6262-CO029-F TO WK01-OPTN-5-6262-CO02-F (9).
      *%--------------------------------------------------------------%*
           IF WK01-OPTN-5-6262-CO0210-Z = 'Y'
               MOVE WK01-OPTN-5-6262-CO0210 TO FRMT-OPTN-5-6262-CO02 OF
                FCOWM02(0010)
           END-IF.
           MOVE WK01-OPTN-5-6262-CO0210-F TO WK01-OPTN-5-6262-CO02-F
                (10).
      *%--------------------------------------------------------------%*
           IF WK01-OPTN-5-6262-CO0211-Z = 'Y'
               MOVE WK01-OPTN-5-6262-CO0211 TO FRMT-OPTN-5-6262-CO02 OF
                FCOWM02(0011)
           END-IF.
           MOVE WK01-OPTN-5-6262-CO0211-F TO WK01-OPTN-5-6262-CO02-F
                (11).
      *%--------------------------------------------------------------%*
           IF WK01-OPTN-6-6262-CO022-Z = 'Y'
               MOVE WK01-OPTN-6-6262-CO022 TO FRMT-OPTN-6-6262-CO02 OF
                FCOWM02(0002)
           END-IF.
           MOVE WK01-OPTN-6-6262-CO022-F TO WK01-OPTN-6-6262-CO02-F (2).
      *%--------------------------------------------------------------%*
           IF WK01-OPTN-6-6262-CO023-Z = 'Y'
               MOVE WK01-OPTN-6-6262-CO023 TO FRMT-OPTN-6-6262-CO02 OF
                FCOWM02(0003)
           END-IF.
           MOVE WK01-OPTN-6-6262-CO023-F TO WK01-OPTN-6-6262-CO02-F (3).
      *%--------------------------------------------------------------%*
           IF WK01-OPTN-6-6262-CO024-Z = 'Y'
               MOVE WK01-OPTN-6-6262-CO024 TO FRMT-OPTN-6-6262-CO02 OF
                FCOWM02(0004)
           END-IF.
           MOVE WK01-OPTN-6-6262-CO024-F TO WK01-OPTN-6-6262-CO02-F (4).
      *%--------------------------------------------------------------%*
           IF WK01-OPTN-6-6262-CO025-Z = 'Y'
               MOVE WK01-OPTN-6-6262-CO025 TO FRMT-OPTN-6-6262-CO02 OF
                FCOWM02(0005)
           END-IF.
           MOVE WK01-OPTN-6-6262-CO025-F TO WK01-OPTN-6-6262-CO02-F (5).
      *%--------------------------------------------------------------%*
           IF WK01-OPTN-6-6262-CO026-Z = 'Y'
               MOVE WK01-OPTN-6-6262-CO026 TO FRMT-OPTN-6-6262-CO02 OF
                FCOWM02(0006)
           END-IF.
           MOVE WK01-OPTN-6-6262-CO026-F TO WK01-OPTN-6-6262-CO02-F (6).
      *%--------------------------------------------------------------%*
           IF WK01-OPTN-6-6262-CO027-Z = 'Y'
               MOVE WK01-OPTN-6-6262-CO027 TO FRMT-OPTN-6-6262-CO02 OF
                FCOWM02(0007)
           END-IF.
           MOVE WK01-OPTN-6-6262-CO027-F TO WK01-OPTN-6-6262-CO02-F (7).
      *%--------------------------------------------------------------%*
           IF WK01-OPTN-6-6262-CO028-Z = 'Y'
               MOVE WK01-OPTN-6-6262-CO028 TO FRMT-OPTN-6-6262-CO02 OF
                FCOWM02(0008)
           END-IF.
           MOVE WK01-OPTN-6-6262-CO028-F TO WK01-OPTN-6-6262-CO02-F (8).
      *%--------------------------------------------------------------%*
           IF WK01-OPTN-6-6262-CO029-Z = 'Y'
               MOVE WK01-OPTN-6-6262-CO029 TO FRMT-OPTN-6-6262-CO02 OF
                FCOWM02(0009)
           END-IF.
           MOVE WK01-OPTN-6-6262-CO029-F TO WK01-OPTN-6-6262-CO02-F (9).
      *%--------------------------------------------------------------%*
           IF WK01-OPTN-6-6262-CO0210-Z = 'Y'
               MOVE WK01-OPTN-6-6262-CO0210 TO FRMT-OPTN-6-6262-CO02 OF
                FCOWM02(0010)
           END-IF.
           MOVE WK01-OPTN-6-6262-CO0210-F TO WK01-OPTN-6-6262-CO02-F
                (10).
      *%--------------------------------------------------------------%*
           IF WK01-OPTN-6-6262-CO0211-Z = 'Y'
               MOVE WK01-OPTN-6-6262-CO0211 TO FRMT-OPTN-6-6262-CO02 OF
                FCOWM02(0011)
           END-IF.
           MOVE WK01-OPTN-6-6262-CO0211-F TO WK01-OPTN-6-6262-CO02-F
                (11).
      *%--------------------------------------------------------------%*
           IF WK01-OPTN-7-6262-CO022-Z = 'Y'
               MOVE WK01-OPTN-7-6262-CO022 TO FRMT-OPTN-7-6262-CO02 OF
                FCOWM02(0002)
           END-IF.
           MOVE WK01-OPTN-7-6262-CO022-F TO WK01-OPTN-7-6262-CO02-F (2).
      *%--------------------------------------------------------------%*
           IF WK01-OPTN-7-6262-CO023-Z = 'Y'
               MOVE WK01-OPTN-7-6262-CO023 TO FRMT-OPTN-7-6262-CO02 OF
                FCOWM02(0003)
           END-IF.
           MOVE WK01-OPTN-7-6262-CO023-F TO WK01-OPTN-7-6262-CO02-F (3).
      *%--------------------------------------------------------------%*
           IF WK01-OPTN-7-6262-CO024-Z = 'Y'
               MOVE WK01-OPTN-7-6262-CO024 TO FRMT-OPTN-7-6262-CO02 OF
                FCOWM02(0004)
           END-IF.
           MOVE WK01-OPTN-7-6262-CO024-F TO WK01-OPTN-7-6262-CO02-F (4).
      *%--------------------------------------------------------------%*
           IF WK01-OPTN-7-6262-CO025-Z = 'Y'
               MOVE WK01-OPTN-7-6262-CO025 TO FRMT-OPTN-7-6262-CO02 OF
                FCOWM02(0005)
           END-IF.
           MOVE WK01-OPTN-7-6262-CO025-F TO WK01-OPTN-7-6262-CO02-F (5).
      *%--------------------------------------------------------------%*
           IF WK01-OPTN-7-6262-CO026-Z = 'Y'
               MOVE WK01-OPTN-7-6262-CO026 TO FRMT-OPTN-7-6262-CO02 OF
                FCOWM02(0006)
           END-IF.
           MOVE WK01-OPTN-7-6262-CO026-F TO WK01-OPTN-7-6262-CO02-F (6).
      *%--------------------------------------------------------------%*
           IF WK01-OPTN-7-6262-CO027-Z = 'Y'
               MOVE WK01-OPTN-7-6262-CO027 TO FRMT-OPTN-7-6262-CO02 OF
                FCOWM02(0007)
           END-IF.
           MOVE WK01-OPTN-7-6262-CO027-F TO WK01-OPTN-7-6262-CO02-F (7).
      *%--------------------------------------------------------------%*
           IF WK01-OPTN-7-6262-CO028-Z = 'Y'
               MOVE WK01-OPTN-7-6262-CO028 TO FRMT-OPTN-7-6262-CO02 OF
                FCOWM02(0008)
           END-IF.
           MOVE WK01-OPTN-7-6262-CO028-F TO WK01-OPTN-7-6262-CO02-F (8).
      *%--------------------------------------------------------------%*
           IF WK01-OPTN-7-6262-CO029-Z = 'Y'
               MOVE WK01-OPTN-7-6262-CO029 TO FRMT-OPTN-7-6262-CO02 OF
                FCOWM02(0009)
           END-IF.
           MOVE WK01-OPTN-7-6262-CO029-F TO WK01-OPTN-7-6262-CO02-F (9).
      *%--------------------------------------------------------------%*
           IF WK01-OPTN-7-6262-CO0210-Z = 'Y'
               MOVE WK01-OPTN-7-6262-CO0210 TO FRMT-OPTN-7-6262-CO02 OF
                FCOWM02(0010)
           END-IF.
           MOVE WK01-OPTN-7-6262-CO0210-F TO WK01-OPTN-7-6262-CO02-F
                (10).
      *%--------------------------------------------------------------%*
           IF WK01-OPTN-7-6262-CO0211-Z = 'Y'
               MOVE WK01-OPTN-7-6262-CO0211 TO FRMT-OPTN-7-6262-CO02 OF
                FCOWM02(0011)
           END-IF.
           MOVE WK01-OPTN-7-6262-CO0211-F TO WK01-OPTN-7-6262-CO02-F
                (11).
      *%--------------------------------------------------------------%*
           IF WK01-OPTN-8-6262-CO022-Z = 'Y'
               MOVE WK01-OPTN-8-6262-CO022 TO FRMT-OPTN-8-6262-CO02 OF
                FCOWM02(0002)
           END-IF.
           MOVE WK01-OPTN-8-6262-CO022-F TO WK01-OPTN-8-6262-CO02-F (2).
      *%--------------------------------------------------------------%*
           IF WK01-OPTN-8-6262-CO023-Z = 'Y'
               MOVE WK01-OPTN-8-6262-CO023 TO FRMT-OPTN-8-6262-CO02 OF
                FCOWM02(0003)
           END-IF.
           MOVE WK01-OPTN-8-6262-CO023-F TO WK01-OPTN-8-6262-CO02-F (3).
      *%--------------------------------------------------------------%*
           IF WK01-OPTN-8-6262-CO024-Z = 'Y'
               MOVE WK01-OPTN-8-6262-CO024 TO FRMT-OPTN-8-6262-CO02 OF
                FCOWM02(0004)
           END-IF.
           MOVE WK01-OPTN-8-6262-CO024-F TO WK01-OPTN-8-6262-CO02-F (4).
      *%--------------------------------------------------------------%*
           IF WK01-OPTN-8-6262-CO025-Z = 'Y'
               MOVE WK01-OPTN-8-6262-CO025 TO FRMT-OPTN-8-6262-CO02 OF
                FCOWM02(0005)
           END-IF.
           MOVE WK01-OPTN-8-6262-CO025-F TO WK01-OPTN-8-6262-CO02-F (5).
      *%--------------------------------------------------------------%*
           IF WK01-OPTN-8-6262-CO026-Z = 'Y'
               MOVE WK01-OPTN-8-6262-CO026 TO FRMT-OPTN-8-6262-CO02 OF
                FCOWM02(0006)
           END-IF.
           MOVE WK01-OPTN-8-6262-CO026-F TO WK01-OPTN-8-6262-CO02-F (6).
      *%--------------------------------------------------------------%*
           IF WK01-OPTN-8-6262-CO027-Z = 'Y'
               MOVE WK01-OPTN-8-6262-CO027 TO FRMT-OPTN-8-6262-CO02 OF
                FCOWM02(0007)
           END-IF.
           MOVE WK01-OPTN-8-6262-CO027-F TO WK01-OPTN-8-6262-CO02-F (7).
      *%--------------------------------------------------------------%*
           IF WK01-OPTN-8-6262-CO028-Z = 'Y'
               MOVE WK01-OPTN-8-6262-CO028 TO FRMT-OPTN-8-6262-CO02 OF
                FCOWM02(0008)
           END-IF.
           MOVE WK01-OPTN-8-6262-CO028-F TO WK01-OPTN-8-6262-CO02-F (8).
      *%--------------------------------------------------------------%*
           IF WK01-OPTN-8-6262-CO029-Z = 'Y'
               MOVE WK01-OPTN-8-6262-CO029 TO FRMT-OPTN-8-6262-CO02 OF
                FCOWM02(0009)
           END-IF.
           MOVE WK01-OPTN-8-6262-CO029-F TO WK01-OPTN-8-6262-CO02-F (9).
      *%--------------------------------------------------------------%*
           IF WK01-OPTN-8-6262-CO0210-Z = 'Y'
               MOVE WK01-OPTN-8-6262-CO0210 TO FRMT-OPTN-8-6262-CO02 OF
                FCOWM02(0010)
           END-IF.
           MOVE WK01-OPTN-8-6262-CO0210-F TO WK01-OPTN-8-6262-CO02-F
                (10).
      *%--------------------------------------------------------------%*
           IF WK01-OPTN-8-6262-CO0211-Z = 'Y'
               MOVE WK01-OPTN-8-6262-CO0211 TO FRMT-OPTN-8-6262-CO02 OF
                FCOWM02(0011)
           END-IF.
           MOVE WK01-OPTN-8-6262-CO0211-F TO WK01-OPTN-8-6262-CO02-F
                (11).
      *%--------------------------------------------------------------%*
           IF WK01-OPTN-9-6262-CO022-Z = 'Y'
               MOVE WK01-OPTN-9-6262-CO022 TO FRMT-OPTN-9-6262-CO02 OF
                FCOWM02(0002)
           END-IF.
           MOVE WK01-OPTN-9-6262-CO022-F TO WK01-OPTN-9-6262-CO02-F (2).
      *%--------------------------------------------------------------%*
           IF WK01-OPTN-9-6262-CO023-Z = 'Y'
               MOVE WK01-OPTN-9-6262-CO023 TO FRMT-OPTN-9-6262-CO02 OF
                FCOWM02(0003)
           END-IF.
           MOVE WK01-OPTN-9-6262-CO023-F TO WK01-OPTN-9-6262-CO02-F (3).
      *%--------------------------------------------------------------%*
           IF WK01-OPTN-9-6262-CO024-Z = 'Y'
               MOVE WK01-OPTN-9-6262-CO024 TO FRMT-OPTN-9-6262-CO02 OF
                FCOWM02(0004)
           END-IF.
           MOVE WK01-OPTN-9-6262-CO024-F TO WK01-OPTN-9-6262-CO02-F (4).
      *%--------------------------------------------------------------%*
           IF WK01-OPTN-9-6262-CO025-Z = 'Y'
               MOVE WK01-OPTN-9-6262-CO025 TO FRMT-OPTN-9-6262-CO02 OF
                FCOWM02(0005)
           END-IF.
           MOVE WK01-OPTN-9-6262-CO025-F TO WK01-OPTN-9-6262-CO02-F (5).
      *%--------------------------------------------------------------%*
           IF WK01-OPTN-9-6262-CO026-Z = 'Y'
               MOVE WK01-OPTN-9-6262-CO026 TO FRMT-OPTN-9-6262-CO02 OF
                FCOWM02(0006)
           END-IF.
           MOVE WK01-OPTN-9-6262-CO026-F TO WK01-OPTN-9-6262-CO02-F (6).
      *%--------------------------------------------------------------%*
           IF WK01-OPTN-9-6262-CO027-Z = 'Y'
               MOVE WK01-OPTN-9-6262-CO027 TO FRMT-OPTN-9-6262-CO02 OF
                FCOWM02(0007)
           END-IF.
           MOVE WK01-OPTN-9-6262-CO027-F TO WK01-OPTN-9-6262-CO02-F (7).
      *%--------------------------------------------------------------%*
           IF WK01-OPTN-9-6262-CO028-Z = 'Y'
               MOVE WK01-OPTN-9-6262-CO028 TO FRMT-OPTN-9-6262-CO02 OF
                FCOWM02(0008)
           END-IF.
           MOVE WK01-OPTN-9-6262-CO028-F TO WK01-OPTN-9-6262-CO02-F (8).
      *%--------------------------------------------------------------%*
           IF WK01-OPTN-9-6262-CO029-Z = 'Y'
               MOVE WK01-OPTN-9-6262-CO029 TO FRMT-OPTN-9-6262-CO02 OF
                FCOWM02(0009)
           END-IF.
           MOVE WK01-OPTN-9-6262-CO029-F TO WK01-OPTN-9-6262-CO02-F (9).
      *%--------------------------------------------------------------%*
           IF WK01-OPTN-9-6262-CO0210-Z = 'Y'
               MOVE WK01-OPTN-9-6262-CO0210 TO FRMT-OPTN-9-6262-CO02 OF
                FCOWM02(0010)
           END-IF.
           MOVE WK01-OPTN-9-6262-CO0210-F TO WK01-OPTN-9-6262-CO02-F
                (10).
      *%--------------------------------------------------------------%*
           IF WK01-OPTN-9-6262-CO0211-Z = 'Y'
               MOVE WK01-OPTN-9-6262-CO0211 TO FRMT-OPTN-9-6262-CO02 OF
                FCOWM02(0011)
           END-IF.
           MOVE WK01-OPTN-9-6262-CO0211-F TO WK01-OPTN-9-6262-CO02-F
                (11).
