      *---------------------------------------------------------------*
      *                                                               *
      *  RECORD FCOWK03                              04/24/00  12:27  *
      *                                                               *
      *---------------------------------------------------------------*
       01  FCOWK03.
           02  RQST-COMM-TYPE-CO03                      PIC X(4).
           02  COMM-VIEW-6257-CO03                      PIC X(8).
