      *---------------------------------------------------------------*
      *                                                               *
      *  RECORD FCOWD16                              04/24/00  13:05  *
      *                                                               *
      *---------------------------------------------------------------*
       01  FCOWD16.
           02  SAVE-DBKEY-ID-6605-CO16
                                     COMP   OCCURS 12   PIC S9(8).
           02  WORK-REF-NMBR-CO16                       PIC 9(6).
