       01  MAP-CONTROL.

    ***Created by Convert/DC version V8R03 on 12/05/00 at 11:00***

           02  FEXMI60-MAP-CONTROL.
           03  FEXMI60T.
           04  WK01-DCXMAPL-PARMS.
               10  WK01-MAPNAME                  PIC X(8)
                                                 VALUE 'FEXMI60I'.
               10  WK01-IKE-LENGTH               PIC S9(8)  COMP
                                                 VALUE 25225.
               10  WK01-TINA-LENGTH              PIC S9(4)  COMP
                                                 VALUE 1328.
           05  WK01-ATTRIBUTES                   PIC X(60)
                                                 VALUE SPACE.
           05  WK01-ATTRIBUTES-ERROR             PIC X(60) VALUE
               'U  BIF'.
           05  WK01-CURSOR-DFLD                  PIC X(36)
                                                 VALUE SPACES.
           05  WK01-CURSOR-DFLD-QUAL             PIC X(30)
                                                 VALUE SPACES.
           05  WK01-ROW                          PIC S9(4) COMP
                                                 VALUE ZERO.
           05  WK01-COLUMN                       PIC S9(4) COMP
                                                 VALUE ZERO.
           05  WK01-ERROR-MSG                    PIC X(80)
                                                 VALUE SPACES.
           05  WK01-MAP-DATA-LEN                 PIC S9(6)
                                                 VALUE ZERO.
           05  WK01-1ST-FLAG                     PIC X(1)
                                                 VALUE 'Y'.
           05  WK01-FLAG-OUTPUT-DATA             PIC X(1)
                                                 VALUE 'Y'.
      *    05  WK01-STATUS-RETURN-FLAG           PIC X(1)
      *                                          VALUE SPACES.
           05  WK01-ALL-BUT-FLAG                 PIC X(1)
                                                 VALUE SPACES.
           05  WK01-FLAG-ALL-FIELDS-CHANGED      PIC X(1)  VALUE 'Y'.
           05  WK01-FLAG-ANY-FIELDS-CHANGED      PIC X(1)  VALUE 'N'.
           05  WK01-FLAG-ALL-FIELDS-ERROR        PIC X(1)  VALUE 'Y'.
           05  WK01-FLAG-ANY-FIELDS-ERROR        PIC X(1)  VALUE 'N'.
           05  WK01-FLAG-ALL-FIELDS-ERASE        PIC X(1)  VALUE 'Y'.
           05  WK01-FLAG-ANY-FIELDS-ERASE        PIC X(1)  VALUE 'Y'.

           05  WK01-VARDATA                      PIC X(11880)
                                                 VALUE SPACES.
           05  FILLER                            PIC X(100)
                                                 VALUE SPACES.
           04  WK01-ELEMENT-AREA.

               10  WK01-ID-SY00-Z              PIC X(1)
                                               VALUE SPACE.
               10  WK01-ID-SY00-F              PIC X(1)
                                               VALUE SPACE.
               10  WK01-ID-SY00-A              PIC X(1)
                                               VALUE SPACE.
               10  WK01-ID-SY00-V              PIC X(1)
                                               VALUE SPACE.
               10  WK01-ID-SY00-O              PIC X(1)
                                               VALUE SPACE.
               10  WK01-ID-SY00       PIC X(8)
                                               VALUE SPACES.
               10  WK01-NAME-6001-SY00-Z              PIC X(1)
                                               VALUE SPACE.
               10  WK01-NAME-6001-SY00-F              PIC X(1)
                                               VALUE SPACE.
               10  WK01-NAME-6001-SY00-A              PIC X(1)
                                               VALUE SPACE.
               10  WK01-NAME-6001-SY00-V              PIC X(1)
                                               VALUE SPACE.
               10  WK01-NAME-6001-SY00-O              PIC X(1)
                                               VALUE SPACE.
               10  WK01-NAME-6001-SY00       PIC X(35)
                                               VALUE SPACES.
               10  WK01-DATE-Z              PIC X(1)
                                               VALUE SPACE.
               10  WK01-DATE-F              PIC X(1)
                                               VALUE SPACE.
               10  WK01-DATE-A              PIC X(1)
                                               VALUE SPACE.
               10  WK01-DATE-V              PIC X(1)
                                               VALUE SPACE.
               10  WK01-DATE-O              PIC X(1)
                                               VALUE SPACE.
               10  WK01-DATE       PIC X(8)
                                               VALUE SPACES.
               10  WK01-HH-MM-TIME-SY00-Z              PIC X(1)
                                               VALUE SPACE.
               10  WK01-HH-MM-TIME-SY00-F              PIC X(1)
                                               VALUE SPACE.
               10  WK01-HH-MM-TIME-SY00-A              PIC X(1)
                                               VALUE SPACE.
               10  WK01-HH-MM-TIME-SY00-V              PIC X(1)
                                               VALUE SPACE.
               10  WK01-HH-MM-TIME-SY00-O              PIC X(1)
                                               VALUE SPACE.
               10  WK01-HH-MM-TIME-SY00       PIC X(4)
                                               VALUE SPACES.
               10  WK01-PM-FLAG-SY00-Z              PIC X(1)
                                               VALUE SPACE.
               10  WK01-PM-FLAG-SY00-F              PIC X(1)
                                               VALUE SPACE.
               10  WK01-PM-FLAG-SY00-A              PIC X(1)
                                               VALUE SPACE.
               10  WK01-PM-FLAG-SY00-V              PIC X(1)
                                               VALUE SPACE.
               10  WK01-PM-FLAG-SY00-O              PIC X(1)
                                               VALUE SPACE.
               10  WK01-PM-FLAG-SY00       PIC X(1)
                                               VALUE SPACES.
               10  WK01-USER-ID-Z              PIC X(1)
                                               VALUE SPACE.
               10  WK01-USER-ID-F              PIC X(1)
                                               VALUE SPACE.
               10  WK01-USER-ID-A              PIC X(1)
                                               VALUE SPACE.
               10  WK01-USER-ID-V              PIC X(1)
                                               VALUE SPACE.
               10  WK01-USER-ID-O              PIC X(1)
                                               VALUE SPACE.
               10  WK01-USER-ID       PIC X(32)
                                               VALUE SPACES.
               10  WK01-RSPNS-ID-SY00-Z              PIC X(1)
                                               VALUE SPACE.
               10  WK01-RSPNS-ID-SY00-F              PIC X(1)
                                               VALUE SPACE.
               10  WK01-RSPNS-ID-SY00-A              PIC X(1)
                                               VALUE SPACE.
               10  WK01-RSPNS-ID-SY00-V              PIC X(1)
                                               VALUE SPACE.
               10  WK01-RSPNS-ID-SY00-O              PIC X(1)
                                               VALUE SPACE.
               10  WK01-RSPNS-ID-SY00       PIC X(8)
                                               VALUE SPACES.
               10  WK01-FUNC-DESCRIPTION-Z              PIC X(1)
                                               VALUE SPACE.
               10  WK01-FUNC-DESCRIPTION-F              PIC X(1)
                                               VALUE SPACE.
               10  WK01-FUNC-DESCRIPTION-A              PIC X(1)
                                               VALUE SPACE.
               10  WK01-FUNC-DESCRIPTION-V              PIC X(1)
                                               VALUE SPACE.
               10  WK01-FUNC-DESCRIPTION-O              PIC X(1)
                                               VALUE SPACE.
               10  WK01-FUNC-DESCRIPTION       PIC X(28)
                                               VALUE SPACES.
               10  WK01-STATUS-CODE-SY00-Z              PIC X(1)
                                               VALUE SPACE.
               10  WK01-STATUS-CODE-SY00-F              PIC X(1)
                                               VALUE SPACE.
               10  WK01-STATUS-CODE-SY00-A              PIC X(1)
                                               VALUE SPACE.
               10  WK01-STATUS-CODE-SY00-V              PIC X(1)
                                               VALUE SPACE.
               10  WK01-STATUS-CODE-SY00-O              PIC X(1)
                                               VALUE SPACE.
               10  WK01-STATUS-CODE-SY00       PIC X(1)
                                               VALUE SPACES.
               10  WK01-CODE-EX601-Z              PIC X(1)
                                               VALUE SPACE.
               10  WK01-CODE-EX601-F              PIC X(1)
                                               VALUE SPACE.
               10  WK01-CODE-EX601-A              PIC X(1)
                                               VALUE SPACE.
               10  WK01-CODE-EX601-V              PIC X(1)
                                               VALUE SPACE.
               10  WK01-CODE-EX601-O              PIC X(1)
                                               VALUE SPACE.
               10  WK01-CODE-EX601       PIC X(1)
                                               VALUE SPACES.
               10  WK01-NMBR-EX601-Z              PIC X(1)
                                               VALUE SPACE.
               10  WK01-NMBR-EX601-F              PIC X(1)
                                               VALUE SPACE.
               10  WK01-NMBR-EX601-A              PIC X(1)
                                               VALUE SPACE.
               10  WK01-NMBR-EX601-V              PIC X(1)
                                               VALUE SPACE.
               10  WK01-NMBR-EX601-O              PIC X(1)
                                               VALUE SPACE.
               10  WK01-NMBR-EX601       PIC X(14)
                                               VALUE SPACES.
               10  WK01-INDX-CODE-EX601-Z              PIC X(1)
                                               VALUE SPACE.
               10  WK01-INDX-CODE-EX601-F              PIC X(1)
                                               VALUE SPACE.
               10  WK01-INDX-CODE-EX601-A              PIC X(1)
                                               VALUE SPACE.
               10  WK01-INDX-CODE-EX601-V              PIC X(1)
                                               VALUE SPACE.
               10  WK01-INDX-CODE-EX601-O              PIC X(1)
                                               VALUE SPACE.
               10  WK01-INDX-CODE-EX601       PIC X(10)
                                               VALUE SPACES.
               10  WK01-ID-LAST-NINE-EX601-Z              PIC X(1)
                                               VALUE SPACE.
               10  WK01-ID-LAST-NINE-EX601-F              PIC X(1)
                                               VALUE SPACE.
               10  WK01-ID-LAST-NINE-EX601-A              PIC X(1)
                                               VALUE SPACE.
               10  WK01-ID-LAST-NINE-EX601-V              PIC X(1)
                                               VALUE SPACE.
               10  WK01-ID-LAST-NINE-EX601-O              PIC X(1)
                                               VALUE SPACE.
               10  WK01-ID-LAST-NINE-EX601       PIC X(9)
                                               VALUE SPACES.
               10  WK01-CODE-EX6A1-Z              PIC X(1)
                                               VALUE SPACE.
               10  WK01-CODE-EX6A1-F              PIC X(1)
                                               VALUE SPACE.
               10  WK01-CODE-EX6A1-A              PIC X(1)
                                               VALUE SPACE.
               10  WK01-CODE-EX6A1-V              PIC X(1)
                                               VALUE SPACE.
               10  WK01-CODE-EX6A1-O              PIC X(1)
                                               VALUE SPACE.
               10  WK01-CODE-EX6A1       PIC X(8)
                                               VALUE SPACES.
               10  WK01-NMBR-EX6A1-Z              PIC X(1)
                                               VALUE SPACE.
               10  WK01-NMBR-EX6A1-F              PIC X(1)
                                               VALUE SPACE.
               10  WK01-NMBR-EX6A1-A              PIC X(1)
                                               VALUE SPACE.
               10  WK01-NMBR-EX6A1-V              PIC X(1)
                                               VALUE SPACE.
               10  WK01-NMBR-EX6A1-O              PIC X(1)
                                               VALUE SPACE.
               10  WK01-NMBR-EX6A1       PIC 9(5)
                                               VALUE ZEROS.
               10  WK01-ERROR-IND-EX601-Z              PIC X(1)
                                               VALUE SPACE.
               10  WK01-ERROR-IND-EX601-F              PIC X(1)
                                               VALUE SPACE.
               10  WK01-ERROR-IND-EX601-A              PIC X(1)
                                               VALUE SPACE.
               10  WK01-ERROR-IND-EX601-V              PIC X(1)
                                               VALUE SPACE.
               10  WK01-ERROR-IND-EX601-O              PIC X(1)
                                               VALUE SPACE.
               10  WK01-ERROR-IND-EX601       PIC X(1)
                                               VALUE SPACES.
               10  WK01-ERROR-IND-EX6A1-Z              PIC X(1)
                                               VALUE SPACE.
               10  WK01-ERROR-IND-EX6A1-F              PIC X(1)
                                               VALUE SPACE.
               10  WK01-ERROR-IND-EX6A1-A              PIC X(1)
                                               VALUE SPACE.
               10  WK01-ERROR-IND-EX6A1-V              PIC X(1)
                                               VALUE SPACE.
               10  WK01-ERROR-IND-EX6A1-O              PIC X(1)
                                               VALUE SPACE.
               10  WK01-ERROR-IND-EX6A1       PIC X(1)
                                               VALUE SPACES.
               10  WK01-CODE-EX602-Z              PIC X(1)
                                               VALUE SPACE.
               10  WK01-CODE-EX602-F              PIC X(1)
                                               VALUE SPACE.
               10  WK01-CODE-EX602-A              PIC X(1)
                                               VALUE SPACE.
               10  WK01-CODE-EX602-V              PIC X(1)
                                               VALUE SPACE.
               10  WK01-CODE-EX602-O              PIC X(1)
                                               VALUE SPACE.
               10  WK01-CODE-EX602       PIC X(1)
                                               VALUE SPACES.
               10  WK01-NMBR-EX602-Z              PIC X(1)
                                               VALUE SPACE.
               10  WK01-NMBR-EX602-F              PIC X(1)
                                               VALUE SPACE.
               10  WK01-NMBR-EX602-A              PIC X(1)
                                               VALUE SPACE.
               10  WK01-NMBR-EX602-V              PIC X(1)
                                               VALUE SPACE.
               10  WK01-NMBR-EX602-O              PIC X(1)
                                               VALUE SPACE.
               10  WK01-NMBR-EX602       PIC X(14)
                                               VALUE SPACES.
               10  WK01-INDX-CODE-EX602-Z              PIC X(1)
                                               VALUE SPACE.
               10  WK01-INDX-CODE-EX602-F              PIC X(1)
                                               VALUE SPACE.
               10  WK01-INDX-CODE-EX602-A              PIC X(1)
                                               VALUE SPACE.
               10  WK01-INDX-CODE-EX602-V              PIC X(1)
                                               VALUE SPACE.
               10  WK01-INDX-CODE-EX602-O              PIC X(1)
                                               VALUE SPACE.
               10  WK01-INDX-CODE-EX602       PIC X(10)
                                               VALUE SPACES.
               10  WK01-ID-LAST-NINE-EX602-Z              PIC X(1)
                                               VALUE SPACE.
               10  WK01-ID-LAST-NINE-EX602-F              PIC X(1)
                                               VALUE SPACE.
               10  WK01-ID-LAST-NINE-EX602-A              PIC X(1)
                                               VALUE SPACE.
               10  WK01-ID-LAST-NINE-EX602-V              PIC X(1)
                                               VALUE SPACE.
               10  WK01-ID-LAST-NINE-EX602-O              PIC X(1)
                                               VALUE SPACE.
               10  WK01-ID-LAST-NINE-EX602       PIC X(9)
                                               VALUE SPACES.
               10  WK01-CODE-EX6A2-Z              PIC X(1)
                                               VALUE SPACE.
               10  WK01-CODE-EX6A2-F              PIC X(1)
                                               VALUE SPACE.
               10  WK01-CODE-EX6A2-A              PIC X(1)
                                               VALUE SPACE.
               10  WK01-CODE-EX6A2-V              PIC X(1)
                                               VALUE SPACE.
               10  WK01-CODE-EX6A2-O              PIC X(1)
                                               VALUE SPACE.
               10  WK01-CODE-EX6A2       PIC X(8)
                                               VALUE SPACES.
               10  WK01-NMBR-EX6A2-Z              PIC X(1)
                                               VALUE SPACE.
               10  WK01-NMBR-EX6A2-F              PIC X(1)
                                               VALUE SPACE.
               10  WK01-NMBR-EX6A2-A              PIC X(1)
                                               VALUE SPACE.
               10  WK01-NMBR-EX6A2-V              PIC X(1)
                                               VALUE SPACE.
               10  WK01-NMBR-EX6A2-O              PIC X(1)
                                               VALUE SPACE.
               10  WK01-NMBR-EX6A2       PIC 9(5)
                                               VALUE ZEROS.
               10  WK01-ERROR-IND-EX602-Z              PIC X(1)
                                               VALUE SPACE.
               10  WK01-ERROR-IND-EX602-F              PIC X(1)
                                               VALUE SPACE.
               10  WK01-ERROR-IND-EX602-A              PIC X(1)
                                               VALUE SPACE.
               10  WK01-ERROR-IND-EX602-V              PIC X(1)
                                               VALUE SPACE.
               10  WK01-ERROR-IND-EX602-O              PIC X(1)
                                               VALUE SPACE.
               10  WK01-ERROR-IND-EX602       PIC X(1)
                                               VALUE SPACES.
               10  WK01-ERROR-IND-EX6A2-Z              PIC X(1)
                                               VALUE SPACE.
               10  WK01-ERROR-IND-EX6A2-F              PIC X(1)
                                               VALUE SPACE.
               10  WK01-ERROR-IND-EX6A2-A              PIC X(1)
                                               VALUE SPACE.
               10  WK01-ERROR-IND-EX6A2-V              PIC X(1)
                                               VALUE SPACE.
               10  WK01-ERROR-IND-EX6A2-O              PIC X(1)
                                               VALUE SPACE.
               10  WK01-ERROR-IND-EX6A2       PIC X(1)
                                               VALUE SPACES.
               10  WK01-CODE-EX603-Z              PIC X(1)
                                               VALUE SPACE.
               10  WK01-CODE-EX603-F              PIC X(1)
                                               VALUE SPACE.
               10  WK01-CODE-EX603-A              PIC X(1)
                                               VALUE SPACE.
               10  WK01-CODE-EX603-V              PIC X(1)
                                               VALUE SPACE.
               10  WK01-CODE-EX603-O              PIC X(1)
                                               VALUE SPACE.
               10  WK01-CODE-EX603       PIC X(1)
                                               VALUE SPACES.
               10  WK01-NMBR-EX603-Z              PIC X(1)
                                               VALUE SPACE.
               10  WK01-NMBR-EX603-F              PIC X(1)
                                               VALUE SPACE.
               10  WK01-NMBR-EX603-A              PIC X(1)
                                               VALUE SPACE.
               10  WK01-NMBR-EX603-V              PIC X(1)
                                               VALUE SPACE.
               10  WK01-NMBR-EX603-O              PIC X(1)
                                               VALUE SPACE.
               10  WK01-NMBR-EX603       PIC X(14)
                                               VALUE SPACES.
               10  WK01-INDX-CODE-EX603-Z              PIC X(1)
                                               VALUE SPACE.
               10  WK01-INDX-CODE-EX603-F              PIC X(1)
                                               VALUE SPACE.
               10  WK01-INDX-CODE-EX603-A              PIC X(1)
                                               VALUE SPACE.
               10  WK01-INDX-CODE-EX603-V              PIC X(1)
                                               VALUE SPACE.
               10  WK01-INDX-CODE-EX603-O              PIC X(1)
                                               VALUE SPACE.
               10  WK01-INDX-CODE-EX603       PIC X(10)
                                               VALUE SPACES.
               10  WK01-ID-LAST-NINE-EX603-Z              PIC X(1)
                                               VALUE SPACE.
               10  WK01-ID-LAST-NINE-EX603-F              PIC X(1)
                                               VALUE SPACE.
               10  WK01-ID-LAST-NINE-EX603-A              PIC X(1)
                                               VALUE SPACE.
               10  WK01-ID-LAST-NINE-EX603-V              PIC X(1)
                                               VALUE SPACE.
               10  WK01-ID-LAST-NINE-EX603-O              PIC X(1)
                                               VALUE SPACE.
               10  WK01-ID-LAST-NINE-EX603       PIC X(9)
                                               VALUE SPACES.
               10  WK01-CODE-EX6A3-Z              PIC X(1)
                                               VALUE SPACE.
               10  WK01-CODE-EX6A3-F              PIC X(1)
                                               VALUE SPACE.
               10  WK01-CODE-EX6A3-A              PIC X(1)
                                               VALUE SPACE.
               10  WK01-CODE-EX6A3-V              PIC X(1)
                                               VALUE SPACE.
               10  WK01-CODE-EX6A3-O              PIC X(1)
                                               VALUE SPACE.
               10  WK01-CODE-EX6A3       PIC X(8)
                                               VALUE SPACES.
               10  WK01-NMBR-EX6A3-Z              PIC X(1)
                                               VALUE SPACE.
               10  WK01-NMBR-EX6A3-F              PIC X(1)
                                               VALUE SPACE.
               10  WK01-NMBR-EX6A3-A              PIC X(1)
                                               VALUE SPACE.
               10  WK01-NMBR-EX6A3-V              PIC X(1)
                                               VALUE SPACE.
               10  WK01-NMBR-EX6A3-O              PIC X(1)
                                               VALUE SPACE.
               10  WK01-NMBR-EX6A3       PIC 9(5)
                                               VALUE ZEROS.
               10  WK01-ERROR-IND-EX603-Z              PIC X(1)
                                               VALUE SPACE.
               10  WK01-ERROR-IND-EX603-F              PIC X(1)
                                               VALUE SPACE.
               10  WK01-ERROR-IND-EX603-A              PIC X(1)
                                               VALUE SPACE.
               10  WK01-ERROR-IND-EX603-V              PIC X(1)
                                               VALUE SPACE.
               10  WK01-ERROR-IND-EX603-O              PIC X(1)
                                               VALUE SPACE.
               10  WK01-ERROR-IND-EX603       PIC X(1)
                                               VALUE SPACES.
               10  WK01-ERROR-IND-EX6A3-Z              PIC X(1)
                                               VALUE SPACE.
               10  WK01-ERROR-IND-EX6A3-F              PIC X(1)
                                               VALUE SPACE.
               10  WK01-ERROR-IND-EX6A3-A              PIC X(1)
                                               VALUE SPACE.
               10  WK01-ERROR-IND-EX6A3-V              PIC X(1)
                                               VALUE SPACE.
               10  WK01-ERROR-IND-EX6A3-O              PIC X(1)
                                               VALUE SPACE.
               10  WK01-ERROR-IND-EX6A3       PIC X(1)
                                               VALUE SPACES.
               10  WK01-CODE-EX604-Z              PIC X(1)
                                               VALUE SPACE.
               10  WK01-CODE-EX604-F              PIC X(1)
                                               VALUE SPACE.
               10  WK01-CODE-EX604-A              PIC X(1)
                                               VALUE SPACE.
               10  WK01-CODE-EX604-V              PIC X(1)
                                               VALUE SPACE.
               10  WK01-CODE-EX604-O              PIC X(1)
                                               VALUE SPACE.
               10  WK01-CODE-EX604       PIC X(1)
                                               VALUE SPACES.
               10  WK01-NMBR-EX604-Z              PIC X(1)
                                               VALUE SPACE.
               10  WK01-NMBR-EX604-F              PIC X(1)
                                               VALUE SPACE.
               10  WK01-NMBR-EX604-A              PIC X(1)
                                               VALUE SPACE.
               10  WK01-NMBR-EX604-V              PIC X(1)
                                               VALUE SPACE.
               10  WK01-NMBR-EX604-O              PIC X(1)
                                               VALUE SPACE.
               10  WK01-NMBR-EX604       PIC X(14)
                                               VALUE SPACES.
               10  WK01-INDX-CODE-EX604-Z              PIC X(1)
                                               VALUE SPACE.
               10  WK01-INDX-CODE-EX604-F              PIC X(1)
                                               VALUE SPACE.
               10  WK01-INDX-CODE-EX604-A              PIC X(1)
                                               VALUE SPACE.
               10  WK01-INDX-CODE-EX604-V              PIC X(1)
                                               VALUE SPACE.
               10  WK01-INDX-CODE-EX604-O              PIC X(1)
                                               VALUE SPACE.
               10  WK01-INDX-CODE-EX604       PIC X(10)
                                               VALUE SPACES.
               10  WK01-ID-LAST-NINE-EX604-Z              PIC X(1)
                                               VALUE SPACE.
               10  WK01-ID-LAST-NINE-EX604-F              PIC X(1)
                                               VALUE SPACE.
               10  WK01-ID-LAST-NINE-EX604-A              PIC X(1)
                                               VALUE SPACE.
               10  WK01-ID-LAST-NINE-EX604-V              PIC X(1)
                                               VALUE SPACE.
               10  WK01-ID-LAST-NINE-EX604-O              PIC X(1)
                                               VALUE SPACE.
               10  WK01-ID-LAST-NINE-EX604       PIC X(9)
                                               VALUE SPACES.
               10  WK01-CODE-EX6A4-Z              PIC X(1)
                                               VALUE SPACE.
               10  WK01-CODE-EX6A4-F              PIC X(1)
                                               VALUE SPACE.
               10  WK01-CODE-EX6A4-A              PIC X(1)
                                               VALUE SPACE.
               10  WK01-CODE-EX6A4-V              PIC X(1)
                                               VALUE SPACE.
               10  WK01-CODE-EX6A4-O              PIC X(1)
                                               VALUE SPACE.
               10  WK01-CODE-EX6A4       PIC X(8)
                                               VALUE SPACES.
               10  WK01-NMBR-EX6A4-Z              PIC X(1)
                                               VALUE SPACE.
               10  WK01-NMBR-EX6A4-F              PIC X(1)
                                               VALUE SPACE.
               10  WK01-NMBR-EX6A4-A              PIC X(1)
                                               VALUE SPACE.
               10  WK01-NMBR-EX6A4-V              PIC X(1)
                                               VALUE SPACE.
               10  WK01-NMBR-EX6A4-O              PIC X(1)
                                               VALUE SPACE.
               10  WK01-NMBR-EX6A4       PIC 9(5)
                                               VALUE ZEROS.
               10  WK01-ERROR-IND-EX604-Z              PIC X(1)
                                               VALUE SPACE.
               10  WK01-ERROR-IND-EX604-F              PIC X(1)
                                               VALUE SPACE.
               10  WK01-ERROR-IND-EX604-A              PIC X(1)
                                               VALUE SPACE.
               10  WK01-ERROR-IND-EX604-V              PIC X(1)
                                               VALUE SPACE.
               10  WK01-ERROR-IND-EX604-O              PIC X(1)
                                               VALUE SPACE.
               10  WK01-ERROR-IND-EX604       PIC X(1)
                                               VALUE SPACES.
               10  WK01-ERROR-IND-EX6A4-Z              PIC X(1)
                                               VALUE SPACE.
               10  WK01-ERROR-IND-EX6A4-F              PIC X(1)
                                               VALUE SPACE.
               10  WK01-ERROR-IND-EX6A4-A              PIC X(1)
                                               VALUE SPACE.
               10  WK01-ERROR-IND-EX6A4-V              PIC X(1)
                                               VALUE SPACE.
               10  WK01-ERROR-IND-EX6A4-O              PIC X(1)
                                               VALUE SPACE.
               10  WK01-ERROR-IND-EX6A4       PIC X(1)
                                               VALUE SPACES.
               10  WK01-CODE-EX605-Z              PIC X(1)
                                               VALUE SPACE.
               10  WK01-CODE-EX605-F              PIC X(1)
                                               VALUE SPACE.
               10  WK01-CODE-EX605-A              PIC X(1)
                                               VALUE SPACE.
               10  WK01-CODE-EX605-V              PIC X(1)
                                               VALUE SPACE.
               10  WK01-CODE-EX605-O              PIC X(1)
                                               VALUE SPACE.
               10  WK01-CODE-EX605       PIC X(1)
                                               VALUE SPACES.
               10  WK01-NMBR-EX605-Z              PIC X(1)
                                               VALUE SPACE.
               10  WK01-NMBR-EX605-F              PIC X(1)
                                               VALUE SPACE.
               10  WK01-NMBR-EX605-A              PIC X(1)
                                               VALUE SPACE.
               10  WK01-NMBR-EX605-V              PIC X(1)
                                               VALUE SPACE.
               10  WK01-NMBR-EX605-O              PIC X(1)
                                               VALUE SPACE.
               10  WK01-NMBR-EX605       PIC X(14)
                                               VALUE SPACES.
               10  WK01-INDX-CODE-EX605-Z              PIC X(1)
                                               VALUE SPACE.
               10  WK01-INDX-CODE-EX605-F              PIC X(1)
                                               VALUE SPACE.
               10  WK01-INDX-CODE-EX605-A              PIC X(1)
                                               VALUE SPACE.
               10  WK01-INDX-CODE-EX605-V              PIC X(1)
                                               VALUE SPACE.
               10  WK01-INDX-CODE-EX605-O              PIC X(1)
                                               VALUE SPACE.
               10  WK01-INDX-CODE-EX605       PIC X(10)
                                               VALUE SPACES.
               10  WK01-ID-LAST-NINE-EX605-Z              PIC X(1)
                                               VALUE SPACE.
               10  WK01-ID-LAST-NINE-EX605-F              PIC X(1)
                                               VALUE SPACE.
               10  WK01-ID-LAST-NINE-EX605-A              PIC X(1)
                                               VALUE SPACE.
               10  WK01-ID-LAST-NINE-EX605-V              PIC X(1)
                                               VALUE SPACE.
               10  WK01-ID-LAST-NINE-EX605-O              PIC X(1)
                                               VALUE SPACE.
               10  WK01-ID-LAST-NINE-EX605       PIC X(9)
                                               VALUE SPACES.
               10  WK01-CODE-EX6A5-Z              PIC X(1)
                                               VALUE SPACE.
               10  WK01-CODE-EX6A5-F              PIC X(1)
                                               VALUE SPACE.
               10  WK01-CODE-EX6A5-A              PIC X(1)
                                               VALUE SPACE.
               10  WK01-CODE-EX6A5-V              PIC X(1)
                                               VALUE SPACE.
               10  WK01-CODE-EX6A5-O              PIC X(1)
                                               VALUE SPACE.
               10  WK01-CODE-EX6A5       PIC X(8)
                                               VALUE SPACES.
               10  WK01-NMBR-EX6A5-Z              PIC X(1)
                                               VALUE SPACE.
               10  WK01-NMBR-EX6A5-F              PIC X(1)
                                               VALUE SPACE.
               10  WK01-NMBR-EX6A5-A              PIC X(1)
                                               VALUE SPACE.
               10  WK01-NMBR-EX6A5-V              PIC X(1)
                                               VALUE SPACE.
               10  WK01-NMBR-EX6A5-O              PIC X(1)
                                               VALUE SPACE.
               10  WK01-NMBR-EX6A5       PIC 9(5)
                                               VALUE ZEROS.
               10  WK01-ERROR-IND-EX605-Z              PIC X(1)
                                               VALUE SPACE.
               10  WK01-ERROR-IND-EX605-F              PIC X(1)
                                               VALUE SPACE.
               10  WK01-ERROR-IND-EX605-A              PIC X(1)
                                               VALUE SPACE.
               10  WK01-ERROR-IND-EX605-V              PIC X(1)
                                               VALUE SPACE.
               10  WK01-ERROR-IND-EX605-O              PIC X(1)
                                               VALUE SPACE.
               10  WK01-ERROR-IND-EX605       PIC X(1)
                                               VALUE SPACES.
               10  WK01-ERROR-IND-EX6A5-Z              PIC X(1)
                                               VALUE SPACE.
               10  WK01-ERROR-IND-EX6A5-F              PIC X(1)
                                               VALUE SPACE.
               10  WK01-ERROR-IND-EX6A5-A              PIC X(1)
                                               VALUE SPACE.
               10  WK01-ERROR-IND-EX6A5-V              PIC X(1)
                                               VALUE SPACE.
               10  WK01-ERROR-IND-EX6A5-O              PIC X(1)
                                               VALUE SPACE.
               10  WK01-ERROR-IND-EX6A5       PIC X(1)
                                               VALUE SPACES.
               10  WK01-CODE-EX606-Z              PIC X(1)
                                               VALUE SPACE.
               10  WK01-CODE-EX606-F              PIC X(1)
                                               VALUE SPACE.
               10  WK01-CODE-EX606-A              PIC X(1)
                                               VALUE SPACE.
               10  WK01-CODE-EX606-V              PIC X(1)
                                               VALUE SPACE.
               10  WK01-CODE-EX606-O              PIC X(1)
                                               VALUE SPACE.
               10  WK01-CODE-EX606       PIC X(1)
                                               VALUE SPACES.
               10  WK01-NMBR-EX606-Z              PIC X(1)
                                               VALUE SPACE.
               10  WK01-NMBR-EX606-F              PIC X(1)
                                               VALUE SPACE.
               10  WK01-NMBR-EX606-A              PIC X(1)
                                               VALUE SPACE.
               10  WK01-NMBR-EX606-V              PIC X(1)
                                               VALUE SPACE.
               10  WK01-NMBR-EX606-O              PIC X(1)
                                               VALUE SPACE.
               10  WK01-NMBR-EX606       PIC X(14)
                                               VALUE SPACES.
               10  WK01-INDX-CODE-EX606-Z              PIC X(1)
                                               VALUE SPACE.
               10  WK01-INDX-CODE-EX606-F              PIC X(1)
                                               VALUE SPACE.
               10  WK01-INDX-CODE-EX606-A              PIC X(1)
                                               VALUE SPACE.
               10  WK01-INDX-CODE-EX606-V              PIC X(1)
                                               VALUE SPACE.
               10  WK01-INDX-CODE-EX606-O              PIC X(1)
                                               VALUE SPACE.
               10  WK01-INDX-CODE-EX606       PIC X(10)
                                               VALUE SPACES.
               10  WK01-ID-LAST-NINE-EX606-Z              PIC X(1)
                                               VALUE SPACE.
               10  WK01-ID-LAST-NINE-EX606-F              PIC X(1)
                                               VALUE SPACE.
               10  WK01-ID-LAST-NINE-EX606-A              PIC X(1)
                                               VALUE SPACE.
               10  WK01-ID-LAST-NINE-EX606-V              PIC X(1)
                                               VALUE SPACE.
               10  WK01-ID-LAST-NINE-EX606-O              PIC X(1)
                                               VALUE SPACE.
               10  WK01-ID-LAST-NINE-EX606       PIC X(9)
                                               VALUE SPACES.
               10  WK01-CODE-EX6A6-Z              PIC X(1)
                                               VALUE SPACE.
               10  WK01-CODE-EX6A6-F              PIC X(1)
                                               VALUE SPACE.
               10  WK01-CODE-EX6A6-A              PIC X(1)
                                               VALUE SPACE.
               10  WK01-CODE-EX6A6-V              PIC X(1)
                                               VALUE SPACE.
               10  WK01-CODE-EX6A6-O              PIC X(1)
                                               VALUE SPACE.
               10  WK01-CODE-EX6A6       PIC X(8)
                                               VALUE SPACES.
               10  WK01-NMBR-EX6A6-Z              PIC X(1)
                                               VALUE SPACE.
               10  WK01-NMBR-EX6A6-F              PIC X(1)
                                               VALUE SPACE.
               10  WK01-NMBR-EX6A6-A              PIC X(1)
                                               VALUE SPACE.
               10  WK01-NMBR-EX6A6-V              PIC X(1)
                                               VALUE SPACE.
               10  WK01-NMBR-EX6A6-O              PIC X(1)
                                               VALUE SPACE.
               10  WK01-NMBR-EX6A6       PIC 9(5)
                                               VALUE ZEROS.
               10  WK01-ERROR-IND-EX606-Z              PIC X(1)
                                               VALUE SPACE.
               10  WK01-ERROR-IND-EX606-F              PIC X(1)
                                               VALUE SPACE.
               10  WK01-ERROR-IND-EX606-A              PIC X(1)
                                               VALUE SPACE.
               10  WK01-ERROR-IND-EX606-V              PIC X(1)
                                               VALUE SPACE.
               10  WK01-ERROR-IND-EX606-O              PIC X(1)
                                               VALUE SPACE.
               10  WK01-ERROR-IND-EX606       PIC X(1)
                                               VALUE SPACES.
               10  WK01-ERROR-IND-EX6A6-Z              PIC X(1)
                                               VALUE SPACE.
               10  WK01-ERROR-IND-EX6A6-F              PIC X(1)
                                               VALUE SPACE.
               10  WK01-ERROR-IND-EX6A6-A              PIC X(1)
                                               VALUE SPACE.
               10  WK01-ERROR-IND-EX6A6-V              PIC X(1)
                                               VALUE SPACE.
               10  WK01-ERROR-IND-EX6A6-O              PIC X(1)
                                               VALUE SPACE.
               10  WK01-ERROR-IND-EX6A6       PIC X(1)
                                               VALUE SPACES.
               10  WK01-CODE-EX607-Z              PIC X(1)
                                               VALUE SPACE.
               10  WK01-CODE-EX607-F              PIC X(1)
                                               VALUE SPACE.
               10  WK01-CODE-EX607-A              PIC X(1)
                                               VALUE SPACE.
               10  WK01-CODE-EX607-V              PIC X(1)
                                               VALUE SPACE.
               10  WK01-CODE-EX607-O              PIC X(1)
                                               VALUE SPACE.
               10  WK01-CODE-EX607       PIC X(1)
                                               VALUE SPACES.
               10  WK01-NMBR-EX607-Z              PIC X(1)
                                               VALUE SPACE.
               10  WK01-NMBR-EX607-F              PIC X(1)
                                               VALUE SPACE.
               10  WK01-NMBR-EX607-A              PIC X(1)
                                               VALUE SPACE.
               10  WK01-NMBR-EX607-V              PIC X(1)
                                               VALUE SPACE.
               10  WK01-NMBR-EX607-O              PIC X(1)
                                               VALUE SPACE.
               10  WK01-NMBR-EX607       PIC X(14)
                                               VALUE SPACES.
               10  WK01-INDX-CODE-EX607-Z              PIC X(1)
                                               VALUE SPACE.
               10  WK01-INDX-CODE-EX607-F              PIC X(1)
                                               VALUE SPACE.
               10  WK01-INDX-CODE-EX607-A              PIC X(1)
                                               VALUE SPACE.
               10  WK01-INDX-CODE-EX607-V              PIC X(1)
                                               VALUE SPACE.
               10  WK01-INDX-CODE-EX607-O              PIC X(1)
                                               VALUE SPACE.
               10  WK01-INDX-CODE-EX607       PIC X(10)
                                               VALUE SPACES.
               10  WK01-ID-LAST-NINE-EX607-Z              PIC X(1)
                                               VALUE SPACE.
               10  WK01-ID-LAST-NINE-EX607-F              PIC X(1)
                                               VALUE SPACE.
               10  WK01-ID-LAST-NINE-EX607-A              PIC X(1)
                                               VALUE SPACE.
               10  WK01-ID-LAST-NINE-EX607-V              PIC X(1)
                                               VALUE SPACE.
               10  WK01-ID-LAST-NINE-EX607-O              PIC X(1)
                                               VALUE SPACE.
               10  WK01-ID-LAST-NINE-EX607       PIC X(9)
                                               VALUE SPACES.
               10  WK01-CODE-EX6A7-Z              PIC X(1)
                                               VALUE SPACE.
               10  WK01-CODE-EX6A7-F              PIC X(1)
                                               VALUE SPACE.
               10  WK01-CODE-EX6A7-A              PIC X(1)
                                               VALUE SPACE.
               10  WK01-CODE-EX6A7-V              PIC X(1)
                                               VALUE SPACE.
               10  WK01-CODE-EX6A7-O              PIC X(1)
                                               VALUE SPACE.
               10  WK01-CODE-EX6A7       PIC X(8)
                                               VALUE SPACES.
               10  WK01-NMBR-EX6A7-Z              PIC X(1)
                                               VALUE SPACE.
               10  WK01-NMBR-EX6A7-F              PIC X(1)
                                               VALUE SPACE.
               10  WK01-NMBR-EX6A7-A              PIC X(1)
                                               VALUE SPACE.
               10  WK01-NMBR-EX6A7-V              PIC X(1)
                                               VALUE SPACE.
               10  WK01-NMBR-EX6A7-O              PIC X(1)
                                               VALUE SPACE.
               10  WK01-NMBR-EX6A7       PIC 9(5)
                                               VALUE ZEROS.
               10  WK01-ERROR-IND-EX607-Z              PIC X(1)
                                               VALUE SPACE.
               10  WK01-ERROR-IND-EX607-F              PIC X(1)
                                               VALUE SPACE.
               10  WK01-ERROR-IND-EX607-A              PIC X(1)
                                               VALUE SPACE.
               10  WK01-ERROR-IND-EX607-V              PIC X(1)
                                               VALUE SPACE.
               10  WK01-ERROR-IND-EX607-O              PIC X(1)
                                               VALUE SPACE.
               10  WK01-ERROR-IND-EX607       PIC X(1)
                                               VALUE SPACES.
               10  WK01-ERROR-IND-EX6A7-Z              PIC X(1)
                                               VALUE SPACE.
               10  WK01-ERROR-IND-EX6A7-F              PIC X(1)
                                               VALUE SPACE.
               10  WK01-ERROR-IND-EX6A7-A              PIC X(1)
                                               VALUE SPACE.
               10  WK01-ERROR-IND-EX6A7-V              PIC X(1)
                                               VALUE SPACE.
               10  WK01-ERROR-IND-EX6A7-O              PIC X(1)
                                               VALUE SPACE.
               10  WK01-ERROR-IND-EX6A7       PIC X(1)
                                               VALUE SPACES.
               10  WK01-CODE-EX608-Z              PIC X(1)
                                               VALUE SPACE.
               10  WK01-CODE-EX608-F              PIC X(1)
                                               VALUE SPACE.
               10  WK01-CODE-EX608-A              PIC X(1)
                                               VALUE SPACE.
               10  WK01-CODE-EX608-V              PIC X(1)
                                               VALUE SPACE.
               10  WK01-CODE-EX608-O              PIC X(1)
                                               VALUE SPACE.
               10  WK01-CODE-EX608       PIC X(1)
                                               VALUE SPACES.
               10  WK01-NMBR-EX608-Z              PIC X(1)
                                               VALUE SPACE.
               10  WK01-NMBR-EX608-F              PIC X(1)
                                               VALUE SPACE.
               10  WK01-NMBR-EX608-A              PIC X(1)
                                               VALUE SPACE.
               10  WK01-NMBR-EX608-V              PIC X(1)
                                               VALUE SPACE.
               10  WK01-NMBR-EX608-O              PIC X(1)
                                               VALUE SPACE.
               10  WK01-NMBR-EX608       PIC X(14)
                                               VALUE SPACES.
               10  WK01-INDX-CODE-EX608-Z              PIC X(1)
                                               VALUE SPACE.
               10  WK01-INDX-CODE-EX608-F              PIC X(1)
                                               VALUE SPACE.
               10  WK01-INDX-CODE-EX608-A              PIC X(1)
                                               VALUE SPACE.
               10  WK01-INDX-CODE-EX608-V              PIC X(1)
                                               VALUE SPACE.
               10  WK01-INDX-CODE-EX608-O              PIC X(1)
                                               VALUE SPACE.
               10  WK01-INDX-CODE-EX608       PIC X(10)
                                               VALUE SPACES.
               10  WK01-ID-LAST-NINE-EX608-Z              PIC X(1)
                                               VALUE SPACE.
               10  WK01-ID-LAST-NINE-EX608-F              PIC X(1)
                                               VALUE SPACE.
               10  WK01-ID-LAST-NINE-EX608-A              PIC X(1)
                                               VALUE SPACE.
               10  WK01-ID-LAST-NINE-EX608-V              PIC X(1)
                                               VALUE SPACE.
               10  WK01-ID-LAST-NINE-EX608-O              PIC X(1)
                                               VALUE SPACE.
               10  WK01-ID-LAST-NINE-EX608       PIC X(9)
                                               VALUE SPACES.
               10  WK01-CODE-EX6A8-Z              PIC X(1)
                                               VALUE SPACE.
               10  WK01-CODE-EX6A8-F              PIC X(1)
                                               VALUE SPACE.
               10  WK01-CODE-EX6A8-A              PIC X(1)
                                               VALUE SPACE.
               10  WK01-CODE-EX6A8-V              PIC X(1)
                                               VALUE SPACE.
               10  WK01-CODE-EX6A8-O              PIC X(1)
                                               VALUE SPACE.
               10  WK01-CODE-EX6A8       PIC X(8)
                                               VALUE SPACES.
               10  WK01-NMBR-EX6A8-Z              PIC X(1)
                                               VALUE SPACE.
               10  WK01-NMBR-EX6A8-F              PIC X(1)
                                               VALUE SPACE.
               10  WK01-NMBR-EX6A8-A              PIC X(1)
                                               VALUE SPACE.
               10  WK01-NMBR-EX6A8-V              PIC X(1)
                                               VALUE SPACE.
               10  WK01-NMBR-EX6A8-O              PIC X(1)
                                               VALUE SPACE.
               10  WK01-NMBR-EX6A8       PIC 9(5)
                                               VALUE ZEROS.
               10  WK01-ERROR-IND-EX608-Z              PIC X(1)
                                               VALUE SPACE.
               10  WK01-ERROR-IND-EX608-F              PIC X(1)
                                               VALUE SPACE.
               10  WK01-ERROR-IND-EX608-A              PIC X(1)
                                               VALUE SPACE.
               10  WK01-ERROR-IND-EX608-V              PIC X(1)
                                               VALUE SPACE.
               10  WK01-ERROR-IND-EX608-O              PIC X(1)
                                               VALUE SPACE.
               10  WK01-ERROR-IND-EX608       PIC X(1)
                                               VALUE SPACES.
               10  WK01-ERROR-IND-EX6A8-Z              PIC X(1)
                                               VALUE SPACE.
               10  WK01-ERROR-IND-EX6A8-F              PIC X(1)
                                               VALUE SPACE.
               10  WK01-ERROR-IND-EX6A8-A              PIC X(1)
                                               VALUE SPACE.
               10  WK01-ERROR-IND-EX6A8-V              PIC X(1)
                                               VALUE SPACE.
               10  WK01-ERROR-IND-EX6A8-O              PIC X(1)
                                               VALUE SPACE.
               10  WK01-ERROR-IND-EX6A8       PIC X(1)
                                               VALUE SPACES.
               10  WK01-CODE-EX609-Z              PIC X(1)
                                               VALUE SPACE.
               10  WK01-CODE-EX609-F              PIC X(1)
                                               VALUE SPACE.
               10  WK01-CODE-EX609-A              PIC X(1)
                                               VALUE SPACE.
               10  WK01-CODE-EX609-V              PIC X(1)
                                               VALUE SPACE.
               10  WK01-CODE-EX609-O              PIC X(1)
                                               VALUE SPACE.
               10  WK01-CODE-EX609       PIC X(1)
                                               VALUE SPACES.
               10  WK01-NMBR-EX609-Z              PIC X(1)
                                               VALUE SPACE.
               10  WK01-NMBR-EX609-F              PIC X(1)
                                               VALUE SPACE.
               10  WK01-NMBR-EX609-A              PIC X(1)
                                               VALUE SPACE.
               10  WK01-NMBR-EX609-V              PIC X(1)
                                               VALUE SPACE.
               10  WK01-NMBR-EX609-O              PIC X(1)
                                               VALUE SPACE.
               10  WK01-NMBR-EX609       PIC X(14)
                                               VALUE SPACES.
               10  WK01-INDX-CODE-EX609-Z              PIC X(1)
                                               VALUE SPACE.
               10  WK01-INDX-CODE-EX609-F              PIC X(1)
                                               VALUE SPACE.
               10  WK01-INDX-CODE-EX609-A              PIC X(1)
                                               VALUE SPACE.
               10  WK01-INDX-CODE-EX609-V              PIC X(1)
                                               VALUE SPACE.
               10  WK01-INDX-CODE-EX609-O              PIC X(1)
                                               VALUE SPACE.
               10  WK01-INDX-CODE-EX609       PIC X(10)
                                               VALUE SPACES.
               10  WK01-ID-LAST-NINE-EX609-Z              PIC X(1)
                                               VALUE SPACE.
               10  WK01-ID-LAST-NINE-EX609-F              PIC X(1)
                                               VALUE SPACE.
               10  WK01-ID-LAST-NINE-EX609-A              PIC X(1)
                                               VALUE SPACE.
               10  WK01-ID-LAST-NINE-EX609-V              PIC X(1)
                                               VALUE SPACE.
               10  WK01-ID-LAST-NINE-EX609-O              PIC X(1)
                                               VALUE SPACE.
               10  WK01-ID-LAST-NINE-EX609       PIC X(9)
                                               VALUE SPACES.
               10  WK01-CODE-EX6A9-Z              PIC X(1)
                                               VALUE SPACE.
               10  WK01-CODE-EX6A9-F              PIC X(1)
                                               VALUE SPACE.
               10  WK01-CODE-EX6A9-A              PIC X(1)
                                               VALUE SPACE.
               10  WK01-CODE-EX6A9-V              PIC X(1)
                                               VALUE SPACE.
               10  WK01-CODE-EX6A9-O              PIC X(1)
                                               VALUE SPACE.
               10  WK01-CODE-EX6A9       PIC X(8)
                                               VALUE SPACES.
               10  WK01-NMBR-EX6A9-Z              PIC X(1)
                                               VALUE SPACE.
               10  WK01-NMBR-EX6A9-F              PIC X(1)
                                               VALUE SPACE.
               10  WK01-NMBR-EX6A9-A              PIC X(1)
                                               VALUE SPACE.
               10  WK01-NMBR-EX6A9-V              PIC X(1)
                                               VALUE SPACE.
               10  WK01-NMBR-EX6A9-O              PIC X(1)
                                               VALUE SPACE.
               10  WK01-NMBR-EX6A9       PIC 9(5)
                                               VALUE ZEROS.
               10  WK01-ERROR-IND-EX609-Z              PIC X(1)
                                               VALUE SPACE.
               10  WK01-ERROR-IND-EX609-F              PIC X(1)
                                               VALUE SPACE.
               10  WK01-ERROR-IND-EX609-A              PIC X(1)
                                               VALUE SPACE.
               10  WK01-ERROR-IND-EX609-V              PIC X(1)
                                               VALUE SPACE.
               10  WK01-ERROR-IND-EX609-O              PIC X(1)
                                               VALUE SPACE.
               10  WK01-ERROR-IND-EX609       PIC X(1)
                                               VALUE SPACES.
               10  WK01-ERROR-IND-EX6A9-Z              PIC X(1)
                                               VALUE SPACE.
               10  WK01-ERROR-IND-EX6A9-F              PIC X(1)
                                               VALUE SPACE.
               10  WK01-ERROR-IND-EX6A9-A              PIC X(1)
                                               VALUE SPACE.
               10  WK01-ERROR-IND-EX6A9-V              PIC X(1)
                                               VALUE SPACE.
               10  WK01-ERROR-IND-EX6A9-O              PIC X(1)
                                               VALUE SPACE.
               10  WK01-ERROR-IND-EX6A9       PIC X(1)
                                               VALUE SPACES.
               10  WK01-CODE-EX6010-Z              PIC X(1)
                                               VALUE SPACE.
               10  WK01-CODE-EX6010-F              PIC X(1)
                                               VALUE SPACE.
               10  WK01-CODE-EX6010-A              PIC X(1)
                                               VALUE SPACE.
               10  WK01-CODE-EX6010-V              PIC X(1)
                                               VALUE SPACE.
               10  WK01-CODE-EX6010-O              PIC X(1)
                                               VALUE SPACE.
               10  WK01-CODE-EX6010       PIC X(1)
                                               VALUE SPACES.
               10  WK01-NMBR-EX6010-Z              PIC X(1)
                                               VALUE SPACE.
               10  WK01-NMBR-EX6010-F              PIC X(1)
                                               VALUE SPACE.
               10  WK01-NMBR-EX6010-A              PIC X(1)
                                               VALUE SPACE.
               10  WK01-NMBR-EX6010-V              PIC X(1)
                                               VALUE SPACE.
               10  WK01-NMBR-EX6010-O              PIC X(1)
                                               VALUE SPACE.
               10  WK01-NMBR-EX6010       PIC X(14)
                                               VALUE SPACES.
               10  WK01-INDX-CODE-EX6010-Z              PIC X(1)
                                               VALUE SPACE.
               10  WK01-INDX-CODE-EX6010-F              PIC X(1)
                                               VALUE SPACE.
               10  WK01-INDX-CODE-EX6010-A              PIC X(1)
                                               VALUE SPACE.
               10  WK01-INDX-CODE-EX6010-V              PIC X(1)
                                               VALUE SPACE.
               10  WK01-INDX-CODE-EX6010-O              PIC X(1)
                                               VALUE SPACE.
               10  WK01-INDX-CODE-EX6010       PIC X(10)
                                               VALUE SPACES.
               10  WK01-ID-LAST-NINE-EX6010-Z              PIC X(1)
                                               VALUE SPACE.
               10  WK01-ID-LAST-NINE-EX6010-F              PIC X(1)
                                               VALUE SPACE.
               10  WK01-ID-LAST-NINE-EX6010-A              PIC X(1)
                                               VALUE SPACE.
               10  WK01-ID-LAST-NINE-EX6010-V              PIC X(1)
                                               VALUE SPACE.
               10  WK01-ID-LAST-NINE-EX6010-O              PIC X(1)
                                               VALUE SPACE.
               10  WK01-ID-LAST-NINE-EX6010       PIC X(9)
                                               VALUE SPACES.
               10  WK01-CODE-EX6A10-Z              PIC X(1)
                                               VALUE SPACE.
               10  WK01-CODE-EX6A10-F              PIC X(1)
                                               VALUE SPACE.
               10  WK01-CODE-EX6A10-A              PIC X(1)
                                               VALUE SPACE.
               10  WK01-CODE-EX6A10-V              PIC X(1)
                                               VALUE SPACE.
               10  WK01-CODE-EX6A10-O              PIC X(1)
                                               VALUE SPACE.
               10  WK01-CODE-EX6A10       PIC X(8)
                                               VALUE SPACES.
               10  WK01-NMBR-EX6A10-Z              PIC X(1)
                                               VALUE SPACE.
               10  WK01-NMBR-EX6A10-F              PIC X(1)
                                               VALUE SPACE.
               10  WK01-NMBR-EX6A10-A              PIC X(1)
                                               VALUE SPACE.
               10  WK01-NMBR-EX6A10-V              PIC X(1)
                                               VALUE SPACE.
               10  WK01-NMBR-EX6A10-O              PIC X(1)
                                               VALUE SPACE.
               10  WK01-NMBR-EX6A10       PIC 9(5)
                                               VALUE ZEROS.
               10  WK01-ERROR-IND-EX6010-Z              PIC X(1)
                                               VALUE SPACE.
               10  WK01-ERROR-IND-EX6010-F              PIC X(1)
                                               VALUE SPACE.
               10  WK01-ERROR-IND-EX6010-A              PIC X(1)
                                               VALUE SPACE.
               10  WK01-ERROR-IND-EX6010-V              PIC X(1)
                                               VALUE SPACE.
               10  WK01-ERROR-IND-EX6010-O              PIC X(1)
                                               VALUE SPACE.
               10  WK01-ERROR-IND-EX6010       PIC X(1)
                                               VALUE SPACES.
               10  WK01-ERROR-IND-EX6A10-Z              PIC X(1)
                                               VALUE SPACE.
               10  WK01-ERROR-IND-EX6A10-F              PIC X(1)
                                               VALUE SPACE.
               10  WK01-ERROR-IND-EX6A10-A              PIC X(1)
                                               VALUE SPACE.
               10  WK01-ERROR-IND-EX6A10-V              PIC X(1)
                                               VALUE SPACE.
               10  WK01-ERROR-IND-EX6A10-O              PIC X(1)
                                               VALUE SPACE.
               10  WK01-ERROR-IND-EX6A10       PIC X(1)
                                               VALUE SPACES.
               10  WK01-RELEASE-NMBR-EX60-Z              PIC X(1)
                                               VALUE SPACE.
               10  WK01-RELEASE-NMBR-EX60-F              PIC X(1)
                                               VALUE SPACE.
               10  WK01-RELEASE-NMBR-EX60-A              PIC X(1)
                                               VALUE SPACE.
               10  WK01-RELEASE-NMBR-EX60-V              PIC X(1)
                                               VALUE SPACE.
               10  WK01-RELEASE-NMBR-EX60-O              PIC X(1)
                                               VALUE SPACE.
               10  WK01-RELEASE-NMBR-EX60       PIC X(14)
                                               VALUE SPACES.
               10  WK01-ACCT-INDX-CODE-EX60-Z              PIC X(1)
                                               VALUE SPACE.
               10  WK01-ACCT-INDX-CODE-EX60-F              PIC X(1)
                                               VALUE SPACE.
               10  WK01-ACCT-INDX-CODE-EX60-A              PIC X(1)
                                               VALUE SPACE.
               10  WK01-ACCT-INDX-CODE-EX60-V              PIC X(1)
                                               VALUE SPACE.
               10  WK01-ACCT-INDX-CODE-EX60-O              PIC X(1)
                                               VALUE SPACE.
               10  WK01-ACCT-INDX-CODE-EX60       PIC X(10)
                                               VALUE SPACES.
               10  WK01-ZZMESSAGE-Z              PIC X(1)
                                               VALUE SPACE.
               10  WK01-ZZMESSAGE-F              PIC X(1)
                                               VALUE SPACE.
               10  WK01-ZZMESSAGE-A              PIC X(1)
                                               VALUE SPACE.
               10  WK01-ZZMESSAGE-V              PIC X(1)
                                               VALUE SPACE.
               10  WK01-ZZMESSAGE-O              PIC X(1)
                                               VALUE SPACE.
               10  WK01-ZZMESSAGE       PIC X(160)
                                               VALUE SPACES.
               10  WK01-PASSED-ONE-Z              PIC X(1)
                                               VALUE SPACE.
               10  WK01-PASSED-ONE-F              PIC X(1)
                                               VALUE SPACE.
               10  WK01-PASSED-ONE-A              PIC X(1)
                                               VALUE SPACE.
               10  WK01-PASSED-ONE-V              PIC X(1)
                                               VALUE SPACE.
               10  WK01-PASSED-ONE-O              PIC X(1)
                                               VALUE SPACE.
               10  WK01-PASSED-ONE       PIC X(32)
                                               VALUE SPACES.
               10  WK01-MAP-RESPONSE-Z              PIC X(1)
                                               VALUE SPACE.
               10  WK01-MAP-RESPONSE-F              PIC X(1)
                                               VALUE SPACE.
               10  WK01-MAP-RESPONSE-A              PIC X(1)
                                               VALUE SPACE.
               10  WK01-MAP-RESPONSE-V              PIC X(1)
                                               VALUE SPACE.
               10  WK01-MAP-RESPONSE-O              PIC X(1)
                                               VALUE SPACE.
               10  WK01-MAP-RESPONSE       PIC X(8)
                                               VALUE SPACES.
               10  WK01-TEXT-SY00-Z              PIC X(1)
                                               VALUE SPACE.
               10  WK01-TEXT-SY00-F              PIC X(1)
                                               VALUE SPACE.
               10  WK01-TEXT-SY00-A              PIC X(1)
                                               VALUE SPACE.
               10  WK01-TEXT-SY00-V              PIC X(1)
                                               VALUE SPACE.
               10  WK01-TEXT-SY00-O              PIC X(1)
                                               VALUE SPACE.
               10  WK01-TEXT-SY00       PIC X(14)
                                               VALUE SPACES.
           04  WK01-SUBSCRIPTED-WORK-AREA.
               05  FILLER                      PIC X(1).
               05  WK01-CODE-EX60-F             PIC X(1)
                                               OCCURS 10.
               05  WK01-NMBR-EX60-F             PIC X(1)
                                               OCCURS 10.
               05  WK01-INDX-CODE-EX60-F             PIC X(1)
                                               OCCURS 10.
               05  WK01-ID-LAST-NINE-EX60-F             PIC X(1)
                                               OCCURS 10.
               05  WK01-CODE-EX6A-F             PIC X(1)
                                               OCCURS 10.
               05  WK01-NMBR-EX6A-F             PIC X(1)
                                               OCCURS 10.
               05  WK01-ERROR-IND-EX60-F             PIC X(1)
                                               OCCURS 10.
               05  WK01-ERROR-IND-EX6A-F             PIC X(1)
                                               OCCURS 10.
