    ***Created by Convert/DC version V8R03 on 12/05/00 at 12:00***

      *%--------------------------------------------------------------%*
           MOVE DCLINK-MESSAGE  TO WK01-ZZMESSAGE.
      *%--------------------------------------------------------------%*
           MOVE AGR-DATE OF ADSO-APPLICATION-GLOBAL-RECORD TO WK01-DATE.
      *%--------------------------------------------------------------%*
           MOVE AGR-USER-ID OF ADSO-APPLICATION-GLOBAL-RECORD TO
                WK01-USER-ID.
      *%--------------------------------------------------------------%*
           MOVE AGR-FUNC-DESCRIPTION OF ADSO-APPLICATION-GLOBAL-RECORD
                TO WK01-FUNC-DESCRIPTION.
      *%--------------------------------------------------------------%*
           MOVE AGR-PASSED-ONE OF ADSO-APPLICATION-GLOBAL-RECORD TO
                WK01-PASSED-ONE.
      *%--------------------------------------------------------------%*
           MOVE AGR-MAP-RESPONSE OF ADSO-APPLICATION-GLOBAL-RECORD TO
                WK01-MAP-RESPONSE.
      *%--------------------------------------------------------------%*
           MOVE TRMNL-ID-SY00 OF FSYWG00M TO WK01-ID-SY00.
      *%--------------------------------------------------------------%*
           MOVE FULL-NAME-6001-SY00 OF FSYWG00M TO WK01-NAME-6001-SY00.
      *%--------------------------------------------------------------%*
           MOVE AM-PM-FLAG-SY00 OF FSYWG00M TO WK01-PM-FLAG-SY00.
      *%--------------------------------------------------------------%*
           MOVE CURR-RSPNS-ID-SY00 OF FSYWG00M TO WK01-RSPNS-ID-SY00.
      *%--------------------------------------------------------------%*
           MOVE ERROR-TEXT-SY00 OF FSYWG00M TO WK01-TEXT-SY00.
      *%--------------------------------------------------------------%*
           MOVE PAGE-STATUS-CODE-SY00 OF FSYWG00M TO
                WK01-STATUS-CODE-SY00.
      *%--------------------------------------------------------------%*
           MOVE WORK-HH-MM-TIME-SY00 OF FSYWG00M TO
                WK01-HH-MM-TIME-SY00.
      *%--------------------------------------------------------------%*
           MOVE VNDR-ID-LAST-NINE-EX35 OF FEXWK35 TO
                WK01-ID-LAST-NINE-EX35.
      *%--------------------------------------------------------------%*
           MOVE VNDR-NAME-EX35 OF FEXWK35 TO WK01-NAME-EX35.
      *%--------------------------------------------------------------%*
           MOVE ACTN-CODE-EX35 OF FEXWM35(0001) TO WK01-CODE-EX351.
      *%--------------------------------------------------------------%*
           MOVE ACTN-CODE-EX35 OF FEXWM35(0002) TO WK01-CODE-EX352.
      *%--------------------------------------------------------------%*
           MOVE ACTN-CODE-EX35 OF FEXWM35(0003) TO WK01-CODE-EX353.
      *%--------------------------------------------------------------%*
           MOVE ACTN-CODE-EX35 OF FEXWM35(0004) TO WK01-CODE-EX354.
      *%--------------------------------------------------------------%*
           MOVE ACTN-CODE-EX35 OF FEXWM35(0005) TO WK01-CODE-EX355.
      *%--------------------------------------------------------------%*
           MOVE ACTN-CODE-EX35 OF FEXWM35(0006) TO WK01-CODE-EX356.
      *%--------------------------------------------------------------%*
           MOVE ACTN-CODE-EX35 OF FEXWM35(0007) TO WK01-CODE-EX357.
      *%--------------------------------------------------------------%*
           MOVE ACTN-CODE-EX35 OF FEXWM35(0008) TO WK01-CODE-EX358.
      *%--------------------------------------------------------------%*
           MOVE ACTN-CODE-EX35 OF FEXWM35(0009) TO WK01-CODE-EX359.
      *%--------------------------------------------------------------%*
           MOVE ACTN-CODE-EX35 OF FEXWM35(0010) TO WK01-CODE-EX3510.
      *%--------------------------------------------------------------%*
           MOVE FILE-NMBR-EX35 OF FEXWM35(0001) TO WK01-NMBR-EX351.
      *%--------------------------------------------------------------%*
           MOVE FILE-NMBR-EX35 OF FEXWM35(0002) TO WK01-NMBR-EX352.
      *%--------------------------------------------------------------%*
           MOVE FILE-NMBR-EX35 OF FEXWM35(0003) TO WK01-NMBR-EX353.
      *%--------------------------------------------------------------%*
           MOVE FILE-NMBR-EX35 OF FEXWM35(0004) TO WK01-NMBR-EX354.
      *%--------------------------------------------------------------%*
           MOVE FILE-NMBR-EX35 OF FEXWM35(0005) TO WK01-NMBR-EX355.
      *%--------------------------------------------------------------%*
           MOVE FILE-NMBR-EX35 OF FEXWM35(0006) TO WK01-NMBR-EX356.
      *%--------------------------------------------------------------%*
           MOVE FILE-NMBR-EX35 OF FEXWM35(0007) TO WK01-NMBR-EX357.
      *%--------------------------------------------------------------%*
           MOVE FILE-NMBR-EX35 OF FEXWM35(0008) TO WK01-NMBR-EX358.
      *%--------------------------------------------------------------%*
           MOVE FILE-NMBR-EX35 OF FEXWM35(0009) TO WK01-NMBR-EX359.
      *%--------------------------------------------------------------%*
           MOVE FILE-NMBR-EX35 OF FEXWM35(0010) TO WK01-NMBR-EX3510.
      *%--------------------------------------------------------------%*
           MOVE HDR-ERROR-IND-EX35 OF FEXWM35(0001) TO
                WK01-ERROR-IND-EX351.
      *%--------------------------------------------------------------%*
           MOVE HDR-ERROR-IND-EX35 OF FEXWM35(0002) TO
                WK01-ERROR-IND-EX352.
      *%--------------------------------------------------------------%*
           MOVE HDR-ERROR-IND-EX35 OF FEXWM35(0003) TO
                WK01-ERROR-IND-EX353.
      *%--------------------------------------------------------------%*
           MOVE HDR-ERROR-IND-EX35 OF FEXWM35(0004) TO
                WK01-ERROR-IND-EX354.
      *%--------------------------------------------------------------%*
           MOVE HDR-ERROR-IND-EX35 OF FEXWM35(0005) TO
                WK01-ERROR-IND-EX355.
      *%--------------------------------------------------------------%*
           MOVE HDR-ERROR-IND-EX35 OF FEXWM35(0006) TO
                WK01-ERROR-IND-EX356.
      *%--------------------------------------------------------------%*
           MOVE HDR-ERROR-IND-EX35 OF FEXWM35(0007) TO
                WK01-ERROR-IND-EX357.
      *%--------------------------------------------------------------%*
           MOVE HDR-ERROR-IND-EX35 OF FEXWM35(0008) TO
                WK01-ERROR-IND-EX358.
      *%--------------------------------------------------------------%*
           MOVE HDR-ERROR-IND-EX35 OF FEXWM35(0009) TO
                WK01-ERROR-IND-EX359.
      *%--------------------------------------------------------------%*
           MOVE HDR-ERROR-IND-EX35 OF FEXWM35(0010) TO
                WK01-ERROR-IND-EX3510.
      *%--------------------------------------------------------------%*
           MOVE CMDTY-CODE-EX35 OF FEXWM35(0001) TO WK01-CODE-EX3A1.
      *%--------------------------------------------------------------%*
           MOVE CMDTY-CODE-EX35 OF FEXWM35(0002) TO WK01-CODE-EX3A2.
      *%--------------------------------------------------------------%*
           MOVE CMDTY-CODE-EX35 OF FEXWM35(0003) TO WK01-CODE-EX3A3.
      *%--------------------------------------------------------------%*
           MOVE CMDTY-CODE-EX35 OF FEXWM35(0004) TO WK01-CODE-EX3A4.
      *%--------------------------------------------------------------%*
           MOVE CMDTY-CODE-EX35 OF FEXWM35(0005) TO WK01-CODE-EX3A5.
      *%--------------------------------------------------------------%*
           MOVE CMDTY-CODE-EX35 OF FEXWM35(0006) TO WK01-CODE-EX3A6.
      *%--------------------------------------------------------------%*
           MOVE CMDTY-CODE-EX35 OF FEXWM35(0007) TO WK01-CODE-EX3A7.
      *%--------------------------------------------------------------%*
           MOVE CMDTY-CODE-EX35 OF FEXWM35(0008) TO WK01-CODE-EX3A8.
      *%--------------------------------------------------------------%*
           MOVE CMDTY-CODE-EX35 OF FEXWM35(0009) TO WK01-CODE-EX3A9.
      *%--------------------------------------------------------------%*
           MOVE CMDTY-CODE-EX35 OF FEXWM35(0010) TO WK01-CODE-EX3A10.
      *%--------------------------------------------------------------%*
           MOVE REQ-FILE-NMBR-EX35 OF FEXWK35 TO WK01-FILE-NMBR-EX35.
      *%--------------------------------------------------------------%*
           MOVE START-DATE-EX35 OF FEXWM35(0001) TO WK01-DATE-EX351.
      *%--------------------------------------------------------------%*
           MOVE START-DATE-EX35 OF FEXWM35(0002) TO WK01-DATE-EX352.
      *%--------------------------------------------------------------%*
           MOVE START-DATE-EX35 OF FEXWM35(0003) TO WK01-DATE-EX353.
      *%--------------------------------------------------------------%*
           MOVE START-DATE-EX35 OF FEXWM35(0004) TO WK01-DATE-EX354.
      *%--------------------------------------------------------------%*
           MOVE START-DATE-EX35 OF FEXWM35(0005) TO WK01-DATE-EX355.
      *%--------------------------------------------------------------%*
           MOVE START-DATE-EX35 OF FEXWM35(0006) TO WK01-DATE-EX356.
      *%--------------------------------------------------------------%*
           MOVE START-DATE-EX35 OF FEXWM35(0007) TO WK01-DATE-EX357.
      *%--------------------------------------------------------------%*
           MOVE START-DATE-EX35 OF FEXWM35(0008) TO WK01-DATE-EX358.
      *%--------------------------------------------------------------%*
           MOVE START-DATE-EX35 OF FEXWM35(0009) TO WK01-DATE-EX359.
      *%--------------------------------------------------------------%*
           MOVE START-DATE-EX35 OF FEXWM35(0010) TO WK01-DATE-EX3510.
      *%--------------------------------------------------------------%*
           MOVE END-DATE-EX35 OF FEXWM35(0001) TO WK01-DATE-EX3A1.
      *%--------------------------------------------------------------%*
           MOVE END-DATE-EX35 OF FEXWM35(0002) TO WK01-DATE-EX3A2.
      *%--------------------------------------------------------------%*
           MOVE END-DATE-EX35 OF FEXWM35(0003) TO WK01-DATE-EX3A3.
      *%--------------------------------------------------------------%*
           MOVE END-DATE-EX35 OF FEXWM35(0004) TO WK01-DATE-EX3A4.
      *%--------------------------------------------------------------%*
           MOVE END-DATE-EX35 OF FEXWM35(0005) TO WK01-DATE-EX3A5.
      *%--------------------------------------------------------------%*
           MOVE END-DATE-EX35 OF FEXWM35(0006) TO WK01-DATE-EX3A6.
      *%--------------------------------------------------------------%*
           MOVE END-DATE-EX35 OF FEXWM35(0007) TO WK01-DATE-EX3A7.
      *%--------------------------------------------------------------%*
           MOVE END-DATE-EX35 OF FEXWM35(0008) TO WK01-DATE-EX3A8.
      *%--------------------------------------------------------------%*
           MOVE END-DATE-EX35 OF FEXWM35(0009) TO WK01-DATE-EX3A9.
      *%--------------------------------------------------------------%*
           MOVE END-DATE-EX35 OF FEXWM35(0010) TO WK01-DATE-EX3A10.
