       01  MAP-CONTROL.

    ***Created by Convert/DC version V8R03 on 12/05/00 at 11:00***

           02  FEXMU40-MAP-CONTROL.
           03  FEXMU40T.
           04  WK01-DCXMAPL-PARMS.
               10  WK01-MAPNAME                  PIC X(8)
                                                 VALUE 'FEXMU40I'.
               10  WK01-IKE-LENGTH               PIC S9(8)  COMP
                                                 VALUE 16020.
               10  WK01-TINA-LENGTH              PIC S9(4)  COMP
                                                 VALUE 1043.
           05  WK01-ATTRIBUTES                   PIC X(60)
                                                 VALUE SPACE.
           05  WK01-ATTRIBUTES-ERROR             PIC X(60) VALUE
               'U  BIF'.
           05  WK01-CURSOR-DFLD                  PIC X(36)
                                                 VALUE SPACES.
           05  WK01-CURSOR-DFLD-QUAL             PIC X(30)
                                                 VALUE SPACES.
           05  WK01-ROW                          PIC S9(4) COMP
                                                 VALUE ZERO.
           05  WK01-COLUMN                       PIC S9(4) COMP
                                                 VALUE ZERO.
           05  WK01-ERROR-MSG                    PIC X(80)
                                                 VALUE SPACES.
           05  WK01-MAP-DATA-LEN                 PIC S9(6)
                                                 VALUE ZERO.
           05  WK01-1ST-FLAG                     PIC X(1)
                                                 VALUE 'Y'.
           05  WK01-FLAG-OUTPUT-DATA             PIC X(1)
                                                 VALUE 'Y'.
      *    05  WK01-STATUS-RETURN-FLAG           PIC X(1)
      *                                          VALUE SPACES.
           05  WK01-ALL-BUT-FLAG                 PIC X(1)
                                                 VALUE SPACES.
           05  WK01-FLAG-ALL-FIELDS-CHANGED      PIC X(1)  VALUE 'Y'.
           05  WK01-FLAG-ANY-FIELDS-CHANGED      PIC X(1)  VALUE 'N'.
           05  WK01-FLAG-ALL-FIELDS-ERROR        PIC X(1)  VALUE 'Y'.
           05  WK01-FLAG-ANY-FIELDS-ERROR        PIC X(1)  VALUE 'N'.
           05  WK01-FLAG-ALL-FIELDS-ERASE        PIC X(1)  VALUE 'Y'.
           05  WK01-FLAG-ANY-FIELDS-ERASE        PIC X(1)  VALUE 'Y'.

           05  WK01-VARDATA                      PIC X(11880)
                                                 VALUE SPACES.
           05  FILLER                            PIC X(100)
                                                 VALUE SPACES.
           04  WK01-ELEMENT-AREA.

               10  WK01-ID-SY00-Z              PIC X(1)
                                               VALUE SPACE.
               10  WK01-ID-SY00-F              PIC X(1)
                                               VALUE SPACE.
               10  WK01-ID-SY00-A              PIC X(1)
                                               VALUE SPACE.
               10  WK01-ID-SY00-V              PIC X(1)
                                               VALUE SPACE.
               10  WK01-ID-SY00-O              PIC X(1)
                                               VALUE SPACE.
               10  WK01-ID-SY00       PIC X(8)
                                               VALUE SPACES.
               10  WK01-NAME-6001-SY00-Z              PIC X(1)
                                               VALUE SPACE.
               10  WK01-NAME-6001-SY00-F              PIC X(1)
                                               VALUE SPACE.
               10  WK01-NAME-6001-SY00-A              PIC X(1)
                                               VALUE SPACE.
               10  WK01-NAME-6001-SY00-V              PIC X(1)
                                               VALUE SPACE.
               10  WK01-NAME-6001-SY00-O              PIC X(1)
                                               VALUE SPACE.
               10  WK01-NAME-6001-SY00       PIC X(35)
                                               VALUE SPACES.
               10  WK01-DATE-Z              PIC X(1)
                                               VALUE SPACE.
               10  WK01-DATE-F              PIC X(1)
                                               VALUE SPACE.
               10  WK01-DATE-A              PIC X(1)
                                               VALUE SPACE.
               10  WK01-DATE-V              PIC X(1)
                                               VALUE SPACE.
               10  WK01-DATE-O              PIC X(1)
                                               VALUE SPACE.
               10  WK01-DATE       PIC X(8)
                                               VALUE SPACES.
               10  WK01-HH-MM-TIME-SY00-Z              PIC X(1)
                                               VALUE SPACE.
               10  WK01-HH-MM-TIME-SY00-F              PIC X(1)
                                               VALUE SPACE.
               10  WK01-HH-MM-TIME-SY00-A              PIC X(1)
                                               VALUE SPACE.
               10  WK01-HH-MM-TIME-SY00-V              PIC X(1)
                                               VALUE SPACE.
               10  WK01-HH-MM-TIME-SY00-O              PIC X(1)
                                               VALUE SPACE.
               10  WK01-HH-MM-TIME-SY00       PIC X(4)
                                               VALUE SPACES.
               10  WK01-PM-FLAG-SY00-Z              PIC X(1)
                                               VALUE SPACE.
               10  WK01-PM-FLAG-SY00-F              PIC X(1)
                                               VALUE SPACE.
               10  WK01-PM-FLAG-SY00-A              PIC X(1)
                                               VALUE SPACE.
               10  WK01-PM-FLAG-SY00-V              PIC X(1)
                                               VALUE SPACE.
               10  WK01-PM-FLAG-SY00-O              PIC X(1)
                                               VALUE SPACE.
               10  WK01-PM-FLAG-SY00       PIC X(1)
                                               VALUE SPACES.
               10  WK01-USER-ID-Z              PIC X(1)
                                               VALUE SPACE.
               10  WK01-USER-ID-F              PIC X(1)
                                               VALUE SPACE.
               10  WK01-USER-ID-A              PIC X(1)
                                               VALUE SPACE.
               10  WK01-USER-ID-V              PIC X(1)
                                               VALUE SPACE.
               10  WK01-USER-ID-O              PIC X(1)
                                               VALUE SPACE.
               10  WK01-USER-ID       PIC X(32)
                                               VALUE SPACES.
               10  WK01-RSPNS-ID-SY00-Z              PIC X(1)
                                               VALUE SPACE.
               10  WK01-RSPNS-ID-SY00-F              PIC X(1)
                                               VALUE SPACE.
               10  WK01-RSPNS-ID-SY00-A              PIC X(1)
                                               VALUE SPACE.
               10  WK01-RSPNS-ID-SY00-V              PIC X(1)
                                               VALUE SPACE.
               10  WK01-RSPNS-ID-SY00-O              PIC X(1)
                                               VALUE SPACE.
               10  WK01-RSPNS-ID-SY00       PIC X(8)
                                               VALUE SPACES.
               10  WK01-FUNC-DESCRIPTION-Z              PIC X(1)
                                               VALUE SPACE.
               10  WK01-FUNC-DESCRIPTION-F              PIC X(1)
                                               VALUE SPACE.
               10  WK01-FUNC-DESCRIPTION-A              PIC X(1)
                                               VALUE SPACE.
               10  WK01-FUNC-DESCRIPTION-V              PIC X(1)
                                               VALUE SPACE.
               10  WK01-FUNC-DESCRIPTION-O              PIC X(1)
                                               VALUE SPACE.
               10  WK01-FUNC-DESCRIPTION       PIC X(28)
                                               VALUE SPACES.
               10  WK01-STATUS-CODE-SY00-Z              PIC X(1)
                                               VALUE SPACE.
               10  WK01-STATUS-CODE-SY00-F              PIC X(1)
                                               VALUE SPACE.
               10  WK01-STATUS-CODE-SY00-A              PIC X(1)
                                               VALUE SPACE.
               10  WK01-STATUS-CODE-SY00-V              PIC X(1)
                                               VALUE SPACE.
               10  WK01-STATUS-CODE-SY00-O              PIC X(1)
                                               VALUE SPACE.
               10  WK01-STATUS-CODE-SY00       PIC X(1)
                                               VALUE SPACES.
               10  WK01-ID-LAST-NINE-EX40-Z              PIC X(1)
                                               VALUE SPACE.
               10  WK01-ID-LAST-NINE-EX40-F              PIC X(1)
                                               VALUE SPACE.
               10  WK01-ID-LAST-NINE-EX40-A              PIC X(1)
                                               VALUE SPACE.
               10  WK01-ID-LAST-NINE-EX40-V              PIC X(1)
                                               VALUE SPACE.
               10  WK01-ID-LAST-NINE-EX40-O              PIC X(1)
                                               VALUE SPACE.
               10  WK01-ID-LAST-NINE-EX40       PIC X(9)
                                               VALUE SPACES.
               10  WK01-NAME-EX40-Z              PIC X(1)
                                               VALUE SPACE.
               10  WK01-NAME-EX40-F              PIC X(1)
                                               VALUE SPACE.
               10  WK01-NAME-EX40-A              PIC X(1)
                                               VALUE SPACE.
               10  WK01-NAME-EX40-V              PIC X(1)
                                               VALUE SPACE.
               10  WK01-NAME-EX40-O              PIC X(1)
                                               VALUE SPACE.
               10  WK01-NAME-EX40       PIC X(35)
                                               VALUE SPACES.
               10  WK01-TYPE-CODE-EX40-Z              PIC X(1)
                                               VALUE SPACE.
               10  WK01-TYPE-CODE-EX40-F              PIC X(1)
                                               VALUE SPACE.
               10  WK01-TYPE-CODE-EX40-A              PIC X(1)
                                               VALUE SPACE.
               10  WK01-TYPE-CODE-EX40-V              PIC X(1)
                                               VALUE SPACE.
               10  WK01-TYPE-CODE-EX40-O              PIC X(1)
                                               VALUE SPACE.
               10  WK01-TYPE-CODE-EX40       PIC X(2)
                                               VALUE SPACES.
               10  WK01-CODE-EX40-Z              PIC X(1)
                                               VALUE SPACE.
               10  WK01-CODE-EX40-F              PIC X(1)
                                               VALUE SPACE.
               10  WK01-CODE-EX40-A              PIC X(1)
                                               VALUE SPACE.
               10  WK01-CODE-EX40-V              PIC X(1)
                                               VALUE SPACE.
               10  WK01-CODE-EX40-O              PIC X(1)
                                               VALUE SPACE.
               10  WK01-CODE-EX40       PIC X(8)
                                               VALUE SPACES.
               10  WK01-DESC-EX40-Z              PIC X(1)
                                               VALUE SPACE.
               10  WK01-DESC-EX40-F              PIC X(1)
                                               VALUE SPACE.
               10  WK01-DESC-EX40-A              PIC X(1)
                                               VALUE SPACE.
               10  WK01-DESC-EX40-V              PIC X(1)
                                               VALUE SPACE.
               10  WK01-DESC-EX40-O              PIC X(1)
                                               VALUE SPACE.
               10  WK01-DESC-EX40       PIC X(35)
                                               VALUE SPACES.
               10  WK01-CODE-EX4A-Z              PIC X(1)
                                               VALUE SPACE.
               10  WK01-CODE-EX4A-F              PIC X(1)
                                               VALUE SPACE.
               10  WK01-CODE-EX4A-A              PIC X(1)
                                               VALUE SPACE.
               10  WK01-CODE-EX4A-V              PIC X(1)
                                               VALUE SPACE.
               10  WK01-CODE-EX4A-O              PIC X(1)
                                               VALUE SPACE.
               10  WK01-CODE-EX4A       PIC X(6)
                                               VALUE SPACES.
               10  WK01-NMBR-EX40-Z              PIC X(1)
                                               VALUE SPACE.
               10  WK01-NMBR-EX40-F              PIC X(1)
                                               VALUE SPACE.
               10  WK01-NMBR-EX40-A              PIC X(1)
                                               VALUE SPACE.
               10  WK01-NMBR-EX40-V              PIC X(1)
                                               VALUE SPACE.
               10  WK01-NMBR-EX40-O              PIC X(1)
                                               VALUE SPACE.
               10  WK01-NMBR-EX40       PIC 9(5)
                                               VALUE ZEROS.
               10  WK01-START-DATE-EX40-Z              PIC X(1)
                                               VALUE SPACE.
               10  WK01-START-DATE-EX40-F              PIC X(1)
                                               VALUE SPACE.
               10  WK01-START-DATE-EX40-A              PIC X(1)
                                               VALUE SPACE.
               10  WK01-START-DATE-EX40-V              PIC X(1)
                                               VALUE SPACE.
               10  WK01-START-DATE-EX40-O              PIC X(1)
                                               VALUE SPACE.
               10  WK01-START-DATE-EX40       PIC S9(8)
                                               VALUE ZEROS.
               10  WK01-END-DATE-EX40-Z              PIC X(1)
                                               VALUE SPACE.
               10  WK01-END-DATE-EX40-F              PIC X(1)
                                               VALUE SPACE.
               10  WK01-END-DATE-EX40-A              PIC X(1)
                                               VALUE SPACE.
               10  WK01-END-DATE-EX40-V              PIC X(1)
                                               VALUE SPACE.
               10  WK01-END-DATE-EX40-O              PIC X(1)
                                               VALUE SPACE.
               10  WK01-END-DATE-EX40       PIC S9(8)
                                               VALUE ZEROS.
               10  WK01-ERROR-IND-EX40-Z              PIC X(1)
                                               VALUE SPACE.
               10  WK01-ERROR-IND-EX40-F              PIC X(1)
                                               VALUE SPACE.
               10  WK01-ERROR-IND-EX40-A              PIC X(1)
                                               VALUE SPACE.
               10  WK01-ERROR-IND-EX40-V              PIC X(1)
                                               VALUE SPACE.
               10  WK01-ERROR-IND-EX40-O              PIC X(1)
                                               VALUE SPACE.
               10  WK01-ERROR-IND-EX40       PIC X(1)
                                               VALUE SPACES.
               10  WK01-ERROR-IND-EX4A-Z              PIC X(1)
                                               VALUE SPACE.
               10  WK01-ERROR-IND-EX4A-F              PIC X(1)
                                               VALUE SPACE.
               10  WK01-ERROR-IND-EX4A-A              PIC X(1)
                                               VALUE SPACE.
               10  WK01-ERROR-IND-EX4A-V              PIC X(1)
                                               VALUE SPACE.
               10  WK01-ERROR-IND-EX4A-O              PIC X(1)
                                               VALUE SPACE.
               10  WK01-ERROR-IND-EX4A       PIC X(1)
                                               VALUE SPACES.
               10  WK01-NMBR-EX4A-Z              PIC X(1)
                                               VALUE SPACE.
               10  WK01-NMBR-EX4A-F              PIC X(1)
                                               VALUE SPACE.
               10  WK01-NMBR-EX4A-A              PIC X(1)
                                               VALUE SPACE.
               10  WK01-NMBR-EX4A-V              PIC X(1)
                                               VALUE SPACE.
               10  WK01-NMBR-EX4A-O              PIC X(1)
                                               VALUE SPACE.
               10  WK01-NMBR-EX4A       PIC X(14)
                                               VALUE SPACES.
               10  WK01-REF-NMBR-EX40-Z              PIC X(1)
                                               VALUE SPACE.
               10  WK01-REF-NMBR-EX40-F              PIC X(1)
                                               VALUE SPACE.
               10  WK01-REF-NMBR-EX40-A              PIC X(1)
                                               VALUE SPACE.
               10  WK01-REF-NMBR-EX40-V              PIC X(1)
                                               VALUE SPACE.
               10  WK01-REF-NMBR-EX40-O              PIC X(1)
                                               VALUE SPACE.
               10  WK01-REF-NMBR-EX40       PIC X(10)
                                               VALUE SPACES.
               10  WK01-HDR-ERROR-IND-EX40-Z              PIC X(1)
                                               VALUE SPACE.
               10  WK01-HDR-ERROR-IND-EX40-F              PIC X(1)
                                               VALUE SPACE.
               10  WK01-HDR-ERROR-IND-EX40-A              PIC X(1)
                                               VALUE SPACE.
               10  WK01-HDR-ERROR-IND-EX40-V              PIC X(1)
                                               VALUE SPACE.
               10  WK01-HDR-ERROR-IND-EX40-O              PIC X(1)
                                               VALUE SPACE.
               10  WK01-HDR-ERROR-IND-EX40       PIC X(1)
                                               VALUE SPACES.
               10  WK01-CODE-EX4B-Z              PIC X(1)
                                               VALUE SPACE.
               10  WK01-CODE-EX4B-F              PIC X(1)
                                               VALUE SPACE.
               10  WK01-CODE-EX4B-A              PIC X(1)
                                               VALUE SPACE.
               10  WK01-CODE-EX4B-V              PIC X(1)
                                               VALUE SPACE.
               10  WK01-CODE-EX4B-O              PIC X(1)
                                               VALUE SPACE.
               10  WK01-CODE-EX4B       PIC X(1)
                                               VALUE SPACES.
               10  WK01-CODE-EX4C-Z              PIC X(1)
                                               VALUE SPACE.
               10  WK01-CODE-EX4C-F              PIC X(1)
                                               VALUE SPACE.
               10  WK01-CODE-EX4C-A              PIC X(1)
                                               VALUE SPACE.
               10  WK01-CODE-EX4C-V              PIC X(1)
                                               VALUE SPACE.
               10  WK01-CODE-EX4C-O              PIC X(1)
                                               VALUE SPACE.
               10  WK01-CODE-EX4C       PIC X(1)
                                               VALUE SPACES.
               10  WK01-NMBR-EX4B-Z              PIC X(1)
                                               VALUE SPACE.
               10  WK01-NMBR-EX4B-F              PIC X(1)
                                               VALUE SPACE.
               10  WK01-NMBR-EX4B-A              PIC X(1)
                                               VALUE SPACE.
               10  WK01-NMBR-EX4B-V              PIC X(1)
                                               VALUE SPACE.
               10  WK01-NMBR-EX4B-O              PIC X(1)
                                               VALUE SPACE.
               10  WK01-NMBR-EX4B       PIC X(8)
                                               VALUE SPACES.
               10  WK01-DTL-ERROR-IND-EX40-Z              PIC X(1)
                                               VALUE SPACE.
               10  WK01-DTL-ERROR-IND-EX40-F              PIC X(1)
                                               VALUE SPACE.
               10  WK01-DTL-ERROR-IND-EX40-A              PIC X(1)
                                               VALUE SPACE.
               10  WK01-DTL-ERROR-IND-EX40-V              PIC X(1)
                                               VALUE SPACE.
               10  WK01-DTL-ERROR-IND-EX40-O              PIC X(1)
                                               VALUE SPACE.
               10  WK01-DTL-ERROR-IND-EX40       PIC X(1)
                                               VALUE SPACES.
               10  WK01-INDX-CODE-EX40-Z              PIC X(1)
                                               VALUE SPACE.
               10  WK01-INDX-CODE-EX40-F              PIC X(1)
                                               VALUE SPACE.
               10  WK01-INDX-CODE-EX40-A              PIC X(1)
                                               VALUE SPACE.
               10  WK01-INDX-CODE-EX40-V              PIC X(1)
                                               VALUE SPACE.
               10  WK01-INDX-CODE-EX40-O              PIC X(1)
                                               VALUE SPACE.
               10  WK01-INDX-CODE-EX40       PIC X(10)
                                               VALUE SPACES.
               10  WK01-CODE-EX4D-Z              PIC X(1)
                                               VALUE SPACE.
               10  WK01-CODE-EX4D-F              PIC X(1)
                                               VALUE SPACE.
               10  WK01-CODE-EX4D-A              PIC X(1)
                                               VALUE SPACE.
               10  WK01-CODE-EX4D-V              PIC X(1)
                                               VALUE SPACE.
               10  WK01-CODE-EX4D-O              PIC X(1)
                                               VALUE SPACE.
               10  WK01-CODE-EX4D       PIC X(6)
                                               VALUE SPACES.
               10  WK01-CODE-EX4E-Z              PIC X(1)
                                               VALUE SPACE.
               10  WK01-CODE-EX4E-F              PIC X(1)
                                               VALUE SPACE.
               10  WK01-CODE-EX4E-A              PIC X(1)
                                               VALUE SPACE.
               10  WK01-CODE-EX4E-V              PIC X(1)
                                               VALUE SPACE.
               10  WK01-CODE-EX4E-O              PIC X(1)
                                               VALUE SPACE.
               10  WK01-CODE-EX4E       PIC X(6)
                                               VALUE SPACES.
               10  WK01-ACCT-CODE-EX40-Z              PIC X(1)
                                               VALUE SPACE.
               10  WK01-ACCT-CODE-EX40-F              PIC X(1)
                                               VALUE SPACE.
               10  WK01-ACCT-CODE-EX40-A              PIC X(1)
                                               VALUE SPACE.
               10  WK01-ACCT-CODE-EX40-V              PIC X(1)
                                               VALUE SPACE.
               10  WK01-ACCT-CODE-EX40-O              PIC X(1)
                                               VALUE SPACE.
               10  WK01-ACCT-CODE-EX40       PIC X(6)
                                               VALUE SPACES.
               10  WK01-CODE-EX4F-Z              PIC X(1)
                                               VALUE SPACE.
               10  WK01-CODE-EX4F-F              PIC X(1)
                                               VALUE SPACE.
               10  WK01-CODE-EX4F-A              PIC X(1)
                                               VALUE SPACE.
               10  WK01-CODE-EX4F-V              PIC X(1)
                                               VALUE SPACE.
               10  WK01-CODE-EX4F-O              PIC X(1)
                                               VALUE SPACE.
               10  WK01-CODE-EX4F       PIC X(6)
                                               VALUE SPACES.
               10  WK01-CODE-EX4G-Z              PIC X(1)
                                               VALUE SPACE.
               10  WK01-CODE-EX4G-F              PIC X(1)
                                               VALUE SPACE.
               10  WK01-CODE-EX4G-A              PIC X(1)
                                               VALUE SPACE.
               10  WK01-CODE-EX4G-V              PIC X(1)
                                               VALUE SPACE.
               10  WK01-CODE-EX4G-O              PIC X(1)
                                               VALUE SPACE.
               10  WK01-CODE-EX4G       PIC X(6)
                                               VALUE SPACES.
               10  WK01-CODE-EX4H-Z              PIC X(1)
                                               VALUE SPACE.
               10  WK01-CODE-EX4H-F              PIC X(1)
                                               VALUE SPACE.
               10  WK01-CODE-EX4H-A              PIC X(1)
                                               VALUE SPACE.
               10  WK01-CODE-EX4H-V              PIC X(1)
                                               VALUE SPACE.
               10  WK01-CODE-EX4H-O              PIC X(1)
                                               VALUE SPACE.
               10  WK01-CODE-EX4H       PIC X(6)
                                               VALUE SPACES.
               10  WK01-CODE-EX4I-Z              PIC X(1)
                                               VALUE SPACE.
               10  WK01-CODE-EX4I-F              PIC X(1)
                                               VALUE SPACE.
               10  WK01-CODE-EX4I-A              PIC X(1)
                                               VALUE SPACE.
               10  WK01-CODE-EX4I-V              PIC X(1)
                                               VALUE SPACE.
               10  WK01-CODE-EX4I-O              PIC X(1)
                                               VALUE SPACE.
               10  WK01-CODE-EX4I       PIC X(4)
                                               VALUE SPACES.
               10  WK01-NAME-EX4A-Z              PIC X(1)
                                               VALUE SPACE.
               10  WK01-NAME-EX4A-F              PIC X(1)
                                               VALUE SPACE.
               10  WK01-NAME-EX4A-A              PIC X(1)
                                               VALUE SPACE.
               10  WK01-NAME-EX4A-V              PIC X(1)
                                               VALUE SPACE.
               10  WK01-NAME-EX4A-O              PIC X(1)
                                               VALUE SPACE.
               10  WK01-NAME-EX4A       PIC X(35)
                                               VALUE SPACES.
               10  WK01-CODE-EX4J-Z              PIC X(1)
                                               VALUE SPACE.
               10  WK01-CODE-EX4J-F              PIC X(1)
                                               VALUE SPACE.
               10  WK01-CODE-EX4J-A              PIC X(1)
                                               VALUE SPACE.
               10  WK01-CODE-EX4J-V              PIC X(1)
                                               VALUE SPACE.
               10  WK01-CODE-EX4J-O              PIC X(1)
                                               VALUE SPACE.
               10  WK01-CODE-EX4J       PIC X(6)
                                               VALUE SPACES.
               10  WK01-BY-EX40-Z              PIC X(1)
                                               VALUE SPACE.
               10  WK01-BY-EX40-F              PIC X(1)
                                               VALUE SPACE.
               10  WK01-BY-EX40-A              PIC X(1)
                                               VALUE SPACE.
               10  WK01-BY-EX40-V              PIC X(1)
                                               VALUE SPACE.
               10  WK01-BY-EX40-O              PIC X(1)
                                               VALUE SPACE.
               10  WK01-BY-EX40       PIC X(35)
                                               VALUE SPACES.
               10  WK01-DATE-EX40-Z              PIC X(1)
                                               VALUE SPACE.
               10  WK01-DATE-EX40-F              PIC X(1)
                                               VALUE SPACE.
               10  WK01-DATE-EX40-A              PIC X(1)
                                               VALUE SPACE.
               10  WK01-DATE-EX40-V              PIC X(1)
                                               VALUE SPACE.
               10  WK01-DATE-EX40-O              PIC X(1)
                                               VALUE SPACE.
               10  WK01-DATE-EX40       PIC X(8)
                                               VALUE SPACES.
               10  WK01-EX40-Z              PIC X(1)
                                               VALUE SPACE.
               10  WK01-EX40-F              PIC X(1)
                                               VALUE SPACE.
               10  WK01-EX40-A              PIC X(1)
                                               VALUE SPACE.
               10  WK01-EX40-V              PIC X(1)
                                               VALUE SPACE.
               10  WK01-EX40-O              PIC X(1)
                                               VALUE SPACE.
               10  WK01-EX40       PIC S9(10)V9(2)
                                               VALUE ZEROS.
               10  WK01-TAX-DEBT-CRDT-IND-EX40-Z              PIC X(1)
                                               VALUE SPACE.
               10  WK01-TAX-DEBT-CRDT-IND-EX40-F              PIC X(1)
                                               VALUE SPACE.
               10  WK01-TAX-DEBT-CRDT-IND-EX40-A              PIC X(1)
                                               VALUE SPACE.
               10  WK01-TAX-DEBT-CRDT-IND-EX40-V              PIC X(1)
                                               VALUE SPACE.
               10  WK01-TAX-DEBT-CRDT-IND-EX40-O              PIC X(1)
                                               VALUE SPACE.
               10  WK01-TAX-DEBT-CRDT-IND-EX40       PIC X(1)
                                               VALUE SPACES.
               10  WK01-AMT-EX40-Z              PIC X(1)
                                               VALUE SPACE.
               10  WK01-AMT-EX40-F              PIC X(1)
                                               VALUE SPACE.
               10  WK01-AMT-EX40-A              PIC X(1)
                                               VALUE SPACE.
               10  WK01-AMT-EX40-V              PIC X(1)
                                               VALUE SPACE.
               10  WK01-AMT-EX40-O              PIC X(1)
                                               VALUE SPACE.
               10  WK01-AMT-EX40       PIC S9(10)V9(2)
                                               VALUE ZEROS.
               10  WK01-DEBIT-CRDT-IND-EX40-Z              PIC X(1)
                                               VALUE SPACE.
               10  WK01-DEBIT-CRDT-IND-EX40-F              PIC X(1)
                                               VALUE SPACE.
               10  WK01-DEBIT-CRDT-IND-EX40-A              PIC X(1)
                                               VALUE SPACE.
               10  WK01-DEBIT-CRDT-IND-EX40-V              PIC X(1)
                                               VALUE SPACE.
               10  WK01-DEBIT-CRDT-IND-EX40-O              PIC X(1)
                                               VALUE SPACE.
               10  WK01-DEBIT-CRDT-IND-EX40       PIC X(1)
                                               VALUE SPACES.
               10  WK01-TOTAL-EX40-Z              PIC X(1)
                                               VALUE SPACE.
               10  WK01-TOTAL-EX40-F              PIC X(1)
                                               VALUE SPACE.
               10  WK01-TOTAL-EX40-A              PIC X(1)
                                               VALUE SPACE.
               10  WK01-TOTAL-EX40-V              PIC X(1)
                                               VALUE SPACE.
               10  WK01-TOTAL-EX40-O              PIC X(1)
                                               VALUE SPACE.
               10  WK01-TOTAL-EX40       PIC S9(10)V9(2)
                                               VALUE ZEROS.
               10  WK01-DEBIT-CRDT-IND-EX4A-Z              PIC X(1)
                                               VALUE SPACE.
               10  WK01-DEBIT-CRDT-IND-EX4A-F              PIC X(1)
                                               VALUE SPACE.
               10  WK01-DEBIT-CRDT-IND-EX4A-A              PIC X(1)
                                               VALUE SPACE.
               10  WK01-DEBIT-CRDT-IND-EX4A-V              PIC X(1)
                                               VALUE SPACE.
               10  WK01-DEBIT-CRDT-IND-EX4A-O              PIC X(1)
                                               VALUE SPACE.
               10  WK01-DEBIT-CRDT-IND-EX4A       PIC X(1)
                                               VALUE SPACES.
               10  WK01-AMT-EX4A-Z              PIC X(1)
                                               VALUE SPACE.
               10  WK01-AMT-EX4A-F              PIC X(1)
                                               VALUE SPACE.
               10  WK01-AMT-EX4A-A              PIC X(1)
                                               VALUE SPACE.
               10  WK01-AMT-EX4A-V              PIC X(1)
                                               VALUE SPACE.
               10  WK01-AMT-EX4A-O              PIC X(1)
                                               VALUE SPACE.
               10  WK01-AMT-EX4A       PIC S9(10)V9(2)
                                               VALUE ZEROS.
               10  WK01-DEBIT-CRDT-IND-EX4B-Z              PIC X(1)
                                               VALUE SPACE.
               10  WK01-DEBIT-CRDT-IND-EX4B-F              PIC X(1)
                                               VALUE SPACE.
               10  WK01-DEBIT-CRDT-IND-EX4B-A              PIC X(1)
                                               VALUE SPACE.
               10  WK01-DEBIT-CRDT-IND-EX4B-V              PIC X(1)
                                               VALUE SPACE.
               10  WK01-DEBIT-CRDT-IND-EX4B-O              PIC X(1)
                                               VALUE SPACE.
               10  WK01-DEBIT-CRDT-IND-EX4B       PIC X(1)
                                               VALUE SPACES.
               10  WK01-TAX-LITERAL-EX40-Z              PIC X(1)
                                               VALUE SPACE.
               10  WK01-TAX-LITERAL-EX40-F              PIC X(1)
                                               VALUE SPACE.
               10  WK01-TAX-LITERAL-EX40-A              PIC X(1)
                                               VALUE SPACE.
               10  WK01-TAX-LITERAL-EX40-V              PIC X(1)
                                               VALUE SPACE.
               10  WK01-TAX-LITERAL-EX40-O              PIC X(1)
                                               VALUE SPACE.
               10  WK01-TAX-LITERAL-EX40       PIC X(12)
                                               VALUE SPACES.
               10  WK01-TAX-AMT-EX40-Z              PIC X(1)
                                               VALUE SPACE.
               10  WK01-TAX-AMT-EX40-F              PIC X(1)
                                               VALUE SPACE.
               10  WK01-TAX-AMT-EX40-A              PIC X(1)
                                               VALUE SPACE.
               10  WK01-TAX-AMT-EX40-V              PIC X(1)
                                               VALUE SPACE.
               10  WK01-TAX-AMT-EX40-O              PIC X(1)
                                               VALUE SPACE.
               10  WK01-TAX-AMT-EX40       PIC S9(10)V9(2)
                                               VALUE ZEROS.
               10  WK01-TAX-DEBT-CRDT-IND-EX4A-Z              PIC X(1)
                                               VALUE SPACE.
               10  WK01-TAX-DEBT-CRDT-IND-EX4A-F              PIC X(1)
                                               VALUE SPACE.
               10  WK01-TAX-DEBT-CRDT-IND-EX4A-A              PIC X(1)
                                               VALUE SPACE.
               10  WK01-TAX-DEBT-CRDT-IND-EX4A-V              PIC X(1)
                                               VALUE SPACE.
               10  WK01-TAX-DEBT-CRDT-IND-EX4A-O              PIC X(1)
                                               VALUE SPACE.
               10  WK01-TAX-DEBT-CRDT-IND-EX4A       PIC X(1)
                                               VALUE SPACES.
               10  WK01-CHRG-EX40-Z              PIC X(1)
                                               VALUE SPACE.
               10  WK01-CHRG-EX40-F              PIC X(1)
                                               VALUE SPACE.
               10  WK01-CHRG-EX40-A              PIC X(1)
                                               VALUE SPACE.
               10  WK01-CHRG-EX40-V              PIC X(1)
                                               VALUE SPACE.
               10  WK01-CHRG-EX40-O              PIC X(1)
                                               VALUE SPACE.
               10  WK01-CHRG-EX40       PIC S9(10)V9(2)
                                               VALUE ZEROS.
               10  WK01-DEBIT-CRDT-IND-EX4D-Z              PIC X(1)
                                               VALUE SPACE.
               10  WK01-DEBIT-CRDT-IND-EX4D-F              PIC X(1)
                                               VALUE SPACE.
               10  WK01-DEBIT-CRDT-IND-EX4D-A              PIC X(1)
                                               VALUE SPACE.
               10  WK01-DEBIT-CRDT-IND-EX4D-V              PIC X(1)
                                               VALUE SPACE.
               10  WK01-DEBIT-CRDT-IND-EX4D-O              PIC X(1)
                                               VALUE SPACE.
               10  WK01-DEBIT-CRDT-IND-EX4D       PIC X(1)
                                               VALUE SPACES.
               10  WK01-AMT-EX4C-Z              PIC X(1)
                                               VALUE SPACE.
               10  WK01-AMT-EX4C-F              PIC X(1)
                                               VALUE SPACE.
               10  WK01-AMT-EX4C-A              PIC X(1)
                                               VALUE SPACE.
               10  WK01-AMT-EX4C-V              PIC X(1)
                                               VALUE SPACE.
               10  WK01-AMT-EX4C-O              PIC X(1)
                                               VALUE SPACE.
               10  WK01-AMT-EX4C       PIC S9(10)V9(2)
                                               VALUE ZEROS.
               10  WK01-DEBIT-CRDT-IND-EX4E-Z              PIC X(1)
                                               VALUE SPACE.
               10  WK01-DEBIT-CRDT-IND-EX4E-F              PIC X(1)
                                               VALUE SPACE.
               10  WK01-DEBIT-CRDT-IND-EX4E-A              PIC X(1)
                                               VALUE SPACE.
               10  WK01-DEBIT-CRDT-IND-EX4E-V              PIC X(1)
                                               VALUE SPACE.
               10  WK01-DEBIT-CRDT-IND-EX4E-O              PIC X(1)
                                               VALUE SPACE.
               10  WK01-DEBIT-CRDT-IND-EX4E       PIC X(1)
                                               VALUE SPACES.
               10  WK01-AMT-EX4B-Z              PIC X(1)
                                               VALUE SPACE.
               10  WK01-AMT-EX4B-F              PIC X(1)
                                               VALUE SPACE.
               10  WK01-AMT-EX4B-A              PIC X(1)
                                               VALUE SPACE.
               10  WK01-AMT-EX4B-V              PIC X(1)
                                               VALUE SPACE.
               10  WK01-AMT-EX4B-O              PIC X(1)
                                               VALUE SPACE.
               10  WK01-AMT-EX4B       PIC S9(10)V9(2)
                                               VALUE ZEROS.
               10  WK01-DEBIT-CRDT-IND-EX4C-Z              PIC X(1)
                                               VALUE SPACE.
               10  WK01-DEBIT-CRDT-IND-EX4C-F              PIC X(1)
                                               VALUE SPACE.
               10  WK01-DEBIT-CRDT-IND-EX4C-A              PIC X(1)
                                               VALUE SPACE.
               10  WK01-DEBIT-CRDT-IND-EX4C-V              PIC X(1)
                                               VALUE SPACE.
               10  WK01-DEBIT-CRDT-IND-EX4C-O              PIC X(1)
                                               VALUE SPACE.
               10  WK01-DEBIT-CRDT-IND-EX4C       PIC X(1)
                                               VALUE SPACES.
               10  WK01-ZZMESSAGE-Z              PIC X(1)
                                               VALUE SPACE.
               10  WK01-ZZMESSAGE-F              PIC X(1)
                                               VALUE SPACE.
               10  WK01-ZZMESSAGE-A              PIC X(1)
                                               VALUE SPACE.
               10  WK01-ZZMESSAGE-V              PIC X(1)
                                               VALUE SPACE.
               10  WK01-ZZMESSAGE-O              PIC X(1)
                                               VALUE SPACE.
               10  WK01-ZZMESSAGE       PIC X(160)
                                               VALUE SPACES.
               10  WK01-PASSED-ONE-Z              PIC X(1)
                                               VALUE SPACE.
               10  WK01-PASSED-ONE-F              PIC X(1)
                                               VALUE SPACE.
               10  WK01-PASSED-ONE-A              PIC X(1)
                                               VALUE SPACE.
               10  WK01-PASSED-ONE-V              PIC X(1)
                                               VALUE SPACE.
               10  WK01-PASSED-ONE-O              PIC X(1)
                                               VALUE SPACE.
               10  WK01-PASSED-ONE       PIC X(32)
                                               VALUE SPACES.
               10  WK01-MAP-RESPONSE-Z              PIC X(1)
                                               VALUE SPACE.
               10  WK01-MAP-RESPONSE-F              PIC X(1)
                                               VALUE SPACE.
               10  WK01-MAP-RESPONSE-A              PIC X(1)
                                               VALUE SPACE.
               10  WK01-MAP-RESPONSE-V              PIC X(1)
                                               VALUE SPACE.
               10  WK01-MAP-RESPONSE-O              PIC X(1)
                                               VALUE SPACE.
               10  WK01-MAP-RESPONSE       PIC X(8)
                                               VALUE SPACES.
               10  WK01-TEXT-SY00-Z              PIC X(1)
                                               VALUE SPACE.
               10  WK01-TEXT-SY00-F              PIC X(1)
                                               VALUE SPACE.
               10  WK01-TEXT-SY00-A              PIC X(1)
                                               VALUE SPACE.
               10  WK01-TEXT-SY00-V              PIC X(1)
                                               VALUE SPACE.
               10  WK01-TEXT-SY00-O              PIC X(1)
                                               VALUE SPACE.
               10  WK01-TEXT-SY00       PIC X(14)
                                               VALUE SPACES.
