       01  MAP-CONTROL.

    ***Created by Convert/DC version V8R03 on 12/05/00 at 12:00***

           02  FEXMI35-MAP-CONTROL.
           03  FEXMI35T.
           04  WK01-DCXMAPL-PARMS.
               10  WK01-MAPNAME                  PIC X(8)
                                                 VALUE 'FEXMI35I'.
               10  WK01-IKE-LENGTH               PIC S9(8)  COMP
                                                 VALUE 20228.
               10  WK01-TINA-LENGTH              PIC S9(4)  COMP
                                                 VALUE 1078.
           05  WK01-ATTRIBUTES                   PIC X(60)
                                                 VALUE SPACE.
           05  WK01-ATTRIBUTES-ERROR             PIC X(60) VALUE
               'U  BIF'.
           05  WK01-CURSOR-DFLD                  PIC X(36)
                                                 VALUE SPACES.
           05  WK01-CURSOR-DFLD-QUAL             PIC X(30)
                                                 VALUE SPACES.
           05  WK01-ROW                          PIC S9(4) COMP
                                                 VALUE ZERO.
           05  WK01-COLUMN                       PIC S9(4) COMP
                                                 VALUE ZERO.
           05  WK01-ERROR-MSG                    PIC X(80)
                                                 VALUE SPACES.
           05  WK01-MAP-DATA-LEN                 PIC S9(6)
                                                 VALUE ZERO.
           05  WK01-1ST-FLAG                     PIC X(1)
                                                 VALUE 'Y'.
           05  WK01-FLAG-OUTPUT-DATA             PIC X(1)
                                                 VALUE 'Y'.
      *    05  WK01-STATUS-RETURN-FLAG           PIC X(1)
      *                                          VALUE SPACES.
           05  WK01-ALL-BUT-FLAG                 PIC X(1)
                                                 VALUE SPACES.
           05  WK01-FLAG-ALL-FIELDS-CHANGED      PIC X(1)  VALUE 'Y'.
           05  WK01-FLAG-ANY-FIELDS-CHANGED      PIC X(1)  VALUE 'N'.
           05  WK01-FLAG-ALL-FIELDS-ERROR        PIC X(1)  VALUE 'Y'.
           05  WK01-FLAG-ANY-FIELDS-ERROR        PIC X(1)  VALUE 'N'.
           05  WK01-FLAG-ALL-FIELDS-ERASE        PIC X(1)  VALUE 'Y'.
           05  WK01-FLAG-ANY-FIELDS-ERASE        PIC X(1)  VALUE 'Y'.

           05  WK01-VARDATA                      PIC X(11880)
                                                 VALUE SPACES.
           05  FILLER                            PIC X(100)
                                                 VALUE SPACES.
           04  WK01-ELEMENT-AREA.

               10  WK01-ID-SY00-Z              PIC X(1)
                                               VALUE SPACE.
               10  WK01-ID-SY00-F              PIC X(1)
                                               VALUE SPACE.
               10  WK01-ID-SY00-A              PIC X(1)
                                               VALUE SPACE.
               10  WK01-ID-SY00-V              PIC X(1)
                                               VALUE SPACE.
               10  WK01-ID-SY00-O              PIC X(1)
                                               VALUE SPACE.
               10  WK01-ID-SY00       PIC X(8)
                                               VALUE SPACES.
               10  WK01-NAME-6001-SY00-Z              PIC X(1)
                                               VALUE SPACE.
               10  WK01-NAME-6001-SY00-F              PIC X(1)
                                               VALUE SPACE.
               10  WK01-NAME-6001-SY00-A              PIC X(1)
                                               VALUE SPACE.
               10  WK01-NAME-6001-SY00-V              PIC X(1)
                                               VALUE SPACE.
               10  WK01-NAME-6001-SY00-O              PIC X(1)
                                               VALUE SPACE.
               10  WK01-NAME-6001-SY00       PIC X(35)
                                               VALUE SPACES.
               10  WK01-DATE-Z              PIC X(1)
                                               VALUE SPACE.
               10  WK01-DATE-F              PIC X(1)
                                               VALUE SPACE.
               10  WK01-DATE-A              PIC X(1)
                                               VALUE SPACE.
               10  WK01-DATE-V              PIC X(1)
                                               VALUE SPACE.
               10  WK01-DATE-O              PIC X(1)
                                               VALUE SPACE.
               10  WK01-DATE       PIC X(8)
                                               VALUE SPACES.
               10  WK01-HH-MM-TIME-SY00-Z              PIC X(1)
                                               VALUE SPACE.
               10  WK01-HH-MM-TIME-SY00-F              PIC X(1)
                                               VALUE SPACE.
               10  WK01-HH-MM-TIME-SY00-A              PIC X(1)
                                               VALUE SPACE.
               10  WK01-HH-MM-TIME-SY00-V              PIC X(1)
                                               VALUE SPACE.
               10  WK01-HH-MM-TIME-SY00-O              PIC X(1)
                                               VALUE SPACE.
               10  WK01-HH-MM-TIME-SY00       PIC X(4)
                                               VALUE SPACES.
               10  WK01-PM-FLAG-SY00-Z              PIC X(1)
                                               VALUE SPACE.
               10  WK01-PM-FLAG-SY00-F              PIC X(1)
                                               VALUE SPACE.
               10  WK01-PM-FLAG-SY00-A              PIC X(1)
                                               VALUE SPACE.
               10  WK01-PM-FLAG-SY00-V              PIC X(1)
                                               VALUE SPACE.
               10  WK01-PM-FLAG-SY00-O              PIC X(1)
                                               VALUE SPACE.
               10  WK01-PM-FLAG-SY00       PIC X(1)
                                               VALUE SPACES.
               10  WK01-USER-ID-Z              PIC X(1)
                                               VALUE SPACE.
               10  WK01-USER-ID-F              PIC X(1)
                                               VALUE SPACE.
               10  WK01-USER-ID-A              PIC X(1)
                                               VALUE SPACE.
               10  WK01-USER-ID-V              PIC X(1)
                                               VALUE SPACE.
               10  WK01-USER-ID-O              PIC X(1)
                                               VALUE SPACE.
               10  WK01-USER-ID       PIC X(32)
                                               VALUE SPACES.
               10  WK01-RSPNS-ID-SY00-Z              PIC X(1)
                                               VALUE SPACE.
               10  WK01-RSPNS-ID-SY00-F              PIC X(1)
                                               VALUE SPACE.
               10  WK01-RSPNS-ID-SY00-A              PIC X(1)
                                               VALUE SPACE.
               10  WK01-RSPNS-ID-SY00-V              PIC X(1)
                                               VALUE SPACE.
               10  WK01-RSPNS-ID-SY00-O              PIC X(1)
                                               VALUE SPACE.
               10  WK01-RSPNS-ID-SY00       PIC X(8)
                                               VALUE SPACES.
               10  WK01-FUNC-DESCRIPTION-Z              PIC X(1)
                                               VALUE SPACE.
               10  WK01-FUNC-DESCRIPTION-F              PIC X(1)
                                               VALUE SPACE.
               10  WK01-FUNC-DESCRIPTION-A              PIC X(1)
                                               VALUE SPACE.
               10  WK01-FUNC-DESCRIPTION-V              PIC X(1)
                                               VALUE SPACE.
               10  WK01-FUNC-DESCRIPTION-O              PIC X(1)
                                               VALUE SPACE.
               10  WK01-FUNC-DESCRIPTION       PIC X(28)
                                               VALUE SPACES.
               10  WK01-STATUS-CODE-SY00-Z              PIC X(1)
                                               VALUE SPACE.
               10  WK01-STATUS-CODE-SY00-F              PIC X(1)
                                               VALUE SPACE.
               10  WK01-STATUS-CODE-SY00-A              PIC X(1)
                                               VALUE SPACE.
               10  WK01-STATUS-CODE-SY00-V              PIC X(1)
                                               VALUE SPACE.
               10  WK01-STATUS-CODE-SY00-O              PIC X(1)
                                               VALUE SPACE.
               10  WK01-STATUS-CODE-SY00       PIC X(1)
                                               VALUE SPACES.
               10  WK01-ID-LAST-NINE-EX35-Z              PIC X(1)
                                               VALUE SPACE.
               10  WK01-ID-LAST-NINE-EX35-F              PIC X(1)
                                               VALUE SPACE.
               10  WK01-ID-LAST-NINE-EX35-A              PIC X(1)
                                               VALUE SPACE.
               10  WK01-ID-LAST-NINE-EX35-V              PIC X(1)
                                               VALUE SPACE.
               10  WK01-ID-LAST-NINE-EX35-O              PIC X(1)
                                               VALUE SPACE.
               10  WK01-ID-LAST-NINE-EX35       PIC X(9)
                                               VALUE SPACES.
               10  WK01-NAME-EX35-Z              PIC X(1)
                                               VALUE SPACE.
               10  WK01-NAME-EX35-F              PIC X(1)
                                               VALUE SPACE.
               10  WK01-NAME-EX35-A              PIC X(1)
                                               VALUE SPACE.
               10  WK01-NAME-EX35-V              PIC X(1)
                                               VALUE SPACE.
               10  WK01-NAME-EX35-O              PIC X(1)
                                               VALUE SPACE.
               10  WK01-NAME-EX35       PIC X(35)
                                               VALUE SPACES.
               10  WK01-CODE-EX351-Z              PIC X(1)
                                               VALUE SPACE.
               10  WK01-CODE-EX351-F              PIC X(1)
                                               VALUE SPACE.
               10  WK01-CODE-EX351-A              PIC X(1)
                                               VALUE SPACE.
               10  WK01-CODE-EX351-V              PIC X(1)
                                               VALUE SPACE.
               10  WK01-CODE-EX351-O              PIC X(1)
                                               VALUE SPACE.
               10  WK01-CODE-EX351       PIC X(1)
                                               VALUE SPACES.
               10  WK01-NMBR-EX351-Z              PIC X(1)
                                               VALUE SPACE.
               10  WK01-NMBR-EX351-F              PIC X(1)
                                               VALUE SPACE.
               10  WK01-NMBR-EX351-A              PIC X(1)
                                               VALUE SPACE.
               10  WK01-NMBR-EX351-V              PIC X(1)
                                               VALUE SPACE.
               10  WK01-NMBR-EX351-O              PIC X(1)
                                               VALUE SPACE.
               10  WK01-NMBR-EX351       PIC 9(5)
                                               VALUE ZEROS.
               10  WK01-ERROR-IND-EX351-Z              PIC X(1)
                                               VALUE SPACE.
               10  WK01-ERROR-IND-EX351-F              PIC X(1)
                                               VALUE SPACE.
               10  WK01-ERROR-IND-EX351-A              PIC X(1)
                                               VALUE SPACE.
               10  WK01-ERROR-IND-EX351-V              PIC X(1)
                                               VALUE SPACE.
               10  WK01-ERROR-IND-EX351-O              PIC X(1)
                                               VALUE SPACE.
               10  WK01-ERROR-IND-EX351       PIC X(1)
                                               VALUE SPACES.
               10  WK01-CODE-EX3A1-Z              PIC X(1)
                                               VALUE SPACE.
               10  WK01-CODE-EX3A1-F              PIC X(1)
                                               VALUE SPACE.
               10  WK01-CODE-EX3A1-A              PIC X(1)
                                               VALUE SPACE.
               10  WK01-CODE-EX3A1-V              PIC X(1)
                                               VALUE SPACE.
               10  WK01-CODE-EX3A1-O              PIC X(1)
                                               VALUE SPACE.
               10  WK01-CODE-EX3A1       PIC X(8)
                                               VALUE SPACES.
               10  WK01-DATE-EX351-Z              PIC X(1)
                                               VALUE SPACE.
               10  WK01-DATE-EX351-F              PIC X(1)
                                               VALUE SPACE.
               10  WK01-DATE-EX351-A              PIC X(1)
                                               VALUE SPACE.
               10  WK01-DATE-EX351-V              PIC X(1)
                                               VALUE SPACE.
               10  WK01-DATE-EX351-O              PIC X(1)
                                               VALUE SPACE.
               10  WK01-DATE-EX351       PIC S9(8)
                                               VALUE ZEROS.
               10  WK01-DATE-EX3A1-Z              PIC X(1)
                                               VALUE SPACE.
               10  WK01-DATE-EX3A1-F              PIC X(1)
                                               VALUE SPACE.
               10  WK01-DATE-EX3A1-A              PIC X(1)
                                               VALUE SPACE.
               10  WK01-DATE-EX3A1-V              PIC X(1)
                                               VALUE SPACE.
               10  WK01-DATE-EX3A1-O              PIC X(1)
                                               VALUE SPACE.
               10  WK01-DATE-EX3A1       PIC S9(8)
                                               VALUE ZEROS.
               10  WK01-CODE-EX352-Z              PIC X(1)
                                               VALUE SPACE.
               10  WK01-CODE-EX352-F              PIC X(1)
                                               VALUE SPACE.
               10  WK01-CODE-EX352-A              PIC X(1)
                                               VALUE SPACE.
               10  WK01-CODE-EX352-V              PIC X(1)
                                               VALUE SPACE.
               10  WK01-CODE-EX352-O              PIC X(1)
                                               VALUE SPACE.
               10  WK01-CODE-EX352       PIC X(1)
                                               VALUE SPACES.
               10  WK01-NMBR-EX352-Z              PIC X(1)
                                               VALUE SPACE.
               10  WK01-NMBR-EX352-F              PIC X(1)
                                               VALUE SPACE.
               10  WK01-NMBR-EX352-A              PIC X(1)
                                               VALUE SPACE.
               10  WK01-NMBR-EX352-V              PIC X(1)
                                               VALUE SPACE.
               10  WK01-NMBR-EX352-O              PIC X(1)
                                               VALUE SPACE.
               10  WK01-NMBR-EX352       PIC 9(5)
                                               VALUE ZEROS.
               10  WK01-ERROR-IND-EX352-Z              PIC X(1)
                                               VALUE SPACE.
               10  WK01-ERROR-IND-EX352-F              PIC X(1)
                                               VALUE SPACE.
               10  WK01-ERROR-IND-EX352-A              PIC X(1)
                                               VALUE SPACE.
               10  WK01-ERROR-IND-EX352-V              PIC X(1)
                                               VALUE SPACE.
               10  WK01-ERROR-IND-EX352-O              PIC X(1)
                                               VALUE SPACE.
               10  WK01-ERROR-IND-EX352       PIC X(1)
                                               VALUE SPACES.
               10  WK01-CODE-EX3A2-Z              PIC X(1)
                                               VALUE SPACE.
               10  WK01-CODE-EX3A2-F              PIC X(1)
                                               VALUE SPACE.
               10  WK01-CODE-EX3A2-A              PIC X(1)
                                               VALUE SPACE.
               10  WK01-CODE-EX3A2-V              PIC X(1)
                                               VALUE SPACE.
               10  WK01-CODE-EX3A2-O              PIC X(1)
                                               VALUE SPACE.
               10  WK01-CODE-EX3A2       PIC X(8)
                                               VALUE SPACES.
               10  WK01-DATE-EX352-Z              PIC X(1)
                                               VALUE SPACE.
               10  WK01-DATE-EX352-F              PIC X(1)
                                               VALUE SPACE.
               10  WK01-DATE-EX352-A              PIC X(1)
                                               VALUE SPACE.
               10  WK01-DATE-EX352-V              PIC X(1)
                                               VALUE SPACE.
               10  WK01-DATE-EX352-O              PIC X(1)
                                               VALUE SPACE.
               10  WK01-DATE-EX352       PIC S9(8)
                                               VALUE ZEROS.
               10  WK01-DATE-EX3A2-Z              PIC X(1)
                                               VALUE SPACE.
               10  WK01-DATE-EX3A2-F              PIC X(1)
                                               VALUE SPACE.
               10  WK01-DATE-EX3A2-A              PIC X(1)
                                               VALUE SPACE.
               10  WK01-DATE-EX3A2-V              PIC X(1)
                                               VALUE SPACE.
               10  WK01-DATE-EX3A2-O              PIC X(1)
                                               VALUE SPACE.
               10  WK01-DATE-EX3A2       PIC S9(8)
                                               VALUE ZEROS.
               10  WK01-CODE-EX353-Z              PIC X(1)
                                               VALUE SPACE.
               10  WK01-CODE-EX353-F              PIC X(1)
                                               VALUE SPACE.
               10  WK01-CODE-EX353-A              PIC X(1)
                                               VALUE SPACE.
               10  WK01-CODE-EX353-V              PIC X(1)
                                               VALUE SPACE.
               10  WK01-CODE-EX353-O              PIC X(1)
                                               VALUE SPACE.
               10  WK01-CODE-EX353       PIC X(1)
                                               VALUE SPACES.
               10  WK01-NMBR-EX353-Z              PIC X(1)
                                               VALUE SPACE.
               10  WK01-NMBR-EX353-F              PIC X(1)
                                               VALUE SPACE.
               10  WK01-NMBR-EX353-A              PIC X(1)
                                               VALUE SPACE.
               10  WK01-NMBR-EX353-V              PIC X(1)
                                               VALUE SPACE.
               10  WK01-NMBR-EX353-O              PIC X(1)
                                               VALUE SPACE.
               10  WK01-NMBR-EX353       PIC 9(5)
                                               VALUE ZEROS.
               10  WK01-ERROR-IND-EX353-Z              PIC X(1)
                                               VALUE SPACE.
               10  WK01-ERROR-IND-EX353-F              PIC X(1)
                                               VALUE SPACE.
               10  WK01-ERROR-IND-EX353-A              PIC X(1)
                                               VALUE SPACE.
               10  WK01-ERROR-IND-EX353-V              PIC X(1)
                                               VALUE SPACE.
               10  WK01-ERROR-IND-EX353-O              PIC X(1)
                                               VALUE SPACE.
               10  WK01-ERROR-IND-EX353       PIC X(1)
                                               VALUE SPACES.
               10  WK01-CODE-EX3A3-Z              PIC X(1)
                                               VALUE SPACE.
               10  WK01-CODE-EX3A3-F              PIC X(1)
                                               VALUE SPACE.
               10  WK01-CODE-EX3A3-A              PIC X(1)
                                               VALUE SPACE.
               10  WK01-CODE-EX3A3-V              PIC X(1)
                                               VALUE SPACE.
               10  WK01-CODE-EX3A3-O              PIC X(1)
                                               VALUE SPACE.
               10  WK01-CODE-EX3A3       PIC X(8)
                                               VALUE SPACES.
               10  WK01-DATE-EX353-Z              PIC X(1)
                                               VALUE SPACE.
               10  WK01-DATE-EX353-F              PIC X(1)
                                               VALUE SPACE.
               10  WK01-DATE-EX353-A              PIC X(1)
                                               VALUE SPACE.
               10  WK01-DATE-EX353-V              PIC X(1)
                                               VALUE SPACE.
               10  WK01-DATE-EX353-O              PIC X(1)
                                               VALUE SPACE.
               10  WK01-DATE-EX353       PIC S9(8)
                                               VALUE ZEROS.
               10  WK01-DATE-EX3A3-Z              PIC X(1)
                                               VALUE SPACE.
               10  WK01-DATE-EX3A3-F              PIC X(1)
                                               VALUE SPACE.
               10  WK01-DATE-EX3A3-A              PIC X(1)
                                               VALUE SPACE.
               10  WK01-DATE-EX3A3-V              PIC X(1)
                                               VALUE SPACE.
               10  WK01-DATE-EX3A3-O              PIC X(1)
                                               VALUE SPACE.
               10  WK01-DATE-EX3A3       PIC S9(8)
                                               VALUE ZEROS.
               10  WK01-CODE-EX354-Z              PIC X(1)
                                               VALUE SPACE.
               10  WK01-CODE-EX354-F              PIC X(1)
                                               VALUE SPACE.
               10  WK01-CODE-EX354-A              PIC X(1)
                                               VALUE SPACE.
               10  WK01-CODE-EX354-V              PIC X(1)
                                               VALUE SPACE.
               10  WK01-CODE-EX354-O              PIC X(1)
                                               VALUE SPACE.
               10  WK01-CODE-EX354       PIC X(1)
                                               VALUE SPACES.
               10  WK01-NMBR-EX354-Z              PIC X(1)
                                               VALUE SPACE.
               10  WK01-NMBR-EX354-F              PIC X(1)
                                               VALUE SPACE.
               10  WK01-NMBR-EX354-A              PIC X(1)
                                               VALUE SPACE.
               10  WK01-NMBR-EX354-V              PIC X(1)
                                               VALUE SPACE.
               10  WK01-NMBR-EX354-O              PIC X(1)
                                               VALUE SPACE.
               10  WK01-NMBR-EX354       PIC 9(5)
                                               VALUE ZEROS.
               10  WK01-ERROR-IND-EX354-Z              PIC X(1)
                                               VALUE SPACE.
               10  WK01-ERROR-IND-EX354-F              PIC X(1)
                                               VALUE SPACE.
               10  WK01-ERROR-IND-EX354-A              PIC X(1)
                                               VALUE SPACE.
               10  WK01-ERROR-IND-EX354-V              PIC X(1)
                                               VALUE SPACE.
               10  WK01-ERROR-IND-EX354-O              PIC X(1)
                                               VALUE SPACE.
               10  WK01-ERROR-IND-EX354       PIC X(1)
                                               VALUE SPACES.
               10  WK01-CODE-EX3A4-Z              PIC X(1)
                                               VALUE SPACE.
               10  WK01-CODE-EX3A4-F              PIC X(1)
                                               VALUE SPACE.
               10  WK01-CODE-EX3A4-A              PIC X(1)
                                               VALUE SPACE.
               10  WK01-CODE-EX3A4-V              PIC X(1)
                                               VALUE SPACE.
               10  WK01-CODE-EX3A4-O              PIC X(1)
                                               VALUE SPACE.
               10  WK01-CODE-EX3A4       PIC X(8)
                                               VALUE SPACES.
               10  WK01-DATE-EX354-Z              PIC X(1)
                                               VALUE SPACE.
               10  WK01-DATE-EX354-F              PIC X(1)
                                               VALUE SPACE.
               10  WK01-DATE-EX354-A              PIC X(1)
                                               VALUE SPACE.
               10  WK01-DATE-EX354-V              PIC X(1)
                                               VALUE SPACE.
               10  WK01-DATE-EX354-O              PIC X(1)
                                               VALUE SPACE.
               10  WK01-DATE-EX354       PIC S9(8)
                                               VALUE ZEROS.
               10  WK01-DATE-EX3A4-Z              PIC X(1)
                                               VALUE SPACE.
               10  WK01-DATE-EX3A4-F              PIC X(1)
                                               VALUE SPACE.
               10  WK01-DATE-EX3A4-A              PIC X(1)
                                               VALUE SPACE.
               10  WK01-DATE-EX3A4-V              PIC X(1)
                                               VALUE SPACE.
               10  WK01-DATE-EX3A4-O              PIC X(1)
                                               VALUE SPACE.
               10  WK01-DATE-EX3A4       PIC S9(8)
                                               VALUE ZEROS.
               10  WK01-CODE-EX355-Z              PIC X(1)
                                               VALUE SPACE.
               10  WK01-CODE-EX355-F              PIC X(1)
                                               VALUE SPACE.
               10  WK01-CODE-EX355-A              PIC X(1)
                                               VALUE SPACE.
               10  WK01-CODE-EX355-V              PIC X(1)
                                               VALUE SPACE.
               10  WK01-CODE-EX355-O              PIC X(1)
                                               VALUE SPACE.
               10  WK01-CODE-EX355       PIC X(1)
                                               VALUE SPACES.
               10  WK01-NMBR-EX355-Z              PIC X(1)
                                               VALUE SPACE.
               10  WK01-NMBR-EX355-F              PIC X(1)
                                               VALUE SPACE.
               10  WK01-NMBR-EX355-A              PIC X(1)
                                               VALUE SPACE.
               10  WK01-NMBR-EX355-V              PIC X(1)
                                               VALUE SPACE.
               10  WK01-NMBR-EX355-O              PIC X(1)
                                               VALUE SPACE.
               10  WK01-NMBR-EX355       PIC 9(5)
                                               VALUE ZEROS.
               10  WK01-ERROR-IND-EX355-Z              PIC X(1)
                                               VALUE SPACE.
               10  WK01-ERROR-IND-EX355-F              PIC X(1)
                                               VALUE SPACE.
               10  WK01-ERROR-IND-EX355-A              PIC X(1)
                                               VALUE SPACE.
               10  WK01-ERROR-IND-EX355-V              PIC X(1)
                                               VALUE SPACE.
               10  WK01-ERROR-IND-EX355-O              PIC X(1)
                                               VALUE SPACE.
               10  WK01-ERROR-IND-EX355       PIC X(1)
                                               VALUE SPACES.
               10  WK01-CODE-EX3A5-Z              PIC X(1)
                                               VALUE SPACE.
               10  WK01-CODE-EX3A5-F              PIC X(1)
                                               VALUE SPACE.
               10  WK01-CODE-EX3A5-A              PIC X(1)
                                               VALUE SPACE.
               10  WK01-CODE-EX3A5-V              PIC X(1)
                                               VALUE SPACE.
               10  WK01-CODE-EX3A5-O              PIC X(1)
                                               VALUE SPACE.
               10  WK01-CODE-EX3A5       PIC X(8)
                                               VALUE SPACES.
               10  WK01-DATE-EX355-Z              PIC X(1)
                                               VALUE SPACE.
               10  WK01-DATE-EX355-F              PIC X(1)
                                               VALUE SPACE.
               10  WK01-DATE-EX355-A              PIC X(1)
                                               VALUE SPACE.
               10  WK01-DATE-EX355-V              PIC X(1)
                                               VALUE SPACE.
               10  WK01-DATE-EX355-O              PIC X(1)
                                               VALUE SPACE.
               10  WK01-DATE-EX355       PIC S9(8)
                                               VALUE ZEROS.
               10  WK01-DATE-EX3A5-Z              PIC X(1)
                                               VALUE SPACE.
               10  WK01-DATE-EX3A5-F              PIC X(1)
                                               VALUE SPACE.
               10  WK01-DATE-EX3A5-A              PIC X(1)
                                               VALUE SPACE.
               10  WK01-DATE-EX3A5-V              PIC X(1)
                                               VALUE SPACE.
               10  WK01-DATE-EX3A5-O              PIC X(1)
                                               VALUE SPACE.
               10  WK01-DATE-EX3A5       PIC S9(8)
                                               VALUE ZEROS.
               10  WK01-CODE-EX356-Z              PIC X(1)
                                               VALUE SPACE.
               10  WK01-CODE-EX356-F              PIC X(1)
                                               VALUE SPACE.
               10  WK01-CODE-EX356-A              PIC X(1)
                                               VALUE SPACE.
               10  WK01-CODE-EX356-V              PIC X(1)
                                               VALUE SPACE.
               10  WK01-CODE-EX356-O              PIC X(1)
                                               VALUE SPACE.
               10  WK01-CODE-EX356       PIC X(1)
                                               VALUE SPACES.
               10  WK01-NMBR-EX356-Z              PIC X(1)
                                               VALUE SPACE.
               10  WK01-NMBR-EX356-F              PIC X(1)
                                               VALUE SPACE.
               10  WK01-NMBR-EX356-A              PIC X(1)
                                               VALUE SPACE.
               10  WK01-NMBR-EX356-V              PIC X(1)
                                               VALUE SPACE.
               10  WK01-NMBR-EX356-O              PIC X(1)
                                               VALUE SPACE.
               10  WK01-NMBR-EX356       PIC 9(5)
                                               VALUE ZEROS.
               10  WK01-ERROR-IND-EX356-Z              PIC X(1)
                                               VALUE SPACE.
               10  WK01-ERROR-IND-EX356-F              PIC X(1)
                                               VALUE SPACE.
               10  WK01-ERROR-IND-EX356-A              PIC X(1)
                                               VALUE SPACE.
               10  WK01-ERROR-IND-EX356-V              PIC X(1)
                                               VALUE SPACE.
               10  WK01-ERROR-IND-EX356-O              PIC X(1)
                                               VALUE SPACE.
               10  WK01-ERROR-IND-EX356       PIC X(1)
                                               VALUE SPACES.
               10  WK01-CODE-EX3A6-Z              PIC X(1)
                                               VALUE SPACE.
               10  WK01-CODE-EX3A6-F              PIC X(1)
                                               VALUE SPACE.
               10  WK01-CODE-EX3A6-A              PIC X(1)
                                               VALUE SPACE.
               10  WK01-CODE-EX3A6-V              PIC X(1)
                                               VALUE SPACE.
               10  WK01-CODE-EX3A6-O              PIC X(1)
                                               VALUE SPACE.
               10  WK01-CODE-EX3A6       PIC X(8)
                                               VALUE SPACES.
               10  WK01-DATE-EX356-Z              PIC X(1)
                                               VALUE SPACE.
               10  WK01-DATE-EX356-F              PIC X(1)
                                               VALUE SPACE.
               10  WK01-DATE-EX356-A              PIC X(1)
                                               VALUE SPACE.
               10  WK01-DATE-EX356-V              PIC X(1)
                                               VALUE SPACE.
               10  WK01-DATE-EX356-O              PIC X(1)
                                               VALUE SPACE.
               10  WK01-DATE-EX356       PIC S9(8)
                                               VALUE ZEROS.
               10  WK01-DATE-EX3A6-Z              PIC X(1)
                                               VALUE SPACE.
               10  WK01-DATE-EX3A6-F              PIC X(1)
                                               VALUE SPACE.
               10  WK01-DATE-EX3A6-A              PIC X(1)
                                               VALUE SPACE.
               10  WK01-DATE-EX3A6-V              PIC X(1)
                                               VALUE SPACE.
               10  WK01-DATE-EX3A6-O              PIC X(1)
                                               VALUE SPACE.
               10  WK01-DATE-EX3A6       PIC S9(8)
                                               VALUE ZEROS.
               10  WK01-CODE-EX357-Z              PIC X(1)
                                               VALUE SPACE.
               10  WK01-CODE-EX357-F              PIC X(1)
                                               VALUE SPACE.
               10  WK01-CODE-EX357-A              PIC X(1)
                                               VALUE SPACE.
               10  WK01-CODE-EX357-V              PIC X(1)
                                               VALUE SPACE.
               10  WK01-CODE-EX357-O              PIC X(1)
                                               VALUE SPACE.
               10  WK01-CODE-EX357       PIC X(1)
                                               VALUE SPACES.
               10  WK01-NMBR-EX357-Z              PIC X(1)
                                               VALUE SPACE.
               10  WK01-NMBR-EX357-F              PIC X(1)
                                               VALUE SPACE.
               10  WK01-NMBR-EX357-A              PIC X(1)
                                               VALUE SPACE.
               10  WK01-NMBR-EX357-V              PIC X(1)
                                               VALUE SPACE.
               10  WK01-NMBR-EX357-O              PIC X(1)
                                               VALUE SPACE.
               10  WK01-NMBR-EX357       PIC 9(5)
                                               VALUE ZEROS.
               10  WK01-ERROR-IND-EX357-Z              PIC X(1)
                                               VALUE SPACE.
               10  WK01-ERROR-IND-EX357-F              PIC X(1)
                                               VALUE SPACE.
               10  WK01-ERROR-IND-EX357-A              PIC X(1)
                                               VALUE SPACE.
               10  WK01-ERROR-IND-EX357-V              PIC X(1)
                                               VALUE SPACE.
               10  WK01-ERROR-IND-EX357-O              PIC X(1)
                                               VALUE SPACE.
               10  WK01-ERROR-IND-EX357       PIC X(1)
                                               VALUE SPACES.
               10  WK01-CODE-EX3A7-Z              PIC X(1)
                                               VALUE SPACE.
               10  WK01-CODE-EX3A7-F              PIC X(1)
                                               VALUE SPACE.
               10  WK01-CODE-EX3A7-A              PIC X(1)
                                               VALUE SPACE.
               10  WK01-CODE-EX3A7-V              PIC X(1)
                                               VALUE SPACE.
               10  WK01-CODE-EX3A7-O              PIC X(1)
                                               VALUE SPACE.
               10  WK01-CODE-EX3A7       PIC X(8)
                                               VALUE SPACES.
               10  WK01-DATE-EX357-Z              PIC X(1)
                                               VALUE SPACE.
               10  WK01-DATE-EX357-F              PIC X(1)
                                               VALUE SPACE.
               10  WK01-DATE-EX357-A              PIC X(1)
                                               VALUE SPACE.
               10  WK01-DATE-EX357-V              PIC X(1)
                                               VALUE SPACE.
               10  WK01-DATE-EX357-O              PIC X(1)
                                               VALUE SPACE.
               10  WK01-DATE-EX357       PIC S9(8)
                                               VALUE ZEROS.
               10  WK01-DATE-EX3A7-Z              PIC X(1)
                                               VALUE SPACE.
               10  WK01-DATE-EX3A7-F              PIC X(1)
                                               VALUE SPACE.
               10  WK01-DATE-EX3A7-A              PIC X(1)
                                               VALUE SPACE.
               10  WK01-DATE-EX3A7-V              PIC X(1)
                                               VALUE SPACE.
               10  WK01-DATE-EX3A7-O              PIC X(1)
                                               VALUE SPACE.
               10  WK01-DATE-EX3A7       PIC S9(8)
                                               VALUE ZEROS.
               10  WK01-CODE-EX358-Z              PIC X(1)
                                               VALUE SPACE.
               10  WK01-CODE-EX358-F              PIC X(1)
                                               VALUE SPACE.
               10  WK01-CODE-EX358-A              PIC X(1)
                                               VALUE SPACE.
               10  WK01-CODE-EX358-V              PIC X(1)
                                               VALUE SPACE.
               10  WK01-CODE-EX358-O              PIC X(1)
                                               VALUE SPACE.
               10  WK01-CODE-EX358       PIC X(1)
                                               VALUE SPACES.
               10  WK01-NMBR-EX358-Z              PIC X(1)
                                               VALUE SPACE.
               10  WK01-NMBR-EX358-F              PIC X(1)
                                               VALUE SPACE.
               10  WK01-NMBR-EX358-A              PIC X(1)
                                               VALUE SPACE.
               10  WK01-NMBR-EX358-V              PIC X(1)
                                               VALUE SPACE.
               10  WK01-NMBR-EX358-O              PIC X(1)
                                               VALUE SPACE.
               10  WK01-NMBR-EX358       PIC 9(5)
                                               VALUE ZEROS.
               10  WK01-ERROR-IND-EX358-Z              PIC X(1)
                                               VALUE SPACE.
               10  WK01-ERROR-IND-EX358-F              PIC X(1)
                                               VALUE SPACE.
               10  WK01-ERROR-IND-EX358-A              PIC X(1)
                                               VALUE SPACE.
               10  WK01-ERROR-IND-EX358-V              PIC X(1)
                                               VALUE SPACE.
               10  WK01-ERROR-IND-EX358-O              PIC X(1)
                                               VALUE SPACE.
               10  WK01-ERROR-IND-EX358       PIC X(1)
                                               VALUE SPACES.
               10  WK01-CODE-EX3A8-Z              PIC X(1)
                                               VALUE SPACE.
               10  WK01-CODE-EX3A8-F              PIC X(1)
                                               VALUE SPACE.
               10  WK01-CODE-EX3A8-A              PIC X(1)
                                               VALUE SPACE.
               10  WK01-CODE-EX3A8-V              PIC X(1)
                                               VALUE SPACE.
               10  WK01-CODE-EX3A8-O              PIC X(1)
                                               VALUE SPACE.
               10  WK01-CODE-EX3A8       PIC X(8)
                                               VALUE SPACES.
               10  WK01-DATE-EX358-Z              PIC X(1)
                                               VALUE SPACE.
               10  WK01-DATE-EX358-F              PIC X(1)
                                               VALUE SPACE.
               10  WK01-DATE-EX358-A              PIC X(1)
                                               VALUE SPACE.
               10  WK01-DATE-EX358-V              PIC X(1)
                                               VALUE SPACE.
               10  WK01-DATE-EX358-O              PIC X(1)
                                               VALUE SPACE.
               10  WK01-DATE-EX358       PIC S9(8)
                                               VALUE ZEROS.
               10  WK01-DATE-EX3A8-Z              PIC X(1)
                                               VALUE SPACE.
               10  WK01-DATE-EX3A8-F              PIC X(1)
                                               VALUE SPACE.
               10  WK01-DATE-EX3A8-A              PIC X(1)
                                               VALUE SPACE.
               10  WK01-DATE-EX3A8-V              PIC X(1)
                                               VALUE SPACE.
               10  WK01-DATE-EX3A8-O              PIC X(1)
                                               VALUE SPACE.
               10  WK01-DATE-EX3A8       PIC S9(8)
                                               VALUE ZEROS.
               10  WK01-CODE-EX359-Z              PIC X(1)
                                               VALUE SPACE.
               10  WK01-CODE-EX359-F              PIC X(1)
                                               VALUE SPACE.
               10  WK01-CODE-EX359-A              PIC X(1)
                                               VALUE SPACE.
               10  WK01-CODE-EX359-V              PIC X(1)
                                               VALUE SPACE.
               10  WK01-CODE-EX359-O              PIC X(1)
                                               VALUE SPACE.
               10  WK01-CODE-EX359       PIC X(1)
                                               VALUE SPACES.
               10  WK01-NMBR-EX359-Z              PIC X(1)
                                               VALUE SPACE.
               10  WK01-NMBR-EX359-F              PIC X(1)
                                               VALUE SPACE.
               10  WK01-NMBR-EX359-A              PIC X(1)
                                               VALUE SPACE.
               10  WK01-NMBR-EX359-V              PIC X(1)
                                               VALUE SPACE.
               10  WK01-NMBR-EX359-O              PIC X(1)
                                               VALUE SPACE.
               10  WK01-NMBR-EX359       PIC 9(5)
                                               VALUE ZEROS.
               10  WK01-ERROR-IND-EX359-Z              PIC X(1)
                                               VALUE SPACE.
               10  WK01-ERROR-IND-EX359-F              PIC X(1)
                                               VALUE SPACE.
               10  WK01-ERROR-IND-EX359-A              PIC X(1)
                                               VALUE SPACE.
               10  WK01-ERROR-IND-EX359-V              PIC X(1)
                                               VALUE SPACE.
               10  WK01-ERROR-IND-EX359-O              PIC X(1)
                                               VALUE SPACE.
               10  WK01-ERROR-IND-EX359       PIC X(1)
                                               VALUE SPACES.
               10  WK01-CODE-EX3A9-Z              PIC X(1)
                                               VALUE SPACE.
               10  WK01-CODE-EX3A9-F              PIC X(1)
                                               VALUE SPACE.
               10  WK01-CODE-EX3A9-A              PIC X(1)
                                               VALUE SPACE.
               10  WK01-CODE-EX3A9-V              PIC X(1)
                                               VALUE SPACE.
               10  WK01-CODE-EX3A9-O              PIC X(1)
                                               VALUE SPACE.
               10  WK01-CODE-EX3A9       PIC X(8)
                                               VALUE SPACES.
               10  WK01-DATE-EX359-Z              PIC X(1)
                                               VALUE SPACE.
               10  WK01-DATE-EX359-F              PIC X(1)
                                               VALUE SPACE.
               10  WK01-DATE-EX359-A              PIC X(1)
                                               VALUE SPACE.
               10  WK01-DATE-EX359-V              PIC X(1)
                                               VALUE SPACE.
               10  WK01-DATE-EX359-O              PIC X(1)
                                               VALUE SPACE.
               10  WK01-DATE-EX359       PIC S9(8)
                                               VALUE ZEROS.
               10  WK01-DATE-EX3A9-Z              PIC X(1)
                                               VALUE SPACE.
               10  WK01-DATE-EX3A9-F              PIC X(1)
                                               VALUE SPACE.
               10  WK01-DATE-EX3A9-A              PIC X(1)
                                               VALUE SPACE.
               10  WK01-DATE-EX3A9-V              PIC X(1)
                                               VALUE SPACE.
               10  WK01-DATE-EX3A9-O              PIC X(1)
                                               VALUE SPACE.
               10  WK01-DATE-EX3A9       PIC S9(8)
                                               VALUE ZEROS.
               10  WK01-CODE-EX3510-Z              PIC X(1)
                                               VALUE SPACE.
               10  WK01-CODE-EX3510-F              PIC X(1)
                                               VALUE SPACE.
               10  WK01-CODE-EX3510-A              PIC X(1)
                                               VALUE SPACE.
               10  WK01-CODE-EX3510-V              PIC X(1)
                                               VALUE SPACE.
               10  WK01-CODE-EX3510-O              PIC X(1)
                                               VALUE SPACE.
               10  WK01-CODE-EX3510       PIC X(1)
                                               VALUE SPACES.
               10  WK01-NMBR-EX3510-Z              PIC X(1)
                                               VALUE SPACE.
               10  WK01-NMBR-EX3510-F              PIC X(1)
                                               VALUE SPACE.
               10  WK01-NMBR-EX3510-A              PIC X(1)
                                               VALUE SPACE.
               10  WK01-NMBR-EX3510-V              PIC X(1)
                                               VALUE SPACE.
               10  WK01-NMBR-EX3510-O              PIC X(1)
                                               VALUE SPACE.
               10  WK01-NMBR-EX3510       PIC 9(5)
                                               VALUE ZEROS.
               10  WK01-ERROR-IND-EX3510-Z              PIC X(1)
                                               VALUE SPACE.
               10  WK01-ERROR-IND-EX3510-F              PIC X(1)
                                               VALUE SPACE.
               10  WK01-ERROR-IND-EX3510-A              PIC X(1)
                                               VALUE SPACE.
               10  WK01-ERROR-IND-EX3510-V              PIC X(1)
                                               VALUE SPACE.
               10  WK01-ERROR-IND-EX3510-O              PIC X(1)
                                               VALUE SPACE.
               10  WK01-ERROR-IND-EX3510       PIC X(1)
                                               VALUE SPACES.
               10  WK01-CODE-EX3A10-Z              PIC X(1)
                                               VALUE SPACE.
               10  WK01-CODE-EX3A10-F              PIC X(1)
                                               VALUE SPACE.
               10  WK01-CODE-EX3A10-A              PIC X(1)
                                               VALUE SPACE.
               10  WK01-CODE-EX3A10-V              PIC X(1)
                                               VALUE SPACE.
               10  WK01-CODE-EX3A10-O              PIC X(1)
                                               VALUE SPACE.
               10  WK01-CODE-EX3A10       PIC X(8)
                                               VALUE SPACES.
               10  WK01-DATE-EX3510-Z              PIC X(1)
                                               VALUE SPACE.
               10  WK01-DATE-EX3510-F              PIC X(1)
                                               VALUE SPACE.
               10  WK01-DATE-EX3510-A              PIC X(1)
                                               VALUE SPACE.
               10  WK01-DATE-EX3510-V              PIC X(1)
                                               VALUE SPACE.
               10  WK01-DATE-EX3510-O              PIC X(1)
                                               VALUE SPACE.
               10  WK01-DATE-EX3510       PIC S9(8)
                                               VALUE ZEROS.
               10  WK01-DATE-EX3A10-Z              PIC X(1)
                                               VALUE SPACE.
               10  WK01-DATE-EX3A10-F              PIC X(1)
                                               VALUE SPACE.
               10  WK01-DATE-EX3A10-A              PIC X(1)
                                               VALUE SPACE.
               10  WK01-DATE-EX3A10-V              PIC X(1)
                                               VALUE SPACE.
               10  WK01-DATE-EX3A10-O              PIC X(1)
                                               VALUE SPACE.
               10  WK01-DATE-EX3A10       PIC S9(8)
                                               VALUE ZEROS.
               10  WK01-FILE-NMBR-EX35-Z              PIC X(1)
                                               VALUE SPACE.
               10  WK01-FILE-NMBR-EX35-F              PIC X(1)
                                               VALUE SPACE.
               10  WK01-FILE-NMBR-EX35-A              PIC X(1)
                                               VALUE SPACE.
               10  WK01-FILE-NMBR-EX35-V              PIC X(1)
                                               VALUE SPACE.
               10  WK01-FILE-NMBR-EX35-O              PIC X(1)
                                               VALUE SPACE.
               10  WK01-FILE-NMBR-EX35       PIC 9(5)
                                               VALUE ZEROS.
               10  WK01-ZZMESSAGE-Z              PIC X(1)
                                               VALUE SPACE.
               10  WK01-ZZMESSAGE-F              PIC X(1)
                                               VALUE SPACE.
               10  WK01-ZZMESSAGE-A              PIC X(1)
                                               VALUE SPACE.
               10  WK01-ZZMESSAGE-V              PIC X(1)
                                               VALUE SPACE.
               10  WK01-ZZMESSAGE-O              PIC X(1)
                                               VALUE SPACE.
               10  WK01-ZZMESSAGE       PIC X(160)
                                               VALUE SPACES.
               10  WK01-PASSED-ONE-Z              PIC X(1)
                                               VALUE SPACE.
               10  WK01-PASSED-ONE-F              PIC X(1)
                                               VALUE SPACE.
               10  WK01-PASSED-ONE-A              PIC X(1)
                                               VALUE SPACE.
               10  WK01-PASSED-ONE-V              PIC X(1)
                                               VALUE SPACE.
               10  WK01-PASSED-ONE-O              PIC X(1)
                                               VALUE SPACE.
               10  WK01-PASSED-ONE       PIC X(32)
                                               VALUE SPACES.
               10  WK01-MAP-RESPONSE-Z              PIC X(1)
                                               VALUE SPACE.
               10  WK01-MAP-RESPONSE-F              PIC X(1)
                                               VALUE SPACE.
               10  WK01-MAP-RESPONSE-A              PIC X(1)
                                               VALUE SPACE.
               10  WK01-MAP-RESPONSE-V              PIC X(1)
                                               VALUE SPACE.
               10  WK01-MAP-RESPONSE-O              PIC X(1)
                                               VALUE SPACE.
               10  WK01-MAP-RESPONSE       PIC X(8)
                                               VALUE SPACES.
               10  WK01-TEXT-SY00-Z              PIC X(1)
                                               VALUE SPACE.
               10  WK01-TEXT-SY00-F              PIC X(1)
                                               VALUE SPACE.
               10  WK01-TEXT-SY00-A              PIC X(1)
                                               VALUE SPACE.
               10  WK01-TEXT-SY00-V              PIC X(1)
                                               VALUE SPACE.
               10  WK01-TEXT-SY00-O              PIC X(1)
                                               VALUE SPACE.
               10  WK01-TEXT-SY00       PIC X(14)
                                               VALUE SPACES.
           04  WK01-SUBSCRIPTED-WORK-AREA.
               05  FILLER                      PIC X(1).
               05  WK01-CODE-EX35-F             PIC X(1)
                                               OCCURS 10.
               05  WK01-NMBR-EX35-F             PIC X(1)
                                               OCCURS 10.
               05  WK01-ERROR-IND-EX35-F             PIC X(1)
                                               OCCURS 10.
               05  WK01-CODE-EX3A-F             PIC X(1)
                                               OCCURS 10.
               05  WK01-DATE-EX35-F             PIC X(1)
                                               OCCURS 10.
               05  WK01-DATE-EX3A-F             PIC X(1)
                                               OCCURS 10.
