       01  MAP-CONTROL.

    ***Created by Convert/DC version V8R03 on 11/17/00 at 16:00***

           02  FGAMU41-MAP-CONTROL.
           03  FGAMU41T.
           04  WK01-DCXMAPL-PARMS.
               10  WK01-MAPNAME                  PIC X(8)
                                                 VALUE 'FGAMU41I'.
               10  WK01-IKE-LENGTH               PIC S9(8)  COMP
                                                 VALUE 25488.
               10  WK01-TINA-LENGTH              PIC S9(4)  COMP
                                                 VALUE 1434.
           05  WK01-ATTRIBUTES                   PIC X(60)
                                                 VALUE SPACE.
           05  WK01-ATTRIBUTES-ERROR             PIC X(60) VALUE
               'U  BIF'.
           05  WK01-CURSOR-DFLD                  PIC X(36)
                                                 VALUE SPACES.
           05  WK01-CURSOR-DFLD-QUAL             PIC X(30)
                                                 VALUE SPACES.
           05  WK01-ROW                          PIC S9(4) COMP
                                                 VALUE ZERO.
           05  WK01-COLUMN                       PIC S9(4) COMP
                                                 VALUE ZERO.
           05  WK01-ERROR-MSG                    PIC X(80)
                                                 VALUE SPACES.
           05  WK01-MAP-DATA-LEN                 PIC S9(6)
                                                 VALUE ZERO.
           05  WK01-1ST-FLAG                     PIC X(1)
                                                 VALUE 'Y'.
           05  WK01-FLAG-OUTPUT-DATA             PIC X(1)
                                                 VALUE 'Y'.
      *    05  WK01-STATUS-RETURN-FLAG           PIC X(1)
      *                                          VALUE SPACES.
           05  WK01-ALL-BUT-FLAG                 PIC X(1)
                                                 VALUE SPACES.
           05  WK01-FLAG-ALL-FIELDS-CHANGED      PIC X(1)  VALUE 'Y'.
           05  WK01-FLAG-ANY-FIELDS-CHANGED      PIC X(1)  VALUE 'N'.
           05  WK01-FLAG-ALL-FIELDS-ERROR        PIC X(1)  VALUE 'Y'.
           05  WK01-FLAG-ANY-FIELDS-ERROR        PIC X(1)  VALUE 'N'.
           05  WK01-FLAG-ALL-FIELDS-ERASE        PIC X(1)  VALUE 'Y'.
           05  WK01-FLAG-ANY-FIELDS-ERASE        PIC X(1)  VALUE 'Y'.

           05  WK01-VARDATA                      PIC X(11880)
                                                 VALUE SPACES.
           05  FILLER                            PIC X(100)
                                                 VALUE SPACES.
           04  WK01-ELEMENT-AREA.

               10  WK01-ID-SY00-Z              PIC X(1)
                                               VALUE SPACE.
               10  WK01-ID-SY00-F              PIC X(1)
                                               VALUE SPACE.
               10  WK01-ID-SY00-A              PIC X(1)
                                               VALUE SPACE.
               10  WK01-ID-SY00-V              PIC X(1)
                                               VALUE SPACE.
               10  WK01-ID-SY00-O              PIC X(1)
                                               VALUE SPACE.
               10  WK01-ID-SY00       PIC X(8)
                                               VALUE SPACES.
               10  WK01-NAME-6001-SY00-Z              PIC X(1)
                                               VALUE SPACE.
               10  WK01-NAME-6001-SY00-F              PIC X(1)
                                               VALUE SPACE.
               10  WK01-NAME-6001-SY00-A              PIC X(1)
                                               VALUE SPACE.
               10  WK01-NAME-6001-SY00-V              PIC X(1)
                                               VALUE SPACE.
               10  WK01-NAME-6001-SY00-O              PIC X(1)
                                               VALUE SPACE.
               10  WK01-NAME-6001-SY00       PIC X(35)
                                               VALUE SPACES.
               10  WK01-DATE-Z              PIC X(1)
                                               VALUE SPACE.
               10  WK01-DATE-F              PIC X(1)
                                               VALUE SPACE.
               10  WK01-DATE-A              PIC X(1)
                                               VALUE SPACE.
               10  WK01-DATE-V              PIC X(1)
                                               VALUE SPACE.
               10  WK01-DATE-O              PIC X(1)
                                               VALUE SPACE.
               10  WK01-DATE       PIC X(8)
                                               VALUE SPACES.
               10  WK01-HH-MM-TIME-SY00-Z              PIC X(1)
                                               VALUE SPACE.
               10  WK01-HH-MM-TIME-SY00-F              PIC X(1)
                                               VALUE SPACE.
               10  WK01-HH-MM-TIME-SY00-A              PIC X(1)
                                               VALUE SPACE.
               10  WK01-HH-MM-TIME-SY00-V              PIC X(1)
                                               VALUE SPACE.
               10  WK01-HH-MM-TIME-SY00-O              PIC X(1)
                                               VALUE SPACE.
               10  WK01-HH-MM-TIME-SY00       PIC X(4)
                                               VALUE SPACES.
               10  WK01-PM-FLAG-SY00-Z              PIC X(1)
                                               VALUE SPACE.
               10  WK01-PM-FLAG-SY00-F              PIC X(1)
                                               VALUE SPACE.
               10  WK01-PM-FLAG-SY00-A              PIC X(1)
                                               VALUE SPACE.
               10  WK01-PM-FLAG-SY00-V              PIC X(1)
                                               VALUE SPACE.
               10  WK01-PM-FLAG-SY00-O              PIC X(1)
                                               VALUE SPACE.
               10  WK01-PM-FLAG-SY00       PIC X(1)
                                               VALUE SPACES.
               10  WK01-USER-ID-Z              PIC X(1)
                                               VALUE SPACE.
               10  WK01-USER-ID-F              PIC X(1)
                                               VALUE SPACE.
               10  WK01-USER-ID-A              PIC X(1)
                                               VALUE SPACE.
               10  WK01-USER-ID-V              PIC X(1)
                                               VALUE SPACE.
               10  WK01-USER-ID-O              PIC X(1)
                                               VALUE SPACE.
               10  WK01-USER-ID       PIC X(32)
                                               VALUE SPACES.
               10  WK01-RSPNS-ID-SY00-Z              PIC X(1)
                                               VALUE SPACE.
               10  WK01-RSPNS-ID-SY00-F              PIC X(1)
                                               VALUE SPACE.
               10  WK01-RSPNS-ID-SY00-A              PIC X(1)
                                               VALUE SPACE.
               10  WK01-RSPNS-ID-SY00-V              PIC X(1)
                                               VALUE SPACE.
               10  WK01-RSPNS-ID-SY00-O              PIC X(1)
                                               VALUE SPACE.
               10  WK01-RSPNS-ID-SY00       PIC X(8)
                                               VALUE SPACES.
               10  WK01-FUNC-DESCRIPTION-Z              PIC X(1)
                                               VALUE SPACE.
               10  WK01-FUNC-DESCRIPTION-F              PIC X(1)
                                               VALUE SPACE.
               10  WK01-FUNC-DESCRIPTION-A              PIC X(1)
                                               VALUE SPACE.
               10  WK01-FUNC-DESCRIPTION-V              PIC X(1)
                                               VALUE SPACE.
               10  WK01-FUNC-DESCRIPTION-O              PIC X(1)
                                               VALUE SPACE.
               10  WK01-FUNC-DESCRIPTION       PIC X(28)
                                               VALUE SPACES.
               10  WK01-STATUS-CODE-SY00-Z              PIC X(1)
                                               VALUE SPACE.
               10  WK01-STATUS-CODE-SY00-F              PIC X(1)
                                               VALUE SPACE.
               10  WK01-STATUS-CODE-SY00-A              PIC X(1)
                                               VALUE SPACE.
               10  WK01-STATUS-CODE-SY00-V              PIC X(1)
                                               VALUE SPACE.
               10  WK01-STATUS-CODE-SY00-O              PIC X(1)
                                               VALUE SPACE.
               10  WK01-STATUS-CODE-SY00       PIC X(1)
                                               VALUE SPACES.
               10  WK01-COA-CODE-GA4A-Z              PIC X(1)
                                               VALUE SPACE.
               10  WK01-COA-CODE-GA4A-F              PIC X(1)
                                               VALUE SPACE.
               10  WK01-COA-CODE-GA4A-A              PIC X(1)
                                               VALUE SPACE.
               10  WK01-COA-CODE-GA4A-V              PIC X(1)
                                               VALUE SPACE.
               10  WK01-COA-CODE-GA4A-O              PIC X(1)
                                               VALUE SPACE.
               10  WK01-COA-CODE-GA4A       PIC X(1)
                                               VALUE SPACES.
               10  WK01-INDX-CODE-GA41-Z              PIC X(1)
                                               VALUE SPACE.
               10  WK01-INDX-CODE-GA41-F              PIC X(1)
                                               VALUE SPACE.
               10  WK01-INDX-CODE-GA41-A              PIC X(1)
                                               VALUE SPACE.
               10  WK01-INDX-CODE-GA41-V              PIC X(1)
                                               VALUE SPACE.
               10  WK01-INDX-CODE-GA41-O              PIC X(1)
                                               VALUE SPACE.
               10  WK01-INDX-CODE-GA41       PIC X(10)
                                               VALUE SPACES.
               10  WK01-FRM-ACCT-INDX-CD-G41-Z              PIC X(1)
                                               VALUE SPACE.
               10  WK01-FRM-ACCT-INDX-CD-G41-F              PIC X(1)
                                               VALUE SPACE.
               10  WK01-FRM-ACCT-INDX-CD-G41-A              PIC X(1)
                                               VALUE SPACE.
               10  WK01-FRM-ACCT-INDX-CD-G41-V              PIC X(1)
                                               VALUE SPACE.
               10  WK01-FRM-ACCT-INDX-CD-G41-O              PIC X(1)
                                               VALUE SPACE.
               10  WK01-FRM-ACCT-INDX-CD-G41       PIC X(10)
                                               VALUE SPACES.
               10  WK01-CODE-GA4B-Z              PIC X(1)
                                               VALUE SPACE.
               10  WK01-CODE-GA4B-F              PIC X(1)
                                               VALUE SPACE.
               10  WK01-CODE-GA4B-A              PIC X(1)
                                               VALUE SPACE.
               10  WK01-CODE-GA4B-V              PIC X(1)
                                               VALUE SPACE.
               10  WK01-CODE-GA4B-O              PIC X(1)
                                               VALUE SPACE.
               10  WK01-CODE-GA4B       PIC X(6)
                                               VALUE SPACES.
               10  WK01-FROM-FUND-CODE-GA41-Z              PIC X(1)
                                               VALUE SPACE.
               10  WK01-FROM-FUND-CODE-GA41-F              PIC X(1)
                                               VALUE SPACE.
               10  WK01-FROM-FUND-CODE-GA41-A              PIC X(1)
                                               VALUE SPACE.
               10  WK01-FROM-FUND-CODE-GA41-V              PIC X(1)
                                               VALUE SPACE.
               10  WK01-FROM-FUND-CODE-GA41-O              PIC X(1)
                                               VALUE SPACE.
               10  WK01-FROM-FUND-CODE-GA41       PIC X(6)
                                               VALUE SPACES.
               10  WK01-ALL-FLAG-GA41-Z              PIC X(1)
                                               VALUE SPACE.
               10  WK01-ALL-FLAG-GA41-F              PIC X(1)
                                               VALUE SPACE.
               10  WK01-ALL-FLAG-GA41-A              PIC X(1)
                                               VALUE SPACE.
               10  WK01-ALL-FLAG-GA41-V              PIC X(1)
                                               VALUE SPACE.
               10  WK01-ALL-FLAG-GA41-O              PIC X(1)
                                               VALUE SPACE.
               10  WK01-ALL-FLAG-GA41       PIC X(1)
                                               VALUE SPACES.
               10  WK01-CODE-GA4C-Z              PIC X(1)
                                               VALUE SPACE.
               10  WK01-CODE-GA4C-F              PIC X(1)
                                               VALUE SPACE.
               10  WK01-CODE-GA4C-A              PIC X(1)
                                               VALUE SPACE.
               10  WK01-CODE-GA4C-V              PIC X(1)
                                               VALUE SPACE.
               10  WK01-CODE-GA4C-O              PIC X(1)
                                               VALUE SPACE.
               10  WK01-CODE-GA4C       PIC X(6)
                                               VALUE SPACES.
               10  WK01-FROM-ORGZN-CODE-GA41-Z              PIC X(1)
                                               VALUE SPACE.
               10  WK01-FROM-ORGZN-CODE-GA41-F              PIC X(1)
                                               VALUE SPACE.
               10  WK01-FROM-ORGZN-CODE-GA41-A              PIC X(1)
                                               VALUE SPACE.
               10  WK01-FROM-ORGZN-CODE-GA41-V              PIC X(1)
                                               VALUE SPACE.
               10  WK01-FROM-ORGZN-CODE-GA41-O              PIC X(1)
                                               VALUE SPACE.
               10  WK01-FROM-ORGZN-CODE-GA41       PIC X(6)
                                               VALUE SPACES.
               10  WK01-LIT-GA41-Z              PIC X(1)
                                               VALUE SPACE.
               10  WK01-LIT-GA41-F              PIC X(1)
                                               VALUE SPACE.
               10  WK01-LIT-GA41-A              PIC X(1)
                                               VALUE SPACE.
               10  WK01-LIT-GA41-V              PIC X(1)
                                               VALUE SPACE.
               10  WK01-LIT-GA41-O              PIC X(1)
                                               VALUE SPACE.
               10  WK01-LIT-GA41       PIC X(10)
                                               VALUE SPACES.
               10  WK01-DELETE-GA41-Z              PIC X(1)
                                               VALUE SPACE.
               10  WK01-DELETE-GA41-F              PIC X(1)
                                               VALUE SPACE.
               10  WK01-DELETE-GA41-A              PIC X(1)
                                               VALUE SPACE.
               10  WK01-DELETE-GA41-V              PIC X(1)
                                               VALUE SPACE.
               10  WK01-DELETE-GA41-O              PIC X(1)
                                               VALUE SPACE.
               10  WK01-DELETE-GA41       PIC X(1)
                                               VALUE SPACES.
               10  WK01-CODE-GA4D-Z              PIC X(1)
                                               VALUE SPACE.
               10  WK01-CODE-GA4D-F              PIC X(1)
                                               VALUE SPACE.
               10  WK01-CODE-GA4D-A              PIC X(1)
                                               VALUE SPACE.
               10  WK01-CODE-GA4D-V              PIC X(1)
                                               VALUE SPACE.
               10  WK01-CODE-GA4D-O              PIC X(1)
                                               VALUE SPACE.
               10  WK01-CODE-GA4D       PIC X(6)
                                               VALUE SPACES.
               10  WK01-FROM-PRGRM-CODE-GA41-Z              PIC X(1)
                                               VALUE SPACE.
               10  WK01-FROM-PRGRM-CODE-GA41-F              PIC X(1)
                                               VALUE SPACE.
               10  WK01-FROM-PRGRM-CODE-GA41-A              PIC X(1)
                                               VALUE SPACE.
               10  WK01-FROM-PRGRM-CODE-GA41-V              PIC X(1)
                                               VALUE SPACE.
               10  WK01-FROM-PRGRM-CODE-GA41-O              PIC X(1)
                                               VALUE SPACE.
               10  WK01-FROM-PRGRM-CODE-GA41       PIC X(6)
                                               VALUE SPACES.
               10  WK01-CODE-GA411-Z              PIC X(1)
                                               VALUE SPACE.
               10  WK01-CODE-GA411-F              PIC X(1)
                                               VALUE SPACE.
               10  WK01-CODE-GA411-A              PIC X(1)
                                               VALUE SPACE.
               10  WK01-CODE-GA411-V              PIC X(1)
                                               VALUE SPACE.
               10  WK01-CODE-GA411-O              PIC X(1)
                                               VALUE SPACE.
               10  WK01-CODE-GA411       PIC X(1)
                                               VALUE SPACES.
               10  WK01-STATUS-GA411-Z              PIC X(1)
                                               VALUE SPACE.
               10  WK01-STATUS-GA411-F              PIC X(1)
                                               VALUE SPACE.
               10  WK01-STATUS-GA411-A              PIC X(1)
                                               VALUE SPACE.
               10  WK01-STATUS-GA411-V              PIC X(1)
                                               VALUE SPACE.
               10  WK01-STATUS-GA411-O              PIC X(1)
                                               VALUE SPACE.
               10  WK01-STATUS-GA411       PIC X(1)
                                               VALUE SPACES.
               10  WK01-CODE-GA4A1-Z              PIC X(1)
                                               VALUE SPACE.
               10  WK01-CODE-GA4A1-F              PIC X(1)
                                               VALUE SPACE.
               10  WK01-CODE-GA4A1-A              PIC X(1)
                                               VALUE SPACE.
               10  WK01-CODE-GA4A1-V              PIC X(1)
                                               VALUE SPACE.
               10  WK01-CODE-GA4A1-O              PIC X(1)
                                               VALUE SPACE.
               10  WK01-CODE-GA4A1       PIC X(6)
                                               VALUE SPACES.
               10  WK01-CODE-TITLE-4034-GA411-Z              PIC X(1)
                                               VALUE SPACE.
               10  WK01-CODE-TITLE-4034-GA411-F              PIC X(1)
                                               VALUE SPACE.
               10  WK01-CODE-TITLE-4034-GA411-A              PIC X(1)
                                               VALUE SPACE.
               10  WK01-CODE-TITLE-4034-GA411-V              PIC X(1)
                                               VALUE SPACE.
               10  WK01-CODE-TITLE-4034-GA411-O              PIC X(1)
                                               VALUE SPACE.
               10  WK01-CODE-TITLE-4034-GA411       PIC X(35)
                                               VALUE SPACES.
               10  WK01-ACTVY-DATE-GA411-Z              PIC X(1)
                                               VALUE SPACE.
               10  WK01-ACTVY-DATE-GA411-F              PIC X(1)
                                               VALUE SPACE.
               10  WK01-ACTVY-DATE-GA411-A              PIC X(1)
                                               VALUE SPACE.
               10  WK01-ACTVY-DATE-GA411-V              PIC X(1)
                                               VALUE SPACE.
               10  WK01-ACTVY-DATE-GA411-O              PIC X(1)
                                               VALUE SPACE.
               10  WK01-ACTVY-DATE-GA411       PIC X(6)
                                               VALUE SPACES.
               10  WK01-STAMP-GA411-Z              PIC X(1)
                                               VALUE SPACE.
               10  WK01-STAMP-GA411-F              PIC X(1)
                                               VALUE SPACE.
               10  WK01-STAMP-GA411-A              PIC X(1)
                                               VALUE SPACE.
               10  WK01-STAMP-GA411-V              PIC X(1)
                                               VALUE SPACE.
               10  WK01-STAMP-GA411-O              PIC X(1)
                                               VALUE SPACE.
               10  WK01-STAMP-GA411       PIC X(4)
                                               VALUE SPACES.
               10  WK01-PM-FLAG-GA411-Z              PIC X(1)
                                               VALUE SPACE.
               10  WK01-PM-FLAG-GA411-F              PIC X(1)
                                               VALUE SPACE.
               10  WK01-PM-FLAG-GA411-A              PIC X(1)
                                               VALUE SPACE.
               10  WK01-PM-FLAG-GA411-V              PIC X(1)
                                               VALUE SPACE.
               10  WK01-PM-FLAG-GA411-O              PIC X(1)
                                               VALUE SPACE.
               10  WK01-PM-FLAG-GA411       PIC X(1)
                                               VALUE SPACES.
               10  WK01-CODE-GA412-Z              PIC X(1)
                                               VALUE SPACE.
               10  WK01-CODE-GA412-F              PIC X(1)
                                               VALUE SPACE.
               10  WK01-CODE-GA412-A              PIC X(1)
                                               VALUE SPACE.
               10  WK01-CODE-GA412-V              PIC X(1)
                                               VALUE SPACE.
               10  WK01-CODE-GA412-O              PIC X(1)
                                               VALUE SPACE.
               10  WK01-CODE-GA412       PIC X(1)
                                               VALUE SPACES.
               10  WK01-STATUS-GA412-Z              PIC X(1)
                                               VALUE SPACE.
               10  WK01-STATUS-GA412-F              PIC X(1)
                                               VALUE SPACE.
               10  WK01-STATUS-GA412-A              PIC X(1)
                                               VALUE SPACE.
               10  WK01-STATUS-GA412-V              PIC X(1)
                                               VALUE SPACE.
               10  WK01-STATUS-GA412-O              PIC X(1)
                                               VALUE SPACE.
               10  WK01-STATUS-GA412       PIC X(1)
                                               VALUE SPACES.
               10  WK01-CODE-GA4A2-Z              PIC X(1)
                                               VALUE SPACE.
               10  WK01-CODE-GA4A2-F              PIC X(1)
                                               VALUE SPACE.
               10  WK01-CODE-GA4A2-A              PIC X(1)
                                               VALUE SPACE.
               10  WK01-CODE-GA4A2-V              PIC X(1)
                                               VALUE SPACE.
               10  WK01-CODE-GA4A2-O              PIC X(1)
                                               VALUE SPACE.
               10  WK01-CODE-GA4A2       PIC X(6)
                                               VALUE SPACES.
               10  WK01-CODE-TITLE-4034-GA412-Z              PIC X(1)
                                               VALUE SPACE.
               10  WK01-CODE-TITLE-4034-GA412-F              PIC X(1)
                                               VALUE SPACE.
               10  WK01-CODE-TITLE-4034-GA412-A              PIC X(1)
                                               VALUE SPACE.
               10  WK01-CODE-TITLE-4034-GA412-V              PIC X(1)
                                               VALUE SPACE.
               10  WK01-CODE-TITLE-4034-GA412-O              PIC X(1)
                                               VALUE SPACE.
               10  WK01-CODE-TITLE-4034-GA412       PIC X(35)
                                               VALUE SPACES.
               10  WK01-ACTVY-DATE-GA412-Z              PIC X(1)
                                               VALUE SPACE.
               10  WK01-ACTVY-DATE-GA412-F              PIC X(1)
                                               VALUE SPACE.
               10  WK01-ACTVY-DATE-GA412-A              PIC X(1)
                                               VALUE SPACE.
               10  WK01-ACTVY-DATE-GA412-V              PIC X(1)
                                               VALUE SPACE.
               10  WK01-ACTVY-DATE-GA412-O              PIC X(1)
                                               VALUE SPACE.
               10  WK01-ACTVY-DATE-GA412       PIC X(6)
                                               VALUE SPACES.
               10  WK01-STAMP-GA412-Z              PIC X(1)
                                               VALUE SPACE.
               10  WK01-STAMP-GA412-F              PIC X(1)
                                               VALUE SPACE.
               10  WK01-STAMP-GA412-A              PIC X(1)
                                               VALUE SPACE.
               10  WK01-STAMP-GA412-V              PIC X(1)
                                               VALUE SPACE.
               10  WK01-STAMP-GA412-O              PIC X(1)
                                               VALUE SPACE.
               10  WK01-STAMP-GA412       PIC X(4)
                                               VALUE SPACES.
               10  WK01-PM-FLAG-GA412-Z              PIC X(1)
                                               VALUE SPACE.
               10  WK01-PM-FLAG-GA412-F              PIC X(1)
                                               VALUE SPACE.
               10  WK01-PM-FLAG-GA412-A              PIC X(1)
                                               VALUE SPACE.
               10  WK01-PM-FLAG-GA412-V              PIC X(1)
                                               VALUE SPACE.
               10  WK01-PM-FLAG-GA412-O              PIC X(1)
                                               VALUE SPACE.
               10  WK01-PM-FLAG-GA412       PIC X(1)
                                               VALUE SPACES.
               10  WK01-CODE-GA413-Z              PIC X(1)
                                               VALUE SPACE.
               10  WK01-CODE-GA413-F              PIC X(1)
                                               VALUE SPACE.
               10  WK01-CODE-GA413-A              PIC X(1)
                                               VALUE SPACE.
               10  WK01-CODE-GA413-V              PIC X(1)
                                               VALUE SPACE.
               10  WK01-CODE-GA413-O              PIC X(1)
                                               VALUE SPACE.
               10  WK01-CODE-GA413       PIC X(1)
                                               VALUE SPACES.
               10  WK01-STATUS-GA413-Z              PIC X(1)
                                               VALUE SPACE.
               10  WK01-STATUS-GA413-F              PIC X(1)
                                               VALUE SPACE.
               10  WK01-STATUS-GA413-A              PIC X(1)
                                               VALUE SPACE.
               10  WK01-STATUS-GA413-V              PIC X(1)
                                               VALUE SPACE.
               10  WK01-STATUS-GA413-O              PIC X(1)
                                               VALUE SPACE.
               10  WK01-STATUS-GA413       PIC X(1)
                                               VALUE SPACES.
               10  WK01-CODE-GA4A3-Z              PIC X(1)
                                               VALUE SPACE.
               10  WK01-CODE-GA4A3-F              PIC X(1)
                                               VALUE SPACE.
               10  WK01-CODE-GA4A3-A              PIC X(1)
                                               VALUE SPACE.
               10  WK01-CODE-GA4A3-V              PIC X(1)
                                               VALUE SPACE.
               10  WK01-CODE-GA4A3-O              PIC X(1)
                                               VALUE SPACE.
               10  WK01-CODE-GA4A3       PIC X(6)
                                               VALUE SPACES.
               10  WK01-CODE-TITLE-4034-GA413-Z              PIC X(1)
                                               VALUE SPACE.
               10  WK01-CODE-TITLE-4034-GA413-F              PIC X(1)
                                               VALUE SPACE.
               10  WK01-CODE-TITLE-4034-GA413-A              PIC X(1)
                                               VALUE SPACE.
               10  WK01-CODE-TITLE-4034-GA413-V              PIC X(1)
                                               VALUE SPACE.
               10  WK01-CODE-TITLE-4034-GA413-O              PIC X(1)
                                               VALUE SPACE.
               10  WK01-CODE-TITLE-4034-GA413       PIC X(35)
                                               VALUE SPACES.
               10  WK01-ACTVY-DATE-GA413-Z              PIC X(1)
                                               VALUE SPACE.
               10  WK01-ACTVY-DATE-GA413-F              PIC X(1)
                                               VALUE SPACE.
               10  WK01-ACTVY-DATE-GA413-A              PIC X(1)
                                               VALUE SPACE.
               10  WK01-ACTVY-DATE-GA413-V              PIC X(1)
                                               VALUE SPACE.
               10  WK01-ACTVY-DATE-GA413-O              PIC X(1)
                                               VALUE SPACE.
               10  WK01-ACTVY-DATE-GA413       PIC X(6)
                                               VALUE SPACES.
               10  WK01-STAMP-GA413-Z              PIC X(1)
                                               VALUE SPACE.
               10  WK01-STAMP-GA413-F              PIC X(1)
                                               VALUE SPACE.
               10  WK01-STAMP-GA413-A              PIC X(1)
                                               VALUE SPACE.
               10  WK01-STAMP-GA413-V              PIC X(1)
                                               VALUE SPACE.
               10  WK01-STAMP-GA413-O              PIC X(1)
                                               VALUE SPACE.
               10  WK01-STAMP-GA413       PIC X(4)
                                               VALUE SPACES.
               10  WK01-PM-FLAG-GA413-Z              PIC X(1)
                                               VALUE SPACE.
               10  WK01-PM-FLAG-GA413-F              PIC X(1)
                                               VALUE SPACE.
               10  WK01-PM-FLAG-GA413-A              PIC X(1)
                                               VALUE SPACE.
               10  WK01-PM-FLAG-GA413-V              PIC X(1)
                                               VALUE SPACE.
               10  WK01-PM-FLAG-GA413-O              PIC X(1)
                                               VALUE SPACE.
               10  WK01-PM-FLAG-GA413       PIC X(1)
                                               VALUE SPACES.
               10  WK01-CODE-GA414-Z              PIC X(1)
                                               VALUE SPACE.
               10  WK01-CODE-GA414-F              PIC X(1)
                                               VALUE SPACE.
               10  WK01-CODE-GA414-A              PIC X(1)
                                               VALUE SPACE.
               10  WK01-CODE-GA414-V              PIC X(1)
                                               VALUE SPACE.
               10  WK01-CODE-GA414-O              PIC X(1)
                                               VALUE SPACE.
               10  WK01-CODE-GA414       PIC X(1)
                                               VALUE SPACES.
               10  WK01-STATUS-GA414-Z              PIC X(1)
                                               VALUE SPACE.
               10  WK01-STATUS-GA414-F              PIC X(1)
                                               VALUE SPACE.
               10  WK01-STATUS-GA414-A              PIC X(1)
                                               VALUE SPACE.
               10  WK01-STATUS-GA414-V              PIC X(1)
                                               VALUE SPACE.
               10  WK01-STATUS-GA414-O              PIC X(1)
                                               VALUE SPACE.
               10  WK01-STATUS-GA414       PIC X(1)
                                               VALUE SPACES.
               10  WK01-CODE-GA4A4-Z              PIC X(1)
                                               VALUE SPACE.
               10  WK01-CODE-GA4A4-F              PIC X(1)
                                               VALUE SPACE.
               10  WK01-CODE-GA4A4-A              PIC X(1)
                                               VALUE SPACE.
               10  WK01-CODE-GA4A4-V              PIC X(1)
                                               VALUE SPACE.
               10  WK01-CODE-GA4A4-O              PIC X(1)
                                               VALUE SPACE.
               10  WK01-CODE-GA4A4       PIC X(6)
                                               VALUE SPACES.
               10  WK01-CODE-TITLE-4034-GA414-Z              PIC X(1)
                                               VALUE SPACE.
               10  WK01-CODE-TITLE-4034-GA414-F              PIC X(1)
                                               VALUE SPACE.
               10  WK01-CODE-TITLE-4034-GA414-A              PIC X(1)
                                               VALUE SPACE.
               10  WK01-CODE-TITLE-4034-GA414-V              PIC X(1)
                                               VALUE SPACE.
               10  WK01-CODE-TITLE-4034-GA414-O              PIC X(1)
                                               VALUE SPACE.
               10  WK01-CODE-TITLE-4034-GA414       PIC X(35)
                                               VALUE SPACES.
               10  WK01-ACTVY-DATE-GA414-Z              PIC X(1)
                                               VALUE SPACE.
               10  WK01-ACTVY-DATE-GA414-F              PIC X(1)
                                               VALUE SPACE.
               10  WK01-ACTVY-DATE-GA414-A              PIC X(1)
                                               VALUE SPACE.
               10  WK01-ACTVY-DATE-GA414-V              PIC X(1)
                                               VALUE SPACE.
               10  WK01-ACTVY-DATE-GA414-O              PIC X(1)
                                               VALUE SPACE.
               10  WK01-ACTVY-DATE-GA414       PIC X(6)
                                               VALUE SPACES.
               10  WK01-STAMP-GA414-Z              PIC X(1)
                                               VALUE SPACE.
               10  WK01-STAMP-GA414-F              PIC X(1)
                                               VALUE SPACE.
               10  WK01-STAMP-GA414-A              PIC X(1)
                                               VALUE SPACE.
               10  WK01-STAMP-GA414-V              PIC X(1)
                                               VALUE SPACE.
               10  WK01-STAMP-GA414-O              PIC X(1)
                                               VALUE SPACE.
               10  WK01-STAMP-GA414       PIC X(4)
                                               VALUE SPACES.
               10  WK01-PM-FLAG-GA414-Z              PIC X(1)
                                               VALUE SPACE.
               10  WK01-PM-FLAG-GA414-F              PIC X(1)
                                               VALUE SPACE.
               10  WK01-PM-FLAG-GA414-A              PIC X(1)
                                               VALUE SPACE.
               10  WK01-PM-FLAG-GA414-V              PIC X(1)
                                               VALUE SPACE.
               10  WK01-PM-FLAG-GA414-O              PIC X(1)
                                               VALUE SPACE.
               10  WK01-PM-FLAG-GA414       PIC X(1)
                                               VALUE SPACES.
               10  WK01-CODE-GA415-Z              PIC X(1)
                                               VALUE SPACE.
               10  WK01-CODE-GA415-F              PIC X(1)
                                               VALUE SPACE.
               10  WK01-CODE-GA415-A              PIC X(1)
                                               VALUE SPACE.
               10  WK01-CODE-GA415-V              PIC X(1)
                                               VALUE SPACE.
               10  WK01-CODE-GA415-O              PIC X(1)
                                               VALUE SPACE.
               10  WK01-CODE-GA415       PIC X(1)
                                               VALUE SPACES.
               10  WK01-STATUS-GA415-Z              PIC X(1)
                                               VALUE SPACE.
               10  WK01-STATUS-GA415-F              PIC X(1)
                                               VALUE SPACE.
               10  WK01-STATUS-GA415-A              PIC X(1)
                                               VALUE SPACE.
               10  WK01-STATUS-GA415-V              PIC X(1)
                                               VALUE SPACE.
               10  WK01-STATUS-GA415-O              PIC X(1)
                                               VALUE SPACE.
               10  WK01-STATUS-GA415       PIC X(1)
                                               VALUE SPACES.
               10  WK01-CODE-GA4A5-Z              PIC X(1)
                                               VALUE SPACE.
               10  WK01-CODE-GA4A5-F              PIC X(1)
                                               VALUE SPACE.
               10  WK01-CODE-GA4A5-A              PIC X(1)
                                               VALUE SPACE.
               10  WK01-CODE-GA4A5-V              PIC X(1)
                                               VALUE SPACE.
               10  WK01-CODE-GA4A5-O              PIC X(1)
                                               VALUE SPACE.
               10  WK01-CODE-GA4A5       PIC X(6)
                                               VALUE SPACES.
               10  WK01-CODE-TITLE-4034-GA415-Z              PIC X(1)
                                               VALUE SPACE.
               10  WK01-CODE-TITLE-4034-GA415-F              PIC X(1)
                                               VALUE SPACE.
               10  WK01-CODE-TITLE-4034-GA415-A              PIC X(1)
                                               VALUE SPACE.
               10  WK01-CODE-TITLE-4034-GA415-V              PIC X(1)
                                               VALUE SPACE.
               10  WK01-CODE-TITLE-4034-GA415-O              PIC X(1)
                                               VALUE SPACE.
               10  WK01-CODE-TITLE-4034-GA415       PIC X(35)
                                               VALUE SPACES.
               10  WK01-ACTVY-DATE-GA415-Z              PIC X(1)
                                               VALUE SPACE.
               10  WK01-ACTVY-DATE-GA415-F              PIC X(1)
                                               VALUE SPACE.
               10  WK01-ACTVY-DATE-GA415-A              PIC X(1)
                                               VALUE SPACE.
               10  WK01-ACTVY-DATE-GA415-V              PIC X(1)
                                               VALUE SPACE.
               10  WK01-ACTVY-DATE-GA415-O              PIC X(1)
                                               VALUE SPACE.
               10  WK01-ACTVY-DATE-GA415       PIC X(6)
                                               VALUE SPACES.
               10  WK01-STAMP-GA415-Z              PIC X(1)
                                               VALUE SPACE.
               10  WK01-STAMP-GA415-F              PIC X(1)
                                               VALUE SPACE.
               10  WK01-STAMP-GA415-A              PIC X(1)
                                               VALUE SPACE.
               10  WK01-STAMP-GA415-V              PIC X(1)
                                               VALUE SPACE.
               10  WK01-STAMP-GA415-O              PIC X(1)
                                               VALUE SPACE.
               10  WK01-STAMP-GA415       PIC X(4)
                                               VALUE SPACES.
               10  WK01-PM-FLAG-GA415-Z              PIC X(1)
                                               VALUE SPACE.
               10  WK01-PM-FLAG-GA415-F              PIC X(1)
                                               VALUE SPACE.
               10  WK01-PM-FLAG-GA415-A              PIC X(1)
                                               VALUE SPACE.
               10  WK01-PM-FLAG-GA415-V              PIC X(1)
                                               VALUE SPACE.
               10  WK01-PM-FLAG-GA415-O              PIC X(1)
                                               VALUE SPACE.
               10  WK01-PM-FLAG-GA415       PIC X(1)
                                               VALUE SPACES.
               10  WK01-CODE-GA416-Z              PIC X(1)
                                               VALUE SPACE.
               10  WK01-CODE-GA416-F              PIC X(1)
                                               VALUE SPACE.
               10  WK01-CODE-GA416-A              PIC X(1)
                                               VALUE SPACE.
               10  WK01-CODE-GA416-V              PIC X(1)
                                               VALUE SPACE.
               10  WK01-CODE-GA416-O              PIC X(1)
                                               VALUE SPACE.
               10  WK01-CODE-GA416       PIC X(1)
                                               VALUE SPACES.
               10  WK01-STATUS-GA416-Z              PIC X(1)
                                               VALUE SPACE.
               10  WK01-STATUS-GA416-F              PIC X(1)
                                               VALUE SPACE.
               10  WK01-STATUS-GA416-A              PIC X(1)
                                               VALUE SPACE.
               10  WK01-STATUS-GA416-V              PIC X(1)
                                               VALUE SPACE.
               10  WK01-STATUS-GA416-O              PIC X(1)
                                               VALUE SPACE.
               10  WK01-STATUS-GA416       PIC X(1)
                                               VALUE SPACES.
               10  WK01-CODE-GA4A6-Z              PIC X(1)
                                               VALUE SPACE.
               10  WK01-CODE-GA4A6-F              PIC X(1)
                                               VALUE SPACE.
               10  WK01-CODE-GA4A6-A              PIC X(1)
                                               VALUE SPACE.
               10  WK01-CODE-GA4A6-V              PIC X(1)
                                               VALUE SPACE.
               10  WK01-CODE-GA4A6-O              PIC X(1)
                                               VALUE SPACE.
               10  WK01-CODE-GA4A6       PIC X(6)
                                               VALUE SPACES.
               10  WK01-CODE-TITLE-4034-GA416-Z              PIC X(1)
                                               VALUE SPACE.
               10  WK01-CODE-TITLE-4034-GA416-F              PIC X(1)
                                               VALUE SPACE.
               10  WK01-CODE-TITLE-4034-GA416-A              PIC X(1)
                                               VALUE SPACE.
               10  WK01-CODE-TITLE-4034-GA416-V              PIC X(1)
                                               VALUE SPACE.
               10  WK01-CODE-TITLE-4034-GA416-O              PIC X(1)
                                               VALUE SPACE.
               10  WK01-CODE-TITLE-4034-GA416       PIC X(35)
                                               VALUE SPACES.
               10  WK01-ACTVY-DATE-GA416-Z              PIC X(1)
                                               VALUE SPACE.
               10  WK01-ACTVY-DATE-GA416-F              PIC X(1)
                                               VALUE SPACE.
               10  WK01-ACTVY-DATE-GA416-A              PIC X(1)
                                               VALUE SPACE.
               10  WK01-ACTVY-DATE-GA416-V              PIC X(1)
                                               VALUE SPACE.
               10  WK01-ACTVY-DATE-GA416-O              PIC X(1)
                                               VALUE SPACE.
               10  WK01-ACTVY-DATE-GA416       PIC X(6)
                                               VALUE SPACES.
               10  WK01-STAMP-GA416-Z              PIC X(1)
                                               VALUE SPACE.
               10  WK01-STAMP-GA416-F              PIC X(1)
                                               VALUE SPACE.
               10  WK01-STAMP-GA416-A              PIC X(1)
                                               VALUE SPACE.
               10  WK01-STAMP-GA416-V              PIC X(1)
                                               VALUE SPACE.
               10  WK01-STAMP-GA416-O              PIC X(1)
                                               VALUE SPACE.
               10  WK01-STAMP-GA416       PIC X(4)
                                               VALUE SPACES.
               10  WK01-PM-FLAG-GA416-Z              PIC X(1)
                                               VALUE SPACE.
               10  WK01-PM-FLAG-GA416-F              PIC X(1)
                                               VALUE SPACE.
               10  WK01-PM-FLAG-GA416-A              PIC X(1)
                                               VALUE SPACE.
               10  WK01-PM-FLAG-GA416-V              PIC X(1)
                                               VALUE SPACE.
               10  WK01-PM-FLAG-GA416-O              PIC X(1)
                                               VALUE SPACE.
               10  WK01-PM-FLAG-GA416       PIC X(1)
                                               VALUE SPACES.
               10  WK01-CODE-GA417-Z              PIC X(1)
                                               VALUE SPACE.
               10  WK01-CODE-GA417-F              PIC X(1)
                                               VALUE SPACE.
               10  WK01-CODE-GA417-A              PIC X(1)
                                               VALUE SPACE.
               10  WK01-CODE-GA417-V              PIC X(1)
                                               VALUE SPACE.
               10  WK01-CODE-GA417-O              PIC X(1)
                                               VALUE SPACE.
               10  WK01-CODE-GA417       PIC X(1)
                                               VALUE SPACES.
               10  WK01-STATUS-GA417-Z              PIC X(1)
                                               VALUE SPACE.
               10  WK01-STATUS-GA417-F              PIC X(1)
                                               VALUE SPACE.
               10  WK01-STATUS-GA417-A              PIC X(1)
                                               VALUE SPACE.
               10  WK01-STATUS-GA417-V              PIC X(1)
                                               VALUE SPACE.
               10  WK01-STATUS-GA417-O              PIC X(1)
                                               VALUE SPACE.
               10  WK01-STATUS-GA417       PIC X(1)
                                               VALUE SPACES.
               10  WK01-CODE-GA4A7-Z              PIC X(1)
                                               VALUE SPACE.
               10  WK01-CODE-GA4A7-F              PIC X(1)
                                               VALUE SPACE.
               10  WK01-CODE-GA4A7-A              PIC X(1)
                                               VALUE SPACE.
               10  WK01-CODE-GA4A7-V              PIC X(1)
                                               VALUE SPACE.
               10  WK01-CODE-GA4A7-O              PIC X(1)
                                               VALUE SPACE.
               10  WK01-CODE-GA4A7       PIC X(6)
                                               VALUE SPACES.
               10  WK01-CODE-TITLE-4034-GA417-Z              PIC X(1)
                                               VALUE SPACE.
               10  WK01-CODE-TITLE-4034-GA417-F              PIC X(1)
                                               VALUE SPACE.
               10  WK01-CODE-TITLE-4034-GA417-A              PIC X(1)
                                               VALUE SPACE.
               10  WK01-CODE-TITLE-4034-GA417-V              PIC X(1)
                                               VALUE SPACE.
               10  WK01-CODE-TITLE-4034-GA417-O              PIC X(1)
                                               VALUE SPACE.
               10  WK01-CODE-TITLE-4034-GA417       PIC X(35)
                                               VALUE SPACES.
               10  WK01-ACTVY-DATE-GA417-Z              PIC X(1)
                                               VALUE SPACE.
               10  WK01-ACTVY-DATE-GA417-F              PIC X(1)
                                               VALUE SPACE.
               10  WK01-ACTVY-DATE-GA417-A              PIC X(1)
                                               VALUE SPACE.
               10  WK01-ACTVY-DATE-GA417-V              PIC X(1)
                                               VALUE SPACE.
               10  WK01-ACTVY-DATE-GA417-O              PIC X(1)
                                               VALUE SPACE.
               10  WK01-ACTVY-DATE-GA417       PIC X(6)
                                               VALUE SPACES.
               10  WK01-STAMP-GA417-Z              PIC X(1)
                                               VALUE SPACE.
               10  WK01-STAMP-GA417-F              PIC X(1)
                                               VALUE SPACE.
               10  WK01-STAMP-GA417-A              PIC X(1)
                                               VALUE SPACE.
               10  WK01-STAMP-GA417-V              PIC X(1)
                                               VALUE SPACE.
               10  WK01-STAMP-GA417-O              PIC X(1)
                                               VALUE SPACE.
               10  WK01-STAMP-GA417       PIC X(4)
                                               VALUE SPACES.
               10  WK01-PM-FLAG-GA417-Z              PIC X(1)
                                               VALUE SPACE.
               10  WK01-PM-FLAG-GA417-F              PIC X(1)
                                               VALUE SPACE.
               10  WK01-PM-FLAG-GA417-A              PIC X(1)
                                               VALUE SPACE.
               10  WK01-PM-FLAG-GA417-V              PIC X(1)
                                               VALUE SPACE.
               10  WK01-PM-FLAG-GA417-O              PIC X(1)
                                               VALUE SPACE.
               10  WK01-PM-FLAG-GA417       PIC X(1)
                                               VALUE SPACES.
               10  WK01-CODE-GA418-Z              PIC X(1)
                                               VALUE SPACE.
               10  WK01-CODE-GA418-F              PIC X(1)
                                               VALUE SPACE.
               10  WK01-CODE-GA418-A              PIC X(1)
                                               VALUE SPACE.
               10  WK01-CODE-GA418-V              PIC X(1)
                                               VALUE SPACE.
               10  WK01-CODE-GA418-O              PIC X(1)
                                               VALUE SPACE.
               10  WK01-CODE-GA418       PIC X(1)
                                               VALUE SPACES.
               10  WK01-STATUS-GA418-Z              PIC X(1)
                                               VALUE SPACE.
               10  WK01-STATUS-GA418-F              PIC X(1)
                                               VALUE SPACE.
               10  WK01-STATUS-GA418-A              PIC X(1)
                                               VALUE SPACE.
               10  WK01-STATUS-GA418-V              PIC X(1)
                                               VALUE SPACE.
               10  WK01-STATUS-GA418-O              PIC X(1)
                                               VALUE SPACE.
               10  WK01-STATUS-GA418       PIC X(1)
                                               VALUE SPACES.
               10  WK01-CODE-GA4A8-Z              PIC X(1)
                                               VALUE SPACE.
               10  WK01-CODE-GA4A8-F              PIC X(1)
                                               VALUE SPACE.
               10  WK01-CODE-GA4A8-A              PIC X(1)
                                               VALUE SPACE.
               10  WK01-CODE-GA4A8-V              PIC X(1)
                                               VALUE SPACE.
               10  WK01-CODE-GA4A8-O              PIC X(1)
                                               VALUE SPACE.
               10  WK01-CODE-GA4A8       PIC X(6)
                                               VALUE SPACES.
               10  WK01-CODE-TITLE-4034-GA418-Z              PIC X(1)
                                               VALUE SPACE.
               10  WK01-CODE-TITLE-4034-GA418-F              PIC X(1)
                                               VALUE SPACE.
               10  WK01-CODE-TITLE-4034-GA418-A              PIC X(1)
                                               VALUE SPACE.
               10  WK01-CODE-TITLE-4034-GA418-V              PIC X(1)
                                               VALUE SPACE.
               10  WK01-CODE-TITLE-4034-GA418-O              PIC X(1)
                                               VALUE SPACE.
               10  WK01-CODE-TITLE-4034-GA418       PIC X(35)
                                               VALUE SPACES.
               10  WK01-ACTVY-DATE-GA418-Z              PIC X(1)
                                               VALUE SPACE.
               10  WK01-ACTVY-DATE-GA418-F              PIC X(1)
                                               VALUE SPACE.
               10  WK01-ACTVY-DATE-GA418-A              PIC X(1)
                                               VALUE SPACE.
               10  WK01-ACTVY-DATE-GA418-V              PIC X(1)
                                               VALUE SPACE.
               10  WK01-ACTVY-DATE-GA418-O              PIC X(1)
                                               VALUE SPACE.
               10  WK01-ACTVY-DATE-GA418       PIC X(6)
                                               VALUE SPACES.
               10  WK01-STAMP-GA418-Z              PIC X(1)
                                               VALUE SPACE.
               10  WK01-STAMP-GA418-F              PIC X(1)
                                               VALUE SPACE.
               10  WK01-STAMP-GA418-A              PIC X(1)
                                               VALUE SPACE.
               10  WK01-STAMP-GA418-V              PIC X(1)
                                               VALUE SPACE.
               10  WK01-STAMP-GA418-O              PIC X(1)
                                               VALUE SPACE.
               10  WK01-STAMP-GA418       PIC X(4)
                                               VALUE SPACES.
               10  WK01-PM-FLAG-GA418-Z              PIC X(1)
                                               VALUE SPACE.
               10  WK01-PM-FLAG-GA418-F              PIC X(1)
                                               VALUE SPACE.
               10  WK01-PM-FLAG-GA418-A              PIC X(1)
                                               VALUE SPACE.
               10  WK01-PM-FLAG-GA418-V              PIC X(1)
                                               VALUE SPACE.
               10  WK01-PM-FLAG-GA418-O              PIC X(1)
                                               VALUE SPACE.
               10  WK01-PM-FLAG-GA418       PIC X(1)
                                               VALUE SPACES.
               10  WK01-CODE-GA419-Z              PIC X(1)
                                               VALUE SPACE.
               10  WK01-CODE-GA419-F              PIC X(1)
                                               VALUE SPACE.
               10  WK01-CODE-GA419-A              PIC X(1)
                                               VALUE SPACE.
               10  WK01-CODE-GA419-V              PIC X(1)
                                               VALUE SPACE.
               10  WK01-CODE-GA419-O              PIC X(1)
                                               VALUE SPACE.
               10  WK01-CODE-GA419       PIC X(1)
                                               VALUE SPACES.
               10  WK01-STATUS-GA419-Z              PIC X(1)
                                               VALUE SPACE.
               10  WK01-STATUS-GA419-F              PIC X(1)
                                               VALUE SPACE.
               10  WK01-STATUS-GA419-A              PIC X(1)
                                               VALUE SPACE.
               10  WK01-STATUS-GA419-V              PIC X(1)
                                               VALUE SPACE.
               10  WK01-STATUS-GA419-O              PIC X(1)
                                               VALUE SPACE.
               10  WK01-STATUS-GA419       PIC X(1)
                                               VALUE SPACES.
               10  WK01-CODE-GA4A9-Z              PIC X(1)
                                               VALUE SPACE.
               10  WK01-CODE-GA4A9-F              PIC X(1)
                                               VALUE SPACE.
               10  WK01-CODE-GA4A9-A              PIC X(1)
                                               VALUE SPACE.
               10  WK01-CODE-GA4A9-V              PIC X(1)
                                               VALUE SPACE.
               10  WK01-CODE-GA4A9-O              PIC X(1)
                                               VALUE SPACE.
               10  WK01-CODE-GA4A9       PIC X(6)
                                               VALUE SPACES.
               10  WK01-CODE-TITLE-4034-GA419-Z              PIC X(1)
                                               VALUE SPACE.
               10  WK01-CODE-TITLE-4034-GA419-F              PIC X(1)
                                               VALUE SPACE.
               10  WK01-CODE-TITLE-4034-GA419-A              PIC X(1)
                                               VALUE SPACE.
               10  WK01-CODE-TITLE-4034-GA419-V              PIC X(1)
                                               VALUE SPACE.
               10  WK01-CODE-TITLE-4034-GA419-O              PIC X(1)
                                               VALUE SPACE.
               10  WK01-CODE-TITLE-4034-GA419       PIC X(35)
                                               VALUE SPACES.
               10  WK01-ACTVY-DATE-GA419-Z              PIC X(1)
                                               VALUE SPACE.
               10  WK01-ACTVY-DATE-GA419-F              PIC X(1)
                                               VALUE SPACE.
               10  WK01-ACTVY-DATE-GA419-A              PIC X(1)
                                               VALUE SPACE.
               10  WK01-ACTVY-DATE-GA419-V              PIC X(1)
                                               VALUE SPACE.
               10  WK01-ACTVY-DATE-GA419-O              PIC X(1)
                                               VALUE SPACE.
               10  WK01-ACTVY-DATE-GA419       PIC X(6)
                                               VALUE SPACES.
               10  WK01-STAMP-GA419-Z              PIC X(1)
                                               VALUE SPACE.
               10  WK01-STAMP-GA419-F              PIC X(1)
                                               VALUE SPACE.
               10  WK01-STAMP-GA419-A              PIC X(1)
                                               VALUE SPACE.
               10  WK01-STAMP-GA419-V              PIC X(1)
                                               VALUE SPACE.
               10  WK01-STAMP-GA419-O              PIC X(1)
                                               VALUE SPACE.
               10  WK01-STAMP-GA419       PIC X(4)
                                               VALUE SPACES.
               10  WK01-PM-FLAG-GA419-Z              PIC X(1)
                                               VALUE SPACE.
               10  WK01-PM-FLAG-GA419-F              PIC X(1)
                                               VALUE SPACE.
               10  WK01-PM-FLAG-GA419-A              PIC X(1)
                                               VALUE SPACE.
               10  WK01-PM-FLAG-GA419-V              PIC X(1)
                                               VALUE SPACE.
               10  WK01-PM-FLAG-GA419-O              PIC X(1)
                                               VALUE SPACE.
               10  WK01-PM-FLAG-GA419       PIC X(1)
                                               VALUE SPACES.
               10  WK01-CODE-GA4110-Z              PIC X(1)
                                               VALUE SPACE.
               10  WK01-CODE-GA4110-F              PIC X(1)
                                               VALUE SPACE.
               10  WK01-CODE-GA4110-A              PIC X(1)
                                               VALUE SPACE.
               10  WK01-CODE-GA4110-V              PIC X(1)
                                               VALUE SPACE.
               10  WK01-CODE-GA4110-O              PIC X(1)
                                               VALUE SPACE.
               10  WK01-CODE-GA4110       PIC X(1)
                                               VALUE SPACES.
               10  WK01-STATUS-GA4110-Z              PIC X(1)
                                               VALUE SPACE.
               10  WK01-STATUS-GA4110-F              PIC X(1)
                                               VALUE SPACE.
               10  WK01-STATUS-GA4110-A              PIC X(1)
                                               VALUE SPACE.
               10  WK01-STATUS-GA4110-V              PIC X(1)
                                               VALUE SPACE.
               10  WK01-STATUS-GA4110-O              PIC X(1)
                                               VALUE SPACE.
               10  WK01-STATUS-GA4110       PIC X(1)
                                               VALUE SPACES.
               10  WK01-CODE-GA4A10-Z              PIC X(1)
                                               VALUE SPACE.
               10  WK01-CODE-GA4A10-F              PIC X(1)
                                               VALUE SPACE.
               10  WK01-CODE-GA4A10-A              PIC X(1)
                                               VALUE SPACE.
               10  WK01-CODE-GA4A10-V              PIC X(1)
                                               VALUE SPACE.
               10  WK01-CODE-GA4A10-O              PIC X(1)
                                               VALUE SPACE.
               10  WK01-CODE-GA4A10       PIC X(6)
                                               VALUE SPACES.
               10  WK01-CODE-TITLE-4034-GA4110-Z              PIC X(1)
                                               VALUE SPACE.
               10  WK01-CODE-TITLE-4034-GA4110-F              PIC X(1)
                                               VALUE SPACE.
               10  WK01-CODE-TITLE-4034-GA4110-A              PIC X(1)
                                               VALUE SPACE.
               10  WK01-CODE-TITLE-4034-GA4110-V              PIC X(1)
                                               VALUE SPACE.
               10  WK01-CODE-TITLE-4034-GA4110-O              PIC X(1)
                                               VALUE SPACE.
               10  WK01-CODE-TITLE-4034-GA4110       PIC X(35)
                                               VALUE SPACES.
               10  WK01-ACTVY-DATE-GA4110-Z              PIC X(1)
                                               VALUE SPACE.
               10  WK01-ACTVY-DATE-GA4110-F              PIC X(1)
                                               VALUE SPACE.
               10  WK01-ACTVY-DATE-GA4110-A              PIC X(1)
                                               VALUE SPACE.
               10  WK01-ACTVY-DATE-GA4110-V              PIC X(1)
                                               VALUE SPACE.
               10  WK01-ACTVY-DATE-GA4110-O              PIC X(1)
                                               VALUE SPACE.
               10  WK01-ACTVY-DATE-GA4110       PIC X(6)
                                               VALUE SPACES.
               10  WK01-STAMP-GA4110-Z              PIC X(1)
                                               VALUE SPACE.
               10  WK01-STAMP-GA4110-F              PIC X(1)
                                               VALUE SPACE.
               10  WK01-STAMP-GA4110-A              PIC X(1)
                                               VALUE SPACE.
               10  WK01-STAMP-GA4110-V              PIC X(1)
                                               VALUE SPACE.
               10  WK01-STAMP-GA4110-O              PIC X(1)
                                               VALUE SPACE.
               10  WK01-STAMP-GA4110       PIC X(4)
                                               VALUE SPACES.
               10  WK01-PM-FLAG-GA4110-Z              PIC X(1)
                                               VALUE SPACE.
               10  WK01-PM-FLAG-GA4110-F              PIC X(1)
                                               VALUE SPACE.
               10  WK01-PM-FLAG-GA4110-A              PIC X(1)
                                               VALUE SPACE.
               10  WK01-PM-FLAG-GA4110-V              PIC X(1)
                                               VALUE SPACE.
               10  WK01-PM-FLAG-GA4110-O              PIC X(1)
                                               VALUE SPACE.
               10  WK01-PM-FLAG-GA4110       PIC X(1)
                                               VALUE SPACES.
               10  WK01-ACCT-CODE-GA41-Z              PIC X(1)
                                               VALUE SPACE.
               10  WK01-ACCT-CODE-GA41-F              PIC X(1)
                                               VALUE SPACE.
               10  WK01-ACCT-CODE-GA41-A              PIC X(1)
                                               VALUE SPACE.
               10  WK01-ACCT-CODE-GA41-V              PIC X(1)
                                               VALUE SPACE.
               10  WK01-ACCT-CODE-GA41-O              PIC X(1)
                                               VALUE SPACE.
               10  WK01-ACCT-CODE-GA41       PIC X(6)
                                               VALUE SPACES.
               10  WK01-ZZMESSAGE-Z              PIC X(1)
                                               VALUE SPACE.
               10  WK01-ZZMESSAGE-F              PIC X(1)
                                               VALUE SPACE.
               10  WK01-ZZMESSAGE-A              PIC X(1)
                                               VALUE SPACE.
               10  WK01-ZZMESSAGE-V              PIC X(1)
                                               VALUE SPACE.
               10  WK01-ZZMESSAGE-O              PIC X(1)
                                               VALUE SPACE.
               10  WK01-ZZMESSAGE       PIC X(160)
                                               VALUE SPACES.
               10  WK01-PASSED-ONE-Z              PIC X(1)
                                               VALUE SPACE.
               10  WK01-PASSED-ONE-F              PIC X(1)
                                               VALUE SPACE.
               10  WK01-PASSED-ONE-A              PIC X(1)
                                               VALUE SPACE.
               10  WK01-PASSED-ONE-V              PIC X(1)
                                               VALUE SPACE.
               10  WK01-PASSED-ONE-O              PIC X(1)
                                               VALUE SPACE.
               10  WK01-PASSED-ONE       PIC X(32)
                                               VALUE SPACES.
               10  WK01-MAP-RESPONSE-Z              PIC X(1)
                                               VALUE SPACE.
               10  WK01-MAP-RESPONSE-F              PIC X(1)
                                               VALUE SPACE.
               10  WK01-MAP-RESPONSE-A              PIC X(1)
                                               VALUE SPACE.
               10  WK01-MAP-RESPONSE-V              PIC X(1)
                                               VALUE SPACE.
               10  WK01-MAP-RESPONSE-O              PIC X(1)
                                               VALUE SPACE.
               10  WK01-MAP-RESPONSE       PIC X(8)
                                               VALUE SPACES.
               10  WK01-TEXT-SY00-Z              PIC X(1)
                                               VALUE SPACE.
               10  WK01-TEXT-SY00-F              PIC X(1)
                                               VALUE SPACE.
               10  WK01-TEXT-SY00-A              PIC X(1)
                                               VALUE SPACE.
               10  WK01-TEXT-SY00-V              PIC X(1)
                                               VALUE SPACE.
               10  WK01-TEXT-SY00-O              PIC X(1)
                                               VALUE SPACE.
               10  WK01-TEXT-SY00       PIC X(14)
                                               VALUE SPACES.
           04  WK01-SUBSCRIPTED-WORK-AREA.
               05  FILLER                      PIC X(1).
               05  WK01-CODE-GA41-F             PIC X(1)
                                               OCCURS 10.
               05  WK01-STATUS-GA41-F             PIC X(1)
                                               OCCURS 10.
               05  WK01-CODE-GA4A-F             PIC X(1)
                                               OCCURS 10.
               05  WK01-CODE-TITLE-4034-GA41-F             PIC X(1)
                                               OCCURS 10.
               05  WK01-ACTVY-DATE-GA41-F             PIC X(1)
                                               OCCURS 10.
               05  WK01-STAMP-GA41-F             PIC X(1)
                                               OCCURS 10.
               05  WK01-PM-FLAG-GA41-F             PIC X(1)
                                               OCCURS 10.
