       01  MAP-CONTROL.

    ***Created by Convert/DC version V8R03 on 11/20/00 at 09:00***

           02  FGAMU04-MAP-CONTROL.
           03  FGAMU04T.
           04  WK01-DCXMAPL-PARMS.
               10  WK01-MAPNAME                  PIC X(8)
                                                 VALUE 'FGAMU04I'.
               10  WK01-IKE-LENGTH               PIC S9(8)  COMP
                                                 VALUE 7341.
               10  WK01-TINA-LENGTH              PIC S9(4)  COMP
                                                 VALUE 575.
           05  WK01-ATTRIBUTES                   PIC X(60)
                                                 VALUE SPACE.
           05  WK01-ATTRIBUTES-ERROR             PIC X(60) VALUE
               'U  BIF'.
           05  WK01-CURSOR-DFLD                  PIC X(36)
                                                 VALUE SPACES.
           05  WK01-CURSOR-DFLD-QUAL             PIC X(30)
                                                 VALUE SPACES.
           05  WK01-ROW                          PIC S9(4) COMP
                                                 VALUE ZERO.
           05  WK01-COLUMN                       PIC S9(4) COMP
                                                 VALUE ZERO.
           05  WK01-ERROR-MSG                    PIC X(80)
                                                 VALUE SPACES.
           05  WK01-MAP-DATA-LEN                 PIC S9(6)
                                                 VALUE ZERO.
           05  WK01-1ST-FLAG                     PIC X(1)
                                                 VALUE 'Y'.
           05  WK01-FLAG-OUTPUT-DATA             PIC X(1)
                                                 VALUE 'Y'.
      *    05  WK01-STATUS-RETURN-FLAG           PIC X(1)
      *                                          VALUE SPACES.
           05  WK01-ALL-BUT-FLAG                 PIC X(1)
                                                 VALUE SPACES.
           05  WK01-FLAG-ALL-FIELDS-CHANGED      PIC X(1)  VALUE 'Y'.
           05  WK01-FLAG-ANY-FIELDS-CHANGED      PIC X(1)  VALUE 'N'.
           05  WK01-FLAG-ALL-FIELDS-ERROR        PIC X(1)  VALUE 'Y'.
           05  WK01-FLAG-ANY-FIELDS-ERROR        PIC X(1)  VALUE 'N'.
           05  WK01-FLAG-ALL-FIELDS-ERASE        PIC X(1)  VALUE 'Y'.
           05  WK01-FLAG-ANY-FIELDS-ERASE        PIC X(1)  VALUE 'Y'.

           05  WK01-VARDATA                      PIC X(11880)
                                                 VALUE SPACES.
           05  FILLER                            PIC X(100)
                                                 VALUE SPACES.
           04  WK01-ELEMENT-AREA.

               10  WK01-ID-SY00-Z              PIC X(1)
                                               VALUE SPACE.
               10  WK01-ID-SY00-F              PIC X(1)
                                               VALUE SPACE.
               10  WK01-ID-SY00-A              PIC X(1)
                                               VALUE SPACE.
               10  WK01-ID-SY00-V              PIC X(1)
                                               VALUE SPACE.
               10  WK01-ID-SY00-O              PIC X(1)
                                               VALUE SPACE.
               10  WK01-ID-SY00       PIC X(8)
                                               VALUE SPACES.
               10  WK01-NAME-6001-SY00-Z              PIC X(1)
                                               VALUE SPACE.
               10  WK01-NAME-6001-SY00-F              PIC X(1)
                                               VALUE SPACE.
               10  WK01-NAME-6001-SY00-A              PIC X(1)
                                               VALUE SPACE.
               10  WK01-NAME-6001-SY00-V              PIC X(1)
                                               VALUE SPACE.
               10  WK01-NAME-6001-SY00-O              PIC X(1)
                                               VALUE SPACE.
               10  WK01-NAME-6001-SY00       PIC X(35)
                                               VALUE SPACES.
               10  WK01-DATE-Z              PIC X(1)
                                               VALUE SPACE.
               10  WK01-DATE-F              PIC X(1)
                                               VALUE SPACE.
               10  WK01-DATE-A              PIC X(1)
                                               VALUE SPACE.
               10  WK01-DATE-V              PIC X(1)
                                               VALUE SPACE.
               10  WK01-DATE-O              PIC X(1)
                                               VALUE SPACE.
               10  WK01-DATE       PIC X(8)
                                               VALUE SPACES.
               10  WK01-HH-MM-TIME-SY00-Z              PIC X(1)
                                               VALUE SPACE.
               10  WK01-HH-MM-TIME-SY00-F              PIC X(1)
                                               VALUE SPACE.
               10  WK01-HH-MM-TIME-SY00-A              PIC X(1)
                                               VALUE SPACE.
               10  WK01-HH-MM-TIME-SY00-V              PIC X(1)
                                               VALUE SPACE.
               10  WK01-HH-MM-TIME-SY00-O              PIC X(1)
                                               VALUE SPACE.
               10  WK01-HH-MM-TIME-SY00       PIC X(4)
                                               VALUE SPACES.
               10  WK01-PM-FLAG-SY00-Z              PIC X(1)
                                               VALUE SPACE.
               10  WK01-PM-FLAG-SY00-F              PIC X(1)
                                               VALUE SPACE.
               10  WK01-PM-FLAG-SY00-A              PIC X(1)
                                               VALUE SPACE.
               10  WK01-PM-FLAG-SY00-V              PIC X(1)
                                               VALUE SPACE.
               10  WK01-PM-FLAG-SY00-O              PIC X(1)
                                               VALUE SPACE.
               10  WK01-PM-FLAG-SY00       PIC X(1)
                                               VALUE SPACES.
               10  WK01-USER-ID-Z              PIC X(1)
                                               VALUE SPACE.
               10  WK01-USER-ID-F              PIC X(1)
                                               VALUE SPACE.
               10  WK01-USER-ID-A              PIC X(1)
                                               VALUE SPACE.
               10  WK01-USER-ID-V              PIC X(1)
                                               VALUE SPACE.
               10  WK01-USER-ID-O              PIC X(1)
                                               VALUE SPACE.
               10  WK01-USER-ID       PIC X(32)
                                               VALUE SPACES.
               10  WK01-RSPNS-ID-SY00-Z              PIC X(1)
                                               VALUE SPACE.
               10  WK01-RSPNS-ID-SY00-F              PIC X(1)
                                               VALUE SPACE.
               10  WK01-RSPNS-ID-SY00-A              PIC X(1)
                                               VALUE SPACE.
               10  WK01-RSPNS-ID-SY00-V              PIC X(1)
                                               VALUE SPACE.
               10  WK01-RSPNS-ID-SY00-O              PIC X(1)
                                               VALUE SPACE.
               10  WK01-RSPNS-ID-SY00       PIC X(8)
                                               VALUE SPACES.
               10  WK01-FUNC-DESCRIPTION-Z              PIC X(1)
                                               VALUE SPACE.
               10  WK01-FUNC-DESCRIPTION-F              PIC X(1)
                                               VALUE SPACE.
               10  WK01-FUNC-DESCRIPTION-A              PIC X(1)
                                               VALUE SPACE.
               10  WK01-FUNC-DESCRIPTION-V              PIC X(1)
                                               VALUE SPACE.
               10  WK01-FUNC-DESCRIPTION-O              PIC X(1)
                                               VALUE SPACE.
               10  WK01-FUNC-DESCRIPTION       PIC X(28)
                                               VALUE SPACES.
               10  WK01-STATUS-CODE-SY00-Z              PIC X(1)
                                               VALUE SPACE.
               10  WK01-STATUS-CODE-SY00-F              PIC X(1)
                                               VALUE SPACE.
               10  WK01-STATUS-CODE-SY00-A              PIC X(1)
                                               VALUE SPACE.
               10  WK01-STATUS-CODE-SY00-V              PIC X(1)
                                               VALUE SPACE.
               10  WK01-STATUS-CODE-SY00-O              PIC X(1)
                                               VALUE SPACE.
               10  WK01-STATUS-CODE-SY00       PIC X(1)
                                               VALUE SPACES.
               10  WK01-CODE-4000-GA04-Z              PIC X(1)
                                               VALUE SPACE.
               10  WK01-CODE-4000-GA04-F              PIC X(1)
                                               VALUE SPACE.
               10  WK01-CODE-4000-GA04-A              PIC X(1)
                                               VALUE SPACE.
               10  WK01-CODE-4000-GA04-V              PIC X(1)
                                               VALUE SPACE.
               10  WK01-CODE-4000-GA04-O              PIC X(1)
                                               VALUE SPACE.
               10  WK01-CODE-4000-GA04       PIC X(1)
                                               VALUE SPACES.
               10  WK01-TITLE-4076-GA04-Z              PIC X(1)
                                               VALUE SPACE.
               10  WK01-TITLE-4076-GA04-F              PIC X(1)
                                               VALUE SPACE.
               10  WK01-TITLE-4076-GA04-A              PIC X(1)
                                               VALUE SPACE.
               10  WK01-TITLE-4076-GA04-V              PIC X(1)
                                               VALUE SPACE.
               10  WK01-TITLE-4076-GA04-O              PIC X(1)
                                               VALUE SPACE.
               10  WK01-TITLE-4076-GA04       PIC X(35)
                                               VALUE SPACES.
               10  WK01-YR-4024-GA04-Z              PIC X(1)
                                               VALUE SPACE.
               10  WK01-YR-4024-GA04-F              PIC X(1)
                                               VALUE SPACE.
               10  WK01-YR-4024-GA04-A              PIC X(1)
                                               VALUE SPACE.
               10  WK01-YR-4024-GA04-V              PIC X(1)
                                               VALUE SPACE.
               10  WK01-YR-4024-GA04-O              PIC X(1)
                                               VALUE SPACE.
               10  WK01-YR-4024-GA04       PIC X(2)
                                               VALUE SPACES.
               10  WK01-DATE-4193-GA04-Z              PIC X(1)
                                               VALUE SPACE.
               10  WK01-DATE-4193-GA04-F              PIC X(1)
                                               VALUE SPACE.
               10  WK01-DATE-4193-GA04-A              PIC X(1)
                                               VALUE SPACE.
               10  WK01-DATE-4193-GA04-V              PIC X(1)
                                               VALUE SPACE.
               10  WK01-DATE-4193-GA04-O              PIC X(1)
                                               VALUE SPACE.
               10  WK01-DATE-4193-GA04       PIC X(6)
                                               VALUE SPACES.
               10  WK01-CODE-GA04-Z              PIC X(1)
                                               VALUE SPACE.
               10  WK01-CODE-GA04-F              PIC X(1)
                                               VALUE SPACE.
               10  WK01-CODE-GA04-A              PIC X(1)
                                               VALUE SPACE.
               10  WK01-CODE-GA04-V              PIC X(1)
                                               VALUE SPACE.
               10  WK01-CODE-GA04-O              PIC X(1)
                                               VALUE SPACE.
               10  WK01-CODE-GA04       PIC X(1)
                                               VALUE SPACES.
               10  WK01-FRWRD-DCMNT-NMBR-4193--Z              PIC X(1)
                                               VALUE SPACE.
               10  WK01-FRWRD-DCMNT-NMBR-4193--F              PIC X(1)
                                               VALUE SPACE.
               10  WK01-FRWRD-DCMNT-NMBR-4193--A              PIC X(1)
                                               VALUE SPACE.
               10  WK01-FRWRD-DCMNT-NMBR-4193--V              PIC X(1)
                                               VALUE SPACE.
               10  WK01-FRWRD-DCMNT-NMBR-4193--O              PIC X(1)
                                               VALUE SPACE.
               10  WK01-FRWRD-DCMNT-NMBR-4193        PIC X(8)
                                               VALUE SPACES.
               10  WK01-FRWRD-SCHDL-DT-4193-G0-Z              PIC X(1)
                                               VALUE SPACE.
               10  WK01-FRWRD-SCHDL-DT-4193-G0-F              PIC X(1)
                                               VALUE SPACE.
               10  WK01-FRWRD-SCHDL-DT-4193-G0-A              PIC X(1)
                                               VALUE SPACE.
               10  WK01-FRWRD-SCHDL-DT-4193-G0-V              PIC X(1)
                                               VALUE SPACE.
               10  WK01-FRWRD-SCHDL-DT-4193-G0-O              PIC X(1)
                                               VALUE SPACE.
               10  WK01-FRWRD-SCHDL-DT-4193-G0       PIC X(6)
                                               VALUE SPACES.
               10  WK01-FRWRD-PRFMD-DT-4193-G0-Z              PIC X(1)
                                               VALUE SPACE.
               10  WK01-FRWRD-PRFMD-DT-4193-G0-F              PIC X(1)
                                               VALUE SPACE.
               10  WK01-FRWRD-PRFMD-DT-4193-G0-A              PIC X(1)
                                               VALUE SPACE.
               10  WK01-FRWRD-PRFMD-DT-4193-G0-V              PIC X(1)
                                               VALUE SPACE.
               10  WK01-FRWRD-PRFMD-DT-4193-G0-O              PIC X(1)
                                               VALUE SPACE.
               10  WK01-FRWRD-PRFMD-DT-4193-G0       PIC X(6)
                                               VALUE SPACES.
               10  WK01-SCHDL-DATE-4193-GA04-Z              PIC X(1)
                                               VALUE SPACE.
               10  WK01-SCHDL-DATE-4193-GA04-F              PIC X(1)
                                               VALUE SPACE.
               10  WK01-SCHDL-DATE-4193-GA04-A              PIC X(1)
                                               VALUE SPACE.
               10  WK01-SCHDL-DATE-4193-GA04-V              PIC X(1)
                                               VALUE SPACE.
               10  WK01-SCHDL-DATE-4193-GA04-O              PIC X(1)
                                               VALUE SPACE.
               10  WK01-SCHDL-DATE-4193-GA04       PIC X(6)
                                               VALUE SPACES.
               10  WK01-PRFMD-DATE-4193-GA04-Z              PIC X(1)
                                               VALUE SPACE.
               10  WK01-PRFMD-DATE-4193-GA04-F              PIC X(1)
                                               VALUE SPACE.
               10  WK01-PRFMD-DATE-4193-GA04-A              PIC X(1)
                                               VALUE SPACE.
               10  WK01-PRFMD-DATE-4193-GA04-V              PIC X(1)
                                               VALUE SPACE.
               10  WK01-PRFMD-DATE-4193-GA04-O              PIC X(1)
                                               VALUE SPACE.
               10  WK01-PRFMD-DATE-4193-GA04       PIC X(6)
                                               VALUE SPACES.
               10  WK01-SCHDL-DATE-4193-GA0A-Z              PIC X(1)
                                               VALUE SPACE.
               10  WK01-SCHDL-DATE-4193-GA0A-F              PIC X(1)
                                               VALUE SPACE.
               10  WK01-SCHDL-DATE-4193-GA0A-A              PIC X(1)
                                               VALUE SPACE.
               10  WK01-SCHDL-DATE-4193-GA0A-V              PIC X(1)
                                               VALUE SPACE.
               10  WK01-SCHDL-DATE-4193-GA0A-O              PIC X(1)
                                               VALUE SPACE.
               10  WK01-SCHDL-DATE-4193-GA0A       PIC X(6)
                                               VALUE SPACES.
               10  WK01-PRFMD-DATE-4193-GA0A-Z              PIC X(1)
                                               VALUE SPACE.
               10  WK01-PRFMD-DATE-4193-GA0A-F              PIC X(1)
                                               VALUE SPACE.
               10  WK01-PRFMD-DATE-4193-GA0A-A              PIC X(1)
                                               VALUE SPACE.
               10  WK01-PRFMD-DATE-4193-GA0A-V              PIC X(1)
                                               VALUE SPACE.
               10  WK01-PRFMD-DATE-4193-GA0A-O              PIC X(1)
                                               VALUE SPACE.
               10  WK01-PRFMD-DATE-4193-GA0A       PIC X(6)
                                               VALUE SPACES.
               10  WK01-OAL-SCHDL-DAT-4193-G04-Z              PIC X(1)
                                               VALUE SPACE.
               10  WK01-OAL-SCHDL-DAT-4193-G04-F              PIC X(1)
                                               VALUE SPACE.
               10  WK01-OAL-SCHDL-DAT-4193-G04-A              PIC X(1)
                                               VALUE SPACE.
               10  WK01-OAL-SCHDL-DAT-4193-G04-V              PIC X(1)
                                               VALUE SPACE.
               10  WK01-OAL-SCHDL-DAT-4193-G04-O              PIC X(1)
                                               VALUE SPACE.
               10  WK01-OAL-SCHDL-DAT-4193-G04       PIC X(6)
                                               VALUE SPACES.
               10  WK01-OAL-PRFMD-DAT-4193-G04-Z              PIC X(1)
                                               VALUE SPACE.
               10  WK01-OAL-PRFMD-DAT-4193-G04-F              PIC X(1)
                                               VALUE SPACE.
               10  WK01-OAL-PRFMD-DAT-4193-G04-A              PIC X(1)
                                               VALUE SPACE.
               10  WK01-OAL-PRFMD-DAT-4193-G04-V              PIC X(1)
                                               VALUE SPACE.
               10  WK01-OAL-PRFMD-DAT-4193-G04-O              PIC X(1)
                                               VALUE SPACE.
               10  WK01-OAL-PRFMD-DAT-4193-G04       PIC X(6)
                                               VALUE SPACES.
               10  WK01-ZZMESSAGE-Z              PIC X(1)
                                               VALUE SPACE.
               10  WK01-ZZMESSAGE-F              PIC X(1)
                                               VALUE SPACE.
               10  WK01-ZZMESSAGE-A              PIC X(1)
                                               VALUE SPACE.
               10  WK01-ZZMESSAGE-V              PIC X(1)
                                               VALUE SPACE.
               10  WK01-ZZMESSAGE-O              PIC X(1)
                                               VALUE SPACE.
               10  WK01-ZZMESSAGE       PIC X(160)
                                               VALUE SPACES.
               10  WK01-PASSED-ONE-Z              PIC X(1)
                                               VALUE SPACE.
               10  WK01-PASSED-ONE-F              PIC X(1)
                                               VALUE SPACE.
               10  WK01-PASSED-ONE-A              PIC X(1)
                                               VALUE SPACE.
               10  WK01-PASSED-ONE-V              PIC X(1)
                                               VALUE SPACE.
               10  WK01-PASSED-ONE-O              PIC X(1)
                                               VALUE SPACE.
               10  WK01-PASSED-ONE       PIC X(32)
                                               VALUE SPACES.
               10  WK01-MAP-RESPONSE-Z              PIC X(1)
                                               VALUE SPACE.
               10  WK01-MAP-RESPONSE-F              PIC X(1)
                                               VALUE SPACE.
               10  WK01-MAP-RESPONSE-A              PIC X(1)
                                               VALUE SPACE.
               10  WK01-MAP-RESPONSE-V              PIC X(1)
                                               VALUE SPACE.
               10  WK01-MAP-RESPONSE-O              PIC X(1)
                                               VALUE SPACE.
               10  WK01-MAP-RESPONSE       PIC X(8)
                                               VALUE SPACES.
               10  WK01-TEXT-SY00-Z              PIC X(1)
                                               VALUE SPACE.
               10  WK01-TEXT-SY00-F              PIC X(1)
                                               VALUE SPACE.
               10  WK01-TEXT-SY00-A              PIC X(1)
                                               VALUE SPACE.
               10  WK01-TEXT-SY00-V              PIC X(1)
                                               VALUE SPACE.
               10  WK01-TEXT-SY00-O              PIC X(1)
                                               VALUE SPACE.
               10  WK01-TEXT-SY00       PIC X(14)
                                               VALUE SPACES.
