    ***Created by Convert/DC version V8R03 on 11/09/00 at 16:00***

      *%--------------------------------------------------------------%*
           MOVE DCLINK-MESSAGE  TO WK01-ZZMESSAGE.
      *%--------------------------------------------------------------%*
           MOVE AGR-DATE OF ADSO-APPLICATION-GLOBAL-RECORD TO WK01-DATE.
      *%--------------------------------------------------------------%*
           MOVE AGR-USER-ID OF ADSO-APPLICATION-GLOBAL-RECORD TO
                WK01-USER-ID.
      *%--------------------------------------------------------------%*
           MOVE AGR-FUNC-DESCRIPTION OF ADSO-APPLICATION-GLOBAL-RECORD
                TO WK01-FUNC-DESCRIPTION.
      *%--------------------------------------------------------------%*
           MOVE AGR-PASSED-ONE OF ADSO-APPLICATION-GLOBAL-RECORD TO
                WK01-PASSED-ONE.
      *%--------------------------------------------------------------%*
           MOVE AGR-MAP-RESPONSE OF ADSO-APPLICATION-GLOBAL-RECORD TO
                WK01-MAP-RESPONSE.
      *%--------------------------------------------------------------%*
           MOVE TRMNL-ID-SY00 OF FSYWG00M TO WK01-ID-SY00.
      *%--------------------------------------------------------------%*
           MOVE FULL-NAME-6001-SY00 OF FSYWG00M TO WK01-NAME-6001-SY00.
      *%--------------------------------------------------------------%*
           MOVE AM-PM-FLAG-SY00 OF FSYWG00M TO WK01-PM-FLAG-SY00.
      *%--------------------------------------------------------------%*
           MOVE CURR-RSPNS-ID-SY00 OF FSYWG00M TO WK01-RSPNS-ID-SY00.
      *%--------------------------------------------------------------%*
           MOVE ERROR-TEXT-SY00 OF FSYWG00M TO WK01-TEXT-SY00.
      *%--------------------------------------------------------------%*
           MOVE PAGE-STATUS-CODE-SY00 OF FSYWG00M TO
                WK01-STATUS-CODE-SY00.
      *%--------------------------------------------------------------%*
           MOVE WORK-HH-MM-TIME-SY00 OF FSYWG00M TO
                WK01-HH-MM-TIME-SY00.
      *%--------------------------------------------------------------%*
           MOVE ACTN-CODE-GA02 OF FGAWM02(0001) TO WK01-CODE-GA021.
      *%--------------------------------------------------------------%*
           MOVE ACTN-CODE-GA02 OF FGAWM02(0002) TO WK01-CODE-GA022.
      *%--------------------------------------------------------------%*
           MOVE ACTN-CODE-GA02 OF FGAWM02(0003) TO WK01-CODE-GA023.
      *%--------------------------------------------------------------%*
           MOVE ACTN-CODE-GA02 OF FGAWM02(0004) TO WK01-CODE-GA024.
      *%--------------------------------------------------------------%*
           MOVE ACTN-CODE-GA02 OF FGAWM02(0005) TO WK01-CODE-GA025.
      *%--------------------------------------------------------------%*
           MOVE ACTN-CODE-GA02 OF FGAWM02(0006) TO WK01-CODE-GA026.
      *%--------------------------------------------------------------%*
           MOVE ACTN-CODE-GA02 OF FGAWM02(0007) TO WK01-CODE-GA027.
      *%--------------------------------------------------------------%*
           MOVE ACTN-CODE-GA02 OF FGAWM02(0008) TO WK01-CODE-GA028.
      *%--------------------------------------------------------------%*
           MOVE ACTN-CODE-GA02 OF FGAWM02(0009) TO WK01-CODE-GA029.
      *%--------------------------------------------------------------%*
           MOVE ACTN-CODE-GA02 OF FGAWM02(0010) TO WK01-CODE-GA0210.
      *%--------------------------------------------------------------%*
           MOVE ACTN-CODE-GA02 OF FGAWM02(0011) TO WK01-CODE-GA0211.
      *%--------------------------------------------------------------%*
           MOVE ACTN-CODE-GA02 OF FGAWM02(0012) TO WK01-CODE-GA0212.
      *%--------------------------------------------------------------%*
           MOVE ACTN-CODE-GA02 OF FGAWM02(0013) TO WK01-CODE-GA0213.
      *%--------------------------------------------------------------%*
           MOVE AUTO-JRNL-ID-4106-GA02 OF FGAWM02(0001) TO
                WK01-JRNL-ID-4106-GA021.
      *%--------------------------------------------------------------%*
           MOVE AUTO-JRNL-ID-4106-GA02 OF FGAWM02(0002) TO
                WK01-JRNL-ID-4106-GA022.
      *%--------------------------------------------------------------%*
           MOVE AUTO-JRNL-ID-4106-GA02 OF FGAWM02(0003) TO
                WK01-JRNL-ID-4106-GA023.
      *%--------------------------------------------------------------%*
           MOVE AUTO-JRNL-ID-4106-GA02 OF FGAWM02(0004) TO
                WK01-JRNL-ID-4106-GA024.
      *%--------------------------------------------------------------%*
           MOVE AUTO-JRNL-ID-4106-GA02 OF FGAWM02(0005) TO
                WK01-JRNL-ID-4106-GA025.
      *%--------------------------------------------------------------%*
           MOVE AUTO-JRNL-ID-4106-GA02 OF FGAWM02(0006) TO
                WK01-JRNL-ID-4106-GA026.
      *%--------------------------------------------------------------%*
           MOVE AUTO-JRNL-ID-4106-GA02 OF FGAWM02(0007) TO
                WK01-JRNL-ID-4106-GA027.
      *%--------------------------------------------------------------%*
           MOVE AUTO-JRNL-ID-4106-GA02 OF FGAWM02(0008) TO
                WK01-JRNL-ID-4106-GA028.
      *%--------------------------------------------------------------%*
           MOVE AUTO-JRNL-ID-4106-GA02 OF FGAWM02(0009) TO
                WK01-JRNL-ID-4106-GA029.
      *%--------------------------------------------------------------%*
           MOVE AUTO-JRNL-ID-4106-GA02 OF FGAWM02(0010) TO
                WK01-JRNL-ID-4106-GA0210.
      *%--------------------------------------------------------------%*
           MOVE AUTO-JRNL-ID-4106-GA02 OF FGAWM02(0011) TO
                WK01-JRNL-ID-4106-GA0211.
      *%--------------------------------------------------------------%*
           MOVE AUTO-JRNL-ID-4106-GA02 OF FGAWM02(0012) TO
                WK01-JRNL-ID-4106-GA0212.
      *%--------------------------------------------------------------%*
           MOVE AUTO-JRNL-ID-4106-GA02 OF FGAWM02(0013) TO
                WK01-JRNL-ID-4106-GA0213.
      *%--------------------------------------------------------------%*
           MOVE AUTO-JRNL-TITLE-4106-GA02 OF FGAWM02(0001) TO
                WK01-JRNL-TITLE-4106-GA021.
      *%--------------------------------------------------------------%*
           MOVE AUTO-JRNL-TITLE-4106-GA02 OF FGAWM02(0002) TO
                WK01-JRNL-TITLE-4106-GA022.
      *%--------------------------------------------------------------%*
           MOVE AUTO-JRNL-TITLE-4106-GA02 OF FGAWM02(0003) TO
                WK01-JRNL-TITLE-4106-GA023.
      *%--------------------------------------------------------------%*
           MOVE AUTO-JRNL-TITLE-4106-GA02 OF FGAWM02(0004) TO
                WK01-JRNL-TITLE-4106-GA024.
      *%--------------------------------------------------------------%*
           MOVE AUTO-JRNL-TITLE-4106-GA02 OF FGAWM02(0005) TO
                WK01-JRNL-TITLE-4106-GA025.
      *%--------------------------------------------------------------%*
           MOVE AUTO-JRNL-TITLE-4106-GA02 OF FGAWM02(0006) TO
                WK01-JRNL-TITLE-4106-GA026.
      *%--------------------------------------------------------------%*
           MOVE AUTO-JRNL-TITLE-4106-GA02 OF FGAWM02(0007) TO
                WK01-JRNL-TITLE-4106-GA027.
      *%--------------------------------------------------------------%*
           MOVE AUTO-JRNL-TITLE-4106-GA02 OF FGAWM02(0008) TO
                WK01-JRNL-TITLE-4106-GA028.
      *%--------------------------------------------------------------%*
           MOVE AUTO-JRNL-TITLE-4106-GA02 OF FGAWM02(0009) TO
                WK01-JRNL-TITLE-4106-GA029.
      *%--------------------------------------------------------------%*
           MOVE AUTO-JRNL-TITLE-4106-GA02 OF FGAWM02(0010) TO
                WK01-JRNL-TITLE-4106-GA0210.
      *%--------------------------------------------------------------%*
           MOVE AUTO-JRNL-TITLE-4106-GA02 OF FGAWM02(0011) TO
                WK01-JRNL-TITLE-4106-GA0211.
      *%--------------------------------------------------------------%*
           MOVE AUTO-JRNL-TITLE-4106-GA02 OF FGAWM02(0012) TO
                WK01-JRNL-TITLE-4106-GA0212.
      *%--------------------------------------------------------------%*
           MOVE AUTO-JRNL-TITLE-4106-GA02 OF FGAWM02(0013) TO
                WK01-JRNL-TITLE-4106-GA0213.
      *%--------------------------------------------------------------%*
           MOVE LAST-SBMT-DATE-4106-GA02 OF FGAWM02(0001) TO
                WK01-SBMT-DATE-4106-GA021.
      *%--------------------------------------------------------------%*
           MOVE LAST-SBMT-DATE-4106-GA02 OF FGAWM02(0002) TO
                WK01-SBMT-DATE-4106-GA022.
      *%--------------------------------------------------------------%*
           MOVE LAST-SBMT-DATE-4106-GA02 OF FGAWM02(0003) TO
                WK01-SBMT-DATE-4106-GA023.
      *%--------------------------------------------------------------%*
           MOVE LAST-SBMT-DATE-4106-GA02 OF FGAWM02(0004) TO
                WK01-SBMT-DATE-4106-GA024.
      *%--------------------------------------------------------------%*
           MOVE LAST-SBMT-DATE-4106-GA02 OF FGAWM02(0005) TO
                WK01-SBMT-DATE-4106-GA025.
      *%--------------------------------------------------------------%*
           MOVE LAST-SBMT-DATE-4106-GA02 OF FGAWM02(0006) TO
                WK01-SBMT-DATE-4106-GA026.
      *%--------------------------------------------------------------%*
           MOVE LAST-SBMT-DATE-4106-GA02 OF FGAWM02(0007) TO
                WK01-SBMT-DATE-4106-GA027.
      *%--------------------------------------------------------------%*
           MOVE LAST-SBMT-DATE-4106-GA02 OF FGAWM02(0008) TO
                WK01-SBMT-DATE-4106-GA028.
      *%--------------------------------------------------------------%*
           MOVE LAST-SBMT-DATE-4106-GA02 OF FGAWM02(0009) TO
                WK01-SBMT-DATE-4106-GA029.
      *%--------------------------------------------------------------%*
           MOVE LAST-SBMT-DATE-4106-GA02 OF FGAWM02(0010) TO
                WK01-SBMT-DATE-4106-GA0210.
      *%--------------------------------------------------------------%*
           MOVE LAST-SBMT-DATE-4106-GA02 OF FGAWM02(0011) TO
                WK01-SBMT-DATE-4106-GA0211.
      *%--------------------------------------------------------------%*
           MOVE LAST-SBMT-DATE-4106-GA02 OF FGAWM02(0012) TO
                WK01-SBMT-DATE-4106-GA0212.
      *%--------------------------------------------------------------%*
           MOVE LAST-SBMT-DATE-4106-GA02 OF FGAWM02(0013) TO
                WK01-SBMT-DATE-4106-GA0213.
      *%--------------------------------------------------------------%*
           MOVE NEXT-SUB-DATE-4106-GA02 OF FGAWM02(0001) TO
                WK01-SUB-DATE-4106-GA021.
      *%--------------------------------------------------------------%*
           MOVE NEXT-SUB-DATE-4106-GA02 OF FGAWM02(0002) TO
                WK01-SUB-DATE-4106-GA022.
      *%--------------------------------------------------------------%*
           MOVE NEXT-SUB-DATE-4106-GA02 OF FGAWM02(0003) TO
                WK01-SUB-DATE-4106-GA023.
      *%--------------------------------------------------------------%*
           MOVE NEXT-SUB-DATE-4106-GA02 OF FGAWM02(0004) TO
                WK01-SUB-DATE-4106-GA024.
      *%--------------------------------------------------------------%*
           MOVE NEXT-SUB-DATE-4106-GA02 OF FGAWM02(0005) TO
                WK01-SUB-DATE-4106-GA025.
      *%--------------------------------------------------------------%*
           MOVE NEXT-SUB-DATE-4106-GA02 OF FGAWM02(0006) TO
                WK01-SUB-DATE-4106-GA026.
      *%--------------------------------------------------------------%*
           MOVE NEXT-SUB-DATE-4106-GA02 OF FGAWM02(0007) TO
                WK01-SUB-DATE-4106-GA027.
      *%--------------------------------------------------------------%*
           MOVE NEXT-SUB-DATE-4106-GA02 OF FGAWM02(0008) TO
                WK01-SUB-DATE-4106-GA028.
      *%--------------------------------------------------------------%*
           MOVE NEXT-SUB-DATE-4106-GA02 OF FGAWM02(0009) TO
                WK01-SUB-DATE-4106-GA029.
      *%--------------------------------------------------------------%*
           MOVE NEXT-SUB-DATE-4106-GA02 OF FGAWM02(0010) TO
                WK01-SUB-DATE-4106-GA0210.
      *%--------------------------------------------------------------%*
           MOVE NEXT-SUB-DATE-4106-GA02 OF FGAWM02(0011) TO
                WK01-SUB-DATE-4106-GA0211.
      *%--------------------------------------------------------------%*
           MOVE NEXT-SUB-DATE-4106-GA02 OF FGAWM02(0012) TO
                WK01-SUB-DATE-4106-GA0212.
      *%--------------------------------------------------------------%*
           MOVE NEXT-SUB-DATE-4106-GA02 OF FGAWM02(0013) TO
                WK01-SUB-DATE-4106-GA0213.
      *%--------------------------------------------------------------%*
           MOVE RMNG-SUB-4106-GA02 OF FGAWM02(0001) TO
                WK01-SUB-4106-GA021.
      *%--------------------------------------------------------------%*
           MOVE SUB-CYCLE-4106-GA02 OF FGAWM02(0001) TO
                WK01-CYCLE-4106-GA021.
      *%--------------------------------------------------------------%*
           MOVE SUB-CYCLE-4106-GA02 OF FGAWM02(0002) TO
                WK01-CYCLE-4106-GA022.
      *%--------------------------------------------------------------%*
           MOVE SUB-CYCLE-4106-GA02 OF FGAWM02(0003) TO
                WK01-CYCLE-4106-GA023.
      *%--------------------------------------------------------------%*
           MOVE SUB-CYCLE-4106-GA02 OF FGAWM02(0004) TO
                WK01-CYCLE-4106-GA024.
      *%--------------------------------------------------------------%*
           MOVE SUB-CYCLE-4106-GA02 OF FGAWM02(0005) TO
                WK01-CYCLE-4106-GA025.
      *%--------------------------------------------------------------%*
           MOVE SUB-CYCLE-4106-GA02 OF FGAWM02(0006) TO
                WK01-CYCLE-4106-GA026.
      *%--------------------------------------------------------------%*
           MOVE SUB-CYCLE-4106-GA02 OF FGAWM02(0007) TO
                WK01-CYCLE-4106-GA027.
      *%--------------------------------------------------------------%*
           MOVE SUB-CYCLE-4106-GA02 OF FGAWM02(0008) TO
                WK01-CYCLE-4106-GA028.
      *%--------------------------------------------------------------%*
           MOVE SUB-CYCLE-4106-GA02 OF FGAWM02(0009) TO
                WK01-CYCLE-4106-GA029.
      *%--------------------------------------------------------------%*
           MOVE SUB-CYCLE-4106-GA02 OF FGAWM02(0010) TO
                WK01-CYCLE-4106-GA0210.
      *%--------------------------------------------------------------%*
           MOVE SUB-CYCLE-4106-GA02 OF FGAWM02(0011) TO
                WK01-CYCLE-4106-GA0211.
      *%--------------------------------------------------------------%*
           MOVE SUB-CYCLE-4106-GA02 OF FGAWM02(0012) TO
                WK01-CYCLE-4106-GA0212.
      *%--------------------------------------------------------------%*
           MOVE SUB-CYCLE-4106-GA02 OF FGAWM02(0013) TO
                WK01-CYCLE-4106-GA0213.
      *%--------------------------------------------------------------%*
           MOVE RMNG-SUB-4106-GA02 OF FGAWM02(0002) TO
                WK01-SUB-4106-GA022.
      *%--------------------------------------------------------------%*
           MOVE RMNG-SUB-4106-GA02 OF FGAWM02(0003) TO
                WK01-SUB-4106-GA023.
      *%--------------------------------------------------------------%*
           MOVE RMNG-SUB-4106-GA02 OF FGAWM02(0004) TO
                WK01-SUB-4106-GA024.
      *%--------------------------------------------------------------%*
           MOVE RMNG-SUB-4106-GA02 OF FGAWM02(0005) TO
                WK01-SUB-4106-GA025.
      *%--------------------------------------------------------------%*
           MOVE RMNG-SUB-4106-GA02 OF FGAWM02(0006) TO
                WK01-SUB-4106-GA026.
      *%--------------------------------------------------------------%*
           MOVE RMNG-SUB-4106-GA02 OF FGAWM02(0007) TO
                WK01-SUB-4106-GA027.
      *%--------------------------------------------------------------%*
           MOVE RMNG-SUB-4106-GA02 OF FGAWM02(0008) TO
                WK01-SUB-4106-GA028.
      *%--------------------------------------------------------------%*
           MOVE RMNG-SUB-4106-GA02 OF FGAWM02(0009) TO
                WK01-SUB-4106-GA029.
      *%--------------------------------------------------------------%*
           MOVE RMNG-SUB-4106-GA02 OF FGAWM02(0010) TO
                WK01-SUB-4106-GA0210.
      *%--------------------------------------------------------------%*
           MOVE RMNG-SUB-4106-GA02 OF FGAWM02(0011) TO
                WK01-SUB-4106-GA0211.
      *%--------------------------------------------------------------%*
           MOVE RMNG-SUB-4106-GA02 OF FGAWM02(0012) TO
                WK01-SUB-4106-GA0212.
      *%--------------------------------------------------------------%*
           MOVE RMNG-SUB-4106-GA02 OF FGAWM02(0013) TO
                WK01-SUB-4106-GA0213.
      *%--------------------------------------------------------------%*
           MOVE RVRSL-IND-4106-GA02 OF FGAWM02(0001) TO
                WK01-IND-4106-GA021.
      *%--------------------------------------------------------------%*
           MOVE RVRSL-IND-4106-GA02 OF FGAWM02(0002) TO
                WK01-IND-4106-GA022.
      *%--------------------------------------------------------------%*
           MOVE RVRSL-IND-4106-GA02 OF FGAWM02(0003) TO
                WK01-IND-4106-GA023.
      *%--------------------------------------------------------------%*
           MOVE RVRSL-IND-4106-GA02 OF FGAWM02(0004) TO
                WK01-IND-4106-GA024.
      *%--------------------------------------------------------------%*
           MOVE RVRSL-IND-4106-GA02 OF FGAWM02(0005) TO
                WK01-IND-4106-GA025.
      *%--------------------------------------------------------------%*
           MOVE RVRSL-IND-4106-GA02 OF FGAWM02(0006) TO
                WK01-IND-4106-GA026.
      *%--------------------------------------------------------------%*
           MOVE RVRSL-IND-4106-GA02 OF FGAWM02(0007) TO
                WK01-IND-4106-GA027.
      *%--------------------------------------------------------------%*
           MOVE RVRSL-IND-4106-GA02 OF FGAWM02(0008) TO
                WK01-IND-4106-GA028.
      *%--------------------------------------------------------------%*
           MOVE RVRSL-IND-4106-GA02 OF FGAWM02(0009) TO
                WK01-IND-4106-GA029.
      *%--------------------------------------------------------------%*
           MOVE RVRSL-IND-4106-GA02 OF FGAWM02(0010) TO
                WK01-IND-4106-GA0210.
      *%--------------------------------------------------------------%*
           MOVE RVRSL-IND-4106-GA02 OF FGAWM02(0011) TO
                WK01-IND-4106-GA0211.
      *%--------------------------------------------------------------%*
           MOVE RVRSL-IND-4106-GA02 OF FGAWM02(0012) TO
                WK01-IND-4106-GA0212.
      *%--------------------------------------------------------------%*
           MOVE RVRSL-IND-4106-GA02 OF FGAWM02(0013) TO
                WK01-IND-4106-GA0213.
      *%--------------------------------------------------------------%*
           MOVE RQST-AUTO-JRNL-ID-GA02 OF FGAWK02 TO
                WK01-AUTO-JRNL-ID-GA02.
