    ***Created by Convert/DC version V8R03 on 09/27/00 at 16:00***

      *%--------------------------------------------------------------%*
           MOVE DCLINK-MESSAGE  TO WK01-ZZMESSAGE.
      *%--------------------------------------------------------------%*
           MOVE AGR-DATE OF ADSO-APPLICATION-GLOBAL-RECORD TO WK01-DATE.
      *%--------------------------------------------------------------%*
           MOVE AGR-USER-ID OF ADSO-APPLICATION-GLOBAL-RECORD TO
                WK01-USER-ID.
      *%--------------------------------------------------------------%*
           MOVE AGR-FUNC-DESCRIPTION OF ADSO-APPLICATION-GLOBAL-RECORD
                TO WK01-FUNC-DESCRIPTION.
      *%--------------------------------------------------------------%*
           MOVE AGR-PASSED-ONE OF ADSO-APPLICATION-GLOBAL-RECORD TO
                WK01-PASSED-ONE.
      *%--------------------------------------------------------------%*
           MOVE AGR-MAP-RESPONSE OF ADSO-APPLICATION-GLOBAL-RECORD TO
                WK01-MAP-RESPONSE.
      *%--------------------------------------------------------------%*
           MOVE TRMNL-ID-SY00 OF FSYWG00M TO WK01-ID-SY00.
      *%--------------------------------------------------------------%*
           MOVE FULL-NAME-6001-SY00 OF FSYWG00M TO WK01-NAME-6001-SY00.
      *%--------------------------------------------------------------%*
           MOVE AM-PM-FLAG-SY00 OF FSYWG00M TO WK01-PM-FLAG-SY00.
      *%--------------------------------------------------------------%*
           MOVE CURR-RSPNS-ID-SY00 OF FSYWG00M TO WK01-RSPNS-ID-SY00.
      *%--------------------------------------------------------------%*
           MOVE ERROR-TEXT-SY00 OF FSYWG00M TO WK01-TEXT-SY00.
      *%--------------------------------------------------------------%*
           MOVE PAGE-STATUS-CODE-SY00 OF FSYWG00M TO
                WK01-STATUS-CODE-SY00.
      *%--------------------------------------------------------------%*
           MOVE WORK-HH-MM-TIME-SY00 OF FSYWG00M TO
                WK01-HH-MM-TIME-SY00.
      *%--------------------------------------------------------------%*
           MOVE FIMS-ENTY-CODE-GA32 OF FGAWK32 TO WK01-ENTY-CODE-GA32.
      *%--------------------------------------------------------------%*
           MOVE ELMNT-NAME-GA32 OF FGAWK32 TO WK01-NAME-GA32.
      *%--------------------------------------------------------------%*
           MOVE COA-CODE-GA32 OF FGAWK32 TO WK01-CODE-GA32.
      *%--------------------------------------------------------------%*
           MOVE ACTN-CODE-GA32 OF FGAWM32(0001) TO WK01-CODE-GA3A11.
      *%--------------------------------------------------------------%*
           MOVE ACTN-CODE-GA32 OF FGAWM32(0002) TO WK01-CODE-GA3A12.
      *%--------------------------------------------------------------%*
           MOVE ACTN-CODE-GA32 OF FGAWM32(0003) TO WK01-CODE-GA3A13.
      *%--------------------------------------------------------------%*
           MOVE ACTN-CODE-GA32 OF FGAWM32(0004) TO WK01-CODE-GA3A14.
      *%--------------------------------------------------------------%*
           MOVE ACTN-CODE-GA32 OF FGAWM32(0005) TO WK01-CODE-GA3A15.
      *%--------------------------------------------------------------%*
           MOVE ACTN-CODE-GA32 OF FGAWM32(0006) TO WK01-CODE-GA3A16.
      *%--------------------------------------------------------------%*
           MOVE ACTN-CODE-GA32 OF FGAWM32(0007) TO WK01-CODE-GA3A17.
      *%--------------------------------------------------------------%*
           MOVE ACTN-CODE-GA32 OF FGAWM32(0008) TO WK01-CODE-GA3A18.
      *%--------------------------------------------------------------%*
           MOVE ACTN-CODE-GA32 OF FGAWM32(0009) TO WK01-CODE-GA3A19.
      *%--------------------------------------------------------------%*
           MOVE ACTN-CODE-GA32 OF FGAWM32(0010) TO WK01-CODE-GA3A110.
      *%--------------------------------------------------------------%*
           MOVE LEVEL-NMBR-GA32 OF FGAWM32(0001) TO WK01-NMBR-GA321.
      *%--------------------------------------------------------------%*
           MOVE LEVEL-NMBR-GA32 OF FGAWM32(0002) TO WK01-NMBR-GA322.
      *%--------------------------------------------------------------%*
           MOVE LEVEL-NMBR-GA32 OF FGAWM32(0003) TO WK01-NMBR-GA323.
      *%--------------------------------------------------------------%*
           MOVE LEVEL-NMBR-GA32 OF FGAWM32(0004) TO WK01-NMBR-GA324.
      *%--------------------------------------------------------------%*
           MOVE LEVEL-NMBR-GA32 OF FGAWM32(0005) TO WK01-NMBR-GA325.
      *%--------------------------------------------------------------%*
           MOVE LEVEL-NMBR-GA32 OF FGAWM32(0006) TO WK01-NMBR-GA326.
      *%--------------------------------------------------------------%*
           MOVE LEVEL-NMBR-GA32 OF FGAWM32(0007) TO WK01-NMBR-GA327.
      *%--------------------------------------------------------------%*
           MOVE LEVEL-NMBR-GA32 OF FGAWM32(0008) TO WK01-NMBR-GA328.
      *%--------------------------------------------------------------%*
           MOVE LEVEL-NMBR-GA32 OF FGAWM32(0009) TO WK01-NMBR-GA329.
      *%--------------------------------------------------------------%*
           MOVE LEVEL-NMBR-GA32 OF FGAWM32(0010) TO WK01-NMBR-GA3210.
      *%--------------------------------------------------------------%*
           MOVE OPTN-1-CODE-GA32 OF FGAWM32(0001) TO WK01-1-CODE-GA321.
      *%--------------------------------------------------------------%*
           MOVE OPTN-1-CODE-GA32 OF FGAWM32(0002) TO WK01-1-CODE-GA322.
      *%--------------------------------------------------------------%*
           MOVE OPTN-1-CODE-GA32 OF FGAWM32(0003) TO WK01-1-CODE-GA323.
      *%--------------------------------------------------------------%*
           MOVE OPTN-1-CODE-GA32 OF FGAWM32(0004) TO WK01-1-CODE-GA324.
      *%--------------------------------------------------------------%*
           MOVE OPTN-1-CODE-GA32 OF FGAWM32(0005) TO WK01-1-CODE-GA325.
      *%--------------------------------------------------------------%*
           MOVE OPTN-1-CODE-GA32 OF FGAWM32(0006) TO WK01-1-CODE-GA326.
      *%--------------------------------------------------------------%*
           MOVE OPTN-1-CODE-GA32 OF FGAWM32(0007) TO WK01-1-CODE-GA327.
      *%--------------------------------------------------------------%*
           MOVE OPTN-1-CODE-GA32 OF FGAWM32(0008) TO WK01-1-CODE-GA328.
      *%--------------------------------------------------------------%*
           MOVE OPTN-1-CODE-GA32 OF FGAWM32(0009) TO WK01-1-CODE-GA329.
      *%--------------------------------------------------------------%*
           MOVE OPTN-1-CODE-GA32 OF FGAWM32(0010) TO WK01-1-CODE-GA3210.
      *%--------------------------------------------------------------%*
           MOVE OPTN-2-CODE-GA32 OF FGAWM32(0001) TO WK01-2-CODE-GA321.
      *%--------------------------------------------------------------%*
           MOVE OPTN-2-CODE-GA32 OF FGAWM32(0002) TO WK01-2-CODE-GA322.
      *%--------------------------------------------------------------%*
           MOVE OPTN-2-CODE-GA32 OF FGAWM32(0003) TO WK01-2-CODE-GA323.
      *%--------------------------------------------------------------%*
           MOVE OPTN-2-CODE-GA32 OF FGAWM32(0004) TO WK01-2-CODE-GA324.
      *%--------------------------------------------------------------%*
           MOVE OPTN-2-CODE-GA32 OF FGAWM32(0005) TO WK01-2-CODE-GA325.
      *%--------------------------------------------------------------%*
           MOVE OPTN-2-CODE-GA32 OF FGAWM32(0006) TO WK01-2-CODE-GA326.
      *%--------------------------------------------------------------%*
           MOVE OPTN-2-CODE-GA32 OF FGAWM32(0007) TO WK01-2-CODE-GA327.
      *%--------------------------------------------------------------%*
           MOVE OPTN-2-CODE-GA32 OF FGAWM32(0008) TO WK01-2-CODE-GA328.
      *%--------------------------------------------------------------%*
           MOVE OPTN-2-CODE-GA32 OF FGAWM32(0009) TO WK01-2-CODE-GA329.
      *%--------------------------------------------------------------%*
           MOVE OPTN-2-CODE-GA32 OF FGAWM32(0010) TO WK01-2-CODE-GA3210.
      *%--------------------------------------------------------------%*
           MOVE STNDD-LONG-DESC-GA32 OF FGAWM32(0001) TO
                WK01-LONG-DESC-GA321.
      *%--------------------------------------------------------------%*
           MOVE STNDD-LONG-DESC-GA32 OF FGAWM32(0002) TO
                WK01-LONG-DESC-GA322.
      *%--------------------------------------------------------------%*
           MOVE STNDD-LONG-DESC-GA32 OF FGAWM32(0003) TO
                WK01-LONG-DESC-GA323.
      *%--------------------------------------------------------------%*
           MOVE STNDD-LONG-DESC-GA32 OF FGAWM32(0004) TO
                WK01-LONG-DESC-GA324.
      *%--------------------------------------------------------------%*
           MOVE STNDD-LONG-DESC-GA32 OF FGAWM32(0005) TO
                WK01-LONG-DESC-GA325.
      *%--------------------------------------------------------------%*
           MOVE STNDD-LONG-DESC-GA32 OF FGAWM32(0006) TO
                WK01-LONG-DESC-GA326.
      *%--------------------------------------------------------------%*
           MOVE STNDD-LONG-DESC-GA32 OF FGAWM32(0007) TO
                WK01-LONG-DESC-GA327.
      *%--------------------------------------------------------------%*
           MOVE STNDD-LONG-DESC-GA32 OF FGAWM32(0008) TO
                WK01-LONG-DESC-GA328.
      *%--------------------------------------------------------------%*
           MOVE STNDD-LONG-DESC-GA32 OF FGAWM32(0009) TO
                WK01-LONG-DESC-GA329.
      *%--------------------------------------------------------------%*
           MOVE STNDD-LONG-DESC-GA32 OF FGAWM32(0010) TO
                WK01-LONG-DESC-GA3210.
      *%--------------------------------------------------------------%*
           MOVE DATA-DESC-GA32 OF FGAWM32(0001) TO WK01-DESC-GA321.
      *%--------------------------------------------------------------%*
           MOVE DATA-DESC-GA32 OF FGAWM32(0002) TO WK01-DESC-GA322.
      *%--------------------------------------------------------------%*
           MOVE DATA-DESC-GA32 OF FGAWM32(0003) TO WK01-DESC-GA323.
      *%--------------------------------------------------------------%*
           MOVE DATA-DESC-GA32 OF FGAWM32(0004) TO WK01-DESC-GA324.
      *%--------------------------------------------------------------%*
           MOVE DATA-DESC-GA32 OF FGAWM32(0005) TO WK01-DESC-GA325.
      *%--------------------------------------------------------------%*
           MOVE DATA-DESC-GA32 OF FGAWM32(0006) TO WK01-DESC-GA326.
      *%--------------------------------------------------------------%*
           MOVE DATA-DESC-GA32 OF FGAWM32(0007) TO WK01-DESC-GA327.
      *%--------------------------------------------------------------%*
           MOVE DATA-DESC-GA32 OF FGAWM32(0008) TO WK01-DESC-GA328.
      *%--------------------------------------------------------------%*
           MOVE DATA-DESC-GA32 OF FGAWM32(0009) TO WK01-DESC-GA329.
      *%--------------------------------------------------------------%*
           MOVE DATA-DESC-GA32 OF FGAWM32(0010) TO WK01-DESC-GA3210.
      *%--------------------------------------------------------------%*
           MOVE RQST-LEVEL-NMBR-GA32 OF FGAWK32 TO WK01-LEVEL-NMBR-GA32.
      *%--------------------------------------------------------------%*
           MOVE RQST-OPTN-1-CODE-GA32 OF FGAWK32 TO
                WK01-OPTN-1-CODE-GA32.
      *%--------------------------------------------------------------%*
           MOVE RQST-OPTN-2-CODE-GA32 OF FGAWK32 TO
                WK01-OPTN-2-CODE-GA32.
