    ***Created by Convert/DC version V8R03 on 07/05/00 at 14:00***

      *%--------------------------------------------------------------%*
           MOVE DCLINK-MESSAGE  TO WK01-ZZMESSAGE.
      *%--------------------------------------------------------------%*
           MOVE AGR-DATE OF ADSO-APPLICATION-GLOBAL-RECORD TO WK01-DATE.
      *%--------------------------------------------------------------%*
           MOVE AGR-USER-ID OF ADSO-APPLICATION-GLOBAL-RECORD TO
                WK01-USER-ID.
      *%--------------------------------------------------------------%*
           MOVE AGR-FUNC-DESCRIPTION OF ADSO-APPLICATION-GLOBAL-RECORD
                TO WK01-FUNC-DESCRIPTION.
      *%--------------------------------------------------------------%*
           MOVE AGR-PASSED-ONE OF ADSO-APPLICATION-GLOBAL-RECORD TO
                WK01-PASSED-ONE.
      *%--------------------------------------------------------------%*
           MOVE AGR-MAP-RESPONSE OF ADSO-APPLICATION-GLOBAL-RECORD TO
                WK01-MAP-RESPONSE.
      *%--------------------------------------------------------------%*
           MOVE TRMNL-ID-SY00 OF FSYWG00M TO WK01-ID-SY00.
      *%--------------------------------------------------------------%*
           MOVE FULL-NAME-6001-SY00 OF FSYWG00M TO WK01-NAME-6001-SY00.
      *%--------------------------------------------------------------%*
           MOVE AM-PM-FLAG-SY00 OF FSYWG00M TO WK01-PM-FLAG-SY00.
      *%--------------------------------------------------------------%*
           MOVE CURR-RSPNS-ID-SY00 OF FSYWG00M TO WK01-RSPNS-ID-SY00.
      *%--------------------------------------------------------------%*
           MOVE ERROR-TEXT-SY00 OF FSYWG00M TO WK01-TEXT-SY00.
      *%--------------------------------------------------------------%*
           MOVE PAGE-STATUS-CODE-SY00 OF FSYWG00M TO
                WK01-STATUS-CODE-SY00.
      *%--------------------------------------------------------------%*
           MOVE WORK-HH-MM-TIME-SY00 OF FSYWG00M TO
                WK01-HH-MM-TIME-SY00.
      *%--------------------------------------------------------------%*
           MOVE ENCMBRNC-STATUS-4191-GA01 OF FGAWM01 TO
                WK01-STATUS-4191-GA01.
      *%--------------------------------------------------------------%*
           MOVE ENCMBRNC-TYPE-4191-GA01 OF FGAWM01 TO
                WK01-TYPE-4191-GA01.
      *%--------------------------------------------------------------%*
           MOVE ESTBLD-DATE-4191-GA01 OF FGAWM01 TO WK01-DATE-4191-GA01.
      *%--------------------------------------------------------------%*
           MOVE BALANCE-GA01 OF FGAWM01 TO WK01-GA01.
      *%--------------------------------------------------------------%*
           MOVE ENCMBRNC-DESC-4191-GA01 OF FGAWM01 TO
                WK01-DESC-4191-GA01.
      *%--------------------------------------------------------------%*
           MOVE PRJCT-CODE-4190-GA01 OF FGAWM01 TO WK01-CODE-4190-GA01.
      *%--------------------------------------------------------------%*
           MOVE TRANS-DATE-4189-GA01 OF FGAWM01(0001) TO
                WK01-DATE-4189-GA011.
      *%--------------------------------------------------------------%*
           MOVE TRANS-DATE-4189-GA01 OF FGAWM01(0002) TO
                WK01-DATE-4189-GA012.
      *%--------------------------------------------------------------%*
           MOVE TRANS-DATE-4189-GA01 OF FGAWM01(0003) TO
                WK01-DATE-4189-GA013.
      *%--------------------------------------------------------------%*
           MOVE TRANS-DATE-4189-GA01 OF FGAWM01(0004) TO
                WK01-DATE-4189-GA014.
      *%--------------------------------------------------------------%*
           MOVE TRANS-DATE-4189-GA01 OF FGAWM01(0005) TO
                WK01-DATE-4189-GA015.
      *%--------------------------------------------------------------%*
           MOVE JRNL-TYPE-4189-GA01 OF FGAWM01(0001) TO
                WK01-TYPE-4189-GA011.
      *%--------------------------------------------------------------%*
           MOVE JRNL-TYPE-4189-GA01 OF FGAWM01(0002) TO
                WK01-TYPE-4189-GA012.
      *%--------------------------------------------------------------%*
           MOVE JRNL-TYPE-4189-GA01 OF FGAWM01(0003) TO
                WK01-TYPE-4189-GA013.
      *%--------------------------------------------------------------%*
           MOVE JRNL-TYPE-4189-GA01 OF FGAWM01(0004) TO
                WK01-TYPE-4189-GA014.
      *%--------------------------------------------------------------%*
           MOVE JRNL-TYPE-4189-GA01 OF FGAWM01(0005) TO
                WK01-TYPE-4189-GA015.
      *%--------------------------------------------------------------%*
           MOVE DCMNT-NMBR-4189-GA01 OF FGAWM01(0001) TO
                WK01-NMBR-4189-GA011.
      *%--------------------------------------------------------------%*
           MOVE DCMNT-NMBR-4189-GA01 OF FGAWM01(0002) TO
                WK01-NMBR-4189-GA012.
      *%--------------------------------------------------------------%*
           MOVE DCMNT-NMBR-4189-GA01 OF FGAWM01(0003) TO
                WK01-NMBR-4189-GA013.
      *%--------------------------------------------------------------%*
           MOVE DCMNT-NMBR-4189-GA01 OF FGAWM01(0004) TO
                WK01-NMBR-4189-GA014.
      *%--------------------------------------------------------------%*
           MOVE DCMNT-NMBR-4189-GA01 OF FGAWM01(0005) TO
                WK01-NMBR-4189-GA015.
      *%--------------------------------------------------------------%*
           MOVE AMT-4189-GA01 OF FGAWM01(0001) TO WK01-4189-GA011.
      *%--------------------------------------------------------------%*
           MOVE AMT-4189-GA01 OF FGAWM01(0002) TO WK01-4189-GA012.
      *%--------------------------------------------------------------%*
           MOVE AMT-4189-GA01 OF FGAWM01(0003) TO WK01-4189-GA013.
      *%--------------------------------------------------------------%*
           MOVE AMT-4189-GA01 OF FGAWM01(0004) TO WK01-4189-GA014.
      *%--------------------------------------------------------------%*
           MOVE AMT-4189-GA01 OF FGAWM01(0005) TO WK01-4189-GA015.
      *%--------------------------------------------------------------%*
           MOVE REMAIN-BALANCE-GA01 OF FGAWM01(0001) TO
                WK01-BALANCE-GA011.
      *%--------------------------------------------------------------%*
           MOVE REMAIN-BALANCE-GA01 OF FGAWM01(0002) TO
                WK01-BALANCE-GA012.
      *%--------------------------------------------------------------%*
           MOVE REMAIN-BALANCE-GA01 OF FGAWM01(0003) TO
                WK01-BALANCE-GA013.
      *%--------------------------------------------------------------%*
           MOVE REMAIN-BALANCE-GA01 OF FGAWM01(0004) TO
                WK01-BALANCE-GA014.
      *%--------------------------------------------------------------%*
           MOVE REMAIN-BALANCE-GA01 OF FGAWM01(0005) TO
                WK01-BALANCE-GA015.
      *%--------------------------------------------------------------%*
           MOVE ENCMBRNC-ACTN-IND-4188-GA01 OF FGAWM01(0001) TO
                WK01-ACTN-IND-4188-GA011.
      *%--------------------------------------------------------------%*
           MOVE ENCMBRNC-ACTN-IND-4188-GA01 OF FGAWM01(0002) TO
                WK01-ACTN-IND-4188-GA012.
      *%--------------------------------------------------------------%*
           MOVE ENCMBRNC-ACTN-IND-4188-GA01 OF FGAWM01(0003) TO
                WK01-ACTN-IND-4188-GA013.
      *%--------------------------------------------------------------%*
           MOVE ENCMBRNC-ACTN-IND-4188-GA01 OF FGAWM01(0004) TO
                WK01-ACTN-IND-4188-GA014.
      *%--------------------------------------------------------------%*
           MOVE ENCMBRNC-ACTN-IND-4188-GA01 OF FGAWM01(0005) TO
                WK01-ACTN-IND-4188-GA015.
      *%--------------------------------------------------------------%*
           MOVE ENCMBRNC-NMBR-4191-GA01 OF FGAWK01 TO
                WK01-NMBR-4191-GA01.
      *%--------------------------------------------------------------%*
           MOVE FSCL-YR-4183-GA01 OF FGAWK01 TO WK01-YR-4183-GA01.
      *%--------------------------------------------------------------%*
           MOVE COA-CODE-4190-GA01 OF FGAWM01 TO WK01-CODE-4190-GA0A.
      *%--------------------------------------------------------------%*
           MOVE ACCT-INDX-CODE-4190-GA01 OF FGAWM01 TO
                WK01-INDX-CODE-4190-GA01.
      *%--------------------------------------------------------------%*
           MOVE FUND-CODE-4190-GA01 OF FGAWM01 TO WK01-CODE-4190-GA0B.
      *%--------------------------------------------------------------%*
           MOVE ORGZN-CODE-4190-GA01 OF FGAWM01 TO WK01-CODE-4190-GA0C.
      *%--------------------------------------------------------------%*
           MOVE ACCT-CODE-4190-GA01 OF FGAWM01 TO WK01-CODE-4190-GA0D.
      *%--------------------------------------------------------------%*
           MOVE PRGRM-CODE-4190-GA01 OF FGAWM01 TO WK01-CODE-4190-GA0E.
      *%--------------------------------------------------------------%*
           MOVE ACTVY-CODE-4190-GA01 OF FGAWM01 TO WK01-CODE-4190-GA0F.
      *%--------------------------------------------------------------%*
           MOVE LCTN-CODE-4190-GA01 OF FGAWM01 TO WK01-CODE-4190-GA0G.
      *%--------------------------------------------------------------%*
           MOVE VNDR-ID-LAST-NINE-GA01 OF FGAWM01 TO
                WK01-ID-LAST-NINE-GA01.
      *%--------------------------------------------------------------%*
           MOVE ENTY-PERS-NAME-GA01 OF FGAWM01 TO WK01-PERS-NAME-GA01.
      *%--------------------------------------------------------------%*
           MOVE SMRY-ENCMBRNC-ORIG-GA01 OF FGAWM01 TO
                WK01-ENCMBRNC-ORIG-GA01.
      *%--------------------------------------------------------------%*
           MOVE SMRY-ENCMBRNC-LIQDTN-GA01 OF FGAWM01 TO
                WK01-ENCMBRNC-LIQDTN-GA01.
      *%--------------------------------------------------------------%*
           MOVE FSCL-ENCMBRNC-BAL-GA01 OF FGAWM01 TO
                WK01-ENCMBRNC-BAL-GA01.
      *%--------------------------------------------------------------%*
           MOVE ITEM-NMBR-4190-GA01 OF FGAWK01 TO WK01-NMBR-4190-GA01.
      *%--------------------------------------------------------------%*
           MOVE SEQ-NMBR-4190-GA01 OF FGAWK01 TO WK01-NMBR-4190-GA0A.
      *%--------------------------------------------------------------%*
           MOVE ORIG-ENCMBRNC-AMT-GA01 OF FGAWM01 TO
                WK01-ENCMBRNC-AMT-GA01.
      *%--------------------------------------------------------------%*
           MOVE DCMNT-TYPE-4191-GA01 OF FGAWK01 TO WK01-TYPE-4191-GA0A.
