       01  MAP-CONTROL.

    ***Created by Convert/DC version V8R03 on 11/20/00 at 16:00***

           02  FGAMI45-MAP-CONTROL.
           03  FGAMI45T.
           04  WK01-DCXMAPL-PARMS.
               10  WK01-MAPNAME                  PIC X(8)
                                                 VALUE 'FGAMI45I'.
               10  WK01-IKE-LENGTH               PIC S9(8)  COMP
                                                 VALUE 22069.
               10  WK01-TINA-LENGTH              PIC S9(4)  COMP
                                                 VALUE 1385.
           05  WK01-ATTRIBUTES                   PIC X(60)
                                                 VALUE SPACE.
           05  WK01-ATTRIBUTES-ERROR             PIC X(60) VALUE
               'U  BIF'.
           05  WK01-CURSOR-DFLD                  PIC X(36)
                                                 VALUE SPACES.
           05  WK01-CURSOR-DFLD-QUAL             PIC X(30)
                                                 VALUE SPACES.
           05  WK01-ROW                          PIC S9(4) COMP
                                                 VALUE ZERO.
           05  WK01-COLUMN                       PIC S9(4) COMP
                                                 VALUE ZERO.
           05  WK01-ERROR-MSG                    PIC X(80)
                                                 VALUE SPACES.
           05  WK01-MAP-DATA-LEN                 PIC S9(6)
                                                 VALUE ZERO.
           05  WK01-1ST-FLAG                     PIC X(1)
                                                 VALUE 'Y'.
           05  WK01-FLAG-OUTPUT-DATA             PIC X(1)
                                                 VALUE 'Y'.
      *    05  WK01-STATUS-RETURN-FLAG           PIC X(1)
      *                                          VALUE SPACES.
           05  WK01-ALL-BUT-FLAG                 PIC X(1)
                                                 VALUE SPACES.
           05  WK01-FLAG-ALL-FIELDS-CHANGED      PIC X(1)  VALUE 'Y'.
           05  WK01-FLAG-ANY-FIELDS-CHANGED      PIC X(1)  VALUE 'N'.
           05  WK01-FLAG-ALL-FIELDS-ERROR        PIC X(1)  VALUE 'Y'.
           05  WK01-FLAG-ANY-FIELDS-ERROR        PIC X(1)  VALUE 'N'.
           05  WK01-FLAG-ALL-FIELDS-ERASE        PIC X(1)  VALUE 'Y'.
           05  WK01-FLAG-ANY-FIELDS-ERASE        PIC X(1)  VALUE 'Y'.

           05  WK01-VARDATA                      PIC X(11880)
                                                 VALUE SPACES.
           05  FILLER                            PIC X(100)
                                                 VALUE SPACES.
           04  WK01-ELEMENT-AREA.

               10  WK01-ID-SY00-Z              PIC X(1)
                                               VALUE SPACE.
               10  WK01-ID-SY00-F              PIC X(1)
                                               VALUE SPACE.
               10  WK01-ID-SY00-A              PIC X(1)
                                               VALUE SPACE.
               10  WK01-ID-SY00-V              PIC X(1)
                                               VALUE SPACE.
               10  WK01-ID-SY00-O              PIC X(1)
                                               VALUE SPACE.
               10  WK01-ID-SY00       PIC X(8)
                                               VALUE SPACES.
               10  WK01-NAME-6001-SY00-Z              PIC X(1)
                                               VALUE SPACE.
               10  WK01-NAME-6001-SY00-F              PIC X(1)
                                               VALUE SPACE.
               10  WK01-NAME-6001-SY00-A              PIC X(1)
                                               VALUE SPACE.
               10  WK01-NAME-6001-SY00-V              PIC X(1)
                                               VALUE SPACE.
               10  WK01-NAME-6001-SY00-O              PIC X(1)
                                               VALUE SPACE.
               10  WK01-NAME-6001-SY00       PIC X(35)
                                               VALUE SPACES.
               10  WK01-DATE-Z              PIC X(1)
                                               VALUE SPACE.
               10  WK01-DATE-F              PIC X(1)
                                               VALUE SPACE.
               10  WK01-DATE-A              PIC X(1)
                                               VALUE SPACE.
               10  WK01-DATE-V              PIC X(1)
                                               VALUE SPACE.
               10  WK01-DATE-O              PIC X(1)
                                               VALUE SPACE.
               10  WK01-DATE       PIC X(8)
                                               VALUE SPACES.
               10  WK01-HH-MM-TIME-SY00-Z              PIC X(1)
                                               VALUE SPACE.
               10  WK01-HH-MM-TIME-SY00-F              PIC X(1)
                                               VALUE SPACE.
               10  WK01-HH-MM-TIME-SY00-A              PIC X(1)
                                               VALUE SPACE.
               10  WK01-HH-MM-TIME-SY00-V              PIC X(1)
                                               VALUE SPACE.
               10  WK01-HH-MM-TIME-SY00-O              PIC X(1)
                                               VALUE SPACE.
               10  WK01-HH-MM-TIME-SY00       PIC X(4)
                                               VALUE SPACES.
               10  WK01-PM-FLAG-SY00-Z              PIC X(1)
                                               VALUE SPACE.
               10  WK01-PM-FLAG-SY00-F              PIC X(1)
                                               VALUE SPACE.
               10  WK01-PM-FLAG-SY00-A              PIC X(1)
                                               VALUE SPACE.
               10  WK01-PM-FLAG-SY00-V              PIC X(1)
                                               VALUE SPACE.
               10  WK01-PM-FLAG-SY00-O              PIC X(1)
                                               VALUE SPACE.
               10  WK01-PM-FLAG-SY00       PIC X(1)
                                               VALUE SPACES.
               10  WK01-USER-ID-Z              PIC X(1)
                                               VALUE SPACE.
               10  WK01-USER-ID-F              PIC X(1)
                                               VALUE SPACE.
               10  WK01-USER-ID-A              PIC X(1)
                                               VALUE SPACE.
               10  WK01-USER-ID-V              PIC X(1)
                                               VALUE SPACE.
               10  WK01-USER-ID-O              PIC X(1)
                                               VALUE SPACE.
               10  WK01-USER-ID       PIC X(32)
                                               VALUE SPACES.
               10  WK01-RSPNS-ID-SY00-Z              PIC X(1)
                                               VALUE SPACE.
               10  WK01-RSPNS-ID-SY00-F              PIC X(1)
                                               VALUE SPACE.
               10  WK01-RSPNS-ID-SY00-A              PIC X(1)
                                               VALUE SPACE.
               10  WK01-RSPNS-ID-SY00-V              PIC X(1)
                                               VALUE SPACE.
               10  WK01-RSPNS-ID-SY00-O              PIC X(1)
                                               VALUE SPACE.
               10  WK01-RSPNS-ID-SY00       PIC X(8)
                                               VALUE SPACES.
               10  WK01-FUNC-DESCRIPTION-Z              PIC X(1)
                                               VALUE SPACE.
               10  WK01-FUNC-DESCRIPTION-F              PIC X(1)
                                               VALUE SPACE.
               10  WK01-FUNC-DESCRIPTION-A              PIC X(1)
                                               VALUE SPACE.
               10  WK01-FUNC-DESCRIPTION-V              PIC X(1)
                                               VALUE SPACE.
               10  WK01-FUNC-DESCRIPTION-O              PIC X(1)
                                               VALUE SPACE.
               10  WK01-FUNC-DESCRIPTION       PIC X(28)
                                               VALUE SPACES.
               10  WK01-STATUS-CODE-SY00-Z              PIC X(1)
                                               VALUE SPACE.
               10  WK01-STATUS-CODE-SY00-F              PIC X(1)
                                               VALUE SPACE.
               10  WK01-STATUS-CODE-SY00-A              PIC X(1)
                                               VALUE SPACE.
               10  WK01-STATUS-CODE-SY00-V              PIC X(1)
                                               VALUE SPACE.
               10  WK01-STATUS-CODE-SY00-O              PIC X(1)
                                               VALUE SPACE.
               10  WK01-STATUS-CODE-SY00       PIC X(1)
                                               VALUE SPACES.
               10  WK01-CODE-GA4A-Z              PIC X(1)
                                               VALUE SPACE.
               10  WK01-CODE-GA4A-F              PIC X(1)
                                               VALUE SPACE.
               10  WK01-CODE-GA4A-A              PIC X(1)
                                               VALUE SPACE.
               10  WK01-CODE-GA4A-V              PIC X(1)
                                               VALUE SPACE.
               10  WK01-CODE-GA4A-O              PIC X(1)
                                               VALUE SPACE.
               10  WK01-CODE-GA4A       PIC X(1)
                                               VALUE SPACES.
               10  WK01-CODE-GA4B-Z              PIC X(1)
                                               VALUE SPACE.
               10  WK01-CODE-GA4B-F              PIC X(1)
                                               VALUE SPACE.
               10  WK01-CODE-GA4B-A              PIC X(1)
                                               VALUE SPACE.
               10  WK01-CODE-GA4B-V              PIC X(1)
                                               VALUE SPACE.
               10  WK01-CODE-GA4B-O              PIC X(1)
                                               VALUE SPACE.
               10  WK01-CODE-GA4B       PIC X(6)
                                               VALUE SPACES.
               10  WK01-TITLE-4005-GA45-Z              PIC X(1)
                                               VALUE SPACE.
               10  WK01-TITLE-4005-GA45-F              PIC X(1)
                                               VALUE SPACE.
               10  WK01-TITLE-4005-GA45-A              PIC X(1)
                                               VALUE SPACE.
               10  WK01-TITLE-4005-GA45-V              PIC X(1)
                                               VALUE SPACE.
               10  WK01-TITLE-4005-GA45-O              PIC X(1)
                                               VALUE SPACE.
               10  WK01-TITLE-4005-GA45       PIC X(35)
                                               VALUE SPACES.
               10  WK01-STATUS-GA451-Z              PIC X(1)
                                               VALUE SPACE.
               10  WK01-STATUS-GA451-F              PIC X(1)
                                               VALUE SPACE.
               10  WK01-STATUS-GA451-A              PIC X(1)
                                               VALUE SPACE.
               10  WK01-STATUS-GA451-V              PIC X(1)
                                               VALUE SPACE.
               10  WK01-STATUS-GA451-O              PIC X(1)
                                               VALUE SPACE.
               10  WK01-STATUS-GA451       PIC X(1)
                                               VALUE SPACES.
               10  WK01-CODE-GA451-Z              PIC X(1)
                                               VALUE SPACE.
               10  WK01-CODE-GA451-F              PIC X(1)
                                               VALUE SPACE.
               10  WK01-CODE-GA451-A              PIC X(1)
                                               VALUE SPACE.
               10  WK01-CODE-GA451-V              PIC X(1)
                                               VALUE SPACE.
               10  WK01-CODE-GA451-O              PIC X(1)
                                               VALUE SPACE.
               10  WK01-CODE-GA451       PIC X(6)
                                               VALUE SPACES.
               10  WK01-CODE-TITLE-4034-GA451-Z              PIC X(1)
                                               VALUE SPACE.
               10  WK01-CODE-TITLE-4034-GA451-F              PIC X(1)
                                               VALUE SPACE.
               10  WK01-CODE-TITLE-4034-GA451-A              PIC X(1)
                                               VALUE SPACE.
               10  WK01-CODE-TITLE-4034-GA451-V              PIC X(1)
                                               VALUE SPACE.
               10  WK01-CODE-TITLE-4034-GA451-O              PIC X(1)
                                               VALUE SPACE.
               10  WK01-CODE-TITLE-4034-GA451       PIC X(35)
                                               VALUE SPACES.
               10  WK01-ACTVY-DATE-GA451-Z              PIC X(1)
                                               VALUE SPACE.
               10  WK01-ACTVY-DATE-GA451-F              PIC X(1)
                                               VALUE SPACE.
               10  WK01-ACTVY-DATE-GA451-A              PIC X(1)
                                               VALUE SPACE.
               10  WK01-ACTVY-DATE-GA451-V              PIC X(1)
                                               VALUE SPACE.
               10  WK01-ACTVY-DATE-GA451-O              PIC X(1)
                                               VALUE SPACE.
               10  WK01-ACTVY-DATE-GA451       PIC X(6)
                                               VALUE SPACES.
               10  WK01-STAMP-GA451-Z              PIC X(1)
                                               VALUE SPACE.
               10  WK01-STAMP-GA451-F              PIC X(1)
                                               VALUE SPACE.
               10  WK01-STAMP-GA451-A              PIC X(1)
                                               VALUE SPACE.
               10  WK01-STAMP-GA451-V              PIC X(1)
                                               VALUE SPACE.
               10  WK01-STAMP-GA451-O              PIC X(1)
                                               VALUE SPACE.
               10  WK01-STAMP-GA451       PIC X(4)
                                               VALUE SPACES.
               10  WK01-PM-FLAG-GA451-Z              PIC X(1)
                                               VALUE SPACE.
               10  WK01-PM-FLAG-GA451-F              PIC X(1)
                                               VALUE SPACE.
               10  WK01-PM-FLAG-GA451-A              PIC X(1)
                                               VALUE SPACE.
               10  WK01-PM-FLAG-GA451-V              PIC X(1)
                                               VALUE SPACE.
               10  WK01-PM-FLAG-GA451-O              PIC X(1)
                                               VALUE SPACE.
               10  WK01-PM-FLAG-GA451       PIC X(1)
                                               VALUE SPACES.
               10  WK01-STATUS-GA452-Z              PIC X(1)
                                               VALUE SPACE.
               10  WK01-STATUS-GA452-F              PIC X(1)
                                               VALUE SPACE.
               10  WK01-STATUS-GA452-A              PIC X(1)
                                               VALUE SPACE.
               10  WK01-STATUS-GA452-V              PIC X(1)
                                               VALUE SPACE.
               10  WK01-STATUS-GA452-O              PIC X(1)
                                               VALUE SPACE.
               10  WK01-STATUS-GA452       PIC X(1)
                                               VALUE SPACES.
               10  WK01-CODE-GA452-Z              PIC X(1)
                                               VALUE SPACE.
               10  WK01-CODE-GA452-F              PIC X(1)
                                               VALUE SPACE.
               10  WK01-CODE-GA452-A              PIC X(1)
                                               VALUE SPACE.
               10  WK01-CODE-GA452-V              PIC X(1)
                                               VALUE SPACE.
               10  WK01-CODE-GA452-O              PIC X(1)
                                               VALUE SPACE.
               10  WK01-CODE-GA452       PIC X(6)
                                               VALUE SPACES.
               10  WK01-CODE-TITLE-4034-GA452-Z              PIC X(1)
                                               VALUE SPACE.
               10  WK01-CODE-TITLE-4034-GA452-F              PIC X(1)
                                               VALUE SPACE.
               10  WK01-CODE-TITLE-4034-GA452-A              PIC X(1)
                                               VALUE SPACE.
               10  WK01-CODE-TITLE-4034-GA452-V              PIC X(1)
                                               VALUE SPACE.
               10  WK01-CODE-TITLE-4034-GA452-O              PIC X(1)
                                               VALUE SPACE.
               10  WK01-CODE-TITLE-4034-GA452       PIC X(35)
                                               VALUE SPACES.
               10  WK01-ACTVY-DATE-GA452-Z              PIC X(1)
                                               VALUE SPACE.
               10  WK01-ACTVY-DATE-GA452-F              PIC X(1)
                                               VALUE SPACE.
               10  WK01-ACTVY-DATE-GA452-A              PIC X(1)
                                               VALUE SPACE.
               10  WK01-ACTVY-DATE-GA452-V              PIC X(1)
                                               VALUE SPACE.
               10  WK01-ACTVY-DATE-GA452-O              PIC X(1)
                                               VALUE SPACE.
               10  WK01-ACTVY-DATE-GA452       PIC X(6)
                                               VALUE SPACES.
               10  WK01-STAMP-GA452-Z              PIC X(1)
                                               VALUE SPACE.
               10  WK01-STAMP-GA452-F              PIC X(1)
                                               VALUE SPACE.
               10  WK01-STAMP-GA452-A              PIC X(1)
                                               VALUE SPACE.
               10  WK01-STAMP-GA452-V              PIC X(1)
                                               VALUE SPACE.
               10  WK01-STAMP-GA452-O              PIC X(1)
                                               VALUE SPACE.
               10  WK01-STAMP-GA452       PIC X(4)
                                               VALUE SPACES.
               10  WK01-PM-FLAG-GA452-Z              PIC X(1)
                                               VALUE SPACE.
               10  WK01-PM-FLAG-GA452-F              PIC X(1)
                                               VALUE SPACE.
               10  WK01-PM-FLAG-GA452-A              PIC X(1)
                                               VALUE SPACE.
               10  WK01-PM-FLAG-GA452-V              PIC X(1)
                                               VALUE SPACE.
               10  WK01-PM-FLAG-GA452-O              PIC X(1)
                                               VALUE SPACE.
               10  WK01-PM-FLAG-GA452       PIC X(1)
                                               VALUE SPACES.
               10  WK01-STATUS-GA453-Z              PIC X(1)
                                               VALUE SPACE.
               10  WK01-STATUS-GA453-F              PIC X(1)
                                               VALUE SPACE.
               10  WK01-STATUS-GA453-A              PIC X(1)
                                               VALUE SPACE.
               10  WK01-STATUS-GA453-V              PIC X(1)
                                               VALUE SPACE.
               10  WK01-STATUS-GA453-O              PIC X(1)
                                               VALUE SPACE.
               10  WK01-STATUS-GA453       PIC X(1)
                                               VALUE SPACES.
               10  WK01-CODE-GA453-Z              PIC X(1)
                                               VALUE SPACE.
               10  WK01-CODE-GA453-F              PIC X(1)
                                               VALUE SPACE.
               10  WK01-CODE-GA453-A              PIC X(1)
                                               VALUE SPACE.
               10  WK01-CODE-GA453-V              PIC X(1)
                                               VALUE SPACE.
               10  WK01-CODE-GA453-O              PIC X(1)
                                               VALUE SPACE.
               10  WK01-CODE-GA453       PIC X(6)
                                               VALUE SPACES.
               10  WK01-CODE-TITLE-4034-GA453-Z              PIC X(1)
                                               VALUE SPACE.
               10  WK01-CODE-TITLE-4034-GA453-F              PIC X(1)
                                               VALUE SPACE.
               10  WK01-CODE-TITLE-4034-GA453-A              PIC X(1)
                                               VALUE SPACE.
               10  WK01-CODE-TITLE-4034-GA453-V              PIC X(1)
                                               VALUE SPACE.
               10  WK01-CODE-TITLE-4034-GA453-O              PIC X(1)
                                               VALUE SPACE.
               10  WK01-CODE-TITLE-4034-GA453       PIC X(35)
                                               VALUE SPACES.
               10  WK01-ACTVY-DATE-GA453-Z              PIC X(1)
                                               VALUE SPACE.
               10  WK01-ACTVY-DATE-GA453-F              PIC X(1)
                                               VALUE SPACE.
               10  WK01-ACTVY-DATE-GA453-A              PIC X(1)
                                               VALUE SPACE.
               10  WK01-ACTVY-DATE-GA453-V              PIC X(1)
                                               VALUE SPACE.
               10  WK01-ACTVY-DATE-GA453-O              PIC X(1)
                                               VALUE SPACE.
               10  WK01-ACTVY-DATE-GA453       PIC X(6)
                                               VALUE SPACES.
               10  WK01-STAMP-GA453-Z              PIC X(1)
                                               VALUE SPACE.
               10  WK01-STAMP-GA453-F              PIC X(1)
                                               VALUE SPACE.
               10  WK01-STAMP-GA453-A              PIC X(1)
                                               VALUE SPACE.
               10  WK01-STAMP-GA453-V              PIC X(1)
                                               VALUE SPACE.
               10  WK01-STAMP-GA453-O              PIC X(1)
                                               VALUE SPACE.
               10  WK01-STAMP-GA453       PIC X(4)
                                               VALUE SPACES.
               10  WK01-PM-FLAG-GA453-Z              PIC X(1)
                                               VALUE SPACE.
               10  WK01-PM-FLAG-GA453-F              PIC X(1)
                                               VALUE SPACE.
               10  WK01-PM-FLAG-GA453-A              PIC X(1)
                                               VALUE SPACE.
               10  WK01-PM-FLAG-GA453-V              PIC X(1)
                                               VALUE SPACE.
               10  WK01-PM-FLAG-GA453-O              PIC X(1)
                                               VALUE SPACE.
               10  WK01-PM-FLAG-GA453       PIC X(1)
                                               VALUE SPACES.
               10  WK01-STATUS-GA454-Z              PIC X(1)
                                               VALUE SPACE.
               10  WK01-STATUS-GA454-F              PIC X(1)
                                               VALUE SPACE.
               10  WK01-STATUS-GA454-A              PIC X(1)
                                               VALUE SPACE.
               10  WK01-STATUS-GA454-V              PIC X(1)
                                               VALUE SPACE.
               10  WK01-STATUS-GA454-O              PIC X(1)
                                               VALUE SPACE.
               10  WK01-STATUS-GA454       PIC X(1)
                                               VALUE SPACES.
               10  WK01-CODE-GA454-Z              PIC X(1)
                                               VALUE SPACE.
               10  WK01-CODE-GA454-F              PIC X(1)
                                               VALUE SPACE.
               10  WK01-CODE-GA454-A              PIC X(1)
                                               VALUE SPACE.
               10  WK01-CODE-GA454-V              PIC X(1)
                                               VALUE SPACE.
               10  WK01-CODE-GA454-O              PIC X(1)
                                               VALUE SPACE.
               10  WK01-CODE-GA454       PIC X(6)
                                               VALUE SPACES.
               10  WK01-CODE-TITLE-4034-GA454-Z              PIC X(1)
                                               VALUE SPACE.
               10  WK01-CODE-TITLE-4034-GA454-F              PIC X(1)
                                               VALUE SPACE.
               10  WK01-CODE-TITLE-4034-GA454-A              PIC X(1)
                                               VALUE SPACE.
               10  WK01-CODE-TITLE-4034-GA454-V              PIC X(1)
                                               VALUE SPACE.
               10  WK01-CODE-TITLE-4034-GA454-O              PIC X(1)
                                               VALUE SPACE.
               10  WK01-CODE-TITLE-4034-GA454       PIC X(35)
                                               VALUE SPACES.
               10  WK01-ACTVY-DATE-GA454-Z              PIC X(1)
                                               VALUE SPACE.
               10  WK01-ACTVY-DATE-GA454-F              PIC X(1)
                                               VALUE SPACE.
               10  WK01-ACTVY-DATE-GA454-A              PIC X(1)
                                               VALUE SPACE.
               10  WK01-ACTVY-DATE-GA454-V              PIC X(1)
                                               VALUE SPACE.
               10  WK01-ACTVY-DATE-GA454-O              PIC X(1)
                                               VALUE SPACE.
               10  WK01-ACTVY-DATE-GA454       PIC X(6)
                                               VALUE SPACES.
               10  WK01-STAMP-GA454-Z              PIC X(1)
                                               VALUE SPACE.
               10  WK01-STAMP-GA454-F              PIC X(1)
                                               VALUE SPACE.
               10  WK01-STAMP-GA454-A              PIC X(1)
                                               VALUE SPACE.
               10  WK01-STAMP-GA454-V              PIC X(1)
                                               VALUE SPACE.
               10  WK01-STAMP-GA454-O              PIC X(1)
                                               VALUE SPACE.
               10  WK01-STAMP-GA454       PIC X(4)
                                               VALUE SPACES.
               10  WK01-PM-FLAG-GA454-Z              PIC X(1)
                                               VALUE SPACE.
               10  WK01-PM-FLAG-GA454-F              PIC X(1)
                                               VALUE SPACE.
               10  WK01-PM-FLAG-GA454-A              PIC X(1)
                                               VALUE SPACE.
               10  WK01-PM-FLAG-GA454-V              PIC X(1)
                                               VALUE SPACE.
               10  WK01-PM-FLAG-GA454-O              PIC X(1)
                                               VALUE SPACE.
               10  WK01-PM-FLAG-GA454       PIC X(1)
                                               VALUE SPACES.
               10  WK01-STATUS-GA455-Z              PIC X(1)
                                               VALUE SPACE.
               10  WK01-STATUS-GA455-F              PIC X(1)
                                               VALUE SPACE.
               10  WK01-STATUS-GA455-A              PIC X(1)
                                               VALUE SPACE.
               10  WK01-STATUS-GA455-V              PIC X(1)
                                               VALUE SPACE.
               10  WK01-STATUS-GA455-O              PIC X(1)
                                               VALUE SPACE.
               10  WK01-STATUS-GA455       PIC X(1)
                                               VALUE SPACES.
               10  WK01-CODE-GA455-Z              PIC X(1)
                                               VALUE SPACE.
               10  WK01-CODE-GA455-F              PIC X(1)
                                               VALUE SPACE.
               10  WK01-CODE-GA455-A              PIC X(1)
                                               VALUE SPACE.
               10  WK01-CODE-GA455-V              PIC X(1)
                                               VALUE SPACE.
               10  WK01-CODE-GA455-O              PIC X(1)
                                               VALUE SPACE.
               10  WK01-CODE-GA455       PIC X(6)
                                               VALUE SPACES.
               10  WK01-CODE-TITLE-4034-GA455-Z              PIC X(1)
                                               VALUE SPACE.
               10  WK01-CODE-TITLE-4034-GA455-F              PIC X(1)
                                               VALUE SPACE.
               10  WK01-CODE-TITLE-4034-GA455-A              PIC X(1)
                                               VALUE SPACE.
               10  WK01-CODE-TITLE-4034-GA455-V              PIC X(1)
                                               VALUE SPACE.
               10  WK01-CODE-TITLE-4034-GA455-O              PIC X(1)
                                               VALUE SPACE.
               10  WK01-CODE-TITLE-4034-GA455       PIC X(35)
                                               VALUE SPACES.
               10  WK01-ACTVY-DATE-GA455-Z              PIC X(1)
                                               VALUE SPACE.
               10  WK01-ACTVY-DATE-GA455-F              PIC X(1)
                                               VALUE SPACE.
               10  WK01-ACTVY-DATE-GA455-A              PIC X(1)
                                               VALUE SPACE.
               10  WK01-ACTVY-DATE-GA455-V              PIC X(1)
                                               VALUE SPACE.
               10  WK01-ACTVY-DATE-GA455-O              PIC X(1)
                                               VALUE SPACE.
               10  WK01-ACTVY-DATE-GA455       PIC X(6)
                                               VALUE SPACES.
               10  WK01-STAMP-GA455-Z              PIC X(1)
                                               VALUE SPACE.
               10  WK01-STAMP-GA455-F              PIC X(1)
                                               VALUE SPACE.
               10  WK01-STAMP-GA455-A              PIC X(1)
                                               VALUE SPACE.
               10  WK01-STAMP-GA455-V              PIC X(1)
                                               VALUE SPACE.
               10  WK01-STAMP-GA455-O              PIC X(1)
                                               VALUE SPACE.
               10  WK01-STAMP-GA455       PIC X(4)
                                               VALUE SPACES.
               10  WK01-PM-FLAG-GA455-Z              PIC X(1)
                                               VALUE SPACE.
               10  WK01-PM-FLAG-GA455-F              PIC X(1)
                                               VALUE SPACE.
               10  WK01-PM-FLAG-GA455-A              PIC X(1)
                                               VALUE SPACE.
               10  WK01-PM-FLAG-GA455-V              PIC X(1)
                                               VALUE SPACE.
               10  WK01-PM-FLAG-GA455-O              PIC X(1)
                                               VALUE SPACE.
               10  WK01-PM-FLAG-GA455       PIC X(1)
                                               VALUE SPACES.
               10  WK01-STATUS-GA456-Z              PIC X(1)
                                               VALUE SPACE.
               10  WK01-STATUS-GA456-F              PIC X(1)
                                               VALUE SPACE.
               10  WK01-STATUS-GA456-A              PIC X(1)
                                               VALUE SPACE.
               10  WK01-STATUS-GA456-V              PIC X(1)
                                               VALUE SPACE.
               10  WK01-STATUS-GA456-O              PIC X(1)
                                               VALUE SPACE.
               10  WK01-STATUS-GA456       PIC X(1)
                                               VALUE SPACES.
               10  WK01-CODE-GA456-Z              PIC X(1)
                                               VALUE SPACE.
               10  WK01-CODE-GA456-F              PIC X(1)
                                               VALUE SPACE.
               10  WK01-CODE-GA456-A              PIC X(1)
                                               VALUE SPACE.
               10  WK01-CODE-GA456-V              PIC X(1)
                                               VALUE SPACE.
               10  WK01-CODE-GA456-O              PIC X(1)
                                               VALUE SPACE.
               10  WK01-CODE-GA456       PIC X(6)
                                               VALUE SPACES.
               10  WK01-CODE-TITLE-4034-GA456-Z              PIC X(1)
                                               VALUE SPACE.
               10  WK01-CODE-TITLE-4034-GA456-F              PIC X(1)
                                               VALUE SPACE.
               10  WK01-CODE-TITLE-4034-GA456-A              PIC X(1)
                                               VALUE SPACE.
               10  WK01-CODE-TITLE-4034-GA456-V              PIC X(1)
                                               VALUE SPACE.
               10  WK01-CODE-TITLE-4034-GA456-O              PIC X(1)
                                               VALUE SPACE.
               10  WK01-CODE-TITLE-4034-GA456       PIC X(35)
                                               VALUE SPACES.
               10  WK01-ACTVY-DATE-GA456-Z              PIC X(1)
                                               VALUE SPACE.
               10  WK01-ACTVY-DATE-GA456-F              PIC X(1)
                                               VALUE SPACE.
               10  WK01-ACTVY-DATE-GA456-A              PIC X(1)
                                               VALUE SPACE.
               10  WK01-ACTVY-DATE-GA456-V              PIC X(1)
                                               VALUE SPACE.
               10  WK01-ACTVY-DATE-GA456-O              PIC X(1)
                                               VALUE SPACE.
               10  WK01-ACTVY-DATE-GA456       PIC X(6)
                                               VALUE SPACES.
               10  WK01-STAMP-GA456-Z              PIC X(1)
                                               VALUE SPACE.
               10  WK01-STAMP-GA456-F              PIC X(1)
                                               VALUE SPACE.
               10  WK01-STAMP-GA456-A              PIC X(1)
                                               VALUE SPACE.
               10  WK01-STAMP-GA456-V              PIC X(1)
                                               VALUE SPACE.
               10  WK01-STAMP-GA456-O              PIC X(1)
                                               VALUE SPACE.
               10  WK01-STAMP-GA456       PIC X(4)
                                               VALUE SPACES.
               10  WK01-PM-FLAG-GA456-Z              PIC X(1)
                                               VALUE SPACE.
               10  WK01-PM-FLAG-GA456-F              PIC X(1)
                                               VALUE SPACE.
               10  WK01-PM-FLAG-GA456-A              PIC X(1)
                                               VALUE SPACE.
               10  WK01-PM-FLAG-GA456-V              PIC X(1)
                                               VALUE SPACE.
               10  WK01-PM-FLAG-GA456-O              PIC X(1)
                                               VALUE SPACE.
               10  WK01-PM-FLAG-GA456       PIC X(1)
                                               VALUE SPACES.
               10  WK01-STATUS-GA457-Z              PIC X(1)
                                               VALUE SPACE.
               10  WK01-STATUS-GA457-F              PIC X(1)
                                               VALUE SPACE.
               10  WK01-STATUS-GA457-A              PIC X(1)
                                               VALUE SPACE.
               10  WK01-STATUS-GA457-V              PIC X(1)
                                               VALUE SPACE.
               10  WK01-STATUS-GA457-O              PIC X(1)
                                               VALUE SPACE.
               10  WK01-STATUS-GA457       PIC X(1)
                                               VALUE SPACES.
               10  WK01-CODE-GA457-Z              PIC X(1)
                                               VALUE SPACE.
               10  WK01-CODE-GA457-F              PIC X(1)
                                               VALUE SPACE.
               10  WK01-CODE-GA457-A              PIC X(1)
                                               VALUE SPACE.
               10  WK01-CODE-GA457-V              PIC X(1)
                                               VALUE SPACE.
               10  WK01-CODE-GA457-O              PIC X(1)
                                               VALUE SPACE.
               10  WK01-CODE-GA457       PIC X(6)
                                               VALUE SPACES.
               10  WK01-CODE-TITLE-4034-GA457-Z              PIC X(1)
                                               VALUE SPACE.
               10  WK01-CODE-TITLE-4034-GA457-F              PIC X(1)
                                               VALUE SPACE.
               10  WK01-CODE-TITLE-4034-GA457-A              PIC X(1)
                                               VALUE SPACE.
               10  WK01-CODE-TITLE-4034-GA457-V              PIC X(1)
                                               VALUE SPACE.
               10  WK01-CODE-TITLE-4034-GA457-O              PIC X(1)
                                               VALUE SPACE.
               10  WK01-CODE-TITLE-4034-GA457       PIC X(35)
                                               VALUE SPACES.
               10  WK01-ACTVY-DATE-GA457-Z              PIC X(1)
                                               VALUE SPACE.
               10  WK01-ACTVY-DATE-GA457-F              PIC X(1)
                                               VALUE SPACE.
               10  WK01-ACTVY-DATE-GA457-A              PIC X(1)
                                               VALUE SPACE.
               10  WK01-ACTVY-DATE-GA457-V              PIC X(1)
                                               VALUE SPACE.
               10  WK01-ACTVY-DATE-GA457-O              PIC X(1)
                                               VALUE SPACE.
               10  WK01-ACTVY-DATE-GA457       PIC X(6)
                                               VALUE SPACES.
               10  WK01-STAMP-GA457-Z              PIC X(1)
                                               VALUE SPACE.
               10  WK01-STAMP-GA457-F              PIC X(1)
                                               VALUE SPACE.
               10  WK01-STAMP-GA457-A              PIC X(1)
                                               VALUE SPACE.
               10  WK01-STAMP-GA457-V              PIC X(1)
                                               VALUE SPACE.
               10  WK01-STAMP-GA457-O              PIC X(1)
                                               VALUE SPACE.
               10  WK01-STAMP-GA457       PIC X(4)
                                               VALUE SPACES.
               10  WK01-PM-FLAG-GA457-Z              PIC X(1)
                                               VALUE SPACE.
               10  WK01-PM-FLAG-GA457-F              PIC X(1)
                                               VALUE SPACE.
               10  WK01-PM-FLAG-GA457-A              PIC X(1)
                                               VALUE SPACE.
               10  WK01-PM-FLAG-GA457-V              PIC X(1)
                                               VALUE SPACE.
               10  WK01-PM-FLAG-GA457-O              PIC X(1)
                                               VALUE SPACE.
               10  WK01-PM-FLAG-GA457       PIC X(1)
                                               VALUE SPACES.
               10  WK01-STATUS-GA458-Z              PIC X(1)
                                               VALUE SPACE.
               10  WK01-STATUS-GA458-F              PIC X(1)
                                               VALUE SPACE.
               10  WK01-STATUS-GA458-A              PIC X(1)
                                               VALUE SPACE.
               10  WK01-STATUS-GA458-V              PIC X(1)
                                               VALUE SPACE.
               10  WK01-STATUS-GA458-O              PIC X(1)
                                               VALUE SPACE.
               10  WK01-STATUS-GA458       PIC X(1)
                                               VALUE SPACES.
               10  WK01-CODE-GA458-Z              PIC X(1)
                                               VALUE SPACE.
               10  WK01-CODE-GA458-F              PIC X(1)
                                               VALUE SPACE.
               10  WK01-CODE-GA458-A              PIC X(1)
                                               VALUE SPACE.
               10  WK01-CODE-GA458-V              PIC X(1)
                                               VALUE SPACE.
               10  WK01-CODE-GA458-O              PIC X(1)
                                               VALUE SPACE.
               10  WK01-CODE-GA458       PIC X(6)
                                               VALUE SPACES.
               10  WK01-CODE-TITLE-4034-GA458-Z              PIC X(1)
                                               VALUE SPACE.
               10  WK01-CODE-TITLE-4034-GA458-F              PIC X(1)
                                               VALUE SPACE.
               10  WK01-CODE-TITLE-4034-GA458-A              PIC X(1)
                                               VALUE SPACE.
               10  WK01-CODE-TITLE-4034-GA458-V              PIC X(1)
                                               VALUE SPACE.
               10  WK01-CODE-TITLE-4034-GA458-O              PIC X(1)
                                               VALUE SPACE.
               10  WK01-CODE-TITLE-4034-GA458       PIC X(35)
                                               VALUE SPACES.
               10  WK01-ACTVY-DATE-GA458-Z              PIC X(1)
                                               VALUE SPACE.
               10  WK01-ACTVY-DATE-GA458-F              PIC X(1)
                                               VALUE SPACE.
               10  WK01-ACTVY-DATE-GA458-A              PIC X(1)
                                               VALUE SPACE.
               10  WK01-ACTVY-DATE-GA458-V              PIC X(1)
                                               VALUE SPACE.
               10  WK01-ACTVY-DATE-GA458-O              PIC X(1)
                                               VALUE SPACE.
               10  WK01-ACTVY-DATE-GA458       PIC X(6)
                                               VALUE SPACES.
               10  WK01-STAMP-GA458-Z              PIC X(1)
                                               VALUE SPACE.
               10  WK01-STAMP-GA458-F              PIC X(1)
                                               VALUE SPACE.
               10  WK01-STAMP-GA458-A              PIC X(1)
                                               VALUE SPACE.
               10  WK01-STAMP-GA458-V              PIC X(1)
                                               VALUE SPACE.
               10  WK01-STAMP-GA458-O              PIC X(1)
                                               VALUE SPACE.
               10  WK01-STAMP-GA458       PIC X(4)
                                               VALUE SPACES.
               10  WK01-PM-FLAG-GA458-Z              PIC X(1)
                                               VALUE SPACE.
               10  WK01-PM-FLAG-GA458-F              PIC X(1)
                                               VALUE SPACE.
               10  WK01-PM-FLAG-GA458-A              PIC X(1)
                                               VALUE SPACE.
               10  WK01-PM-FLAG-GA458-V              PIC X(1)
                                               VALUE SPACE.
               10  WK01-PM-FLAG-GA458-O              PIC X(1)
                                               VALUE SPACE.
               10  WK01-PM-FLAG-GA458       PIC X(1)
                                               VALUE SPACES.
               10  WK01-STATUS-GA459-Z              PIC X(1)
                                               VALUE SPACE.
               10  WK01-STATUS-GA459-F              PIC X(1)
                                               VALUE SPACE.
               10  WK01-STATUS-GA459-A              PIC X(1)
                                               VALUE SPACE.
               10  WK01-STATUS-GA459-V              PIC X(1)
                                               VALUE SPACE.
               10  WK01-STATUS-GA459-O              PIC X(1)
                                               VALUE SPACE.
               10  WK01-STATUS-GA459       PIC X(1)
                                               VALUE SPACES.
               10  WK01-CODE-GA459-Z              PIC X(1)
                                               VALUE SPACE.
               10  WK01-CODE-GA459-F              PIC X(1)
                                               VALUE SPACE.
               10  WK01-CODE-GA459-A              PIC X(1)
                                               VALUE SPACE.
               10  WK01-CODE-GA459-V              PIC X(1)
                                               VALUE SPACE.
               10  WK01-CODE-GA459-O              PIC X(1)
                                               VALUE SPACE.
               10  WK01-CODE-GA459       PIC X(6)
                                               VALUE SPACES.
               10  WK01-CODE-TITLE-4034-GA459-Z              PIC X(1)
                                               VALUE SPACE.
               10  WK01-CODE-TITLE-4034-GA459-F              PIC X(1)
                                               VALUE SPACE.
               10  WK01-CODE-TITLE-4034-GA459-A              PIC X(1)
                                               VALUE SPACE.
               10  WK01-CODE-TITLE-4034-GA459-V              PIC X(1)
                                               VALUE SPACE.
               10  WK01-CODE-TITLE-4034-GA459-O              PIC X(1)
                                               VALUE SPACE.
               10  WK01-CODE-TITLE-4034-GA459       PIC X(35)
                                               VALUE SPACES.
               10  WK01-ACTVY-DATE-GA459-Z              PIC X(1)
                                               VALUE SPACE.
               10  WK01-ACTVY-DATE-GA459-F              PIC X(1)
                                               VALUE SPACE.
               10  WK01-ACTVY-DATE-GA459-A              PIC X(1)
                                               VALUE SPACE.
               10  WK01-ACTVY-DATE-GA459-V              PIC X(1)
                                               VALUE SPACE.
               10  WK01-ACTVY-DATE-GA459-O              PIC X(1)
                                               VALUE SPACE.
               10  WK01-ACTVY-DATE-GA459       PIC X(6)
                                               VALUE SPACES.
               10  WK01-STAMP-GA459-Z              PIC X(1)
                                               VALUE SPACE.
               10  WK01-STAMP-GA459-F              PIC X(1)
                                               VALUE SPACE.
               10  WK01-STAMP-GA459-A              PIC X(1)
                                               VALUE SPACE.
               10  WK01-STAMP-GA459-V              PIC X(1)
                                               VALUE SPACE.
               10  WK01-STAMP-GA459-O              PIC X(1)
                                               VALUE SPACE.
               10  WK01-STAMP-GA459       PIC X(4)
                                               VALUE SPACES.
               10  WK01-PM-FLAG-GA459-Z              PIC X(1)
                                               VALUE SPACE.
               10  WK01-PM-FLAG-GA459-F              PIC X(1)
                                               VALUE SPACE.
               10  WK01-PM-FLAG-GA459-A              PIC X(1)
                                               VALUE SPACE.
               10  WK01-PM-FLAG-GA459-V              PIC X(1)
                                               VALUE SPACE.
               10  WK01-PM-FLAG-GA459-O              PIC X(1)
                                               VALUE SPACE.
               10  WK01-PM-FLAG-GA459       PIC X(1)
                                               VALUE SPACES.
               10  WK01-STATUS-GA4510-Z              PIC X(1)
                                               VALUE SPACE.
               10  WK01-STATUS-GA4510-F              PIC X(1)
                                               VALUE SPACE.
               10  WK01-STATUS-GA4510-A              PIC X(1)
                                               VALUE SPACE.
               10  WK01-STATUS-GA4510-V              PIC X(1)
                                               VALUE SPACE.
               10  WK01-STATUS-GA4510-O              PIC X(1)
                                               VALUE SPACE.
               10  WK01-STATUS-GA4510       PIC X(1)
                                               VALUE SPACES.
               10  WK01-CODE-GA4510-Z              PIC X(1)
                                               VALUE SPACE.
               10  WK01-CODE-GA4510-F              PIC X(1)
                                               VALUE SPACE.
               10  WK01-CODE-GA4510-A              PIC X(1)
                                               VALUE SPACE.
               10  WK01-CODE-GA4510-V              PIC X(1)
                                               VALUE SPACE.
               10  WK01-CODE-GA4510-O              PIC X(1)
                                               VALUE SPACE.
               10  WK01-CODE-GA4510       PIC X(6)
                                               VALUE SPACES.
               10  WK01-CODE-TITLE-4034-GA4510-Z              PIC X(1)
                                               VALUE SPACE.
               10  WK01-CODE-TITLE-4034-GA4510-F              PIC X(1)
                                               VALUE SPACE.
               10  WK01-CODE-TITLE-4034-GA4510-A              PIC X(1)
                                               VALUE SPACE.
               10  WK01-CODE-TITLE-4034-GA4510-V              PIC X(1)
                                               VALUE SPACE.
               10  WK01-CODE-TITLE-4034-GA4510-O              PIC X(1)
                                               VALUE SPACE.
               10  WK01-CODE-TITLE-4034-GA4510       PIC X(35)
                                               VALUE SPACES.
               10  WK01-ACTVY-DATE-GA4510-Z              PIC X(1)
                                               VALUE SPACE.
               10  WK01-ACTVY-DATE-GA4510-F              PIC X(1)
                                               VALUE SPACE.
               10  WK01-ACTVY-DATE-GA4510-A              PIC X(1)
                                               VALUE SPACE.
               10  WK01-ACTVY-DATE-GA4510-V              PIC X(1)
                                               VALUE SPACE.
               10  WK01-ACTVY-DATE-GA4510-O              PIC X(1)
                                               VALUE SPACE.
               10  WK01-ACTVY-DATE-GA4510       PIC X(6)
                                               VALUE SPACES.
               10  WK01-STAMP-GA4510-Z              PIC X(1)
                                               VALUE SPACE.
               10  WK01-STAMP-GA4510-F              PIC X(1)
                                               VALUE SPACE.
               10  WK01-STAMP-GA4510-A              PIC X(1)
                                               VALUE SPACE.
               10  WK01-STAMP-GA4510-V              PIC X(1)
                                               VALUE SPACE.
               10  WK01-STAMP-GA4510-O              PIC X(1)
                                               VALUE SPACE.
               10  WK01-STAMP-GA4510       PIC X(4)
                                               VALUE SPACES.
               10  WK01-PM-FLAG-GA4510-Z              PIC X(1)
                                               VALUE SPACE.
               10  WK01-PM-FLAG-GA4510-F              PIC X(1)
                                               VALUE SPACE.
               10  WK01-PM-FLAG-GA4510-A              PIC X(1)
                                               VALUE SPACE.
               10  WK01-PM-FLAG-GA4510-V              PIC X(1)
                                               VALUE SPACE.
               10  WK01-PM-FLAG-GA4510-O              PIC X(1)
                                               VALUE SPACE.
               10  WK01-PM-FLAG-GA4510       PIC X(1)
                                               VALUE SPACES.
               10  WK01-STATUS-GA4511-Z              PIC X(1)
                                               VALUE SPACE.
               10  WK01-STATUS-GA4511-F              PIC X(1)
                                               VALUE SPACE.
               10  WK01-STATUS-GA4511-A              PIC X(1)
                                               VALUE SPACE.
               10  WK01-STATUS-GA4511-V              PIC X(1)
                                               VALUE SPACE.
               10  WK01-STATUS-GA4511-O              PIC X(1)
                                               VALUE SPACE.
               10  WK01-STATUS-GA4511       PIC X(1)
                                               VALUE SPACES.
               10  WK01-CODE-GA4511-Z              PIC X(1)
                                               VALUE SPACE.
               10  WK01-CODE-GA4511-F              PIC X(1)
                                               VALUE SPACE.
               10  WK01-CODE-GA4511-A              PIC X(1)
                                               VALUE SPACE.
               10  WK01-CODE-GA4511-V              PIC X(1)
                                               VALUE SPACE.
               10  WK01-CODE-GA4511-O              PIC X(1)
                                               VALUE SPACE.
               10  WK01-CODE-GA4511       PIC X(6)
                                               VALUE SPACES.
               10  WK01-CODE-TITLE-4034-GA4511-Z              PIC X(1)
                                               VALUE SPACE.
               10  WK01-CODE-TITLE-4034-GA4511-F              PIC X(1)
                                               VALUE SPACE.
               10  WK01-CODE-TITLE-4034-GA4511-A              PIC X(1)
                                               VALUE SPACE.
               10  WK01-CODE-TITLE-4034-GA4511-V              PIC X(1)
                                               VALUE SPACE.
               10  WK01-CODE-TITLE-4034-GA4511-O              PIC X(1)
                                               VALUE SPACE.
               10  WK01-CODE-TITLE-4034-GA4511       PIC X(35)
                                               VALUE SPACES.
               10  WK01-ACTVY-DATE-GA4511-Z              PIC X(1)
                                               VALUE SPACE.
               10  WK01-ACTVY-DATE-GA4511-F              PIC X(1)
                                               VALUE SPACE.
               10  WK01-ACTVY-DATE-GA4511-A              PIC X(1)
                                               VALUE SPACE.
               10  WK01-ACTVY-DATE-GA4511-V              PIC X(1)
                                               VALUE SPACE.
               10  WK01-ACTVY-DATE-GA4511-O              PIC X(1)
                                               VALUE SPACE.
               10  WK01-ACTVY-DATE-GA4511       PIC X(6)
                                               VALUE SPACES.
               10  WK01-STAMP-GA4511-Z              PIC X(1)
                                               VALUE SPACE.
               10  WK01-STAMP-GA4511-F              PIC X(1)
                                               VALUE SPACE.
               10  WK01-STAMP-GA4511-A              PIC X(1)
                                               VALUE SPACE.
               10  WK01-STAMP-GA4511-V              PIC X(1)
                                               VALUE SPACE.
               10  WK01-STAMP-GA4511-O              PIC X(1)
                                               VALUE SPACE.
               10  WK01-STAMP-GA4511       PIC X(4)
                                               VALUE SPACES.
               10  WK01-PM-FLAG-GA4511-Z              PIC X(1)
                                               VALUE SPACE.
               10  WK01-PM-FLAG-GA4511-F              PIC X(1)
                                               VALUE SPACE.
               10  WK01-PM-FLAG-GA4511-A              PIC X(1)
                                               VALUE SPACE.
               10  WK01-PM-FLAG-GA4511-V              PIC X(1)
                                               VALUE SPACE.
               10  WK01-PM-FLAG-GA4511-O              PIC X(1)
                                               VALUE SPACE.
               10  WK01-PM-FLAG-GA4511       PIC X(1)
                                               VALUE SPACES.
               10  WK01-ACCT-CODE-GA45-Z              PIC X(1)
                                               VALUE SPACE.
               10  WK01-ACCT-CODE-GA45-F              PIC X(1)
                                               VALUE SPACE.
               10  WK01-ACCT-CODE-GA45-A              PIC X(1)
                                               VALUE SPACE.
               10  WK01-ACCT-CODE-GA45-V              PIC X(1)
                                               VALUE SPACE.
               10  WK01-ACCT-CODE-GA45-O              PIC X(1)
                                               VALUE SPACE.
               10  WK01-ACCT-CODE-GA45       PIC X(6)
                                               VALUE SPACES.
               10  WK01-ZZMESSAGE-Z              PIC X(1)
                                               VALUE SPACE.
               10  WK01-ZZMESSAGE-F              PIC X(1)
                                               VALUE SPACE.
               10  WK01-ZZMESSAGE-A              PIC X(1)
                                               VALUE SPACE.
               10  WK01-ZZMESSAGE-V              PIC X(1)
                                               VALUE SPACE.
               10  WK01-ZZMESSAGE-O              PIC X(1)
                                               VALUE SPACE.
               10  WK01-ZZMESSAGE       PIC X(160)
                                               VALUE SPACES.
               10  WK01-PASSED-ONE-Z              PIC X(1)
                                               VALUE SPACE.
               10  WK01-PASSED-ONE-F              PIC X(1)
                                               VALUE SPACE.
               10  WK01-PASSED-ONE-A              PIC X(1)
                                               VALUE SPACE.
               10  WK01-PASSED-ONE-V              PIC X(1)
                                               VALUE SPACE.
               10  WK01-PASSED-ONE-O              PIC X(1)
                                               VALUE SPACE.
               10  WK01-PASSED-ONE       PIC X(32)
                                               VALUE SPACES.
               10  WK01-MAP-RESPONSE-Z              PIC X(1)
                                               VALUE SPACE.
               10  WK01-MAP-RESPONSE-F              PIC X(1)
                                               VALUE SPACE.
               10  WK01-MAP-RESPONSE-A              PIC X(1)
                                               VALUE SPACE.
               10  WK01-MAP-RESPONSE-V              PIC X(1)
                                               VALUE SPACE.
               10  WK01-MAP-RESPONSE-O              PIC X(1)
                                               VALUE SPACE.
               10  WK01-MAP-RESPONSE       PIC X(8)
                                               VALUE SPACES.
               10  WK01-TEXT-SY00-Z              PIC X(1)
                                               VALUE SPACE.
               10  WK01-TEXT-SY00-F              PIC X(1)
                                               VALUE SPACE.
               10  WK01-TEXT-SY00-A              PIC X(1)
                                               VALUE SPACE.
               10  WK01-TEXT-SY00-V              PIC X(1)
                                               VALUE SPACE.
               10  WK01-TEXT-SY00-O              PIC X(1)
                                               VALUE SPACE.
               10  WK01-TEXT-SY00       PIC X(14)
                                               VALUE SPACES.
           04  WK01-SUBSCRIPTED-WORK-AREA.
               05  FILLER                      PIC X(1).
               05  WK01-CODE-TITLE-4034-GA45-F             PIC X(1)
                                               OCCURS 11.
               05  WK01-STATUS-GA45-F             PIC X(1)
                                               OCCURS 11.
               05  WK01-CODE-GA45-F             PIC X(1)
                                               OCCURS 11.
               05  WK01-ACTVY-DATE-GA45-F             PIC X(1)
                                               OCCURS 11.
               05  WK01-STAMP-GA45-F             PIC X(1)
                                               OCCURS 11.
               05  WK01-PM-FLAG-GA45-F             PIC X(1)
                                               OCCURS 11.
