      *---------------------------------------------------------------*
      *                                                               *
      *  RECORD FGAWK21                              04/24/00  12:31  *
      *                                                               *
      *---------------------------------------------------------------*
       01  FGAWK21.
           02  DCMNT-NMBR-GA21                          PIC X(8).
           02  REQ-SEQ-NMBR-GA21                        PIC 9(4).
           02  STATUS-GA21                              PIC X(1).
