      *---------------------------------------------------------------*
      *                                                               *
      *  RECORD FGAWK31                              04/24/00  12:32  *
      *                                                               *
      *---------------------------------------------------------------*
       01  FGAWK31.
           02  RQST-DCMNT-NMBR-GA31                     PIC X(8).
