      *---------------------------------------------------------------*
      *                                                               *
      *  RECORD FGAWD06                              04/24/00  13:07  *
      *                                                               *
      *---------------------------------------------------------------*
       01  FGAWD06.
           02  SYSTEM-DATE-GA06               COMP-3    PIC S9(8).
           02  TAKE-FLAG-GA06                           PIC X(1).
           02  END-OF-SET-FLAG-GA06                     PIC X(1).
           02  APLCN-DATA-KEY-GA06                      PIC X(55).
