      *---------------------------------------------------------------*
      *                                                               *
      *  RECORD FGAWK02                              04/24/00  12:30  *
      *                                                               *
      *---------------------------------------------------------------*
       01  FGAWK02.
           02  RQST-AUTO-JRNL-ID-GA02                   PIC X(3).
