      *---------------------------------------------------------------*
      *                                                               *
      *  RECORD FGAWD14                              04/24/00  13:07  *
      *                                                               *
      *---------------------------------------------------------------*
       01  FGAWD14.
           02  SYSTEM-DATE-GA14               COMP-3    PIC S9(8).
           02  START-SEARCH-FLAG-GA14                   PIC 9(1).
           02  NMRC-ACTG-PRD-GA14                       PIC 9(2).
