000100*-----------------------------------------------------------------------
000200 FD  GENERAL-LEDGER-INPUT                                         FISGLIFD
000300     BLOCK CONTAINS 0 RECORDS                                     FISGLIFD
000400     LABEL RECORDS ARE STANDARD.                                  FISGLIFD
000500 01  GENERAL-LEDGER-INPUT-RECORD PIC X(180).                      FISGLIFD
000600*-----------------------------------------------------------------------
