000100*-----------------------------------------------------------------------
000200 FD  JOURNAL-CONV-FILE                                            FISJCFFD
000300     LABEL RECORDS ARE OMITTED                                    FISJCFFD
000300     BLOCK CONTAINS 0 RECORDS                                     FISJCFFD
000400     RECORD CONTAINS 250 CHARACTERS                               FISJCFFD
000400     DATA RECORD IS JOURNAL-CONV-RECORD.                          FISJCFFD
000500 01  JOURNAL-CONV-RECORD         PIC X(250).                      FISJCFFD
000600*-----------------------------------------------------------------------
