    ***Created by Convert/DC version V8R03 on 12/08/00 at 13:00***

      *%--------------------------------------------------------------%*
           MOVE DCLINK-MESSAGE  TO WK01-ZZMESSAGE.
      *%--------------------------------------------------------------%*
           MOVE AGR-DATE OF ADSO-APPLICATION-GLOBAL-RECORD TO WK01-DATE.
      *%--------------------------------------------------------------%*
           MOVE AGR-USER-ID OF ADSO-APPLICATION-GLOBAL-RECORD TO
                WK01-USER-ID.
      *%--------------------------------------------------------------%*
           MOVE AGR-FUNC-DESCRIPTION OF ADSO-APPLICATION-GLOBAL-RECORD
                TO WK01-FUNC-DESCRIPTION.
      *%--------------------------------------------------------------%*
           MOVE AGR-PASSED-ONE OF ADSO-APPLICATION-GLOBAL-RECORD TO
                WK01-PASSED-ONE.
      *%--------------------------------------------------------------%*
           MOVE AGR-MAP-RESPONSE OF ADSO-APPLICATION-GLOBAL-RECORD TO
                WK01-MAP-RESPONSE.
      *%--------------------------------------------------------------%*
           MOVE TRMNL-ID-SY00 OF FZYWG00M TO WK01-ID-SY00.
      *%--------------------------------------------------------------%*
           MOVE FULL-NAME-6001-SY00 OF FZYWG00M TO WK01-NAME-6001-SY00.
      *%--------------------------------------------------------------%*
           MOVE AM-PM-FLAG-SY00 OF FZYWG00M TO WK01-PM-FLAG-SY00.
      *%--------------------------------------------------------------%*
           MOVE CURR-RSPNS-ID-SY00 OF FZYWG00M TO WK01-RSPNS-ID-SY00.
      *%--------------------------------------------------------------%*
           MOVE ERROR-TEXT-SY00 OF FZYWG00M TO WK01-TEXT-SY00.
      *%--------------------------------------------------------------%*
           MOVE PAGE-STATUS-CODE-SY00 OF FZYWG00M TO
                WK01-STATUS-CODE-SY00.
      *%--------------------------------------------------------------%*
           MOVE WORK-HH-MM-TIME-SY00 OF FZYWG00M TO
                WK01-HH-MM-TIME-SY00.
      *%--------------------------------------------------------------%*
           MOVE NAME-KEY-6311-PE08 OF FPEWM08 TO WK01-KEY-6311-PE08.
      *%--------------------------------------------------------------%*
           MOVE ACTN-CODE-PE08 OF FPEWM08(0001) TO WK01-CODE-PE081.
      *%--------------------------------------------------------------%*
           MOVE ACTN-CODE-PE08 OF FPEWM08(0002) TO WK01-CODE-PE082.
      *%--------------------------------------------------------------%*
           MOVE ACTN-CODE-PE08 OF FPEWM08(0003) TO WK01-CODE-PE083.
      *%--------------------------------------------------------------%*
           MOVE ACTN-CODE-PE08 OF FPEWM08(0004) TO WK01-CODE-PE084.
      *%--------------------------------------------------------------%*
           MOVE ACTN-CODE-PE08 OF FPEWM08(0005) TO WK01-CODE-PE085.
      *%--------------------------------------------------------------%*
           MOVE ACTN-CODE-PE08 OF FPEWM08(0006) TO WK01-CODE-PE086.
      *%--------------------------------------------------------------%*
           MOVE ACTN-CODE-PE08 OF FPEWM08(0007) TO WK01-CODE-PE087.
      *%--------------------------------------------------------------%*
           MOVE ACTN-CODE-PE08 OF FPEWM08(0008) TO WK01-CODE-PE088.
      *%--------------------------------------------------------------%*
           MOVE ACTN-CODE-PE08 OF FPEWM08(0009) TO WK01-CODE-PE089.
      *%--------------------------------------------------------------%*
           MOVE ACTN-CODE-PE08 OF FPEWM08(0010) TO WK01-CODE-PE0810.
      *%--------------------------------------------------------------%*
           MOVE ADR-TYPE-CODE-6185-PE08 OF FPEWM08(0001) TO
                WK01-TYPE-CODE-6185-PE081.
      *%--------------------------------------------------------------%*
           MOVE ADR-TYPE-CODE-6185-PE08 OF FPEWM08(0002) TO
                WK01-TYPE-CODE-6185-PE082.
      *%--------------------------------------------------------------%*
           MOVE ADR-TYPE-CODE-6185-PE08 OF FPEWM08(0003) TO
                WK01-TYPE-CODE-6185-PE083.
      *%--------------------------------------------------------------%*
           MOVE ADR-TYPE-CODE-6185-PE08 OF FPEWM08(0004) TO
                WK01-TYPE-CODE-6185-PE084.
      *%--------------------------------------------------------------%*
           MOVE ADR-TYPE-CODE-6185-PE08 OF FPEWM08(0005) TO
                WK01-TYPE-CODE-6185-PE085.
      *%--------------------------------------------------------------%*
           MOVE ADR-TYPE-CODE-6185-PE08 OF FPEWM08(0006) TO
                WK01-TYPE-CODE-6185-PE086.
      *%--------------------------------------------------------------%*
           MOVE ADR-TYPE-CODE-6185-PE08 OF FPEWM08(0007) TO
                WK01-TYPE-CODE-6185-PE087.
      *%--------------------------------------------------------------%*
           MOVE ADR-TYPE-CODE-6185-PE08 OF FPEWM08(0008) TO
                WK01-TYPE-CODE-6185-PE088.
      *%--------------------------------------------------------------%*
           MOVE ADR-TYPE-CODE-6185-PE08 OF FPEWM08(0009) TO
                WK01-TYPE-CODE-6185-PE089.
      *%--------------------------------------------------------------%*
           MOVE ADR-TYPE-CODE-6185-PE08 OF FPEWM08(0010) TO
                WK01-TYPE-CODE-6185-PE0810.
      *%--------------------------------------------------------------%*
           MOVE LONG-DESC-6137-PE08 OF FPEWM08(0001) TO
                WK01-DESC-6137-PE081.
      *%--------------------------------------------------------------%*
           MOVE LONG-DESC-6137-PE08 OF FPEWM08(0002) TO
                WK01-DESC-6137-PE082.
      *%--------------------------------------------------------------%*
           MOVE LONG-DESC-6137-PE08 OF FPEWM08(0003) TO
                WK01-DESC-6137-PE083.
      *%--------------------------------------------------------------%*
           MOVE LONG-DESC-6137-PE08 OF FPEWM08(0004) TO
                WK01-DESC-6137-PE084.
      *%--------------------------------------------------------------%*
           MOVE LONG-DESC-6137-PE08 OF FPEWM08(0005) TO
                WK01-DESC-6137-PE085.
      *%--------------------------------------------------------------%*
           MOVE LONG-DESC-6137-PE08 OF FPEWM08(0006) TO
                WK01-DESC-6137-PE086.
      *%--------------------------------------------------------------%*
           MOVE LONG-DESC-6137-PE08 OF FPEWM08(0007) TO
                WK01-DESC-6137-PE087.
      *%--------------------------------------------------------------%*
           MOVE LONG-DESC-6137-PE08 OF FPEWM08(0008) TO
                WK01-DESC-6137-PE088.
      *%--------------------------------------------------------------%*
           MOVE LONG-DESC-6137-PE08 OF FPEWM08(0009) TO
                WK01-DESC-6137-PE089.
      *%--------------------------------------------------------------%*
           MOVE LONG-DESC-6137-PE08 OF FPEWM08(0010) TO
                WK01-DESC-6137-PE0810.
      *%--------------------------------------------------------------%*
           MOVE MAP-START-DATE-6185-PE08 OF FPEWM08(0001) TO
                WK01-START-DATE-6185-PE081.
      *%--------------------------------------------------------------%*
           MOVE MAP-START-DATE-6185-PE08 OF FPEWM08(0002) TO
                WK01-START-DATE-6185-PE082.
      *%--------------------------------------------------------------%*
           MOVE MAP-START-DATE-6185-PE08 OF FPEWM08(0003) TO
                WK01-START-DATE-6185-PE083.
      *%--------------------------------------------------------------%*
           MOVE MAP-START-DATE-6185-PE08 OF FPEWM08(0004) TO
                WK01-START-DATE-6185-PE084.
      *%--------------------------------------------------------------%*
           MOVE MAP-START-DATE-6185-PE08 OF FPEWM08(0005) TO
                WK01-START-DATE-6185-PE085.
      *%--------------------------------------------------------------%*
           MOVE MAP-START-DATE-6185-PE08 OF FPEWM08(0006) TO
                WK01-START-DATE-6185-PE086.
      *%--------------------------------------------------------------%*
           MOVE MAP-START-DATE-6185-PE08 OF FPEWM08(0007) TO
                WK01-START-DATE-6185-PE087.
      *%--------------------------------------------------------------%*
           MOVE MAP-START-DATE-6185-PE08 OF FPEWM08(0008) TO
                WK01-START-DATE-6185-PE088.
      *%--------------------------------------------------------------%*
           MOVE MAP-START-DATE-6185-PE08 OF FPEWM08(0009) TO
                WK01-START-DATE-6185-PE089.
      *%--------------------------------------------------------------%*
           MOVE MAP-START-DATE-6185-PE08 OF FPEWM08(0010) TO
                WK01-START-DATE-6185-PE0810.
      *%--------------------------------------------------------------%*
           MOVE MAP-END-DATE-6185-PE08 OF FPEWM08(0001) TO
                WK01-END-DATE-6185-PE081.
      *%--------------------------------------------------------------%*
           MOVE MAP-END-DATE-6185-PE08 OF FPEWM08(0002) TO
                WK01-END-DATE-6185-PE082.
      *%--------------------------------------------------------------%*
           MOVE MAP-END-DATE-6185-PE08 OF FPEWM08(0003) TO
                WK01-END-DATE-6185-PE083.
      *%--------------------------------------------------------------%*
           MOVE MAP-END-DATE-6185-PE08 OF FPEWM08(0004) TO
                WK01-END-DATE-6185-PE084.
      *%--------------------------------------------------------------%*
           MOVE MAP-END-DATE-6185-PE08 OF FPEWM08(0005) TO
                WK01-END-DATE-6185-PE085.
      *%--------------------------------------------------------------%*
           MOVE MAP-END-DATE-6185-PE08 OF FPEWM08(0006) TO
                WK01-END-DATE-6185-PE086.
      *%--------------------------------------------------------------%*
           MOVE MAP-END-DATE-6185-PE08 OF FPEWM08(0007) TO
                WK01-END-DATE-6185-PE087.
      *%--------------------------------------------------------------%*
           MOVE MAP-END-DATE-6185-PE08 OF FPEWM08(0008) TO
                WK01-END-DATE-6185-PE088.
      *%--------------------------------------------------------------%*
           MOVE MAP-END-DATE-6185-PE08 OF FPEWM08(0009) TO
                WK01-END-DATE-6185-PE089.
      *%--------------------------------------------------------------%*
           MOVE MAP-END-DATE-6185-PE08 OF FPEWM08(0010) TO
                WK01-END-DATE-6185-PE0810.
      *%--------------------------------------------------------------%*
           MOVE RQST-ADR-TYPE-CODE-6185-PE08 OF FPEWK08 TO
                WK01-ADR-TYPE-CD-6185-P08.
      *%--------------------------------------------------------------%*
           MOVE ENTY-ID-LAST-NINE-6186-PE08 OF FPEWK08 TO
                WK01-ID-LAST-NIN-6186-P08.
