    ***Created by Convert/DC version V8R03 on 12/11/00 at 10:00***

      *%--------------------------------------------------------------%*
           MOVE DCLINK-MESSAGE  TO WK01-ZZMESSAGE.
      *%--------------------------------------------------------------%*
           MOVE AGR-DATE OF ADSO-APPLICATION-GLOBAL-RECORD TO WK01-DATE.
      *%--------------------------------------------------------------%*
           MOVE AGR-USER-ID OF ADSO-APPLICATION-GLOBAL-RECORD TO
                WK01-USER-ID.
      *%--------------------------------------------------------------%*
           MOVE AGR-FUNC-DESCRIPTION OF ADSO-APPLICATION-GLOBAL-RECORD
                TO WK01-FUNC-DESCRIPTION.
      *%--------------------------------------------------------------%*
           MOVE AGR-PASSED-ONE OF ADSO-APPLICATION-GLOBAL-RECORD TO
                WK01-PASSED-ONE.
      *%--------------------------------------------------------------%*
           MOVE AGR-MAP-RESPONSE OF ADSO-APPLICATION-GLOBAL-RECORD TO
                WK01-MAP-RESPONSE.
      *%--------------------------------------------------------------%*
           MOVE TRMNL-ID-SY00 OF FZYWG00M TO WK01-ID-SY00.
      *%--------------------------------------------------------------%*
           MOVE FULL-NAME-6001-SY00 OF FZYWG00M TO WK01-NAME-6001-SY00.
      *%--------------------------------------------------------------%*
           MOVE AM-PM-FLAG-SY00 OF FZYWG00M TO WK01-PM-FLAG-SY00.
      *%--------------------------------------------------------------%*
           MOVE CURR-RSPNS-ID-SY00 OF FZYWG00M TO WK01-RSPNS-ID-SY00.
      *%--------------------------------------------------------------%*
           MOVE ERROR-TEXT-SY00 OF FZYWG00M TO WK01-TEXT-SY00.
      *%--------------------------------------------------------------%*
           MOVE WORK-HH-MM-TIME-SY00 OF FZYWG00M TO
                WK01-HH-MM-TIME-SY00.
      *%--------------------------------------------------------------%*
           MOVE ACTN-CODE-PE35 OF FPEWM35 TO WK01-CODE-PE35.
      *%--------------------------------------------------------------%*
           MOVE WORK-PRSN-ID-PE35 OF FPEWK35 TO
                WK01-PRSN-ID-PE35.
      *%--------------------------------------------------------------%*
           MOVE NAME-SLTN-DESC-6117-PE35 OF FPEWM35 TO
                WK01-SLTN-DESC-6117-PE35.
      *%--------------------------------------------------------------%*
           MOVE NAME-KEY-6117-PE35 OF FPEWK35 TO WK01-KEY-6117-PE35.
      *%--------------------------------------------------------------%*
           MOVE NAME-SFX-DESC-6117-PE35 OF FPEWM35 TO
                WK01-SFX-DESC-6117-PE35.
      *%--------------------------------------------------------------%*
           MOVE PRSN-FULL-NAME-6117-PE35 OF FPEWM35 TO
                WK01-FULL-NAME-6117-PE35.
      *%--------------------------------------------------------------%*
           MOVE GNDR-FLAG-6117-PE35 OF FPEWM35 TO WK01-FLAG-6117-PE35.
      *%--------------------------------------------------------------%*
           MOVE ETHNC-CODE-2158-PE35 OF FPEWM35 TO WK01-CODE-2158-PE35.
      *%--------------------------------------------------------------%*
           MOVE WORK-DATE-PE35 OF FPEWM35 TO WK01-DATE-PE35.
      *%--------------------------------------------------------------%*
           MOVE ADR-TYPE-CODE-6139-PE35 OF FPEWM35 TO
                WK01-TYPE-CODE-6139-PE35.
      *%--------------------------------------------------------------%*
           MOVE CITY-NAME-6139-PE35 OF FPEWM35 TO WK01-NAME-6139-PE35.
      *%--------------------------------------------------------------%*
           MOVE STATE-CODE-6151-PE35 OF FPEWM35 TO WK01-CODE-6151-PE35.
      *%--------------------------------------------------------------%*
           MOVE CNTRY-CODE-6153-PE35 OF FPEWM35 TO WK01-CODE-6153-PE35.
      *%--------------------------------------------------------------%*
           MOVE TLPHN-AREA-CODE-6139-PE35 OF FPEWM35 TO
                WK01-AREA-CODE-6139-PE35.
      *%--------------------------------------------------------------%*
           MOVE TLPHN-XCHNG-ID-6139-PE35 OF FPEWM35 TO
                WK01-XCHNG-ID-6139-PE35.
      *%--------------------------------------------------------------%*
           MOVE TLPHN-SEQ-ID-6139-PE35 OF FPEWM35 TO
                WK01-SEQ-ID-6139-PE35.
      *%--------------------------------------------------------------%*
           MOVE TLPHN-XTNSN-ID-6139-PE35 OF FPEWM35 TO
                WK01-XTNSN-ID-6139-PE35.
      *%--------------------------------------------------------------%*
           MOVE MAP-START-DATE-PE35 OF FPEWM35 TO WK01-START-DATE-PE35.
      *%--------------------------------------------------------------%*
           MOVE MAP-END-DATE-PE35 OF FPEWM35 TO WK01-END-DATE-PE35.
      *%--------------------------------------------------------------%*
           MOVE WORK-SSN-ID-PE35 OF FPEWM35 TO WK01-SSN-ID-PE35.
      *%--------------------------------------------------------------%*
           MOVE LINE-ADR-6139-PE35 OF FPEWM35(0001) TO
                WK01-ADR-6139-PE351.
      *%--------------------------------------------------------------%*
           MOVE LINE-ADR-6139-PE35 OF FPEWM35(0002) TO
                WK01-ADR-6139-PE352.
      *%--------------------------------------------------------------%*
           MOVE LINE-ADR-6139-PE35 OF FPEWM35(0003) TO
                WK01-ADR-6139-PE353.
      *%--------------------------------------------------------------%*
           MOVE LINE-ADR-6139-PE35 OF FPEWM35(0004) TO
                WK01-ADR-6139-PE354.
      *%--------------------------------------------------------------%*
           MOVE ZIP-CODE-6152-PE35 OF FPEWM35 TO WK01-CODE-6152-PE35.
      *%--------------------------------------------------------------%*
           MOVE MRTL-CODE-2368-PE35 OF FPEWM35 TO WK01-CODE-2368-PE35.
      *%--------------------------------------------------------------%*
           MOVE CNTY-CODE-2346-PE35 OF FPEWM35 TO WK01-CODE-2346-PE35.
      *%--------------------------------------------------------------%*
           MOVE FULL-NAME-2346-PE35 OF FPEWM35 TO WK01-NAME-2346-PE35.
      *%--------------------------------------------------------------%*
           MOVE PAN-NMBR-6117-PE35 OF FPEWM35 TO WK01-NMBR-6117-PE35.
      *%--------------------------------------------------------------%*
           MOVE DCSD-TEXT-SY01 OF FZYWG01M TO WK01-TEXT-SY01.
      *%--------------------------------------------------------------%*
           MOVE CNFDL-TEXT-SY01 OF FZYWG01M TO WK01-TEXT-SY0A.
      *%--------------------------------------------------------------%*
           MOVE HOLDS-TEXT-SY01 OF FZYWG01M TO WK01-TEXT-SY0B.
      *%--------------------------------------------------------------%*
           MOVE SHORT-DESC-6137-PE35 OF FPEWM35 TO WK01-DESC-6137-PE35.
      *%--------------------------------------------------------------%*
           MOVE FULL-NAME-6153-PE35 OF FPEWM35 TO WK01-NAME-6153-PE35.
      *%--------------------------------------------------------------%*
           MOVE ARCHVD-TEXT-SY01 OF FZYWG01M TO WK01-TEXT-SY0C.
