      *---------------------------------------------------------------*
      *                                                               *
      *  RECORD FPEWD29                              04/24/00  13:10  *
      *                                                               *
      *---------------------------------------------------------------*
       01  FPEWD29.
           02  SAVE-DBKEY-ID-6152-PE29
                                     COMP   OCCURS 10   PIC S9(8).
           02  RQST-VERIFY-FLAG-PE29                    PIC X(1).
