      *---------------------------------------------------------------*
      *                                                               *
      *  RECORD FPEWD07                              04/24/00  13:10  *
      *                                                               *
      *---------------------------------------------------------------*
       01  FPEWD07.
           02  SAVE-DBKEY-ID-6153-PE07
                                            OCCURS 12   PIC X(02).
           02  SAVED-FULL-NAME-PE07
                                            OCCURS 12   PIC X(35).
