      *---------------------------------------------------------------*
      *                                                               *
      *  RECORD FPEWK31                              04/24/00  12:36  *
      *                                                               *
      *---------------------------------------------------------------*
       01  FPEWK31.
           02  ENTY-ID-6311-PE31.
               03  ENTY-ID-DIGIT-ONE-PE31               PIC X(1).
               03  ENTY-ID-LAST-NINE-PE31               PIC X(9).
           02  TAX-ID-PE31                              PIC X(9).
