      *---------------------------------------------------------------*
      *                                                               *
      *  RECORD FPEWK54                              04/24/00  12:35  *
      *                                                               *
      *---------------------------------------------------------------*
       01  FPEWK54.
           02  RQST-DATA-CODE-PE54                      PIC X(6).
