      *---------------------------------------------------------------*
      *                                                               *
      *  RECORD FPEWM59                              04/24/00  12:36  *
      *                                                               *
      *---------------------------------------------------------------*
       01  FPEWM59.
           02  NAME-KEY-6311-PE59                       PIC X(35).
           02  LONG-DESC-6140-PE59                      PIC X(30).
           02  LONG-DESC-6345-PE59                      PIC X(30).
           02  CMNT-TEXT-6144-PE59          OCCURS 10   PIC X(55).
