      *---------------------------------------------------------------*
      *                                                               *
      *  RECORD FPEWK29                              04/24/00  12:34  *
      *                                                               *
      *---------------------------------------------------------------*
       01  FPEWK29.
           02  STATE-CODE-6151-PE29                     PIC X(2).
           02  CNTRY-CODE-6153-PE29                     PIC X(2).
           02  RQST-ZIP-CODE-PE29                       PIC X(10).
