    ***Created by Convert/DC version V8R03 on 12/11/00 at 10:00***

      *%--------------------------------------------------------------%*
           MOVE DCLINK-MESSAGE  TO WK01-ZZMESSAGE.
      *%--------------------------------------------------------------%*
           MOVE AGR-DATE OF ADSO-APPLICATION-GLOBAL-RECORD TO WK01-DATE.
      *%--------------------------------------------------------------%*
           MOVE AGR-USER-ID OF ADSO-APPLICATION-GLOBAL-RECORD TO
                WK01-USER-ID.
      *%--------------------------------------------------------------%*
           MOVE AGR-FUNC-DESCRIPTION OF ADSO-APPLICATION-GLOBAL-RECORD
                TO WK01-FUNC-DESCRIPTION.
      *%--------------------------------------------------------------%*
           MOVE AGR-PASSED-ONE OF ADSO-APPLICATION-GLOBAL-RECORD TO
                WK01-PASSED-ONE.
      *%--------------------------------------------------------------%*
           MOVE AGR-MAP-RESPONSE OF ADSO-APPLICATION-GLOBAL-RECORD TO
                WK01-MAP-RESPONSE.
      *%--------------------------------------------------------------%*
           MOVE TRMNL-ID-SY00 OF FSYWG00M TO WK01-ID-SY00.
      *%--------------------------------------------------------------%*
           MOVE FULL-NAME-6001-SY00 OF FSYWG00M TO WK01-NAME-6001-SY00.
      *%--------------------------------------------------------------%*
           MOVE AM-PM-FLAG-SY00 OF FSYWG00M TO WK01-PM-FLAG-SY00.
      *%--------------------------------------------------------------%*
           MOVE CURR-RSPNS-ID-SY00 OF FSYWG00M TO WK01-RSPNS-ID-SY00.
      *%--------------------------------------------------------------%*
           MOVE ERROR-TEXT-SY00 OF FSYWG00M TO WK01-TEXT-SY00.
      *%--------------------------------------------------------------%*
           MOVE PAGE-STATUS-CODE-SY00 OF FSYWG00M TO
                WK01-STATUS-CODE-SY00.
      *%--------------------------------------------------------------%*
           MOVE WORK-HH-MM-TIME-SY00 OF FSYWG00M TO
                WK01-HH-MM-TIME-SY00.
      *%--------------------------------------------------------------%*
           MOVE TAG-NMBR-4300-PU25 OF FPUWM25(0001) TO
                WK01-NMBR-4300-PU251.
      *%--------------------------------------------------------------%*
           MOVE TAG-NMBR-4300-PU25 OF FPUWM25(0002) TO
                WK01-NMBR-4300-PU252.
      *%--------------------------------------------------------------%*
           MOVE TAG-NMBR-4300-PU25 OF FPUWM25(0003) TO
                WK01-NMBR-4300-PU253.
      *%--------------------------------------------------------------%*
           MOVE TAG-NMBR-4300-PU25 OF FPUWM25(0004) TO
                WK01-NMBR-4300-PU254.
      *%--------------------------------------------------------------%*
           MOVE TAG-NMBR-4300-PU25 OF FPUWM25(0005) TO
                WK01-NMBR-4300-PU255.
      *%--------------------------------------------------------------%*
           MOVE MFR-NAME-4300-PU25 OF FPUWM25(0001) TO
                WK01-NAME-4300-PU251.
      *%--------------------------------------------------------------%*
           MOVE MODEL-NMBR-4300-PU25 OF FPUWM25(0001) TO
                WK01-NMBR-4300-PU2A1.
      *%--------------------------------------------------------------%*
           MOVE MFR-NAME-4300-PU25 OF FPUWM25(0002) TO
                WK01-NAME-4300-PU252.
      *%--------------------------------------------------------------%*
           MOVE MODEL-NMBR-4300-PU25 OF FPUWM25(0002) TO
                WK01-NMBR-4300-PU2A2.
      *%--------------------------------------------------------------%*
           MOVE MFR-NAME-4300-PU25 OF FPUWM25(0003) TO
                WK01-NAME-4300-PU253.
      *%--------------------------------------------------------------%*
           MOVE MODEL-NMBR-4300-PU25 OF FPUWM25(0003) TO
                WK01-NMBR-4300-PU2A3.
      *%--------------------------------------------------------------%*
           MOVE MFR-NAME-4300-PU25 OF FPUWM25(0004) TO
                WK01-NAME-4300-PU254.
      *%--------------------------------------------------------------%*
           MOVE MODEL-NMBR-4300-PU25 OF FPUWM25(0004) TO
                WK01-NMBR-4300-PU2A4.
      *%--------------------------------------------------------------%*
           MOVE MFR-NAME-4300-PU25 OF FPUWM25(0005) TO
                WK01-NAME-4300-PU255.
      *%--------------------------------------------------------------%*
           MOVE MODEL-NMBR-4300-PU25 OF FPUWM25(0005) TO
                WK01-NMBR-4300-PU2A5.
      *%--------------------------------------------------------------%*
           MOVE ACTN-CODE-PU25 OF FPUWM25(0001) TO WK01-CODE-PU251.
      *%--------------------------------------------------------------%*
           MOVE ACTN-CODE-PU25 OF FPUWM25(0002) TO WK01-CODE-PU252.
      *%--------------------------------------------------------------%*
           MOVE ACTN-CODE-PU25 OF FPUWM25(0003) TO WK01-CODE-PU253.
      *%--------------------------------------------------------------%*
           MOVE ACTN-CODE-PU25 OF FPUWM25(0004) TO WK01-CODE-PU254.
      *%--------------------------------------------------------------%*
           MOVE ACTN-CODE-PU25 OF FPUWM25(0005) TO WK01-CODE-PU255.
      *%--------------------------------------------------------------%*
           MOVE PO-NMBR-4083-PU25 OF FPUWK25 TO WK01-NMBR-4083-PU25.
      *%--------------------------------------------------------------%*
           MOVE CMDTY-DESC-PU25 OF FPUWK25 TO WK01-DESC-PU25.
      *%--------------------------------------------------------------%*
           MOVE ITEM-NMBR-4085-PU25 OF FPUWK25 TO WK01-NMBR-4085-PU25.
      *%--------------------------------------------------------------%*
           MOVE CHNG-SEQ-NMBR-PU25 OF FPUWK25  TO WK01-SEQ-NMBR-PU25.
      *%--------------------------------------------------------------%*
      *
      ********  ACR 37607 BEGINS HERE  *********************************
      *
           MOVE ASD-ACTN-CODE-PU25         OF FPUWM25
             TO WK01-ASD-ACTN-CODE-PU25.
      *%--------------------------------------------------------------%*
           MOVE ASD-EAMS-DESC-PU25         OF FPUWM25
             TO WK01-EAMS-DESC-PU25.
      *%--------------------------------------------------------------%*
           MOVE ASD-TRADE-IN-IND-PU25      OF FPUWM25
             TO WK01-TRADE-IN-IND-PU25.
      *%--------------------------------------------------------------%*
           MOVE ASD-TRADE-IN-UCID-NBR-PU25 OF FPUWM25
             TO WK01-TRADE-IN-UCID-NBR-PU25.
      *%--------------------------------------------------------------%*
           MOVE ASD-ACSRY-IND-PU25         OF FPUWM25
             TO WK01-ACSRY-IND-PU25.
      *%--------------------------------------------------------------%*
           MOVE ASD-ACSRY-UCID-NBR-PU25    OF FPUWM25
             TO WK01-ACSRY-UCID-NBR-PU25.
      *%--------------------------------------------------------------%*
           MOVE ASD-FAB-IND-PU25           OF FPUWM25
             TO WK01-FAB-IND-PU25.
      *%--------------------------------------------------------------%*
           MOVE ASD-FAB-NBR-PU25           OF FPUWM25
             TO WK01-FAB-NBR-PU25.
      *
      ********  ACR 37607 ENDS   HERE  *********************************
      *
      *%--------------------------------------------------------------%*
           MOVE ASSET-VALUE-PU25 OF FPUWM25(0001) TO WK01-VALUE-PU251.
      *%--------------------------------------------------------------%*
           MOVE ASSET-VALUE-PU25 OF FPUWM25(0002) TO WK01-VALUE-PU252.
      *%--------------------------------------------------------------%*
           MOVE ASSET-VALUE-PU25 OF FPUWM25(0003) TO WK01-VALUE-PU253.
      *%--------------------------------------------------------------%*
           MOVE ASSET-VALUE-PU25 OF FPUWM25(0004) TO WK01-VALUE-PU254.
      *%--------------------------------------------------------------%*
           MOVE ASSET-VALUE-PU25 OF FPUWM25(0005) TO WK01-VALUE-PU255.
      *%--------------------------------------------------------------%*
           MOVE PART-NMBR-PU25 OF FPUWM25(0001) TO WK01-NMBR-PU251.
      *%--------------------------------------------------------------%*
           MOVE PART-NMBR-PU25 OF FPUWM25(0002) TO WK01-NMBR-PU252.
      *%--------------------------------------------------------------%*
           MOVE PART-NMBR-PU25 OF FPUWM25(0003) TO WK01-NMBR-PU253.
      *%--------------------------------------------------------------%*
           MOVE PART-NMBR-PU25 OF FPUWM25(0004) TO WK01-NMBR-PU254.
      *%--------------------------------------------------------------%*
           MOVE PART-NMBR-PU25 OF FPUWM25(0005) TO WK01-NMBR-PU255.
      *%--------------------------------------------------------------%*
           MOVE TOTAL-AST-PU25 OF FPUWK25 TO WK01-AST-PU25.
      *%--------------------------------------------------------------%*
           MOVE REQ-AST-PU25 OF FPUWK25 TO WK01-AST-PU2A.
      *
      ********  ACR 37607 BEGINS HERE  *********************************
      *
      *%--------------------------------------------------------------%*
           MOVE TOTAL-ITEM-VALUE-PU25         OF FPUWK25
             TO WK01-TOTAL-ITEM-VALUE-PU25.
      *%--------------------------------------------------------------%*
           MOVE TOTAL-ASSET-VALUE-PU25        OF FPUWK25
             TO WK01-TOTAL-ASSET-VALUE-PU25.
      *
      ********  ACR 37607 ENDS   HERE  *********************************
