       01  MAP-CONTROL.

    ***Created by Convert/DC version V8R03 on 12/11/00 at 10:00***

           02  FPUMU25-MAP-CONTROL.
           03  FPUMU25T.
           04  WK01-DCXMAPL-PARMS.
               10  WK01-MAPNAME                  PIC X(8)
                                                 VALUE 'FPUMU25I'.
               10  WK01-IKE-LENGTH               PIC S9(8)  COMP
      ** ACR 37607                               VALUE 14705.
                                                 VALUE 15757.
               10  WK01-TINA-LENGTH              PIC S9(4)  COMP
      ** ACR 37607                               VALUE 1284.
                                                 VALUE 1400.
           05  WK01-ATTRIBUTES                   PIC X(60)
                                                 VALUE SPACE.
           05  WK01-ATTRIBUTES-ERROR             PIC X(60) VALUE
               'U  BIF'.
           05  WK01-CURSOR-DFLD                  PIC X(36)
                                                 VALUE SPACES.
           05  WK01-CURSOR-DFLD-QUAL             PIC X(30)
                                                 VALUE SPACES.
           05  WK01-ROW                          PIC S9(4) COMP
                                                 VALUE ZERO.
           05  WK01-COLUMN                       PIC S9(4) COMP
                                                 VALUE ZERO.
           05  WK01-ERROR-MSG                    PIC X(80)
                                                 VALUE SPACES.
           05  WK01-MAP-DATA-LEN                 PIC S9(6)
                                                 VALUE ZERO.
           05  WK01-1ST-FLAG                     PIC X(1)
                                                 VALUE 'Y'.
           05  WK01-FLAG-OUTPUT-DATA             PIC X(1)
                                                 VALUE 'Y'.
      *    05  WK01-STATUS-RETURN-FLAG           PIC X(1)
      *                                          VALUE SPACES.
           05  WK01-ALL-BUT-FLAG                 PIC X(1)
                                                 VALUE SPACES.
           05  WK01-FLAG-ALL-FIELDS-CHANGED      PIC X(1)  VALUE 'Y'.
           05  WK01-FLAG-ANY-FIELDS-CHANGED      PIC X(1)  VALUE 'N'.
           05  WK01-FLAG-ALL-FIELDS-ERROR        PIC X(1)  VALUE 'Y'.
           05  WK01-FLAG-ANY-FIELDS-ERROR        PIC X(1)  VALUE 'N'.
           05  WK01-FLAG-ALL-FIELDS-ERASE        PIC X(1)  VALUE 'Y'.
           05  WK01-FLAG-ANY-FIELDS-ERASE        PIC X(1)  VALUE 'Y'.

           05  WK01-VARDATA                      PIC X(11880)
                                                 VALUE SPACES.
           05  FILLER                            PIC X(100)
                                                 VALUE SPACES.
           04  WK01-ELEMENT-AREA.

               10  WK01-ID-SY00-Z              PIC X(1)
                                               VALUE SPACE.
               10  WK01-ID-SY00-F              PIC X(1)
                                               VALUE SPACE.
               10  WK01-ID-SY00-A              PIC X(1)
                                               VALUE SPACE.
               10  WK01-ID-SY00-V              PIC X(1)
                                               VALUE SPACE.
               10  WK01-ID-SY00-O              PIC X(1)
                                               VALUE SPACE.
               10  WK01-ID-SY00       PIC X(8)
                                               VALUE SPACES.
               10  WK01-NAME-6001-SY00-Z              PIC X(1)
                                               VALUE SPACE.
               10  WK01-NAME-6001-SY00-F              PIC X(1)
                                               VALUE SPACE.
               10  WK01-NAME-6001-SY00-A              PIC X(1)
                                               VALUE SPACE.
               10  WK01-NAME-6001-SY00-V              PIC X(1)
                                               VALUE SPACE.
               10  WK01-NAME-6001-SY00-O              PIC X(1)
                                               VALUE SPACE.
               10  WK01-NAME-6001-SY00       PIC X(35)
                                               VALUE SPACES.
               10  WK01-DATE-Z              PIC X(1)
                                               VALUE SPACE.
               10  WK01-DATE-F              PIC X(1)
                                               VALUE SPACE.
               10  WK01-DATE-A              PIC X(1)
                                               VALUE SPACE.
               10  WK01-DATE-V              PIC X(1)
                                               VALUE SPACE.
               10  WK01-DATE-O              PIC X(1)
                                               VALUE SPACE.
               10  WK01-DATE       PIC X(8)
                                               VALUE SPACES.
               10  WK01-HH-MM-TIME-SY00-Z              PIC X(1)
                                               VALUE SPACE.
               10  WK01-HH-MM-TIME-SY00-F              PIC X(1)
                                               VALUE SPACE.
               10  WK01-HH-MM-TIME-SY00-A              PIC X(1)
                                               VALUE SPACE.
               10  WK01-HH-MM-TIME-SY00-V              PIC X(1)
                                               VALUE SPACE.
               10  WK01-HH-MM-TIME-SY00-O              PIC X(1)
                                               VALUE SPACE.
               10  WK01-HH-MM-TIME-SY00       PIC X(4)
                                               VALUE SPACES.
               10  WK01-PM-FLAG-SY00-Z              PIC X(1)
                                               VALUE SPACE.
               10  WK01-PM-FLAG-SY00-F              PIC X(1)
                                               VALUE SPACE.
               10  WK01-PM-FLAG-SY00-A              PIC X(1)
                                               VALUE SPACE.
               10  WK01-PM-FLAG-SY00-V              PIC X(1)
                                               VALUE SPACE.
               10  WK01-PM-FLAG-SY00-O              PIC X(1)
                                               VALUE SPACE.
               10  WK01-PM-FLAG-SY00       PIC X(1)
                                               VALUE SPACES.
               10  WK01-USER-ID-Z              PIC X(1)
                                               VALUE SPACE.
               10  WK01-USER-ID-F              PIC X(1)
                                               VALUE SPACE.
               10  WK01-USER-ID-A              PIC X(1)
                                               VALUE SPACE.
               10  WK01-USER-ID-V              PIC X(1)
                                               VALUE SPACE.
               10  WK01-USER-ID-O              PIC X(1)
                                               VALUE SPACE.
               10  WK01-USER-ID       PIC X(32)
                                               VALUE SPACES.
               10  WK01-RSPNS-ID-SY00-Z              PIC X(1)
                                               VALUE SPACE.
               10  WK01-RSPNS-ID-SY00-F              PIC X(1)
                                               VALUE SPACE.
               10  WK01-RSPNS-ID-SY00-A              PIC X(1)
                                               VALUE SPACE.
               10  WK01-RSPNS-ID-SY00-V              PIC X(1)
                                               VALUE SPACE.
               10  WK01-RSPNS-ID-SY00-O              PIC X(1)
                                               VALUE SPACE.
               10  WK01-RSPNS-ID-SY00       PIC X(8)
                                               VALUE SPACES.
               10  WK01-FUNC-DESCRIPTION-Z              PIC X(1)
                                               VALUE SPACE.
               10  WK01-FUNC-DESCRIPTION-F              PIC X(1)
                                               VALUE SPACE.
               10  WK01-FUNC-DESCRIPTION-A              PIC X(1)
                                               VALUE SPACE.
               10  WK01-FUNC-DESCRIPTION-V              PIC X(1)
                                               VALUE SPACE.
               10  WK01-FUNC-DESCRIPTION-O              PIC X(1)
                                               VALUE SPACE.
               10  WK01-FUNC-DESCRIPTION       PIC X(28)
                                               VALUE SPACES.
               10  WK01-STATUS-CODE-SY00-Z              PIC X(1)
                                               VALUE SPACE.
               10  WK01-STATUS-CODE-SY00-F              PIC X(1)
                                               VALUE SPACE.
               10  WK01-STATUS-CODE-SY00-A              PIC X(1)
                                               VALUE SPACE.
               10  WK01-STATUS-CODE-SY00-V              PIC X(1)
                                               VALUE SPACE.
               10  WK01-STATUS-CODE-SY00-O              PIC X(1)
                                               VALUE SPACE.
               10  WK01-STATUS-CODE-SY00       PIC X(1)
                                               VALUE SPACES.
               10  WK01-NMBR-4083-PU25-Z              PIC X(1)
                                               VALUE SPACE.
               10  WK01-NMBR-4083-PU25-F              PIC X(1)
                                               VALUE SPACE.
               10  WK01-NMBR-4083-PU25-A              PIC X(1)
                                               VALUE SPACE.
               10  WK01-NMBR-4083-PU25-V              PIC X(1)
                                               VALUE SPACE.
               10  WK01-NMBR-4083-PU25-O              PIC X(1)
                                               VALUE SPACE.
               10  WK01-NMBR-4083-PU25       PIC X(8)
                                               VALUE SPACES.
               10  WK01-SEQ-NMBR-PU25-Z              PIC X(1)
                                               VALUE SPACE.
               10  WK01-SEQ-NMBR-PU25-F              PIC X(1)
                                               VALUE SPACE.
               10  WK01-SEQ-NMBR-PU25-A              PIC X(1)
                                               VALUE SPACE.
               10  WK01-SEQ-NMBR-PU25-V              PIC X(1)
                                               VALUE SPACE.
               10  WK01-SEQ-NMBR-PU25-O              PIC X(1)
                                               VALUE SPACE.
               10  WK01-SEQ-NMBR-PU25       PIC X(3)
                                               VALUE SPACES.
               10  WK01-NMBR-4085-PU25-Z              PIC X(1)
                                               VALUE SPACE.
               10  WK01-NMBR-4085-PU25-F              PIC X(1)
                                               VALUE SPACE.
               10  WK01-NMBR-4085-PU25-A              PIC X(1)
                                               VALUE SPACE.
               10  WK01-NMBR-4085-PU25-V              PIC X(1)
                                               VALUE SPACE.
               10  WK01-NMBR-4085-PU25-O              PIC X(1)
                                               VALUE SPACE.
               10  WK01-NMBR-4085-PU25       PIC X(4)
                                               VALUE SPACES.
               10  WK01-DESC-PU25-Z              PIC X(1)
                                               VALUE SPACE.
               10  WK01-DESC-PU25-F              PIC X(1)
                                               VALUE SPACE.
               10  WK01-DESC-PU25-A              PIC X(1)
                                               VALUE SPACE.
               10  WK01-DESC-PU25-V              PIC X(1)
                                               VALUE SPACE.
               10  WK01-DESC-PU25-O              PIC X(1)
                                               VALUE SPACE.
               10  WK01-DESC-PU25       PIC X(35)
                                               VALUE SPACES.
      ********  ACR 37607 BEGINS HERE  *********************************
      *
               10  WK01-ASD-ACTN-CODE-PU25-Z       PIC X(1)
                                                   VALUE SPACE.
               10  WK01-ASD-ACTN-CODE-PU25-F       PIC X(1)
                                                   VALUE SPACE.
               10  WK01-ASD-ACTN-CODE-PU25-A       PIC X(1)
                                                   VALUE SPACE.
               10  WK01-ASD-ACTN-CODE-PU25-V       PIC X(1)
                                                   VALUE SPACE.
               10  WK01-ASD-ACTN-CODE-PU25-O       PIC X(1)
                                                   VALUE SPACE.
               10  WK01-ASD-ACTN-CODE-PU25  PIC X(1)
                                                   VALUE SPACES.
               10  WK01-TRADE-IN-IND-PU25-Z        PIC X(1)
                                                   VALUE SPACE.
               10  WK01-TRADE-IN-IND-PU25-F        PIC X(1)
                                                   VALUE SPACE.
               10  WK01-TRADE-IN-IND-PU25-A        PIC X(1)
                                                   VALUE SPACE.
               10  WK01-TRADE-IN-IND-PU25-V        PIC X(1)
                                                   VALUE SPACE.
               10  WK01-TRADE-IN-IND-PU25-O        PIC X(1)
                                                   VALUE SPACE.
               10  WK01-TRADE-IN-IND-PU25      PIC X(1)
                                                   VALUE SPACES.
               10  WK01-TRADE-IN-UCID-NBR-PU25-Z   PIC X(1)
                                                   VALUE SPACE.
               10  WK01-TRADE-IN-UCID-NBR-PU25-F   PIC X(1)
                                                   VALUE SPACE.
               10  WK01-TRADE-IN-UCID-NBR-PU25-A   PIC X(1)
                                                   VALUE SPACE.
               10  WK01-TRADE-IN-UCID-NBR-PU25-V   PIC X(1)
                                                   VALUE SPACE.
               10  WK01-TRADE-IN-UCID-NBR-PU25-O   PIC X(1)
                                                   VALUE SPACE.
               10  WK01-TRADE-IN-UCID-NBR-PU25  PIC X(9)
                                                   VALUE SPACES.
      ********  ACR 37607 ENDS   HERE  *********************************
      *
      ********  ACR 37607 BEGINS HERE  *********************************
      *
               10  WK01-ACSRY-IND-PU25-Z          PIC X(1)
                                                 VALUE SPACE.
               10  WK01-ACSRY-IND-PU25-F          PIC X(1)
                                                 VALUE SPACE.
               10  WK01-ACSRY-IND-PU25-A          PIC X(1)
                                                 VALUE SPACE.
               10  WK01-ACSRY-IND-PU25-V          PIC X(1)
                                                 VALUE SPACE.
               10  WK01-ACSRY-IND-PU25-O          PIC X(1)
                                                 VALUE SPACE.
               10  WK01-ACSRY-IND-PU25        PIC X(1)
                                                 VALUE SPACES.
               10  WK01-ACSRY-UCID-NBR-PU25-Z     PIC X(1)
                                                 VALUE SPACE.
               10  WK01-ACSRY-UCID-NBR-PU25-F     PIC X(1)
                                                 VALUE SPACE.
               10  WK01-ACSRY-UCID-NBR-PU25-A     PIC X(1)
                                                 VALUE SPACE.
               10  WK01-ACSRY-UCID-NBR-PU25-V     PIC X(1)
                                                 VALUE SPACE.
               10  WK01-ACSRY-UCID-NBR-PU25-O     PIC X(1)
                                                 VALUE SPACE.
               10  WK01-ACSRY-UCID-NBR-PU25   PIC X(9)
                                                 VALUE SPACES.
               10  WK01-FAB-IND-PU25-Z            PIC X(1)
                                                 VALUE SPACE.
               10  WK01-FAB-IND-PU25-F            PIC X(1)
                                                 VALUE SPACE.
               10  WK01-FAB-IND-PU25-A            PIC X(1)
                                                 VALUE SPACE.
               10  WK01-FAB-IND-PU25-V            PIC X(1)
                                                 VALUE SPACE.
               10  WK01-FAB-IND-PU25-O            PIC X(1)
                                                 VALUE SPACE.
               10  WK01-FAB-IND-PU25          PIC X(1)
                                                 VALUE SPACES.
               10  WK01-FAB-NBR-PU25-Z            PIC X(1)
                                                 VALUE SPACE.
               10  WK01-FAB-NBR-PU25-F            PIC X(1)
                                                 VALUE SPACE.
               10  WK01-FAB-NBR-PU25-A            PIC X(1)
                                                 VALUE SPACE.
               10  WK01-FAB-NBR-PU25-V            PIC X(1)
                                                 VALUE SPACE.
               10  WK01-FAB-NBR-PU25-O            PIC X(1)
                                                 VALUE SPACE.
               10  WK01-FAB-NBR-PU25          PIC X(4)
                                                 VALUE SPACES.
               10  WK01-EAMS-DESC-PU25-Z          PIC X(1)
                                                 VALUE SPACE.
               10  WK01-EAMS-DESC-PU25-F          PIC X(1)
                                                 VALUE SPACE.
               10  WK01-EAMS-DESC-PU25-A          PIC X(1)
                                                 VALUE SPACE.
               10  WK01-EAMS-DESC-PU25-V          PIC X(1)
                                                 VALUE SPACE.
               10  WK01-EAMS-DESC-PU25-O          PIC X(1)
                                                 VALUE SPACE.
               10  WK01-EAMS-DESC-PU25        PIC X(50)
                                                 VALUE SPACES.
               10  WK01-AST-PU25-Z              PIC X(1)
                                               VALUE SPACE.
               10  WK01-AST-PU25-F              PIC X(1)
                                               VALUE SPACE.
               10  WK01-AST-PU25-A              PIC X(1)
                                               VALUE SPACE.
               10  WK01-AST-PU25-V              PIC X(1)
                                               VALUE SPACE.
               10  WK01-AST-PU25-O              PIC X(1)
                                               VALUE SPACE.
               10  WK01-AST-PU25         PIC 9(4)
                                               VALUE ZEROS.
      ********  ACR 37607 ENDS   HERE  *********************************
      *
               10  WK01-CODE-PU251-Z              PIC X(1)
                                               VALUE SPACE.
               10  WK01-CODE-PU251-F              PIC X(1)
                                               VALUE SPACE.
               10  WK01-CODE-PU251-A              PIC X(1)
                                               VALUE SPACE.
               10  WK01-CODE-PU251-V              PIC X(1)
                                               VALUE SPACE.
               10  WK01-CODE-PU251-O              PIC X(1)
                                               VALUE SPACE.
               10  WK01-CODE-PU251       PIC X(1)
                                               VALUE SPACES.
               10  WK01-NMBR-4300-PU251-Z              PIC X(1)
                                               VALUE SPACE.
               10  WK01-NMBR-4300-PU251-F              PIC X(1)
                                               VALUE SPACE.
               10  WK01-NMBR-4300-PU251-A              PIC X(1)
                                               VALUE SPACE.
               10  WK01-NMBR-4300-PU251-V              PIC X(1)
                                               VALUE SPACE.
               10  WK01-NMBR-4300-PU251-O              PIC X(1)
                                               VALUE SPACE.
               10  WK01-NMBR-4300-PU251       PIC X(9)
                                               VALUE SPACES.
               10  WK01-VALUE-PU251-Z              PIC X(1)
                                               VALUE SPACE.
               10  WK01-VALUE-PU251-F              PIC X(1)
                                               VALUE SPACE.
               10  WK01-VALUE-PU251-A              PIC X(1)
                                               VALUE SPACE.
               10  WK01-VALUE-PU251-V              PIC X(1)
                                               VALUE SPACE.
               10  WK01-VALUE-PU251-O              PIC X(1)
                                               VALUE SPACE.
               10  WK01-VALUE-PU251       PIC S9(10)V9(2)
                                               VALUE ZEROS.
               10  WK01-NMBR-PU251-Z              PIC X(1)
                                               VALUE SPACE.
               10  WK01-NMBR-PU251-F              PIC X(1)
                                               VALUE SPACE.
               10  WK01-NMBR-PU251-A              PIC X(1)
                                               VALUE SPACE.
               10  WK01-NMBR-PU251-V              PIC X(1)
                                               VALUE SPACE.
               10  WK01-NMBR-PU251-O              PIC X(1)
                                               VALUE SPACE.
               10  WK01-NMBR-PU251       PIC X(15)
                                               VALUE SPACES.
               10  WK01-NAME-4300-PU251-Z              PIC X(1)
                                               VALUE SPACE.
               10  WK01-NAME-4300-PU251-F              PIC X(1)
                                               VALUE SPACE.
               10  WK01-NAME-4300-PU251-A              PIC X(1)
                                               VALUE SPACE.
               10  WK01-NAME-4300-PU251-V              PIC X(1)
                                               VALUE SPACE.
               10  WK01-NAME-4300-PU251-O              PIC X(1)
                                               VALUE SPACE.
               10  WK01-NAME-4300-PU251       PIC X(35)
                                               VALUE SPACES.
               10  WK01-NMBR-4300-PU2A1-Z              PIC X(1)
                                               VALUE SPACE.
               10  WK01-NMBR-4300-PU2A1-F              PIC X(1)
                                               VALUE SPACE.
               10  WK01-NMBR-4300-PU2A1-A              PIC X(1)
                                               VALUE SPACE.
               10  WK01-NMBR-4300-PU2A1-V              PIC X(1)
                                               VALUE SPACE.
               10  WK01-NMBR-4300-PU2A1-O              PIC X(1)
                                               VALUE SPACE.
               10  WK01-NMBR-4300-PU2A1       PIC X(30)
                                               VALUE SPACES.
               10  WK01-CODE-PU252-Z              PIC X(1)
                                               VALUE SPACE.
               10  WK01-CODE-PU252-F              PIC X(1)
                                               VALUE SPACE.
               10  WK01-CODE-PU252-A              PIC X(1)
                                               VALUE SPACE.
               10  WK01-CODE-PU252-V              PIC X(1)
                                               VALUE SPACE.
               10  WK01-CODE-PU252-O              PIC X(1)
                                               VALUE SPACE.
               10  WK01-CODE-PU252       PIC X(1)
                                               VALUE SPACES.
               10  WK01-NMBR-4300-PU252-Z              PIC X(1)
                                               VALUE SPACE.
               10  WK01-NMBR-4300-PU252-F              PIC X(1)
                                               VALUE SPACE.
               10  WK01-NMBR-4300-PU252-A              PIC X(1)
                                               VALUE SPACE.
               10  WK01-NMBR-4300-PU252-V              PIC X(1)
                                               VALUE SPACE.
               10  WK01-NMBR-4300-PU252-O              PIC X(1)
                                               VALUE SPACE.
               10  WK01-NMBR-4300-PU252       PIC X(9)
                                               VALUE SPACES.
               10  WK01-VALUE-PU252-Z              PIC X(1)
                                               VALUE SPACE.
               10  WK01-VALUE-PU252-F              PIC X(1)
                                               VALUE SPACE.
               10  WK01-VALUE-PU252-A              PIC X(1)
                                               VALUE SPACE.
               10  WK01-VALUE-PU252-V              PIC X(1)
                                               VALUE SPACE.
               10  WK01-VALUE-PU252-O              PIC X(1)
                                               VALUE SPACE.
               10  WK01-VALUE-PU252       PIC S9(10)V9(2)
                                               VALUE ZEROS.
               10  WK01-NMBR-PU252-Z              PIC X(1)
                                               VALUE SPACE.
               10  WK01-NMBR-PU252-F              PIC X(1)
                                               VALUE SPACE.
               10  WK01-NMBR-PU252-A              PIC X(1)
                                               VALUE SPACE.
               10  WK01-NMBR-PU252-V              PIC X(1)
                                               VALUE SPACE.
               10  WK01-NMBR-PU252-O              PIC X(1)
                                               VALUE SPACE.
               10  WK01-NMBR-PU252       PIC X(15)
                                               VALUE SPACES.
               10  WK01-NAME-4300-PU252-Z              PIC X(1)
                                               VALUE SPACE.
               10  WK01-NAME-4300-PU252-F              PIC X(1)
                                               VALUE SPACE.
               10  WK01-NAME-4300-PU252-A              PIC X(1)
                                               VALUE SPACE.
               10  WK01-NAME-4300-PU252-V              PIC X(1)
                                               VALUE SPACE.
               10  WK01-NAME-4300-PU252-O              PIC X(1)
                                               VALUE SPACE.
               10  WK01-NAME-4300-PU252       PIC X(35)
                                               VALUE SPACES.
               10  WK01-NMBR-4300-PU2A2-Z              PIC X(1)
                                               VALUE SPACE.
               10  WK01-NMBR-4300-PU2A2-F              PIC X(1)
                                               VALUE SPACE.
               10  WK01-NMBR-4300-PU2A2-A              PIC X(1)
                                               VALUE SPACE.
               10  WK01-NMBR-4300-PU2A2-V              PIC X(1)
                                               VALUE SPACE.
               10  WK01-NMBR-4300-PU2A2-O              PIC X(1)
                                               VALUE SPACE.
               10  WK01-NMBR-4300-PU2A2       PIC X(30)
                                               VALUE SPACES.
               10  WK01-CODE-PU253-Z              PIC X(1)
                                               VALUE SPACE.
               10  WK01-CODE-PU253-F              PIC X(1)
                                               VALUE SPACE.
               10  WK01-CODE-PU253-A              PIC X(1)
                                               VALUE SPACE.
               10  WK01-CODE-PU253-V              PIC X(1)
                                               VALUE SPACE.
               10  WK01-CODE-PU253-O              PIC X(1)
                                               VALUE SPACE.
               10  WK01-CODE-PU253       PIC X(1)
                                               VALUE SPACES.
               10  WK01-NMBR-4300-PU253-Z              PIC X(1)
                                               VALUE SPACE.
               10  WK01-NMBR-4300-PU253-F              PIC X(1)
                                               VALUE SPACE.
               10  WK01-NMBR-4300-PU253-A              PIC X(1)
                                               VALUE SPACE.
               10  WK01-NMBR-4300-PU253-V              PIC X(1)
                                               VALUE SPACE.
               10  WK01-NMBR-4300-PU253-O              PIC X(1)
                                               VALUE SPACE.
               10  WK01-NMBR-4300-PU253       PIC X(9)
                                               VALUE SPACES.
               10  WK01-VALUE-PU253-Z              PIC X(1)
                                               VALUE SPACE.
               10  WK01-VALUE-PU253-F              PIC X(1)
                                               VALUE SPACE.
               10  WK01-VALUE-PU253-A              PIC X(1)
                                               VALUE SPACE.
               10  WK01-VALUE-PU253-V              PIC X(1)
                                               VALUE SPACE.
               10  WK01-VALUE-PU253-O              PIC X(1)
                                               VALUE SPACE.
               10  WK01-VALUE-PU253       PIC S9(10)V9(2)
                                               VALUE ZEROS.
               10  WK01-NMBR-PU253-Z              PIC X(1)
                                               VALUE SPACE.
               10  WK01-NMBR-PU253-F              PIC X(1)
                                               VALUE SPACE.
               10  WK01-NMBR-PU253-A              PIC X(1)
                                               VALUE SPACE.
               10  WK01-NMBR-PU253-V              PIC X(1)
                                               VALUE SPACE.
               10  WK01-NMBR-PU253-O              PIC X(1)
                                               VALUE SPACE.
               10  WK01-NMBR-PU253       PIC X(15)
                                               VALUE SPACES.
               10  WK01-NAME-4300-PU253-Z              PIC X(1)
                                               VALUE SPACE.
               10  WK01-NAME-4300-PU253-F              PIC X(1)
                                               VALUE SPACE.
               10  WK01-NAME-4300-PU253-A              PIC X(1)
                                               VALUE SPACE.
               10  WK01-NAME-4300-PU253-V              PIC X(1)
                                               VALUE SPACE.
               10  WK01-NAME-4300-PU253-O              PIC X(1)
                                               VALUE SPACE.
               10  WK01-NAME-4300-PU253       PIC X(35)
                                               VALUE SPACES.
               10  WK01-NMBR-4300-PU2A3-Z              PIC X(1)
                                               VALUE SPACE.
               10  WK01-NMBR-4300-PU2A3-F              PIC X(1)
                                               VALUE SPACE.
               10  WK01-NMBR-4300-PU2A3-A              PIC X(1)
                                               VALUE SPACE.
               10  WK01-NMBR-4300-PU2A3-V              PIC X(1)
                                               VALUE SPACE.
               10  WK01-NMBR-4300-PU2A3-O              PIC X(1)
                                               VALUE SPACE.
               10  WK01-NMBR-4300-PU2A3       PIC X(30)
                                               VALUE SPACES.
               10  WK01-CODE-PU254-Z              PIC X(1)
                                               VALUE SPACE.
               10  WK01-CODE-PU254-F              PIC X(1)
                                               VALUE SPACE.
               10  WK01-CODE-PU254-A              PIC X(1)
                                               VALUE SPACE.
               10  WK01-CODE-PU254-V              PIC X(1)
                                               VALUE SPACE.
               10  WK01-CODE-PU254-O              PIC X(1)
                                               VALUE SPACE.
               10  WK01-CODE-PU254       PIC X(1)
                                               VALUE SPACES.
               10  WK01-NMBR-4300-PU254-Z              PIC X(1)
                                               VALUE SPACE.
               10  WK01-NMBR-4300-PU254-F              PIC X(1)
                                               VALUE SPACE.
               10  WK01-NMBR-4300-PU254-A              PIC X(1)
                                               VALUE SPACE.
               10  WK01-NMBR-4300-PU254-V              PIC X(1)
                                               VALUE SPACE.
               10  WK01-NMBR-4300-PU254-O              PIC X(1)
                                               VALUE SPACE.
               10  WK01-NMBR-4300-PU254       PIC X(9)
                                               VALUE SPACES.
               10  WK01-VALUE-PU254-Z              PIC X(1)
                                               VALUE SPACE.
               10  WK01-VALUE-PU254-F              PIC X(1)
                                               VALUE SPACE.
               10  WK01-VALUE-PU254-A              PIC X(1)
                                               VALUE SPACE.
               10  WK01-VALUE-PU254-V              PIC X(1)
                                               VALUE SPACE.
               10  WK01-VALUE-PU254-O              PIC X(1)
                                               VALUE SPACE.
               10  WK01-VALUE-PU254       PIC S9(10)V9(2)
                                               VALUE ZEROS.
               10  WK01-NMBR-PU254-Z              PIC X(1)
                                               VALUE SPACE.
               10  WK01-NMBR-PU254-F              PIC X(1)
                                               VALUE SPACE.
               10  WK01-NMBR-PU254-A              PIC X(1)
                                               VALUE SPACE.
               10  WK01-NMBR-PU254-V              PIC X(1)
                                               VALUE SPACE.
               10  WK01-NMBR-PU254-O              PIC X(1)
                                               VALUE SPACE.
               10  WK01-NMBR-PU254       PIC X(15)
                                               VALUE SPACES.
               10  WK01-NAME-4300-PU254-Z              PIC X(1)
                                               VALUE SPACE.
               10  WK01-NAME-4300-PU254-F              PIC X(1)
                                               VALUE SPACE.
               10  WK01-NAME-4300-PU254-A              PIC X(1)
                                               VALUE SPACE.
               10  WK01-NAME-4300-PU254-V              PIC X(1)
                                               VALUE SPACE.
               10  WK01-NAME-4300-PU254-O              PIC X(1)
                                               VALUE SPACE.
               10  WK01-NAME-4300-PU254       PIC X(35)
                                               VALUE SPACES.
               10  WK01-NMBR-4300-PU2A4-Z              PIC X(1)
                                               VALUE SPACE.
               10  WK01-NMBR-4300-PU2A4-F              PIC X(1)
                                               VALUE SPACE.
               10  WK01-NMBR-4300-PU2A4-A              PIC X(1)
                                               VALUE SPACE.
               10  WK01-NMBR-4300-PU2A4-V              PIC X(1)
                                               VALUE SPACE.
               10  WK01-NMBR-4300-PU2A4-O              PIC X(1)
                                               VALUE SPACE.
               10  WK01-NMBR-4300-PU2A4       PIC X(30)
                                               VALUE SPACES.
               10  WK01-CODE-PU255-Z              PIC X(1)
                                               VALUE SPACE.
               10  WK01-CODE-PU255-F              PIC X(1)
                                               VALUE SPACE.
               10  WK01-CODE-PU255-A              PIC X(1)
                                               VALUE SPACE.
               10  WK01-CODE-PU255-V              PIC X(1)
                                               VALUE SPACE.
               10  WK01-CODE-PU255-O              PIC X(1)
                                               VALUE SPACE.
               10  WK01-CODE-PU255       PIC X(1)
                                               VALUE SPACES.
               10  WK01-NMBR-4300-PU255-Z              PIC X(1)
                                               VALUE SPACE.
               10  WK01-NMBR-4300-PU255-F              PIC X(1)
                                               VALUE SPACE.
               10  WK01-NMBR-4300-PU255-A              PIC X(1)
                                               VALUE SPACE.
               10  WK01-NMBR-4300-PU255-V              PIC X(1)
                                               VALUE SPACE.
               10  WK01-NMBR-4300-PU255-O              PIC X(1)
                                               VALUE SPACE.
               10  WK01-NMBR-4300-PU255       PIC X(9)
                                               VALUE SPACES.
               10  WK01-VALUE-PU255-Z              PIC X(1)
                                               VALUE SPACE.
               10  WK01-VALUE-PU255-F              PIC X(1)
                                               VALUE SPACE.
               10  WK01-VALUE-PU255-A              PIC X(1)
                                               VALUE SPACE.
               10  WK01-VALUE-PU255-V              PIC X(1)
                                               VALUE SPACE.
               10  WK01-VALUE-PU255-O              PIC X(1)
                                               VALUE SPACE.
               10  WK01-VALUE-PU255       PIC S9(10)V9(2)
                                               VALUE ZEROS.
               10  WK01-NMBR-PU255-Z              PIC X(1)
                                               VALUE SPACE.
               10  WK01-NMBR-PU255-F              PIC X(1)
                                               VALUE SPACE.
               10  WK01-NMBR-PU255-A              PIC X(1)
                                               VALUE SPACE.
               10  WK01-NMBR-PU255-V              PIC X(1)
                                               VALUE SPACE.
               10  WK01-NMBR-PU255-O              PIC X(1)
                                               VALUE SPACE.
               10  WK01-NMBR-PU255       PIC X(15)
                                               VALUE SPACES.
               10  WK01-NAME-4300-PU255-Z              PIC X(1)
                                               VALUE SPACE.
               10  WK01-NAME-4300-PU255-F              PIC X(1)
                                               VALUE SPACE.
               10  WK01-NAME-4300-PU255-A              PIC X(1)
                                               VALUE SPACE.
               10  WK01-NAME-4300-PU255-V              PIC X(1)
                                               VALUE SPACE.
               10  WK01-NAME-4300-PU255-O              PIC X(1)
                                               VALUE SPACE.
               10  WK01-NAME-4300-PU255       PIC X(35)
                                               VALUE SPACES.
               10  WK01-NMBR-4300-PU2A5-Z              PIC X(1)
                                               VALUE SPACE.
               10  WK01-NMBR-4300-PU2A5-F              PIC X(1)
                                               VALUE SPACE.
               10  WK01-NMBR-4300-PU2A5-A              PIC X(1)
                                               VALUE SPACE.
               10  WK01-NMBR-4300-PU2A5-V              PIC X(1)
                                               VALUE SPACE.
               10  WK01-NMBR-4300-PU2A5-O              PIC X(1)
                                               VALUE SPACE.
               10  WK01-NMBR-4300-PU2A5       PIC X(30)
                                               VALUE SPACES.
      ********  ACR 37607 BEGINS HERE  *********************************
               10  WK01-TOTAL-ASSET-VALUE-PU25-Z  PIC X(1)
                                               VALUE SPACE.
               10  WK01-TOTAL-ASSET-VALUE-PU25-F  PIC X(1)
                                               VALUE SPACE.
               10  WK01-TOTAL-ASSET-VALUE-PU25-A  PIC X(1)
                                               VALUE SPACE.
               10  WK01-TOTAL-ASSET-VALUE-PU25-V  PIC X(1)
                                               VALUE SPACE.
               10  WK01-TOTAL-ASSET-VALUE-PU25-O  PIC X(1)
                                               VALUE SPACE.
               10  WK01-TOTAL-ASSET-VALUE-PU25    PIC S9(10)V9(2)
                                               VALUE ZEROS.
      *
               10  WK01-TOTAL-ITEM-VALUE-PU25-Z  PIC X(1)
                                               VALUE SPACE.
               10  WK01-TOTAL-ITEM-VALUE-PU25-F  PIC X(1)
                                               VALUE SPACE.
               10  WK01-TOTAL-ITEM-VALUE-PU25-A  PIC X(1)
                                               VALUE SPACE.
               10  WK01-TOTAL-ITEM-VALUE-PU25-V  PIC X(1)
                                               VALUE SPACE.
               10  WK01-TOTAL-ITEM-VALUE-PU25-O  PIC X(1)
                                               VALUE SPACE.
               10  WK01-TOTAL-ITEM-VALUE-PU25    PIC S9(10)V9(2)
                                               VALUE ZEROS.
      *
               10  WK01-AST-PU2A-Z              PIC X(1)
                                               VALUE SPACE.
               10  WK01-AST-PU2A-F              PIC X(1)
                                               VALUE SPACE.
               10  WK01-AST-PU2A-A              PIC X(1)
                                               VALUE SPACE.
               10  WK01-AST-PU2A-V              PIC X(1)
                                               VALUE SPACE.
               10  WK01-AST-PU2A-O              PIC X(1)
                                               VALUE SPACE.
               10  WK01-AST-PU2A       PIC 9(4)
                                               VALUE ZEROS.
      ********  ACR 37607 ENDS   HERE  *********************************
               10  WK01-ZZMESSAGE-Z              PIC X(1)
                                               VALUE SPACE.
               10  WK01-ZZMESSAGE-F              PIC X(1)
                                               VALUE SPACE.
               10  WK01-ZZMESSAGE-A              PIC X(1)
                                               VALUE SPACE.
               10  WK01-ZZMESSAGE-V              PIC X(1)
                                               VALUE SPACE.
               10  WK01-ZZMESSAGE-O              PIC X(1)
                                               VALUE SPACE.
               10  WK01-ZZMESSAGE       PIC X(160)
                                               VALUE SPACES.
               10  WK01-PASSED-ONE-Z              PIC X(1)
                                               VALUE SPACE.
               10  WK01-PASSED-ONE-F              PIC X(1)
                                               VALUE SPACE.
               10  WK01-PASSED-ONE-A              PIC X(1)
                                               VALUE SPACE.
               10  WK01-PASSED-ONE-V              PIC X(1)
                                               VALUE SPACE.
               10  WK01-PASSED-ONE-O              PIC X(1)
                                               VALUE SPACE.
               10  WK01-PASSED-ONE       PIC X(32)
                                               VALUE SPACES.
               10  WK01-MAP-RESPONSE-Z              PIC X(1)
                                               VALUE SPACE.
               10  WK01-MAP-RESPONSE-F              PIC X(1)
                                               VALUE SPACE.
               10  WK01-MAP-RESPONSE-A              PIC X(1)
                                               VALUE SPACE.
               10  WK01-MAP-RESPONSE-V              PIC X(1)
                                               VALUE SPACE.
               10  WK01-MAP-RESPONSE-O              PIC X(1)
                                               VALUE SPACE.
               10  WK01-MAP-RESPONSE       PIC X(8)
                                               VALUE SPACES.
               10  WK01-TEXT-SY00-Z              PIC X(1)
                                               VALUE SPACE.
               10  WK01-TEXT-SY00-F              PIC X(1)
                                               VALUE SPACE.
               10  WK01-TEXT-SY00-A              PIC X(1)
                                               VALUE SPACE.
               10  WK01-TEXT-SY00-V              PIC X(1)
                                               VALUE SPACE.
               10  WK01-TEXT-SY00-O              PIC X(1)
                                               VALUE SPACE.
               10  WK01-TEXT-SY00       PIC X(14)
                                               VALUE SPACES.
           04  WK01-SUBSCRIPTED-WORK-AREA.
               05  FILLER                      PIC X(1).
               05  WK01-NMBR-4300-PU25-F             PIC X(1)
                                               OCCURS 5.
               05  WK01-NAME-4300-PU25-F             PIC X(1)
                                               OCCURS 5.
               05  WK01-NMBR-4300-PU2A-F             PIC X(1)
                                               OCCURS 5.
               05  WK01-CODE-PU25-F             PIC X(1)
                                               OCCURS 5.
               05  WK01-VALUE-PU25-F             PIC X(1)
                                               OCCURS 5.
               05  WK01-NMBR-PU25-F             PIC X(1)
                                               OCCURS 5.
