       01  MAP-CONTROL.

    ***Created by Convert/DC version V8R03 on 12/04/00 at 10:00***

           02  FPUMU13-MAP-CONTROL.
           03  FPUMU13T.
           04  WK01-DCXMAPL-PARMS.
               10  WK01-MAPNAME                  PIC X(8)
                                                 VALUE 'FPUMU13I'.
               10  WK01-IKE-LENGTH               PIC S9(8)  COMP
                                                 VALUE 16020.
               10  WK01-TINA-LENGTH              PIC S9(4)  COMP
                                                 VALUE 1176.
           05  WK01-ATTRIBUTES                   PIC X(60)
                                                 VALUE SPACE.
           05  WK01-ATTRIBUTES-ERROR             PIC X(60) VALUE
               'U  BIF'.
           05  WK01-CURSOR-DFLD                  PIC X(36)
                                                 VALUE SPACES.
           05  WK01-CURSOR-DFLD-QUAL             PIC X(30)
                                                 VALUE SPACES.
           05  WK01-ROW                          PIC S9(4) COMP
                                                 VALUE ZERO.
           05  WK01-COLUMN                       PIC S9(4) COMP
                                                 VALUE ZERO.
           05  WK01-ERROR-MSG                    PIC X(80)
                                                 VALUE SPACES.
           05  WK01-MAP-DATA-LEN                 PIC S9(6)
                                                 VALUE ZERO.
           05  WK01-1ST-FLAG                     PIC X(1)
                                                 VALUE 'Y'.
           05  WK01-FLAG-OUTPUT-DATA             PIC X(1)
                                                 VALUE 'Y'.
      *    05  WK01-STATUS-RETURN-FLAG           PIC X(1)
      *                                          VALUE SPACES.
           05  WK01-ALL-BUT-FLAG                 PIC X(1)
                                                 VALUE SPACES.
           05  WK01-FLAG-ALL-FIELDS-CHANGED      PIC X(1)  VALUE 'Y'.
           05  WK01-FLAG-ANY-FIELDS-CHANGED      PIC X(1)  VALUE 'N'.
           05  WK01-FLAG-ALL-FIELDS-ERROR        PIC X(1)  VALUE 'Y'.
           05  WK01-FLAG-ANY-FIELDS-ERROR        PIC X(1)  VALUE 'N'.
           05  WK01-FLAG-ALL-FIELDS-ERASE        PIC X(1)  VALUE 'Y'.
           05  WK01-FLAG-ANY-FIELDS-ERASE        PIC X(1)  VALUE 'Y'.

           05  WK01-VARDATA                      PIC X(11880)
                                                 VALUE SPACES.
           05  FILLER                            PIC X(100)
                                                 VALUE SPACES.
           04  WK01-ELEMENT-AREA.

               10  WK01-ID-SY00-Z              PIC X(1)
                                               VALUE SPACE.
               10  WK01-ID-SY00-F              PIC X(1)
                                               VALUE SPACE.
               10  WK01-ID-SY00-A              PIC X(1)
                                               VALUE SPACE.
               10  WK01-ID-SY00-V              PIC X(1)
                                               VALUE SPACE.
               10  WK01-ID-SY00-O              PIC X(1)
                                               VALUE SPACE.
               10  WK01-ID-SY00       PIC X(8)
                                               VALUE SPACES.
               10  WK01-NAME-6001-SY00-Z              PIC X(1)
                                               VALUE SPACE.
               10  WK01-NAME-6001-SY00-F              PIC X(1)
                                               VALUE SPACE.
               10  WK01-NAME-6001-SY00-A              PIC X(1)
                                               VALUE SPACE.
               10  WK01-NAME-6001-SY00-V              PIC X(1)
                                               VALUE SPACE.
               10  WK01-NAME-6001-SY00-O              PIC X(1)
                                               VALUE SPACE.
               10  WK01-NAME-6001-SY00       PIC X(35)
                                               VALUE SPACES.
               10  WK01-DATE-Z              PIC X(1)
                                               VALUE SPACE.
               10  WK01-DATE-F              PIC X(1)
                                               VALUE SPACE.
               10  WK01-DATE-A              PIC X(1)
                                               VALUE SPACE.
               10  WK01-DATE-V              PIC X(1)
                                               VALUE SPACE.
               10  WK01-DATE-O              PIC X(1)
                                               VALUE SPACE.
               10  WK01-DATE       PIC X(8)
                                               VALUE SPACES.
               10  WK01-HH-MM-TIME-SY00-Z              PIC X(1)
                                               VALUE SPACE.
               10  WK01-HH-MM-TIME-SY00-F              PIC X(1)
                                               VALUE SPACE.
               10  WK01-HH-MM-TIME-SY00-A              PIC X(1)
                                               VALUE SPACE.
               10  WK01-HH-MM-TIME-SY00-V              PIC X(1)
                                               VALUE SPACE.
               10  WK01-HH-MM-TIME-SY00-O              PIC X(1)
                                               VALUE SPACE.
               10  WK01-HH-MM-TIME-SY00       PIC X(4)
                                               VALUE SPACES.
               10  WK01-PM-FLAG-SY00-Z              PIC X(1)
                                               VALUE SPACE.
               10  WK01-PM-FLAG-SY00-F              PIC X(1)
                                               VALUE SPACE.
               10  WK01-PM-FLAG-SY00-A              PIC X(1)
                                               VALUE SPACE.
               10  WK01-PM-FLAG-SY00-V              PIC X(1)
                                               VALUE SPACE.
               10  WK01-PM-FLAG-SY00-O              PIC X(1)
                                               VALUE SPACE.
               10  WK01-PM-FLAG-SY00       PIC X(1)
                                               VALUE SPACES.
               10  WK01-USER-ID-Z              PIC X(1)
                                               VALUE SPACE.
               10  WK01-USER-ID-F              PIC X(1)
                                               VALUE SPACE.
               10  WK01-USER-ID-A              PIC X(1)
                                               VALUE SPACE.
               10  WK01-USER-ID-V              PIC X(1)
                                               VALUE SPACE.
               10  WK01-USER-ID-O              PIC X(1)
                                               VALUE SPACE.
               10  WK01-USER-ID       PIC X(32)
                                               VALUE SPACES.
               10  WK01-RSPNS-ID-SY00-Z              PIC X(1)
                                               VALUE SPACE.
               10  WK01-RSPNS-ID-SY00-F              PIC X(1)
                                               VALUE SPACE.
               10  WK01-RSPNS-ID-SY00-A              PIC X(1)
                                               VALUE SPACE.
               10  WK01-RSPNS-ID-SY00-V              PIC X(1)
                                               VALUE SPACE.
               10  WK01-RSPNS-ID-SY00-O              PIC X(1)
                                               VALUE SPACE.
               10  WK01-RSPNS-ID-SY00       PIC X(8)
                                               VALUE SPACES.
               10  WK01-FUNC-DESCRIPTION-Z              PIC X(1)
                                               VALUE SPACE.
               10  WK01-FUNC-DESCRIPTION-F              PIC X(1)
                                               VALUE SPACE.
               10  WK01-FUNC-DESCRIPTION-A              PIC X(1)
                                               VALUE SPACE.
               10  WK01-FUNC-DESCRIPTION-V              PIC X(1)
                                               VALUE SPACE.
               10  WK01-FUNC-DESCRIPTION-O              PIC X(1)
                                               VALUE SPACE.
               10  WK01-FUNC-DESCRIPTION       PIC X(28)
                                               VALUE SPACES.
               10  WK01-STATUS-CODE-SY00-Z              PIC X(1)
                                               VALUE SPACE.
               10  WK01-STATUS-CODE-SY00-F              PIC X(1)
                                               VALUE SPACE.
               10  WK01-STATUS-CODE-SY00-A              PIC X(1)
                                               VALUE SPACE.
               10  WK01-STATUS-CODE-SY00-V              PIC X(1)
                                               VALUE SPACE.
               10  WK01-STATUS-CODE-SY00-O              PIC X(1)
                                               VALUE SPACE.
               10  WK01-STATUS-CODE-SY00       PIC X(1)
                                               VALUE SPACES.
               10  WK01-NMBR-4083-PU13-Z              PIC X(1)
                                               VALUE SPACE.
               10  WK01-NMBR-4083-PU13-F              PIC X(1)
                                               VALUE SPACE.
               10  WK01-NMBR-4083-PU13-A              PIC X(1)
                                               VALUE SPACE.
               10  WK01-NMBR-4083-PU13-V              PIC X(1)
                                               VALUE SPACE.
               10  WK01-NMBR-4083-PU13-O              PIC X(1)
                                               VALUE SPACE.
               10  WK01-NMBR-4083-PU13       PIC X(8)
                                               VALUE SPACES.
               10  WK01-SEQ-NMBR-4096-PU13-Z              PIC X(1)
                                               VALUE SPACE.
               10  WK01-SEQ-NMBR-4096-PU13-F              PIC X(1)
                                               VALUE SPACE.
               10  WK01-SEQ-NMBR-4096-PU13-A              PIC X(1)
                                               VALUE SPACE.
               10  WK01-SEQ-NMBR-4096-PU13-V              PIC X(1)
                                               VALUE SPACE.
               10  WK01-SEQ-NMBR-4096-PU13-O              PIC X(1)
                                               VALUE SPACE.
               10  WK01-SEQ-NMBR-4096-PU13       PIC X(3)
                                               VALUE SPACES.
               10  WK01-C-O-PU13-Z              PIC X(1)
                                               VALUE SPACE.
               10  WK01-C-O-PU13-F              PIC X(1)
                                               VALUE SPACE.
               10  WK01-C-O-PU13-A              PIC X(1)
                                               VALUE SPACE.
               10  WK01-C-O-PU13-V              PIC X(1)
                                               VALUE SPACE.
               10  WK01-C-O-PU13-O              PIC X(1)
                                               VALUE SPACE.
               10  WK01-C-O-PU13       PIC X(3)
                                               VALUE SPACES.
               10  WK01-COUNT-4096-PU13-Z              PIC X(1)
                                               VALUE SPACE.
               10  WK01-COUNT-4096-PU13-F              PIC X(1)
                                               VALUE SPACE.
               10  WK01-COUNT-4096-PU13-A              PIC X(1)
                                               VALUE SPACE.
               10  WK01-COUNT-4096-PU13-V              PIC X(1)
                                               VALUE SPACE.
               10  WK01-COUNT-4096-PU13-O              PIC X(1)
                                               VALUE SPACE.
               10  WK01-COUNT-4096-PU13       PIC X(4)
                                               VALUE SPACES.
               10  WK01-PO-STATUS-LIT-PU13-Z           PIC X(1)
                                               VALUE SPACE.
               10  WK01-PO-STATUS-LIT-PU13-F           PIC X(1)
                                               VALUE SPACE.
               10  WK01-PO-STATUS-LIT-PU13-A           PIC X(1)
                                               VALUE SPACE.
               10  WK01-PO-STATUS-LIT-PU13-V           PIC X(1)
                                               VALUE SPACE.
               10  WK01-PO-STATUS-LIT-PU13-O           PIC X(1)
                                               VALUE SPACE.
               10  WK01-PO-STATUS-LIT-PU13    PIC X(22)
                                               VALUE SPACES.
               10  WK01-CODE-PU13-Z              PIC X(1)
                                               VALUE SPACE.
               10  WK01-CODE-PU13-F              PIC X(1)
                                               VALUE SPACE.
               10  WK01-CODE-PU13-A              PIC X(1)
                                               VALUE SPACE.
               10  WK01-CODE-PU13-V              PIC X(1)
                                               VALUE SPACE.
               10  WK01-CODE-PU13-O              PIC X(1)
                                               VALUE SPACE.
               10  WK01-CODE-PU13                PIC X(1)
                                               VALUE SPACES.
               10  WK01-DATE-4085-PU13-Z              PIC X(1)
                                               VALUE SPACE.
               10  WK01-DATE-4085-PU13-F              PIC X(1)
                                               VALUE SPACE.
               10  WK01-DATE-4085-PU13-A              PIC X(1)
                                               VALUE SPACE.
               10  WK01-DATE-4085-PU13-V              PIC X(1)
                                               VALUE SPACE.
               10  WK01-DATE-4085-PU13-O              PIC X(1)
                                               VALUE SPACE.
               10  WK01-DATE-4085-PU13       PIC X(6)
                                               VALUE SPACES.
               10  WK01-NMBR-4085-PU13-Z              PIC X(1)
                                               VALUE SPACE.
               10  WK01-NMBR-4085-PU13-F              PIC X(1)
                                               VALUE SPACE.
               10  WK01-NMBR-4085-PU13-A              PIC X(1)
                                               VALUE SPACE.
               10  WK01-NMBR-4085-PU13-V              PIC X(1)
                                               VALUE SPACE.
               10  WK01-NMBR-4085-PU13-O              PIC X(1)
                                               VALUE SPACE.
               10  WK01-NMBR-4085-PU13            PIC X(4)
                                               VALUE SPACES.
               10  WK01-ALPHA-PU13-Z              PIC X(1)
                                               VALUE SPACE.
               10  WK01-ALPHA-PU13-F              PIC X(1)
                                               VALUE SPACE.
               10  WK01-ALPHA-PU13-A              PIC X(1)
                                               VALUE SPACE.
               10  WK01-ALPHA-PU13-V              PIC X(1)
                                               VALUE SPACE.
               10  WK01-ALPHA-PU13-O              PIC X(1)
                                               VALUE SPACE.
               10  WK01-ALPHA-PU13                PIC X(24)
                                               VALUE SPACES.
               10  WK01-IND-PU13-Z              PIC X(1)
                                               VALUE SPACE.
               10  WK01-IND-PU13-F              PIC X(1)
                                               VALUE SPACE.
               10  WK01-IND-PU13-A              PIC X(1)
                                               VALUE SPACE.
               10  WK01-IND-PU13-V              PIC X(1)
                                               VALUE SPACE.
               10  WK01-IND-PU13-O              PIC X(1)
                                               VALUE SPACE.
               10  WK01-IND-PU13                PIC X(01)
                                               VALUE SPACES.
               10  WK01-IND-2-PU13-Z              PIC X(1)
                                               VALUE SPACE.
               10  WK01-IND-2-PU13-F              PIC X(1)
                                               VALUE SPACE.
               10  WK01-IND-2-PU13-A              PIC X(1)
                                               VALUE SPACE.
               10  WK01-IND-2-PU13-V              PIC X(1)
                                               VALUE SPACE.
               10  WK01-IND-2-PU13-O              PIC X(1)
                                               VALUE SPACE.
               10  WK01-IND-2-PU13                PIC X(1)
                                               VALUE SPACES.
               10  WK01-FLAG-PU13-Z               PIC X(1)
                                               VALUE SPACE.
               10  WK01-FLAG-PU13-F              PIC X(1)
                                               VALUE SPACE.
               10  WK01-FLAG-PU13-A              PIC X(1)
                                               VALUE SPACE.
               10  WK01-FLAG-PU13-V              PIC X(1)
                                               VALUE SPACE.
               10  WK01-FLAG-PU13-O              PIC X(1)
                                               VALUE SPACE.
               10  WK01-FLAG-PU13                PIC X(1)
                                               VALUE SPACES.
               10  WK01-CODE-4085-PU13-Z              PIC X(1)
                                               VALUE SPACE.
               10  WK01-CODE-4085-PU13-F              PIC X(1)
                                               VALUE SPACE.
               10  WK01-CODE-4085-PU13-A              PIC X(1)
                                               VALUE SPACE.
               10  WK01-CODE-4085-PU13-V              PIC X(1)
                                               VALUE SPACE.
               10  WK01-CODE-4085-PU13-O              PIC X(1)
                                               VALUE SPACE.
               10  WK01-CODE-4085-PU13                PIC X(8)
                                               VALUE SPACES.
               10  WK01-DESC-4085-PU13-Z              PIC X(1)
                                               VALUE SPACE.
               10  WK01-DESC-4085-PU13-F              PIC X(1)
                                               VALUE SPACE.
               10  WK01-DESC-4085-PU13-A              PIC X(1)
                                               VALUE SPACE.
               10  WK01-DESC-4085-PU13-V              PIC X(1)
                                               VALUE SPACE.
               10  WK01-DESC-4085-PU13-O              PIC X(1)
                                               VALUE SPACE.
               10  WK01-DESC-4085-PU13                PIC X(35)
                                               VALUE SPACES.
               10  WK01-FLAG-PU1A-Z              PIC X(1)
                                               VALUE SPACE.
               10  WK01-FLAG-PU1A-F              PIC X(1)
                                               VALUE SPACE.
               10  WK01-FLAG-PU1A-A              PIC X(1)
                                               VALUE SPACE.
               10  WK01-FLAG-PU1A-V              PIC X(1)
                                               VALUE SPACE.
               10  WK01-FLAG-PU1A-O              PIC X(1)
                                               VALUE SPACE.
               10  WK01-FLAG-PU1A                PIC X(1)
                                               VALUE SPACES.

               10  WK01-MEA-CODE-4085-PU13-Z              PIC X(1)
                                               VALUE SPACE.
               10  WK01-MEA-CODE-4085-PU13-F              PIC X(1)
                                               VALUE SPACE.
               10  WK01-MEA-CODE-4085-PU13-A              PIC X(1)
                                               VALUE SPACE.
               10  WK01-MEA-CODE-4085-PU13-V              PIC X(1)
                                               VALUE SPACE.
               10  WK01-MEA-CODE-4085-PU13-O              PIC X(1)
                                               VALUE SPACE.
               10  WK01-MEA-CODE-4085-PU13       PIC X(3)
                                               VALUE SPACES.
               10  WK01-MEA-DESC-4075-PU13-Z              PIC X(1)
                                               VALUE SPACE.
               10  WK01-MEA-DESC-4075-PU13-F              PIC X(1)
                                               VALUE SPACE.
               10  WK01-MEA-DESC-4075-PU13-A              PIC X(1)
                                               VALUE SPACE.
               10  WK01-MEA-DESC-4075-PU13-V              PIC X(1)
                                               VALUE SPACE.
               10  WK01-MEA-DESC-4075-PU13-O              PIC X(1)
                                               VALUE SPACE.
               10  WK01-MEA-DESC-4075-PU13       PIC X(35)
                                               VALUE SPACES.
               10  WK01-DESC-PU13-Z              PIC X(1)
                                               VALUE SPACE.
               10  WK01-DESC-PU13-F              PIC X(1)
                                               VALUE SPACE.
               10  WK01-DESC-PU13-A              PIC X(1)
                                               VALUE SPACE.
               10  WK01-DESC-PU13-V              PIC X(1)
                                               VALUE SPACE.
               10  WK01-DESC-PU13-O              PIC X(1)
                                               VALUE SPACE.
               10  WK01-DESC-PU13       PIC X(75)
                                               VALUE SPACES.
               10  WK01-4085-PU13-Z              PIC X(1)
                                               VALUE SPACE.
               10  WK01-4085-PU13-F              PIC X(1)
                                               VALUE SPACE.
               10  WK01-4085-PU13-A              PIC X(1)
                                               VALUE SPACE.
               10  WK01-4085-PU13-V              PIC X(1)
                                               VALUE SPACE.
               10  WK01-4085-PU13-O              PIC X(1)
                                               VALUE SPACE.
               10  WK01-4085-PU13       PIC X(11)
                                               VALUE SPACES.
               10  WK01-PRICE-4085-PU13-Z              PIC X(1)
                                               VALUE SPACE.
               10  WK01-PRICE-4085-PU13-F              PIC X(1)
                                               VALUE SPACE.
               10  WK01-PRICE-4085-PU13-A              PIC X(1)
                                               VALUE SPACE.
               10  WK01-PRICE-4085-PU13-V              PIC X(1)
                                               VALUE SPACE.
               10  WK01-PRICE-4085-PU13-O              PIC X(1)
                                               VALUE SPACE.
               10  WK01-PRICE-4085-PU13       PIC X(15)
                                               VALUE SPACES.
               10  WK01-IND-4085-PU13-Z              PIC X(1)
                                               VALUE SPACE.
               10  WK01-IND-4085-PU13-F              PIC X(1)
                                               VALUE SPACE.
               10  WK01-IND-4085-PU13-A              PIC X(1)
                                               VALUE SPACE.
               10  WK01-IND-4085-PU13-V              PIC X(1)
                                               VALUE SPACE.
               10  WK01-IND-4085-PU13-O              PIC X(1)
                                               VALUE SPACE.
               10  WK01-IND-4085-PU13       PIC X(1)
                                               VALUE SPACES.
               10  WK01-PRICE-PU13-Z              PIC X(1)
                                               VALUE SPACE.
               10  WK01-PRICE-PU13-F              PIC X(1)
                                               VALUE SPACE.
               10  WK01-PRICE-PU13-A              PIC X(1)
                                               VALUE SPACE.
               10  WK01-PRICE-PU13-V              PIC X(1)
                                               VALUE SPACE.
               10  WK01-PRICE-PU13-O              PIC X(1)
                                               VALUE SPACE.
               10  WK01-PRICE-PU13       PIC X(17)
                                               VALUE SPACES.
               10  WK01-QTY-LIT-PU13-Z              PIC X(1)
                                               VALUE SPACE.
               10  WK01-QTY-LIT-PU13-F              PIC X(1)
                                               VALUE SPACE.
               10  WK01-QTY-LIT-PU13-A              PIC X(1)
                                               VALUE SPACE.
               10  WK01-QTY-LIT-PU13-V              PIC X(1)
                                               VALUE SPACE.
               10  WK01-QTY-LIT-PU13-O              PIC X(1)
                                               VALUE SPACE.
               10  WK01-QTY-LIT-PU13       PIC X(10)
                                               VALUE SPACES.
               10  WK01-QTY-PU13-Z              PIC X(1)
                                               VALUE SPACE.
               10  WK01-QTY-PU13-F              PIC X(1)
                                               VALUE SPACE.
               10  WK01-QTY-PU13-A              PIC X(1)
                                               VALUE SPACE.
               10  WK01-QTY-PU13-V              PIC X(1)
                                               VALUE SPACE.
               10  WK01-QTY-PU13-O              PIC X(1)
                                               VALUE SPACE.
               10  WK01-QTY-PU13       PIC S9(6)V9(2)
                                               VALUE ZEROS.
               10  WK01-UNIT-PRICE-PU13-Z              PIC X(1)
                                               VALUE SPACE.
               10  WK01-UNIT-PRICE-PU13-F              PIC X(1)
                                               VALUE SPACE.
               10  WK01-UNIT-PRICE-PU13-A              PIC X(1)
                                               VALUE SPACE.
               10  WK01-UNIT-PRICE-PU13-V              PIC X(1)
                                               VALUE SPACE.
               10  WK01-UNIT-PRICE-PU13-O              PIC X(1)
                                               VALUE SPACE.
               10  WK01-UNIT-PRICE-PU13       PIC 9(10)V9(4)
                                               VALUE ZEROS.
               10  WK01-EXTENDED-PRICE-PU13-Z              PIC X(1)
                                               VALUE SPACE.
               10  WK01-EXTENDED-PRICE-PU13-F              PIC X(1)
                                               VALUE SPACE.
               10  WK01-EXTENDED-PRICE-PU13-A              PIC X(1)
                                               VALUE SPACE.
               10  WK01-EXTENDED-PRICE-PU13-V              PIC X(1)
                                               VALUE SPACE.
               10  WK01-EXTENDED-PRICE-PU13-O              PIC X(1)
                                               VALUE SPACE.
               10  WK01-EXTENDED-PRICE-PU13       PIC X(17)
                                               VALUE SPACES.
               10  WK01-EXTENDED-PRICE-PU1A-Z              PIC X(1)
                                               VALUE SPACE.
               10  WK01-EXTENDED-PRICE-PU1A-F              PIC X(1)
                                               VALUE SPACE.
               10  WK01-EXTENDED-PRICE-PU1A-A              PIC X(1)
                                               VALUE SPACE.
               10  WK01-EXTENDED-PRICE-PU1A-V              PIC X(1)
                                               VALUE SPACE.
               10  WK01-EXTENDED-PRICE-PU1A-O              PIC X(1)
                                               VALUE SPACE.
               10  WK01-EXTENDED-PRICE-PU1A       PIC X(17)
                                               VALUE SPACES.
               10  WK01-PCT-PU13-Z              PIC X(1)
                                               VALUE SPACE.
               10  WK01-PCT-PU13-F              PIC X(1)
                                               VALUE SPACE.
               10  WK01-PCT-PU13-A              PIC X(1)
                                               VALUE SPACE.
               10  WK01-PCT-PU13-V              PIC X(1)
                                               VALUE SPACE.
               10  WK01-PCT-PU13-O              PIC X(1)
                                               VALUE SPACE.
               10  WK01-PCT-PU13       PIC X(7)
                                               VALUE SPACES.
               10  WK01-AMT-PU13-Z              PIC X(1)
                                               VALUE SPACE.
               10  WK01-AMT-PU13-F              PIC X(1)
                                               VALUE SPACE.
               10  WK01-AMT-PU13-A              PIC X(1)
                                               VALUE SPACE.
               10  WK01-AMT-PU13-V              PIC X(1)
                                               VALUE SPACE.
               10  WK01-AMT-PU13-O              PIC X(1)
                                               VALUE SPACE.
               10  WK01-AMT-PU13       PIC X(17)
                                               VALUE SPACES.
               10  WK01-BEFORE-TAX-IND-PU13-Z              PIC X(1)
                                               VALUE SPACE.
               10  WK01-BEFORE-TAX-IND-PU13-F              PIC X(1)
                                               VALUE SPACE.
               10  WK01-BEFORE-TAX-IND-PU13-A              PIC X(1)
                                               VALUE SPACE.
               10  WK01-BEFORE-TAX-IND-PU13-V              PIC X(1)
                                               VALUE SPACE.
               10  WK01-BEFORE-TAX-IND-PU13-O              PIC X(1)
                                               VALUE SPACE.
               10  WK01-BEFORE-TAX-IND-PU13       PIC X(1)
                                               VALUE SPACES.
               10  WK01-DSCNT-AMT-DISPLAY-PU13-Z              PIC X(1)
                                               VALUE SPACE.
               10  WK01-DSCNT-AMT-DISPLAY-PU13-F              PIC X(1)
                                               VALUE SPACE.
               10  WK01-DSCNT-AMT-DISPLAY-PU13-A              PIC X(1)
                                               VALUE SPACE.
               10  WK01-DSCNT-AMT-DISPLAY-PU13-V              PIC X(1)
                                               VALUE SPACE.
               10  WK01-DSCNT-AMT-DISPLAY-PU13-O              PIC X(1)
                                               VALUE SPACE.
               10  WK01-DSCNT-AMT-DISPLAY-PU13       PIC S9(10)V9(2)
                                               VALUE ZEROS.
               10  WK01-ITEM-NMBR-PU13-Z              PIC X(1)
                                               VALUE SPACE.
               10  WK01-ITEM-NMBR-PU13-F              PIC X(1)
                                               VALUE SPACE.
               10  WK01-ITEM-NMBR-PU13-A              PIC X(1)
                                               VALUE SPACE.
               10  WK01-ITEM-NMBR-PU13-V              PIC X(1)
                                               VALUE SPACE.
               10  WK01-ITEM-NMBR-PU13-O              PIC X(1)
                                               VALUE SPACE.
               10  WK01-ITEM-NMBR-PU13       PIC X(4)
                                               VALUE SPACES.
               10  WK01-TRADE-IN-IND-PU13-Z           PIC X(1)
                                               VALUE SPACE.
               10  WK01-TRADE-IN-IND-PU13-F           PIC X(1)
                                               VALUE SPACE.
               10  WK01-TRADE-IN-IND-PU13-A           PIC X(1)
                                               VALUE SPACE.
               10  WK01-TRADE-IN-IND-PU13-V           PIC X(1)
                                               VALUE SPACE.
               10  WK01-TRADE-IN-IND-PU13-O           PIC X(1)
                                               VALUE SPACE.
               10  WK01-TRADE-IN-IND-PU13             PIC X(1)
                                               VALUE SPACES.
               10  WK01-TRADE-UCID-NBR-PU13-Z       PIC X(1)
                                               VALUE SPACE.
               10  WK01-TRADE-UCID-NBR-PU13-F       PIC X(1)
                                               VALUE SPACE.
               10  WK01-TRADE-UCID-NBR-PU13-A       PIC X(1)
                                               VALUE SPACE.
               10  WK01-TRADE-UCID-NBR-PU13-V       PIC X(1)
                                               VALUE SPACE.
               10  WK01-TRADE-UCID-NBR-PU13-O       PIC X(1)
                                               VALUE SPACE.
               10  WK01-TRADE-UCID-NBR-PU13         PIC X(09)
                                               VALUE SPACES.
               10  WK01-ACSRY-IND-PU13-Z              PIC X(1)
                                               VALUE SPACE.
               10  WK01-ACSRY-IND-PU13-F              PIC X(1)
                                               VALUE SPACE.
               10  WK01-ACSRY-IND-PU13-A              PIC X(1)
                                               VALUE SPACE.
               10  WK01-ACSRY-IND-PU13-V              PIC X(1)
                                               VALUE SPACE.
               10  WK01-ACSRY-IND-PU13-O              PIC X(1)
                                               VALUE SPACE.
               10  WK01-ACSRY-IND-PU13                PIC X(1)
                                               VALUE SPACE.
               10  WK01-ACSRY-UCID-NBR-PU13-Z          PIC X(1)
                                               VALUE SPACE.
               10  WK01-ACSRY-UCID-NBR-PU13-F          PIC X(1)
                                               VALUE SPACE.
               10  WK01-ACSRY-UCID-NBR-PU13-A          PIC X(1)
                                               VALUE SPACE.
               10  WK01-ACSRY-UCID-NBR-PU13-V          PIC X(1)
                                               VALUE SPACE.
               10  WK01-ACSRY-UCID-NBR-PU13-O          PIC X(1)
                                               VALUE SPACE.
               10  WK01-ACSRY-UCID-NBR-PU13            PIC X(09)
                                               VALUE SPACE.
               10  WK01-FAB-IND-PU13-Z                PIC X(1)
                                               VALUE SPACE.
               10  WK01-FAB-IND-PU13-F                PIC X(1)
                                               VALUE SPACE.
               10  WK01-FAB-IND-PU13-A                PIC X(1)
                                               VALUE SPACE.
               10  WK01-FAB-IND-PU13-V                PIC X(1)
                                               VALUE SPACE.
               10  WK01-FAB-IND-PU13-O                PIC X(1)
                                               VALUE SPACE.
               10  WK01-FAB-IND-PU13                  PIC X(1)
                                               VALUE SPACE.
               10  WK01-FAB-UCID-NBR-PU13-Z            PIC X(1)
                                               VALUE SPACE.
               10  WK01-FAB-UCID-NBR-PU13-F            PIC X(1)
                                               VALUE SPACE.
               10  WK01-FAB-UCID-NBR-PU13-A            PIC X(1)
                                               VALUE SPACE.
               10  WK01-FAB-UCID-NBR-PU13-V            PIC X(1)
                                               VALUE SPACE.
               10  WK01-FAB-UCID-NBR-PU13-O            PIC X(1)
                                               VALUE SPACE.
               10  WK01-FAB-UCID-NBR-PU13              PIC X(04)
                                               VALUE SPACE.

               10  WK01-EAMS-DESC-PU13-Z               PIC X(1)
                                               VALUE SPACE.
               10  WK01-EAMS-DESC-PU13-F               PIC X(1)
                                               VALUE SPACE.
               10  WK01-EAMS-DESC-PU13-A               PIC X(1)
                                               VALUE SPACE.
               10  WK01-EAMS-DESC-PU13-V               PIC X(1)
                                               VALUE SPACE.
               10  WK01-EAMS-DESC-PU13-O               PIC X(1)
                                               VALUE SPACE.
               10  WK01-EAMS-DESC-PU13                 PIC X(50)
                                               VALUE SPACE.
               10  WK01-ACTN-CODE-PU13-Z              PIC X(1)
                                               VALUE SPACE.
               10  WK01-ACTN-CODE-PU13-F              PIC X(1)
                                               VALUE SPACE.
               10  WK01-ACTN-CODE-PU13-A              PIC X(1)
                                               VALUE SPACE.
               10  WK01-ACTN-CODE-PU13-V              PIC X(1)
                                               VALUE SPACE.
               10  WK01-ACTN-CODE-PU13-O              PIC X(1)
                                               VALUE SPACE.
               10  WK01-ACTN-CODE-PU13       PIC X(1)
                                               VALUE SPACES.
               10  WK01-AST-PU13-Z              PIC X(1)
                                               VALUE SPACE.
               10  WK01-AST-PU13-F              PIC X(1)
                                               VALUE SPACE.
               10  WK01-AST-PU13-A              PIC X(1)
                                               VALUE SPACE.
               10  WK01-AST-PU13-V              PIC X(1)
                                               VALUE SPACE.
               10  WK01-AST-PU13-O              PIC X(1)
                                               VALUE SPACE.
               10  WK01-AST-PU13       PIC 9(4)
                                               VALUE ZEROS.
               10  WK01-AST-PU1A-Z              PIC X(1)
                                               VALUE SPACE.
               10  WK01-AST-PU1A-F              PIC X(1)
                                               VALUE SPACE.
               10  WK01-AST-PU1A-A              PIC X(1)
                                               VALUE SPACE.
               10  WK01-AST-PU1A-V              PIC X(1)
                                               VALUE SPACE.
               10  WK01-AST-PU1A-O              PIC X(1)
                                               VALUE SPACE.
               10  WK01-AST-PU1A       PIC 9(4)
                                               VALUE ZEROS.
               10  WK01-NMBR-PU13-Z              PIC X(1)
                                               VALUE SPACE.
               10  WK01-NMBR-PU13-F              PIC X(1)
                                               VALUE SPACE.
               10  WK01-NMBR-PU13-A              PIC X(1)
                                               VALUE SPACE.
               10  WK01-NMBR-PU13-V              PIC X(1)
                                               VALUE SPACE.
               10  WK01-NMBR-PU13-O              PIC X(1)
                                               VALUE SPACE.
               10  WK01-NMBR-PU13       PIC X(9)
                                               VALUE SPACES.
               10  WK01-VALUE-PU13-Z              PIC X(1)
                                               VALUE SPACE.
               10  WK01-VALUE-PU13-F              PIC X(1)
                                               VALUE SPACE.
               10  WK01-VALUE-PU13-A              PIC X(1)
                                               VALUE SPACE.
               10  WK01-VALUE-PU13-V              PIC X(1)
                                               VALUE SPACE.
               10  WK01-VALUE-PU13-O              PIC X(1)
                                               VALUE SPACE.
               10  WK01-VALUE-PU13       PIC S9(10)V9(2)
                                               VALUE ZEROS.
               10  WK01-NMBR-4200-PU13-Z              PIC X(1)
                                               VALUE SPACE.
               10  WK01-NMBR-4200-PU13-F              PIC X(1)
                                               VALUE SPACE.
               10  WK01-NMBR-4200-PU13-A              PIC X(1)
                                               VALUE SPACE.
               10  WK01-NMBR-4200-PU13-V              PIC X(1)
                                               VALUE SPACE.
               10  WK01-NMBR-4200-PU13-O              PIC X(1)
                                               VALUE SPACE.
               10  WK01-NMBR-4200-PU13       PIC X(15)
                                               VALUE SPACES.
               10  WK01-NAME-4085-PU13-Z              PIC X(1)
                                               VALUE SPACE.
               10  WK01-NAME-4085-PU13-F              PIC X(1)
                                               VALUE SPACE.
               10  WK01-NAME-4085-PU13-A              PIC X(1)
                                               VALUE SPACE.
               10  WK01-NAME-4085-PU13-V              PIC X(1)
                                               VALUE SPACE.
               10  WK01-NAME-4085-PU13-O              PIC X(1)
                                               VALUE SPACE.
               10  WK01-NAME-4085-PU13       PIC X(35)
                                               VALUE SPACES.
               10  WK01-NMBR-4085-PU1A-Z              PIC X(1)
                                               VALUE SPACE.
               10  WK01-NMBR-4085-PU1A-F              PIC X(1)
                                               VALUE SPACE.
               10  WK01-NMBR-4085-PU1A-A              PIC X(1)
                                               VALUE SPACE.
               10  WK01-NMBR-4085-PU1A-V              PIC X(1)
                                               VALUE SPACE.
               10  WK01-NMBR-4085-PU1A-O              PIC X(1)
                                               VALUE SPACE.
               10  WK01-NMBR-4085-PU1A       PIC X(30)
                                               VALUE SPACES.
               10  WK01-ZZMESSAGE-Z              PIC X(1)
                                               VALUE SPACE.
               10  WK01-ZZMESSAGE-F              PIC X(1)
                                               VALUE SPACE.
               10  WK01-ZZMESSAGE-A              PIC X(1)
                                               VALUE SPACE.
               10  WK01-ZZMESSAGE-V              PIC X(1)
                                               VALUE SPACE.
               10  WK01-ZZMESSAGE-O              PIC X(1)
                                               VALUE SPACE.
               10  WK01-ZZMESSAGE       PIC X(160)
                                               VALUE SPACES.
               10  WK01-PASSED-ONE-Z              PIC X(1)
                                               VALUE SPACE.
               10  WK01-PASSED-ONE-F              PIC X(1)
                                               VALUE SPACE.
               10  WK01-PASSED-ONE-A              PIC X(1)
                                               VALUE SPACE.
               10  WK01-PASSED-ONE-V              PIC X(1)
                                               VALUE SPACE.
               10  WK01-PASSED-ONE-O              PIC X(1)
                                               VALUE SPACE.
               10  WK01-PASSED-ONE       PIC X(32)
                                               VALUE SPACES.
               10  WK01-MAP-RESPONSE-Z              PIC X(1)
                                               VALUE SPACE.
               10  WK01-MAP-RESPONSE-F              PIC X(1)
                                               VALUE SPACE.
               10  WK01-MAP-RESPONSE-A              PIC X(1)
                                               VALUE SPACE.
               10  WK01-MAP-RESPONSE-V              PIC X(1)
                                               VALUE SPACE.
               10  WK01-MAP-RESPONSE-O              PIC X(1)
                                               VALUE SPACE.
               10  WK01-MAP-RESPONSE       PIC X(8)
                                               VALUE SPACES.
               10  WK01-TEXT-SY00-Z              PIC X(1)
                                               VALUE SPACE.
               10  WK01-TEXT-SY00-F              PIC X(1)
                                               VALUE SPACE.
               10  WK01-TEXT-SY00-A              PIC X(1)
                                               VALUE SPACE.
               10  WK01-TEXT-SY00-V              PIC X(1)
                                               VALUE SPACE.
               10  WK01-TEXT-SY00-O              PIC X(1)
                                               VALUE SPACE.
               10  WK01-TEXT-SY00       PIC X(14)
                                               VALUE SPACES.
