       01  MAP-CONTROL.

    ***Created by Convert/DC version V8R03 on 11/20/00 at 15:00***

           02  FPUMI44-MAP-CONTROL.
           03  FPUMI44T.
           04  WK01-DCXMAPL-PARMS.
               10  WK01-MAPNAME                  PIC X(8)
                                                 VALUE 'FPUMI44I'.
               10  WK01-IKE-LENGTH               PIC S9(8)  COMP
001DMW                                           VALUE 30485.
001MLJ*                                          VALUE 30222.
      *                                          VALUE 29959.
               10  WK01-TINA-LENGTH              PIC S9(4)  COMP
001DMW                                           VALUE 1654.
001MLJ*                                          VALUE 1653.
           05  WK01-ATTRIBUTES                   PIC X(60)
                                                 VALUE SPACE.
           05  WK01-ATTRIBUTES-ERROR             PIC X(60) VALUE
               'U  BIF'.
           05  WK01-CURSOR-DFLD                  PIC X(36)
                                                 VALUE SPACES.
           05  WK01-CURSOR-DFLD-QUAL             PIC X(30)
                                                 VALUE SPACES.
           05  WK01-ROW                          PIC S9(4) COMP
                                                 VALUE ZERO.
           05  WK01-COLUMN                       PIC S9(4) COMP
                                                 VALUE ZERO.
           05  WK01-ERROR-MSG                    PIC X(80)
                                                 VALUE SPACES.
           05  WK01-MAP-DATA-LEN                 PIC S9(6)
                                                 VALUE ZERO.
           05  WK01-1ST-FLAG                     PIC X(1)
                                                 VALUE 'Y'.
           05  WK01-FLAG-OUTPUT-DATA             PIC X(1)
                                                 VALUE 'Y'.
      *    05  WK01-STATUS-RETURN-FLAG           PIC X(1)
      *                                          VALUE SPACES.
           05  WK01-ALL-BUT-FLAG                 PIC X(1)
                                                 VALUE SPACES.
           05  WK01-FLAG-ALL-FIELDS-CHANGED      PIC X(1)  VALUE 'Y'.
           05  WK01-FLAG-ANY-FIELDS-CHANGED      PIC X(1)  VALUE 'N'.
           05  WK01-FLAG-ALL-FIELDS-ERROR        PIC X(1)  VALUE 'Y'.
           05  WK01-FLAG-ANY-FIELDS-ERROR        PIC X(1)  VALUE 'N'.
           05  WK01-FLAG-ALL-FIELDS-ERASE        PIC X(1)  VALUE 'Y'.
           05  WK01-FLAG-ANY-FIELDS-ERASE        PIC X(1)  VALUE 'Y'.

           05  WK01-VARDATA                      PIC X(11880)
                                                 VALUE SPACES.
           05  FILLER                            PIC X(100)
                                                 VALUE SPACES.
           04  WK01-ELEMENT-AREA.

               10  WK01-ID-SY00-Z              PIC X(1)
                                               VALUE SPACE.
               10  WK01-ID-SY00-F              PIC X(1)
                                               VALUE SPACE.
               10  WK01-ID-SY00-A              PIC X(1)
                                               VALUE SPACE.
               10  WK01-ID-SY00-V              PIC X(1)
                                               VALUE SPACE.
               10  WK01-ID-SY00-O              PIC X(1)
                                               VALUE SPACE.
               10  WK01-ID-SY00       PIC X(8)
                                               VALUE SPACES.
               10  WK01-NAME-6001-SY00-Z              PIC X(1)
                                               VALUE SPACE.
               10  WK01-NAME-6001-SY00-F              PIC X(1)
                                               VALUE SPACE.
               10  WK01-NAME-6001-SY00-A              PIC X(1)
                                               VALUE SPACE.
               10  WK01-NAME-6001-SY00-V              PIC X(1)
                                               VALUE SPACE.
               10  WK01-NAME-6001-SY00-O              PIC X(1)
                                               VALUE SPACE.
               10  WK01-NAME-6001-SY00       PIC X(35)
                                               VALUE SPACES.
               10  WK01-DATE-Z              PIC X(1)
                                               VALUE SPACE.
               10  WK01-DATE-F              PIC X(1)
                                               VALUE SPACE.
               10  WK01-DATE-A              PIC X(1)
                                               VALUE SPACE.
               10  WK01-DATE-V              PIC X(1)
                                               VALUE SPACE.
               10  WK01-DATE-O              PIC X(1)
                                               VALUE SPACE.
               10  WK01-DATE       PIC X(8)
                                               VALUE SPACES.
               10  WK01-HH-MM-TIME-SY00-Z              PIC X(1)
                                               VALUE SPACE.
               10  WK01-HH-MM-TIME-SY00-F              PIC X(1)
                                               VALUE SPACE.
               10  WK01-HH-MM-TIME-SY00-A              PIC X(1)
                                               VALUE SPACE.
               10  WK01-HH-MM-TIME-SY00-V              PIC X(1)
                                               VALUE SPACE.
               10  WK01-HH-MM-TIME-SY00-O              PIC X(1)
                                               VALUE SPACE.
               10  WK01-HH-MM-TIME-SY00       PIC X(4)
                                               VALUE SPACES.
               10  WK01-PM-FLAG-SY00-Z              PIC X(1)
                                               VALUE SPACE.
               10  WK01-PM-FLAG-SY00-F              PIC X(1)
                                               VALUE SPACE.
               10  WK01-PM-FLAG-SY00-A              PIC X(1)
                                               VALUE SPACE.
               10  WK01-PM-FLAG-SY00-V              PIC X(1)
                                               VALUE SPACE.
               10  WK01-PM-FLAG-SY00-O              PIC X(1)
                                               VALUE SPACE.
               10  WK01-PM-FLAG-SY00       PIC X(1)
                                               VALUE SPACES.
               10  WK01-USER-ID-Z              PIC X(1)
                                               VALUE SPACE.
               10  WK01-USER-ID-F              PIC X(1)
                                               VALUE SPACE.
               10  WK01-USER-ID-A              PIC X(1)
                                               VALUE SPACE.
               10  WK01-USER-ID-V              PIC X(1)
                                               VALUE SPACE.
               10  WK01-USER-ID-O              PIC X(1)
                                               VALUE SPACE.
               10  WK01-USER-ID       PIC X(32)
                                               VALUE SPACES.
               10  WK01-RSPNS-ID-SY00-Z              PIC X(1)
                                               VALUE SPACE.
               10  WK01-RSPNS-ID-SY00-F              PIC X(1)
                                               VALUE SPACE.
               10  WK01-RSPNS-ID-SY00-A              PIC X(1)
                                               VALUE SPACE.
               10  WK01-RSPNS-ID-SY00-V              PIC X(1)
                                               VALUE SPACE.
               10  WK01-RSPNS-ID-SY00-O              PIC X(1)
                                               VALUE SPACE.
               10  WK01-RSPNS-ID-SY00       PIC X(8)
                                               VALUE SPACES.
               10  WK01-FUNC-DESCRIPTION-Z              PIC X(1)
                                               VALUE SPACE.
               10  WK01-FUNC-DESCRIPTION-F              PIC X(1)
                                               VALUE SPACE.
               10  WK01-FUNC-DESCRIPTION-A              PIC X(1)
                                               VALUE SPACE.
               10  WK01-FUNC-DESCRIPTION-V              PIC X(1)
                                               VALUE SPACE.
               10  WK01-FUNC-DESCRIPTION-O              PIC X(1)
                                               VALUE SPACE.
               10  WK01-FUNC-DESCRIPTION       PIC X(28)
                                               VALUE SPACES.
               10  WK01-STATUS-CODE-SY00-Z              PIC X(1)
                                               VALUE SPACE.
               10  WK01-STATUS-CODE-SY00-F              PIC X(1)
                                               VALUE SPACE.
               10  WK01-STATUS-CODE-SY00-A              PIC X(1)
                                               VALUE SPACE.
               10  WK01-STATUS-CODE-SY00-V              PIC X(1)
                                               VALUE SPACE.
               10  WK01-STATUS-CODE-SY00-O              PIC X(1)
                                               VALUE SPACE.
               10  WK01-STATUS-CODE-SY00       PIC X(1)
                                               VALUE SPACES.
               10  WK01-TEXT-SY01-Z              PIC X(1)
                                               VALUE SPACE.
               10  WK01-TEXT-SY01-F              PIC X(1)
                                               VALUE SPACE.
               10  WK01-TEXT-SY01-A              PIC X(1)
                                               VALUE SPACE.
               10  WK01-TEXT-SY01-V              PIC X(1)
                                               VALUE SPACE.
               10  WK01-TEXT-SY01-O              PIC X(1)
                                               VALUE SPACE.
               10  WK01-TEXT-SY01       PIC X(8)
                                               VALUE SPACES.
               10  WK01-TEXT-SY0A-Z              PIC X(1)
                                               VALUE SPACE.
               10  WK01-TEXT-SY0A-F              PIC X(1)
                                               VALUE SPACE.
               10  WK01-TEXT-SY0A-A              PIC X(1)
                                               VALUE SPACE.
               10  WK01-TEXT-SY0A-V              PIC X(1)
                                               VALUE SPACE.
               10  WK01-TEXT-SY0A-O              PIC X(1)
                                               VALUE SPACE.
               10  WK01-TEXT-SY0A       PIC X(11)
                                               VALUE SPACES.
               10  WK01-TEXT-SY0B-Z              PIC X(1)
                                               VALUE SPACE.
               10  WK01-TEXT-SY0B-F              PIC X(1)
                                               VALUE SPACE.
               10  WK01-TEXT-SY0B-A              PIC X(1)
                                               VALUE SPACE.
               10  WK01-TEXT-SY0B-V              PIC X(1)
                                               VALUE SPACE.
               10  WK01-TEXT-SY0B-O              PIC X(1)
                                               VALUE SPACE.
               10  WK01-TEXT-SY0B       PIC X(5)
                                               VALUE SPACES.
               10  WK01-CODE-PU441-Z              PIC X(1)
                                               VALUE SPACE.
               10  WK01-CODE-PU441-F              PIC X(1)
                                               VALUE SPACE.
               10  WK01-CODE-PU441-A              PIC X(1)
                                               VALUE SPACE.
               10  WK01-CODE-PU441-V              PIC X(1)
                                               VALUE SPACE.
               10  WK01-CODE-PU441-O              PIC X(1)
                                               VALUE SPACE.
               10  WK01-CODE-PU441       PIC X(1)
                                               VALUE SPACES.
               10  WK01-TO-CODE-4086-PU441-Z              PIC X(1)
                                               VALUE SPACE.
               10  WK01-TO-CODE-4086-PU441-F              PIC X(1)
                                               VALUE SPACE.
               10  WK01-TO-CODE-4086-PU441-A              PIC X(1)
                                               VALUE SPACE.
               10  WK01-TO-CODE-4086-PU441-V              PIC X(1)
                                               VALUE SPACE.
               10  WK01-TO-CODE-4086-PU441-O              PIC X(1)
                                               VALUE SPACE.
               10  WK01-TO-CODE-4086-PU441       PIC X(6)
                                               VALUE SPACES.
               10  WK01-TYPE-CODE-PU441-Z              PIC X(1)
                                               VALUE SPACE.
               10  WK01-TYPE-CODE-PU441-F              PIC X(1)
                                               VALUE SPACE.
               10  WK01-TYPE-CODE-PU441-A              PIC X(1)
                                               VALUE SPACE.
               10  WK01-TYPE-CODE-PU441-V              PIC X(1)
                                               VALUE SPACE.
               10  WK01-TYPE-CODE-PU441-O              PIC X(1)
                                               VALUE SPACE.
               10  WK01-TYPE-CODE-PU441       PIC X(1)
                                               VALUE SPACES.
               10  WK01-NAME-4086-PU441-Z              PIC X(1)
                                               VALUE SPACE.
               10  WK01-NAME-4086-PU441-F              PIC X(1)
                                               VALUE SPACE.
               10  WK01-NAME-4086-PU441-A              PIC X(1)
                                               VALUE SPACE.
               10  WK01-NAME-4086-PU441-V              PIC X(1)
                                               VALUE SPACE.
               10  WK01-NAME-4086-PU441-O              PIC X(1)
                                               VALUE SPACE.
               10  WK01-NAME-4086-PU441       PIC X(35)
                                               VALUE SPACES.
               10  WK01-AREA-CODE-4086-PU441-Z              PIC X(1)
                                               VALUE SPACE.
               10  WK01-AREA-CODE-4086-PU441-F              PIC X(1)
                                               VALUE SPACE.
               10  WK01-AREA-CODE-4086-PU441-A              PIC X(1)
                                               VALUE SPACE.
               10  WK01-AREA-CODE-4086-PU441-V              PIC X(1)
                                               VALUE SPACE.
               10  WK01-AREA-CODE-4086-PU441-O              PIC X(1)
                                               VALUE SPACE.
               10  WK01-AREA-CODE-4086-PU441       PIC X(3)
                                               VALUE SPACES.
               10  WK01-XCHNG-ID-4086-PU441-Z              PIC X(1)
                                               VALUE SPACE.
               10  WK01-XCHNG-ID-4086-PU441-F              PIC X(1)
                                               VALUE SPACE.
               10  WK01-XCHNG-ID-4086-PU441-A              PIC X(1)
                                               VALUE SPACE.
               10  WK01-XCHNG-ID-4086-PU441-V              PIC X(1)
                                               VALUE SPACE.
               10  WK01-XCHNG-ID-4086-PU441-O              PIC X(1)
                                               VALUE SPACE.
               10  WK01-XCHNG-ID-4086-PU441       PIC X(3)
                                               VALUE SPACES.
               10  WK01-SEQ-ID-4086-PU441-Z              PIC X(1)
                                               VALUE SPACE.
               10  WK01-SEQ-ID-4086-PU441-F              PIC X(1)
                                               VALUE SPACE.
               10  WK01-SEQ-ID-4086-PU441-A              PIC X(1)
                                               VALUE SPACE.
               10  WK01-SEQ-ID-4086-PU441-V              PIC X(1)
                                               VALUE SPACE.
               10  WK01-SEQ-ID-4086-PU441-O              PIC X(1)
                                               VALUE SPACE.
               10  WK01-SEQ-ID-4086-PU441       PIC X(4)
                                               VALUE SPACES.
               10  WK01-XTNSN-ID-4086-PU441-Z              PIC X(1)
                                               VALUE SPACE.
               10  WK01-XTNSN-ID-4086-PU441-F              PIC X(1)
                                               VALUE SPACE.
               10  WK01-XTNSN-ID-4086-PU441-A              PIC X(1)
                                               VALUE SPACE.
               10  WK01-XTNSN-ID-4086-PU441-V              PIC X(1)
                                               VALUE SPACE.
               10  WK01-XTNSN-ID-4086-PU441-O              PIC X(1)
                                               VALUE SPACE.
               10  WK01-XTNSN-ID-4086-PU441       PIC X(4)
                                               VALUE SPACES.
               10  WK01-CODE-PU442-Z              PIC X(1)
                                               VALUE SPACE.
               10  WK01-CODE-PU442-F              PIC X(1)
                                               VALUE SPACE.
               10  WK01-CODE-PU442-A              PIC X(1)
                                               VALUE SPACE.
               10  WK01-CODE-PU442-V              PIC X(1)
                                               VALUE SPACE.
               10  WK01-CODE-PU442-O              PIC X(1)
                                               VALUE SPACE.
               10  WK01-CODE-PU442       PIC X(1)
                                               VALUE SPACES.
               10  WK01-TO-CODE-4086-PU442-Z              PIC X(1)
                                               VALUE SPACE.
               10  WK01-TO-CODE-4086-PU442-F              PIC X(1)
                                               VALUE SPACE.
               10  WK01-TO-CODE-4086-PU442-A              PIC X(1)
                                               VALUE SPACE.
               10  WK01-TO-CODE-4086-PU442-V              PIC X(1)
                                               VALUE SPACE.
               10  WK01-TO-CODE-4086-PU442-O              PIC X(1)
                                               VALUE SPACE.
               10  WK01-TO-CODE-4086-PU442       PIC X(6)
                                               VALUE SPACES.
               10  WK01-TYPE-CODE-PU442-Z              PIC X(1)
                                               VALUE SPACE.
               10  WK01-TYPE-CODE-PU442-F              PIC X(1)
                                               VALUE SPACE.
               10  WK01-TYPE-CODE-PU442-A              PIC X(1)
                                               VALUE SPACE.
               10  WK01-TYPE-CODE-PU442-V              PIC X(1)
                                               VALUE SPACE.
               10  WK01-TYPE-CODE-PU442-O              PIC X(1)
                                               VALUE SPACE.
               10  WK01-TYPE-CODE-PU442       PIC X(1)
                                               VALUE SPACES.
               10  WK01-NAME-4086-PU442-Z              PIC X(1)
                                               VALUE SPACE.
               10  WK01-NAME-4086-PU442-F              PIC X(1)
                                               VALUE SPACE.
               10  WK01-NAME-4086-PU442-A              PIC X(1)
                                               VALUE SPACE.
               10  WK01-NAME-4086-PU442-V              PIC X(1)
                                               VALUE SPACE.
               10  WK01-NAME-4086-PU442-O              PIC X(1)
                                               VALUE SPACE.
               10  WK01-NAME-4086-PU442       PIC X(35)
                                               VALUE SPACES.
               10  WK01-AREA-CODE-4086-PU442-Z              PIC X(1)
                                               VALUE SPACE.
               10  WK01-AREA-CODE-4086-PU442-F              PIC X(1)
                                               VALUE SPACE.
               10  WK01-AREA-CODE-4086-PU442-A              PIC X(1)
                                               VALUE SPACE.
               10  WK01-AREA-CODE-4086-PU442-V              PIC X(1)
                                               VALUE SPACE.
               10  WK01-AREA-CODE-4086-PU442-O              PIC X(1)
                                               VALUE SPACE.
               10  WK01-AREA-CODE-4086-PU442       PIC X(3)
                                               VALUE SPACES.
               10  WK01-XCHNG-ID-4086-PU442-Z              PIC X(1)
                                               VALUE SPACE.
               10  WK01-XCHNG-ID-4086-PU442-F              PIC X(1)
                                               VALUE SPACE.
               10  WK01-XCHNG-ID-4086-PU442-A              PIC X(1)
                                               VALUE SPACE.
               10  WK01-XCHNG-ID-4086-PU442-V              PIC X(1)
                                               VALUE SPACE.
               10  WK01-XCHNG-ID-4086-PU442-O              PIC X(1)
                                               VALUE SPACE.
               10  WK01-XCHNG-ID-4086-PU442       PIC X(3)
                                               VALUE SPACES.
               10  WK01-SEQ-ID-4086-PU442-Z              PIC X(1)
                                               VALUE SPACE.
               10  WK01-SEQ-ID-4086-PU442-F              PIC X(1)
                                               VALUE SPACE.
               10  WK01-SEQ-ID-4086-PU442-A              PIC X(1)
                                               VALUE SPACE.
               10  WK01-SEQ-ID-4086-PU442-V              PIC X(1)
                                               VALUE SPACE.
               10  WK01-SEQ-ID-4086-PU442-O              PIC X(1)
                                               VALUE SPACE.
               10  WK01-SEQ-ID-4086-PU442       PIC X(4)
                                               VALUE SPACES.
               10  WK01-XTNSN-ID-4086-PU442-Z              PIC X(1)
                                               VALUE SPACE.
               10  WK01-XTNSN-ID-4086-PU442-F              PIC X(1)
                                               VALUE SPACE.
               10  WK01-XTNSN-ID-4086-PU442-A              PIC X(1)
                                               VALUE SPACE.
               10  WK01-XTNSN-ID-4086-PU442-V              PIC X(1)
                                               VALUE SPACE.
               10  WK01-XTNSN-ID-4086-PU442-O              PIC X(1)
                                               VALUE SPACE.
               10  WK01-XTNSN-ID-4086-PU442       PIC X(4)
                                               VALUE SPACES.
               10  WK01-CODE-PU443-Z              PIC X(1)
                                               VALUE SPACE.
               10  WK01-CODE-PU443-F              PIC X(1)
                                               VALUE SPACE.
               10  WK01-CODE-PU443-A              PIC X(1)
                                               VALUE SPACE.
               10  WK01-CODE-PU443-V              PIC X(1)
                                               VALUE SPACE.
               10  WK01-CODE-PU443-O              PIC X(1)
                                               VALUE SPACE.
               10  WK01-CODE-PU443       PIC X(1)
                                               VALUE SPACES.
               10  WK01-TO-CODE-4086-PU443-Z              PIC X(1)
                                               VALUE SPACE.
               10  WK01-TO-CODE-4086-PU443-F              PIC X(1)
                                               VALUE SPACE.
               10  WK01-TO-CODE-4086-PU443-A              PIC X(1)
                                               VALUE SPACE.
               10  WK01-TO-CODE-4086-PU443-V              PIC X(1)
                                               VALUE SPACE.
               10  WK01-TO-CODE-4086-PU443-O              PIC X(1)
                                               VALUE SPACE.
               10  WK01-TO-CODE-4086-PU443       PIC X(6)
                                               VALUE SPACES.
               10  WK01-TYPE-CODE-PU443-Z              PIC X(1)
                                               VALUE SPACE.
               10  WK01-TYPE-CODE-PU443-F              PIC X(1)
                                               VALUE SPACE.
               10  WK01-TYPE-CODE-PU443-A              PIC X(1)
                                               VALUE SPACE.
               10  WK01-TYPE-CODE-PU443-V              PIC X(1)
                                               VALUE SPACE.
               10  WK01-TYPE-CODE-PU443-O              PIC X(1)
                                               VALUE SPACE.
               10  WK01-TYPE-CODE-PU443       PIC X(1)
                                               VALUE SPACES.
               10  WK01-NAME-4086-PU443-Z              PIC X(1)
                                               VALUE SPACE.
               10  WK01-NAME-4086-PU443-F              PIC X(1)
                                               VALUE SPACE.
               10  WK01-NAME-4086-PU443-A              PIC X(1)
                                               VALUE SPACE.
               10  WK01-NAME-4086-PU443-V              PIC X(1)
                                               VALUE SPACE.
               10  WK01-NAME-4086-PU443-O              PIC X(1)
                                               VALUE SPACE.
               10  WK01-NAME-4086-PU443       PIC X(35)
                                               VALUE SPACES.
               10  WK01-AREA-CODE-4086-PU443-Z              PIC X(1)
                                               VALUE SPACE.
               10  WK01-AREA-CODE-4086-PU443-F              PIC X(1)
                                               VALUE SPACE.
               10  WK01-AREA-CODE-4086-PU443-A              PIC X(1)
                                               VALUE SPACE.
               10  WK01-AREA-CODE-4086-PU443-V              PIC X(1)
                                               VALUE SPACE.
               10  WK01-AREA-CODE-4086-PU443-O              PIC X(1)
                                               VALUE SPACE.
               10  WK01-AREA-CODE-4086-PU443       PIC X(3)
                                               VALUE SPACES.
               10  WK01-XCHNG-ID-4086-PU443-Z              PIC X(1)
                                               VALUE SPACE.
               10  WK01-XCHNG-ID-4086-PU443-F              PIC X(1)
                                               VALUE SPACE.
               10  WK01-XCHNG-ID-4086-PU443-A              PIC X(1)
                                               VALUE SPACE.
               10  WK01-XCHNG-ID-4086-PU443-V              PIC X(1)
                                               VALUE SPACE.
               10  WK01-XCHNG-ID-4086-PU443-O              PIC X(1)
                                               VALUE SPACE.
               10  WK01-XCHNG-ID-4086-PU443       PIC X(3)
                                               VALUE SPACES.
               10  WK01-SEQ-ID-4086-PU443-Z              PIC X(1)
                                               VALUE SPACE.
               10  WK01-SEQ-ID-4086-PU443-F              PIC X(1)
                                               VALUE SPACE.
               10  WK01-SEQ-ID-4086-PU443-A              PIC X(1)
                                               VALUE SPACE.
               10  WK01-SEQ-ID-4086-PU443-V              PIC X(1)
                                               VALUE SPACE.
               10  WK01-SEQ-ID-4086-PU443-O              PIC X(1)
                                               VALUE SPACE.
               10  WK01-SEQ-ID-4086-PU443       PIC X(4)
                                               VALUE SPACES.
               10  WK01-XTNSN-ID-4086-PU443-Z              PIC X(1)
                                               VALUE SPACE.
               10  WK01-XTNSN-ID-4086-PU443-F              PIC X(1)
                                               VALUE SPACE.
               10  WK01-XTNSN-ID-4086-PU443-A              PIC X(1)
                                               VALUE SPACE.
               10  WK01-XTNSN-ID-4086-PU443-V              PIC X(1)
                                               VALUE SPACE.
               10  WK01-XTNSN-ID-4086-PU443-O              PIC X(1)
                                               VALUE SPACE.
               10  WK01-XTNSN-ID-4086-PU443       PIC X(4)
                                               VALUE SPACES.
               10  WK01-CODE-PU444-Z              PIC X(1)
                                               VALUE SPACE.
               10  WK01-CODE-PU444-F              PIC X(1)
                                               VALUE SPACE.
               10  WK01-CODE-PU444-A              PIC X(1)
                                               VALUE SPACE.
               10  WK01-CODE-PU444-V              PIC X(1)
                                               VALUE SPACE.
               10  WK01-CODE-PU444-O              PIC X(1)
                                               VALUE SPACE.
               10  WK01-CODE-PU444       PIC X(1)
                                               VALUE SPACES.
               10  WK01-TO-CODE-4086-PU444-Z              PIC X(1)
                                               VALUE SPACE.
               10  WK01-TO-CODE-4086-PU444-F              PIC X(1)
                                               VALUE SPACE.
               10  WK01-TO-CODE-4086-PU444-A              PIC X(1)
                                               VALUE SPACE.
               10  WK01-TO-CODE-4086-PU444-V              PIC X(1)
                                               VALUE SPACE.
               10  WK01-TO-CODE-4086-PU444-O              PIC X(1)
                                               VALUE SPACE.
               10  WK01-TO-CODE-4086-PU444       PIC X(6)
                                               VALUE SPACES.
               10  WK01-TYPE-CODE-PU444-Z              PIC X(1)
                                               VALUE SPACE.
               10  WK01-TYPE-CODE-PU444-F              PIC X(1)
                                               VALUE SPACE.
               10  WK01-TYPE-CODE-PU444-A              PIC X(1)
                                               VALUE SPACE.
               10  WK01-TYPE-CODE-PU444-V              PIC X(1)
                                               VALUE SPACE.
               10  WK01-TYPE-CODE-PU444-O              PIC X(1)
                                               VALUE SPACE.
               10  WK01-TYPE-CODE-PU444       PIC X(1)
                                               VALUE SPACES.
               10  WK01-NAME-4086-PU444-Z              PIC X(1)
                                               VALUE SPACE.
               10  WK01-NAME-4086-PU444-F              PIC X(1)
                                               VALUE SPACE.
               10  WK01-NAME-4086-PU444-A              PIC X(1)
                                               VALUE SPACE.
               10  WK01-NAME-4086-PU444-V              PIC X(1)
                                               VALUE SPACE.
               10  WK01-NAME-4086-PU444-O              PIC X(1)
                                               VALUE SPACE.
               10  WK01-NAME-4086-PU444       PIC X(35)
                                               VALUE SPACES.
               10  WK01-AREA-CODE-4086-PU444-Z              PIC X(1)
                                               VALUE SPACE.
               10  WK01-AREA-CODE-4086-PU444-F              PIC X(1)
                                               VALUE SPACE.
               10  WK01-AREA-CODE-4086-PU444-A              PIC X(1)
                                               VALUE SPACE.
               10  WK01-AREA-CODE-4086-PU444-V              PIC X(1)
                                               VALUE SPACE.
               10  WK01-AREA-CODE-4086-PU444-O              PIC X(1)
                                               VALUE SPACE.
               10  WK01-AREA-CODE-4086-PU444       PIC X(3)
                                               VALUE SPACES.
               10  WK01-XCHNG-ID-4086-PU444-Z              PIC X(1)
                                               VALUE SPACE.
               10  WK01-XCHNG-ID-4086-PU444-F              PIC X(1)
                                               VALUE SPACE.
               10  WK01-XCHNG-ID-4086-PU444-A              PIC X(1)
                                               VALUE SPACE.
               10  WK01-XCHNG-ID-4086-PU444-V              PIC X(1)
                                               VALUE SPACE.
               10  WK01-XCHNG-ID-4086-PU444-O              PIC X(1)
                                               VALUE SPACE.
               10  WK01-XCHNG-ID-4086-PU444       PIC X(3)
                                               VALUE SPACES.
               10  WK01-SEQ-ID-4086-PU444-Z              PIC X(1)
                                               VALUE SPACE.
               10  WK01-SEQ-ID-4086-PU444-F              PIC X(1)
                                               VALUE SPACE.
               10  WK01-SEQ-ID-4086-PU444-A              PIC X(1)
                                               VALUE SPACE.
               10  WK01-SEQ-ID-4086-PU444-V              PIC X(1)
                                               VALUE SPACE.
               10  WK01-SEQ-ID-4086-PU444-O              PIC X(1)
                                               VALUE SPACE.
               10  WK01-SEQ-ID-4086-PU444       PIC X(4)
                                               VALUE SPACES.
               10  WK01-XTNSN-ID-4086-PU444-Z              PIC X(1)
                                               VALUE SPACE.
               10  WK01-XTNSN-ID-4086-PU444-F              PIC X(1)
                                               VALUE SPACE.
               10  WK01-XTNSN-ID-4086-PU444-A              PIC X(1)
                                               VALUE SPACE.
               10  WK01-XTNSN-ID-4086-PU444-V              PIC X(1)
                                               VALUE SPACE.
               10  WK01-XTNSN-ID-4086-PU444-O              PIC X(1)
                                               VALUE SPACE.
               10  WK01-XTNSN-ID-4086-PU444       PIC X(4)
                                               VALUE SPACES.
               10  WK01-CODE-PU445-Z              PIC X(1)
                                               VALUE SPACE.
               10  WK01-CODE-PU445-F              PIC X(1)
                                               VALUE SPACE.
               10  WK01-CODE-PU445-A              PIC X(1)
                                               VALUE SPACE.
               10  WK01-CODE-PU445-V              PIC X(1)
                                               VALUE SPACE.
               10  WK01-CODE-PU445-O              PIC X(1)
                                               VALUE SPACE.
               10  WK01-CODE-PU445       PIC X(1)
                                               VALUE SPACES.
               10  WK01-TO-CODE-4086-PU445-Z              PIC X(1)
                                               VALUE SPACE.
               10  WK01-TO-CODE-4086-PU445-F              PIC X(1)
                                               VALUE SPACE.
               10  WK01-TO-CODE-4086-PU445-A              PIC X(1)
                                               VALUE SPACE.
               10  WK01-TO-CODE-4086-PU445-V              PIC X(1)
                                               VALUE SPACE.
               10  WK01-TO-CODE-4086-PU445-O              PIC X(1)
                                               VALUE SPACE.
               10  WK01-TO-CODE-4086-PU445       PIC X(6)
                                               VALUE SPACES.
               10  WK01-TYPE-CODE-PU445-Z              PIC X(1)
                                               VALUE SPACE.
               10  WK01-TYPE-CODE-PU445-F              PIC X(1)
                                               VALUE SPACE.
               10  WK01-TYPE-CODE-PU445-A              PIC X(1)
                                               VALUE SPACE.
               10  WK01-TYPE-CODE-PU445-V              PIC X(1)
                                               VALUE SPACE.
               10  WK01-TYPE-CODE-PU445-O              PIC X(1)
                                               VALUE SPACE.
               10  WK01-TYPE-CODE-PU445       PIC X(1)
                                               VALUE SPACES.
               10  WK01-NAME-4086-PU445-Z              PIC X(1)
                                               VALUE SPACE.
               10  WK01-NAME-4086-PU445-F              PIC X(1)
                                               VALUE SPACE.
               10  WK01-NAME-4086-PU445-A              PIC X(1)
                                               VALUE SPACE.
               10  WK01-NAME-4086-PU445-V              PIC X(1)
                                               VALUE SPACE.
               10  WK01-NAME-4086-PU445-O              PIC X(1)
                                               VALUE SPACE.
               10  WK01-NAME-4086-PU445       PIC X(35)
                                               VALUE SPACES.
               10  WK01-AREA-CODE-4086-PU445-Z              PIC X(1)
                                               VALUE SPACE.
               10  WK01-AREA-CODE-4086-PU445-F              PIC X(1)
                                               VALUE SPACE.
               10  WK01-AREA-CODE-4086-PU445-A              PIC X(1)
                                               VALUE SPACE.
               10  WK01-AREA-CODE-4086-PU445-V              PIC X(1)
                                               VALUE SPACE.
               10  WK01-AREA-CODE-4086-PU445-O              PIC X(1)
                                               VALUE SPACE.
               10  WK01-AREA-CODE-4086-PU445       PIC X(3)
                                               VALUE SPACES.
               10  WK01-XCHNG-ID-4086-PU445-Z              PIC X(1)
                                               VALUE SPACE.
               10  WK01-XCHNG-ID-4086-PU445-F              PIC X(1)
                                               VALUE SPACE.
               10  WK01-XCHNG-ID-4086-PU445-A              PIC X(1)
                                               VALUE SPACE.
               10  WK01-XCHNG-ID-4086-PU445-V              PIC X(1)
                                               VALUE SPACE.
               10  WK01-XCHNG-ID-4086-PU445-O              PIC X(1)
                                               VALUE SPACE.
               10  WK01-XCHNG-ID-4086-PU445       PIC X(3)
                                               VALUE SPACES.
               10  WK01-SEQ-ID-4086-PU445-Z              PIC X(1)
                                               VALUE SPACE.
               10  WK01-SEQ-ID-4086-PU445-F              PIC X(1)
                                               VALUE SPACE.
               10  WK01-SEQ-ID-4086-PU445-A              PIC X(1)
                                               VALUE SPACE.
               10  WK01-SEQ-ID-4086-PU445-V              PIC X(1)
                                               VALUE SPACE.
               10  WK01-SEQ-ID-4086-PU445-O              PIC X(1)
                                               VALUE SPACE.
               10  WK01-SEQ-ID-4086-PU445       PIC X(4)
                                               VALUE SPACES.
               10  WK01-XTNSN-ID-4086-PU445-Z              PIC X(1)
                                               VALUE SPACE.
               10  WK01-XTNSN-ID-4086-PU445-F              PIC X(1)
                                               VALUE SPACE.
               10  WK01-XTNSN-ID-4086-PU445-A              PIC X(1)
                                               VALUE SPACE.
               10  WK01-XTNSN-ID-4086-PU445-V              PIC X(1)
                                               VALUE SPACE.
               10  WK01-XTNSN-ID-4086-PU445-O              PIC X(1)
                                               VALUE SPACE.
               10  WK01-XTNSN-ID-4086-PU445       PIC X(4)
                                               VALUE SPACES.
               10  WK01-CODE-PU446-Z              PIC X(1)
                                               VALUE SPACE.
               10  WK01-CODE-PU446-F              PIC X(1)
                                               VALUE SPACE.
               10  WK01-CODE-PU446-A              PIC X(1)
                                               VALUE SPACE.
               10  WK01-CODE-PU446-V              PIC X(1)
                                               VALUE SPACE.
               10  WK01-CODE-PU446-O              PIC X(1)
                                               VALUE SPACE.
               10  WK01-CODE-PU446       PIC X(1)
                                               VALUE SPACES.
               10  WK01-TO-CODE-4086-PU446-Z              PIC X(1)
                                               VALUE SPACE.
               10  WK01-TO-CODE-4086-PU446-F              PIC X(1)
                                               VALUE SPACE.
               10  WK01-TO-CODE-4086-PU446-A              PIC X(1)
                                               VALUE SPACE.
               10  WK01-TO-CODE-4086-PU446-V              PIC X(1)
                                               VALUE SPACE.
               10  WK01-TO-CODE-4086-PU446-O              PIC X(1)
                                               VALUE SPACE.
               10  WK01-TO-CODE-4086-PU446       PIC X(6)
                                               VALUE SPACES.
               10  WK01-TYPE-CODE-PU446-Z              PIC X(1)
                                               VALUE SPACE.
               10  WK01-TYPE-CODE-PU446-F              PIC X(1)
                                               VALUE SPACE.
               10  WK01-TYPE-CODE-PU446-A              PIC X(1)
                                               VALUE SPACE.
               10  WK01-TYPE-CODE-PU446-V              PIC X(1)
                                               VALUE SPACE.
               10  WK01-TYPE-CODE-PU446-O              PIC X(1)
                                               VALUE SPACE.
               10  WK01-TYPE-CODE-PU446       PIC X(1)
                                               VALUE SPACES.
               10  WK01-NAME-4086-PU446-Z              PIC X(1)
                                               VALUE SPACE.
               10  WK01-NAME-4086-PU446-F              PIC X(1)
                                               VALUE SPACE.
               10  WK01-NAME-4086-PU446-A              PIC X(1)
                                               VALUE SPACE.
               10  WK01-NAME-4086-PU446-V              PIC X(1)
                                               VALUE SPACE.
               10  WK01-NAME-4086-PU446-O              PIC X(1)
                                               VALUE SPACE.
               10  WK01-NAME-4086-PU446       PIC X(35)
                                               VALUE SPACES.
               10  WK01-AREA-CODE-4086-PU446-Z              PIC X(1)
                                               VALUE SPACE.
               10  WK01-AREA-CODE-4086-PU446-F              PIC X(1)
                                               VALUE SPACE.
               10  WK01-AREA-CODE-4086-PU446-A              PIC X(1)
                                               VALUE SPACE.
               10  WK01-AREA-CODE-4086-PU446-V              PIC X(1)
                                               VALUE SPACE.
               10  WK01-AREA-CODE-4086-PU446-O              PIC X(1)
                                               VALUE SPACE.
               10  WK01-AREA-CODE-4086-PU446       PIC X(3)
                                               VALUE SPACES.
               10  WK01-XCHNG-ID-4086-PU446-Z              PIC X(1)
                                               VALUE SPACE.
               10  WK01-XCHNG-ID-4086-PU446-F              PIC X(1)
                                               VALUE SPACE.
               10  WK01-XCHNG-ID-4086-PU446-A              PIC X(1)
                                               VALUE SPACE.
               10  WK01-XCHNG-ID-4086-PU446-V              PIC X(1)
                                               VALUE SPACE.
               10  WK01-XCHNG-ID-4086-PU446-O              PIC X(1)
                                               VALUE SPACE.
               10  WK01-XCHNG-ID-4086-PU446       PIC X(3)
                                               VALUE SPACES.
               10  WK01-SEQ-ID-4086-PU446-Z              PIC X(1)
                                               VALUE SPACE.
               10  WK01-SEQ-ID-4086-PU446-F              PIC X(1)
                                               VALUE SPACE.
               10  WK01-SEQ-ID-4086-PU446-A              PIC X(1)
                                               VALUE SPACE.
               10  WK01-SEQ-ID-4086-PU446-V              PIC X(1)
                                               VALUE SPACE.
               10  WK01-SEQ-ID-4086-PU446-O              PIC X(1)
                                               VALUE SPACE.
               10  WK01-SEQ-ID-4086-PU446       PIC X(4)
                                               VALUE SPACES.
               10  WK01-XTNSN-ID-4086-PU446-Z              PIC X(1)
                                               VALUE SPACE.
               10  WK01-XTNSN-ID-4086-PU446-F              PIC X(1)
                                               VALUE SPACE.
               10  WK01-XTNSN-ID-4086-PU446-A              PIC X(1)
                                               VALUE SPACE.
               10  WK01-XTNSN-ID-4086-PU446-V              PIC X(1)
                                               VALUE SPACE.
               10  WK01-XTNSN-ID-4086-PU446-O              PIC X(1)
                                               VALUE SPACE.
               10  WK01-XTNSN-ID-4086-PU446       PIC X(4)
                                               VALUE SPACES.
               10  WK01-CODE-PU447-Z              PIC X(1)
                                               VALUE SPACE.
               10  WK01-CODE-PU447-F              PIC X(1)
                                               VALUE SPACE.
               10  WK01-CODE-PU447-A              PIC X(1)
                                               VALUE SPACE.
               10  WK01-CODE-PU447-V              PIC X(1)
                                               VALUE SPACE.
               10  WK01-CODE-PU447-O              PIC X(1)
                                               VALUE SPACE.
               10  WK01-CODE-PU447       PIC X(1)
                                               VALUE SPACES.
               10  WK01-TO-CODE-4086-PU447-Z              PIC X(1)
                                               VALUE SPACE.
               10  WK01-TO-CODE-4086-PU447-F              PIC X(1)
                                               VALUE SPACE.
               10  WK01-TO-CODE-4086-PU447-A              PIC X(1)
                                               VALUE SPACE.
               10  WK01-TO-CODE-4086-PU447-V              PIC X(1)
                                               VALUE SPACE.
               10  WK01-TO-CODE-4086-PU447-O              PIC X(1)
                                               VALUE SPACE.
               10  WK01-TO-CODE-4086-PU447       PIC X(6)
                                               VALUE SPACES.
               10  WK01-TYPE-CODE-PU447-Z              PIC X(1)
                                               VALUE SPACE.
               10  WK01-TYPE-CODE-PU447-F              PIC X(1)
                                               VALUE SPACE.
               10  WK01-TYPE-CODE-PU447-A              PIC X(1)
                                               VALUE SPACE.
               10  WK01-TYPE-CODE-PU447-V              PIC X(1)
                                               VALUE SPACE.
               10  WK01-TYPE-CODE-PU447-O              PIC X(1)
                                               VALUE SPACE.
               10  WK01-TYPE-CODE-PU447       PIC X(1)
                                               VALUE SPACES.
               10  WK01-NAME-4086-PU447-Z              PIC X(1)
                                               VALUE SPACE.
               10  WK01-NAME-4086-PU447-F              PIC X(1)
                                               VALUE SPACE.
               10  WK01-NAME-4086-PU447-A              PIC X(1)
                                               VALUE SPACE.
               10  WK01-NAME-4086-PU447-V              PIC X(1)
                                               VALUE SPACE.
               10  WK01-NAME-4086-PU447-O              PIC X(1)
                                               VALUE SPACE.
               10  WK01-NAME-4086-PU447       PIC X(35)
                                               VALUE SPACES.
               10  WK01-AREA-CODE-4086-PU447-Z              PIC X(1)
                                               VALUE SPACE.
               10  WK01-AREA-CODE-4086-PU447-F              PIC X(1)
                                               VALUE SPACE.
               10  WK01-AREA-CODE-4086-PU447-A              PIC X(1)
                                               VALUE SPACE.
               10  WK01-AREA-CODE-4086-PU447-V              PIC X(1)
                                               VALUE SPACE.
               10  WK01-AREA-CODE-4086-PU447-O              PIC X(1)
                                               VALUE SPACE.
               10  WK01-AREA-CODE-4086-PU447       PIC X(3)
                                               VALUE SPACES.
               10  WK01-XCHNG-ID-4086-PU447-Z              PIC X(1)
                                               VALUE SPACE.
               10  WK01-XCHNG-ID-4086-PU447-F              PIC X(1)
                                               VALUE SPACE.
               10  WK01-XCHNG-ID-4086-PU447-A              PIC X(1)
                                               VALUE SPACE.
               10  WK01-XCHNG-ID-4086-PU447-V              PIC X(1)
                                               VALUE SPACE.
               10  WK01-XCHNG-ID-4086-PU447-O              PIC X(1)
                                               VALUE SPACE.
               10  WK01-XCHNG-ID-4086-PU447       PIC X(3)
                                               VALUE SPACES.
               10  WK01-SEQ-ID-4086-PU447-Z              PIC X(1)
                                               VALUE SPACE.
               10  WK01-SEQ-ID-4086-PU447-F              PIC X(1)
                                               VALUE SPACE.
               10  WK01-SEQ-ID-4086-PU447-A              PIC X(1)
                                               VALUE SPACE.
               10  WK01-SEQ-ID-4086-PU447-V              PIC X(1)
                                               VALUE SPACE.
               10  WK01-SEQ-ID-4086-PU447-O              PIC X(1)
                                               VALUE SPACE.
               10  WK01-SEQ-ID-4086-PU447       PIC X(4)
                                               VALUE SPACES.
               10  WK01-XTNSN-ID-4086-PU447-Z              PIC X(1)
                                               VALUE SPACE.
               10  WK01-XTNSN-ID-4086-PU447-F              PIC X(1)
                                               VALUE SPACE.
               10  WK01-XTNSN-ID-4086-PU447-A              PIC X(1)
                                               VALUE SPACE.
               10  WK01-XTNSN-ID-4086-PU447-V              PIC X(1)
                                               VALUE SPACE.
               10  WK01-XTNSN-ID-4086-PU447-O              PIC X(1)
                                               VALUE SPACE.
               10  WK01-XTNSN-ID-4086-PU447       PIC X(4)
                                               VALUE SPACES.
               10  WK01-CODE-PU448-Z              PIC X(1)
                                               VALUE SPACE.
               10  WK01-CODE-PU448-F              PIC X(1)
                                               VALUE SPACE.
               10  WK01-CODE-PU448-A              PIC X(1)
                                               VALUE SPACE.
               10  WK01-CODE-PU448-V              PIC X(1)
                                               VALUE SPACE.
               10  WK01-CODE-PU448-O              PIC X(1)
                                               VALUE SPACE.
               10  WK01-CODE-PU448       PIC X(1)
                                               VALUE SPACES.
               10  WK01-TO-CODE-4086-PU448-Z              PIC X(1)
                                               VALUE SPACE.
               10  WK01-TO-CODE-4086-PU448-F              PIC X(1)
                                               VALUE SPACE.
               10  WK01-TO-CODE-4086-PU448-A              PIC X(1)
                                               VALUE SPACE.
               10  WK01-TO-CODE-4086-PU448-V              PIC X(1)
                                               VALUE SPACE.
               10  WK01-TO-CODE-4086-PU448-O              PIC X(1)
                                               VALUE SPACE.
               10  WK01-TO-CODE-4086-PU448       PIC X(6)
                                               VALUE SPACES.
               10  WK01-TYPE-CODE-PU448-Z              PIC X(1)
                                               VALUE SPACE.
               10  WK01-TYPE-CODE-PU448-F              PIC X(1)
                                               VALUE SPACE.
               10  WK01-TYPE-CODE-PU448-A              PIC X(1)
                                               VALUE SPACE.
               10  WK01-TYPE-CODE-PU448-V              PIC X(1)
                                               VALUE SPACE.
               10  WK01-TYPE-CODE-PU448-O              PIC X(1)
                                               VALUE SPACE.
               10  WK01-TYPE-CODE-PU448       PIC X(1)
                                               VALUE SPACES.
               10  WK01-NAME-4086-PU448-Z              PIC X(1)
                                               VALUE SPACE.
               10  WK01-NAME-4086-PU448-F              PIC X(1)
                                               VALUE SPACE.
               10  WK01-NAME-4086-PU448-A              PIC X(1)
                                               VALUE SPACE.
               10  WK01-NAME-4086-PU448-V              PIC X(1)
                                               VALUE SPACE.
               10  WK01-NAME-4086-PU448-O              PIC X(1)
                                               VALUE SPACE.
               10  WK01-NAME-4086-PU448       PIC X(35)
                                               VALUE SPACES.
               10  WK01-AREA-CODE-4086-PU448-Z              PIC X(1)
                                               VALUE SPACE.
               10  WK01-AREA-CODE-4086-PU448-F              PIC X(1)
                                               VALUE SPACE.
               10  WK01-AREA-CODE-4086-PU448-A              PIC X(1)
                                               VALUE SPACE.
               10  WK01-AREA-CODE-4086-PU448-V              PIC X(1)
                                               VALUE SPACE.
               10  WK01-AREA-CODE-4086-PU448-O              PIC X(1)
                                               VALUE SPACE.
               10  WK01-AREA-CODE-4086-PU448       PIC X(3)
                                               VALUE SPACES.
               10  WK01-XCHNG-ID-4086-PU448-Z              PIC X(1)
                                               VALUE SPACE.
               10  WK01-XCHNG-ID-4086-PU448-F              PIC X(1)
                                               VALUE SPACE.
               10  WK01-XCHNG-ID-4086-PU448-A              PIC X(1)
                                               VALUE SPACE.
               10  WK01-XCHNG-ID-4086-PU448-V              PIC X(1)
                                               VALUE SPACE.
               10  WK01-XCHNG-ID-4086-PU448-O              PIC X(1)
                                               VALUE SPACE.
               10  WK01-XCHNG-ID-4086-PU448       PIC X(3)
                                               VALUE SPACES.
               10  WK01-SEQ-ID-4086-PU448-Z              PIC X(1)
                                               VALUE SPACE.
               10  WK01-SEQ-ID-4086-PU448-F              PIC X(1)
                                               VALUE SPACE.
               10  WK01-SEQ-ID-4086-PU448-A              PIC X(1)
                                               VALUE SPACE.
               10  WK01-SEQ-ID-4086-PU448-V              PIC X(1)
                                               VALUE SPACE.
               10  WK01-SEQ-ID-4086-PU448-O              PIC X(1)
                                               VALUE SPACE.
               10  WK01-SEQ-ID-4086-PU448       PIC X(4)
                                               VALUE SPACES.
               10  WK01-XTNSN-ID-4086-PU448-Z              PIC X(1)
                                               VALUE SPACE.
               10  WK01-XTNSN-ID-4086-PU448-F              PIC X(1)
                                               VALUE SPACE.
               10  WK01-XTNSN-ID-4086-PU448-A              PIC X(1)
                                               VALUE SPACE.
               10  WK01-XTNSN-ID-4086-PU448-V              PIC X(1)
                                               VALUE SPACE.
               10  WK01-XTNSN-ID-4086-PU448-O              PIC X(1)
                                               VALUE SPACE.
               10  WK01-XTNSN-ID-4086-PU448       PIC X(4)
                                               VALUE SPACES.
               10  WK01-CODE-PU449-Z              PIC X(1)
                                               VALUE SPACE.
               10  WK01-CODE-PU449-F              PIC X(1)
                                               VALUE SPACE.
               10  WK01-CODE-PU449-A              PIC X(1)
                                               VALUE SPACE.
               10  WK01-CODE-PU449-V              PIC X(1)
                                               VALUE SPACE.
               10  WK01-CODE-PU449-O              PIC X(1)
                                               VALUE SPACE.
               10  WK01-CODE-PU449       PIC X(1)
                                               VALUE SPACES.
               10  WK01-TO-CODE-4086-PU449-Z              PIC X(1)
                                               VALUE SPACE.
               10  WK01-TO-CODE-4086-PU449-F              PIC X(1)
                                               VALUE SPACE.
               10  WK01-TO-CODE-4086-PU449-A              PIC X(1)
                                               VALUE SPACE.
               10  WK01-TO-CODE-4086-PU449-V              PIC X(1)
                                               VALUE SPACE.
               10  WK01-TO-CODE-4086-PU449-O              PIC X(1)
                                               VALUE SPACE.
               10  WK01-TO-CODE-4086-PU449       PIC X(6)
                                               VALUE SPACES.
               10  WK01-TYPE-CODE-PU449-Z              PIC X(1)
                                               VALUE SPACE.
               10  WK01-TYPE-CODE-PU449-F              PIC X(1)
                                               VALUE SPACE.
               10  WK01-TYPE-CODE-PU449-A              PIC X(1)
                                               VALUE SPACE.
               10  WK01-TYPE-CODE-PU449-V              PIC X(1)
                                               VALUE SPACE.
               10  WK01-TYPE-CODE-PU449-O              PIC X(1)
                                               VALUE SPACE.
               10  WK01-TYPE-CODE-PU449       PIC X(1)
                                               VALUE SPACES.
               10  WK01-NAME-4086-PU449-Z              PIC X(1)
                                               VALUE SPACE.
               10  WK01-NAME-4086-PU449-F              PIC X(1)
                                               VALUE SPACE.
               10  WK01-NAME-4086-PU449-A              PIC X(1)
                                               VALUE SPACE.
               10  WK01-NAME-4086-PU449-V              PIC X(1)
                                               VALUE SPACE.
               10  WK01-NAME-4086-PU449-O              PIC X(1)
                                               VALUE SPACE.
               10  WK01-NAME-4086-PU449       PIC X(35)
                                               VALUE SPACES.
               10  WK01-AREA-CODE-4086-PU449-Z              PIC X(1)
                                               VALUE SPACE.
               10  WK01-AREA-CODE-4086-PU449-F              PIC X(1)
                                               VALUE SPACE.
               10  WK01-AREA-CODE-4086-PU449-A              PIC X(1)
                                               VALUE SPACE.
               10  WK01-AREA-CODE-4086-PU449-V              PIC X(1)
                                               VALUE SPACE.
               10  WK01-AREA-CODE-4086-PU449-O              PIC X(1)
                                               VALUE SPACE.
               10  WK01-AREA-CODE-4086-PU449       PIC X(3)
                                               VALUE SPACES.
               10  WK01-XCHNG-ID-4086-PU449-Z              PIC X(1)
                                               VALUE SPACE.
               10  WK01-XCHNG-ID-4086-PU449-F              PIC X(1)
                                               VALUE SPACE.
               10  WK01-XCHNG-ID-4086-PU449-A              PIC X(1)
                                               VALUE SPACE.
               10  WK01-XCHNG-ID-4086-PU449-V              PIC X(1)
                                               VALUE SPACE.
               10  WK01-XCHNG-ID-4086-PU449-O              PIC X(1)
                                               VALUE SPACE.
               10  WK01-XCHNG-ID-4086-PU449       PIC X(3)
                                               VALUE SPACES.
               10  WK01-SEQ-ID-4086-PU449-Z              PIC X(1)
                                               VALUE SPACE.
               10  WK01-SEQ-ID-4086-PU449-F              PIC X(1)
                                               VALUE SPACE.
               10  WK01-SEQ-ID-4086-PU449-A              PIC X(1)
                                               VALUE SPACE.
               10  WK01-SEQ-ID-4086-PU449-V              PIC X(1)
                                               VALUE SPACE.
               10  WK01-SEQ-ID-4086-PU449-O              PIC X(1)
                                               VALUE SPACE.
               10  WK01-SEQ-ID-4086-PU449       PIC X(4)
                                               VALUE SPACES.
               10  WK01-XTNSN-ID-4086-PU449-Z              PIC X(1)
                                               VALUE SPACE.
               10  WK01-XTNSN-ID-4086-PU449-F              PIC X(1)
                                               VALUE SPACE.
               10  WK01-XTNSN-ID-4086-PU449-A              PIC X(1)
                                               VALUE SPACE.
               10  WK01-XTNSN-ID-4086-PU449-V              PIC X(1)
                                               VALUE SPACE.
               10  WK01-XTNSN-ID-4086-PU449-O              PIC X(1)
                                               VALUE SPACE.
               10  WK01-XTNSN-ID-4086-PU449       PIC X(4)
                                               VALUE SPACES.
               10  WK01-CODE-PU4410-Z              PIC X(1)
                                               VALUE SPACE.
               10  WK01-CODE-PU4410-F              PIC X(1)
                                               VALUE SPACE.
               10  WK01-CODE-PU4410-A              PIC X(1)
                                               VALUE SPACE.
               10  WK01-CODE-PU4410-V              PIC X(1)
                                               VALUE SPACE.
               10  WK01-CODE-PU4410-O              PIC X(1)
                                               VALUE SPACE.
               10  WK01-CODE-PU4410       PIC X(1)
                                               VALUE SPACES.
               10  WK01-TO-CODE-4086-PU4410-Z              PIC X(1)
                                               VALUE SPACE.
               10  WK01-TO-CODE-4086-PU4410-F              PIC X(1)
                                               VALUE SPACE.
               10  WK01-TO-CODE-4086-PU4410-A              PIC X(1)
                                               VALUE SPACE.
               10  WK01-TO-CODE-4086-PU4410-V              PIC X(1)
                                               VALUE SPACE.
               10  WK01-TO-CODE-4086-PU4410-O              PIC X(1)
                                               VALUE SPACE.
               10  WK01-TO-CODE-4086-PU4410       PIC X(6)
                                               VALUE SPACES.
               10  WK01-TYPE-CODE-PU4410-Z              PIC X(1)
                                               VALUE SPACE.
               10  WK01-TYPE-CODE-PU4410-F              PIC X(1)
                                               VALUE SPACE.
               10  WK01-TYPE-CODE-PU4410-A              PIC X(1)
                                               VALUE SPACE.
               10  WK01-TYPE-CODE-PU4410-V              PIC X(1)
                                               VALUE SPACE.
               10  WK01-TYPE-CODE-PU4410-O              PIC X(1)
                                               VALUE SPACE.
               10  WK01-TYPE-CODE-PU4410       PIC X(1)
                                               VALUE SPACES.
               10  WK01-NAME-4086-PU4410-Z              PIC X(1)
                                               VALUE SPACE.
               10  WK01-NAME-4086-PU4410-F              PIC X(1)
                                               VALUE SPACE.
               10  WK01-NAME-4086-PU4410-A              PIC X(1)
                                               VALUE SPACE.
               10  WK01-NAME-4086-PU4410-V              PIC X(1)
                                               VALUE SPACE.
               10  WK01-NAME-4086-PU4410-O              PIC X(1)
                                               VALUE SPACE.
               10  WK01-NAME-4086-PU4410       PIC X(35)
                                               VALUE SPACES.
               10  WK01-AREA-CODE-4086-PU4410-Z              PIC X(1)
                                               VALUE SPACE.
               10  WK01-AREA-CODE-4086-PU4410-F              PIC X(1)
                                               VALUE SPACE.
               10  WK01-AREA-CODE-4086-PU4410-A              PIC X(1)
                                               VALUE SPACE.
               10  WK01-AREA-CODE-4086-PU4410-V              PIC X(1)
                                               VALUE SPACE.
               10  WK01-AREA-CODE-4086-PU4410-O              PIC X(1)
                                               VALUE SPACE.
               10  WK01-AREA-CODE-4086-PU4410       PIC X(3)
                                               VALUE SPACES.
               10  WK01-XCHNG-ID-4086-PU4410-Z              PIC X(1)
                                               VALUE SPACE.
               10  WK01-XCHNG-ID-4086-PU4410-F              PIC X(1)
                                               VALUE SPACE.
               10  WK01-XCHNG-ID-4086-PU4410-A              PIC X(1)
                                               VALUE SPACE.
               10  WK01-XCHNG-ID-4086-PU4410-V              PIC X(1)
                                               VALUE SPACE.
               10  WK01-XCHNG-ID-4086-PU4410-O              PIC X(1)
                                               VALUE SPACE.
               10  WK01-XCHNG-ID-4086-PU4410       PIC X(3)
                                               VALUE SPACES.
               10  WK01-SEQ-ID-4086-PU4410-Z              PIC X(1)
                                               VALUE SPACE.
               10  WK01-SEQ-ID-4086-PU4410-F              PIC X(1)
                                               VALUE SPACE.
               10  WK01-SEQ-ID-4086-PU4410-A              PIC X(1)
                                               VALUE SPACE.
               10  WK01-SEQ-ID-4086-PU4410-V              PIC X(1)
                                               VALUE SPACE.
               10  WK01-SEQ-ID-4086-PU4410-O              PIC X(1)
                                               VALUE SPACE.
               10  WK01-SEQ-ID-4086-PU4410       PIC X(4)
                                               VALUE SPACES.
               10  WK01-XTNSN-ID-4086-PU4410-Z              PIC X(1)
                                               VALUE SPACE.
               10  WK01-XTNSN-ID-4086-PU4410-F              PIC X(1)
                                               VALUE SPACE.
               10  WK01-XTNSN-ID-4086-PU4410-A              PIC X(1)
                                               VALUE SPACE.
               10  WK01-XTNSN-ID-4086-PU4410-V              PIC X(1)
                                               VALUE SPACE.
               10  WK01-XTNSN-ID-4086-PU4410-O              PIC X(1)
                                               VALUE SPACE.
               10  WK01-XTNSN-ID-4086-PU4410       PIC X(4)
                                               VALUE SPACES.
               10  WK01-CODE-PU4411-Z              PIC X(1)
                                               VALUE SPACE.
               10  WK01-CODE-PU4411-F              PIC X(1)
                                               VALUE SPACE.
               10  WK01-CODE-PU4411-A              PIC X(1)
                                               VALUE SPACE.
               10  WK01-CODE-PU4411-V              PIC X(1)
                                               VALUE SPACE.
               10  WK01-CODE-PU4411-O              PIC X(1)
                                               VALUE SPACE.
               10  WK01-CODE-PU4411       PIC X(1)
                                               VALUE SPACES.
               10  WK01-TO-CODE-4086-PU4411-Z              PIC X(1)
                                               VALUE SPACE.
               10  WK01-TO-CODE-4086-PU4411-F              PIC X(1)
                                               VALUE SPACE.
               10  WK01-TO-CODE-4086-PU4411-A              PIC X(1)
                                               VALUE SPACE.
               10  WK01-TO-CODE-4086-PU4411-V              PIC X(1)
                                               VALUE SPACE.
               10  WK01-TO-CODE-4086-PU4411-O              PIC X(1)
                                               VALUE SPACE.
               10  WK01-TO-CODE-4086-PU4411       PIC X(6)
                                               VALUE SPACES.
               10  WK01-TYPE-CODE-PU4411-Z              PIC X(1)
                                               VALUE SPACE.
               10  WK01-TYPE-CODE-PU4411-F              PIC X(1)
                                               VALUE SPACE.
               10  WK01-TYPE-CODE-PU4411-A              PIC X(1)
                                               VALUE SPACE.
               10  WK01-TYPE-CODE-PU4411-V              PIC X(1)
                                               VALUE SPACE.
               10  WK01-TYPE-CODE-PU4411-O              PIC X(1)
                                               VALUE SPACE.
               10  WK01-TYPE-CODE-PU4411       PIC X(1)
                                               VALUE SPACES.
               10  WK01-NAME-4086-PU4411-Z              PIC X(1)
                                               VALUE SPACE.
               10  WK01-NAME-4086-PU4411-F              PIC X(1)
                                               VALUE SPACE.
               10  WK01-NAME-4086-PU4411-A              PIC X(1)
                                               VALUE SPACE.
               10  WK01-NAME-4086-PU4411-V              PIC X(1)
                                               VALUE SPACE.
               10  WK01-NAME-4086-PU4411-O              PIC X(1)
                                               VALUE SPACE.
               10  WK01-NAME-4086-PU4411       PIC X(35)
                                               VALUE SPACES.
               10  WK01-AREA-CODE-4086-PU4411-Z              PIC X(1)
                                               VALUE SPACE.
               10  WK01-AREA-CODE-4086-PU4411-F              PIC X(1)
                                               VALUE SPACE.
               10  WK01-AREA-CODE-4086-PU4411-A              PIC X(1)
                                               VALUE SPACE.
               10  WK01-AREA-CODE-4086-PU4411-V              PIC X(1)
                                               VALUE SPACE.
               10  WK01-AREA-CODE-4086-PU4411-O              PIC X(1)
                                               VALUE SPACE.
               10  WK01-AREA-CODE-4086-PU4411       PIC X(3)
                                               VALUE SPACES.
               10  WK01-XCHNG-ID-4086-PU4411-Z              PIC X(1)
                                               VALUE SPACE.
               10  WK01-XCHNG-ID-4086-PU4411-F              PIC X(1)
                                               VALUE SPACE.
               10  WK01-XCHNG-ID-4086-PU4411-A              PIC X(1)
                                               VALUE SPACE.
               10  WK01-XCHNG-ID-4086-PU4411-V              PIC X(1)
                                               VALUE SPACE.
               10  WK01-XCHNG-ID-4086-PU4411-O              PIC X(1)
                                               VALUE SPACE.
               10  WK01-XCHNG-ID-4086-PU4411       PIC X(3)
                                               VALUE SPACES.
               10  WK01-SEQ-ID-4086-PU4411-Z              PIC X(1)
                                               VALUE SPACE.
               10  WK01-SEQ-ID-4086-PU4411-F              PIC X(1)
                                               VALUE SPACE.
               10  WK01-SEQ-ID-4086-PU4411-A              PIC X(1)
                                               VALUE SPACE.
               10  WK01-SEQ-ID-4086-PU4411-V              PIC X(1)
                                               VALUE SPACE.
               10  WK01-SEQ-ID-4086-PU4411-O              PIC X(1)
                                               VALUE SPACE.
               10  WK01-SEQ-ID-4086-PU4411       PIC X(4)
                                               VALUE SPACES.
               10  WK01-XTNSN-ID-4086-PU4411-Z              PIC X(1)
                                               VALUE SPACE.
               10  WK01-XTNSN-ID-4086-PU4411-F              PIC X(1)
                                               VALUE SPACE.
               10  WK01-XTNSN-ID-4086-PU4411-A              PIC X(1)
                                               VALUE SPACE.
               10  WK01-XTNSN-ID-4086-PU4411-V              PIC X(1)
                                               VALUE SPACE.
               10  WK01-XTNSN-ID-4086-PU4411-O              PIC X(1)
                                               VALUE SPACE.
               10  WK01-XTNSN-ID-4086-PU4411       PIC X(4)
                                               VALUE SPACES.
               10  WK01-CODE-PU4412-Z              PIC X(1)
                                               VALUE SPACE.
               10  WK01-CODE-PU4412-F              PIC X(1)
                                               VALUE SPACE.
               10  WK01-CODE-PU4412-A              PIC X(1)
                                               VALUE SPACE.
               10  WK01-CODE-PU4412-V              PIC X(1)
                                               VALUE SPACE.
               10  WK01-CODE-PU4412-O              PIC X(1)
                                               VALUE SPACE.
               10  WK01-CODE-PU4412       PIC X(1)
                                               VALUE SPACES.
               10  WK01-TO-CODE-4086-PU4412-Z              PIC X(1)
                                               VALUE SPACE.
               10  WK01-TO-CODE-4086-PU4412-F              PIC X(1)
                                               VALUE SPACE.
               10  WK01-TO-CODE-4086-PU4412-A              PIC X(1)
                                               VALUE SPACE.
               10  WK01-TO-CODE-4086-PU4412-V              PIC X(1)
                                               VALUE SPACE.
               10  WK01-TO-CODE-4086-PU4412-O              PIC X(1)
                                               VALUE SPACE.
               10  WK01-TO-CODE-4086-PU4412       PIC X(6)
                                               VALUE SPACES.
               10  WK01-TYPE-CODE-PU4412-Z              PIC X(1)
                                               VALUE SPACE.
               10  WK01-TYPE-CODE-PU4412-F              PIC X(1)
                                               VALUE SPACE.
               10  WK01-TYPE-CODE-PU4412-A              PIC X(1)
                                               VALUE SPACE.
               10  WK01-TYPE-CODE-PU4412-V              PIC X(1)
                                               VALUE SPACE.
               10  WK01-TYPE-CODE-PU4412-O              PIC X(1)
                                               VALUE SPACE.
               10  WK01-TYPE-CODE-PU4412       PIC X(1)
                                               VALUE SPACES.
               10  WK01-NAME-4086-PU4412-Z              PIC X(1)
                                               VALUE SPACE.
               10  WK01-NAME-4086-PU4412-F              PIC X(1)
                                               VALUE SPACE.
               10  WK01-NAME-4086-PU4412-A              PIC X(1)
                                               VALUE SPACE.
               10  WK01-NAME-4086-PU4412-V              PIC X(1)
                                               VALUE SPACE.
               10  WK01-NAME-4086-PU4412-O              PIC X(1)
                                               VALUE SPACE.
               10  WK01-NAME-4086-PU4412       PIC X(35)
                                               VALUE SPACES.
               10  WK01-AREA-CODE-4086-PU4412-Z              PIC X(1)
                                               VALUE SPACE.
               10  WK01-AREA-CODE-4086-PU4412-F              PIC X(1)
                                               VALUE SPACE.
               10  WK01-AREA-CODE-4086-PU4412-A              PIC X(1)
                                               VALUE SPACE.
               10  WK01-AREA-CODE-4086-PU4412-V              PIC X(1)
                                               VALUE SPACE.
               10  WK01-AREA-CODE-4086-PU4412-O              PIC X(1)
                                               VALUE SPACE.
               10  WK01-AREA-CODE-4086-PU4412       PIC X(3)
                                               VALUE SPACES.
               10  WK01-XCHNG-ID-4086-PU4412-Z              PIC X(1)
                                               VALUE SPACE.
               10  WK01-XCHNG-ID-4086-PU4412-F              PIC X(1)
                                               VALUE SPACE.
               10  WK01-XCHNG-ID-4086-PU4412-A              PIC X(1)
                                               VALUE SPACE.
               10  WK01-XCHNG-ID-4086-PU4412-V              PIC X(1)
                                               VALUE SPACE.
               10  WK01-XCHNG-ID-4086-PU4412-O              PIC X(1)
                                               VALUE SPACE.
               10  WK01-XCHNG-ID-4086-PU4412       PIC X(3)
                                               VALUE SPACES.
               10  WK01-SEQ-ID-4086-PU4412-Z              PIC X(1)
                                               VALUE SPACE.
               10  WK01-SEQ-ID-4086-PU4412-F              PIC X(1)
                                               VALUE SPACE.
               10  WK01-SEQ-ID-4086-PU4412-A              PIC X(1)
                                               VALUE SPACE.
               10  WK01-SEQ-ID-4086-PU4412-V              PIC X(1)
                                               VALUE SPACE.
               10  WK01-SEQ-ID-4086-PU4412-O              PIC X(1)
                                               VALUE SPACE.
               10  WK01-SEQ-ID-4086-PU4412       PIC X(4)
                                               VALUE SPACES.
               10  WK01-XTNSN-ID-4086-PU4412-Z              PIC X(1)
                                               VALUE SPACE.
               10  WK01-XTNSN-ID-4086-PU4412-F              PIC X(1)
                                               VALUE SPACE.
               10  WK01-XTNSN-ID-4086-PU4412-A              PIC X(1)
                                               VALUE SPACE.
               10  WK01-XTNSN-ID-4086-PU4412-V              PIC X(1)
                                               VALUE SPACE.
               10  WK01-XTNSN-ID-4086-PU4412-O              PIC X(1)
                                               VALUE SPACE.
               10  WK01-XTNSN-ID-4086-PU4412       PIC X(4)
                                               VALUE SPACES.
001MLJ
001MLJ         10  WK01-CNTCT-NM-UPPER-PU44-Z            PIC X(1)
001MLJ                                         VALUE SPACE.
001MLJ         10  WK01-CNTCT-NM-UPPER-PU44-F            PIC X(1)
001MLJ                                         VALUE SPACE.
001MLJ         10  WK01-CNTCT-NM-UPPER-PU44-A            PIC X(1)
001MLJ                                         VALUE SPACE.
001MLJ         10  WK01-CNTCT-NM-UPPER-PU44-V            PIC X(1)
001MLJ                                         VALUE SPACE.
001MLJ         10  WK01-CNTCT-NM-UPPER-PU44-O            PIC X(1)
001MLJ                                         VALUE SPACE.
001MLJ         10  WK01-CNTCT-NM-UPPER-PU44     PIC X(35)
001MLJ                                         VALUE SPACES.
               10  WK01-SHIP-TO-CODE-PU44-Z              PIC X(1)
                                               VALUE SPACE.
               10  WK01-SHIP-TO-CODE-PU44-F              PIC X(1)
                                               VALUE SPACE.
               10  WK01-SHIP-TO-CODE-PU44-A              PIC X(1)
                                               VALUE SPACE.
               10  WK01-SHIP-TO-CODE-PU44-V              PIC X(1)
                                               VALUE SPACE.
               10  WK01-SHIP-TO-CODE-PU44-O              PIC X(1)
                                               VALUE SPACE.
               10  WK01-SHIP-TO-CODE-PU44       PIC X(6)
                                               VALUE SPACES.
001DMW
001DMW         10  WK01-SEARCH-ONLY-CD-PU44-Z            PIC X(1)
001DMW                                         VALUE SPACE.
001DMW         10  WK01-SEARCH-ONLY-CD-PU44-F            PIC X(1)
001DMW                                         VALUE SPACE.
001DMW         10  WK01-SEARCH-ONLY-CD-PU44-A            PIC X(1)
001DMW                                         VALUE SPACE.
001DMW         10  WK01-SEARCH-ONLY-CD-PU44-V            PIC X(1)
001DMW                                         VALUE SPACE.
001DMW         10  WK01-SEARCH-ONLY-CD-PU44-O            PIC X(1)
001DMW                                         VALUE SPACE.
001DMW         10  WK01-SEARCH-ONLY-CD-PU44     PIC X(1)
001DMW                                         VALUE SPACES.
               10  WK01-ZZMESSAGE-Z              PIC X(1)
                                               VALUE SPACE.
               10  WK01-ZZMESSAGE-F              PIC X(1)
                                               VALUE SPACE.
               10  WK01-ZZMESSAGE-A              PIC X(1)
                                               VALUE SPACE.
               10  WK01-ZZMESSAGE-V              PIC X(1)
                                               VALUE SPACE.
               10  WK01-ZZMESSAGE-O              PIC X(1)
                                               VALUE SPACE.
               10  WK01-ZZMESSAGE       PIC X(160)
                                               VALUE SPACES.
               10  WK01-PASSED-ONE-Z              PIC X(1)
                                               VALUE SPACE.
               10  WK01-PASSED-ONE-F              PIC X(1)
                                               VALUE SPACE.
               10  WK01-PASSED-ONE-A              PIC X(1)
                                               VALUE SPACE.
               10  WK01-PASSED-ONE-V              PIC X(1)
                                               VALUE SPACE.
               10  WK01-PASSED-ONE-O              PIC X(1)
                                               VALUE SPACE.
               10  WK01-PASSED-ONE       PIC X(32)
                                               VALUE SPACES.
               10  WK01-MAP-RESPONSE-Z              PIC X(1)
                                               VALUE SPACE.
               10  WK01-MAP-RESPONSE-F              PIC X(1)
                                               VALUE SPACE.
               10  WK01-MAP-RESPONSE-A              PIC X(1)
                                               VALUE SPACE.
               10  WK01-MAP-RESPONSE-V              PIC X(1)
                                               VALUE SPACE.
               10  WK01-MAP-RESPONSE-O              PIC X(1)
                                               VALUE SPACE.
               10  WK01-MAP-RESPONSE       PIC X(8)
                                               VALUE SPACES.
               10  WK01-TEXT-SY00-Z              PIC X(1)
                                               VALUE SPACE.
               10  WK01-TEXT-SY00-F              PIC X(1)
                                               VALUE SPACE.
               10  WK01-TEXT-SY00-A              PIC X(1)
                                               VALUE SPACE.
               10  WK01-TEXT-SY00-V              PIC X(1)
                                               VALUE SPACE.
               10  WK01-TEXT-SY00-O              PIC X(1)
                                               VALUE SPACE.
               10  WK01-TEXT-SY00       PIC X(14)
                                               VALUE SPACES.
           04  WK01-SUBSCRIPTED-WORK-AREA.
               05  FILLER                      PIC X(1).
               05  WK01-CODE-PU44-F             PIC X(1)
                                               OCCURS 12.
               05  WK01-NAME-4086-PU44-F             PIC X(1)
                                               OCCURS 12.
               05  WK01-TO-CODE-4086-PU44-F             PIC X(1)
                                               OCCURS 12.
               05  WK01-AREA-CODE-4086-PU44-F             PIC X(1)
                                               OCCURS 12.
               05  WK01-XCHNG-ID-4086-PU44-F             PIC X(1)
                                               OCCURS 12.
               05  WK01-SEQ-ID-4086-PU44-F             PIC X(1)
                                               OCCURS 12.
               05  WK01-XTNSN-ID-4086-PU44-F             PIC X(1)
                                               OCCURS 12.
               05  WK01-TYPE-CODE-PU44-F             PIC X(1)
                                               OCCURS 12.
