    ***Created by Convert/DC version V8R03 on 12/11/00 at 12:00***

      *%--------------------------------------------------------------%*
           MOVE DCLINK-MESSAGE  TO WK01-ZZMESSAGE.
      *%--------------------------------------------------------------%*
           MOVE AGR-DATE OF ADSO-APPLICATION-GLOBAL-RECORD TO WK01-DATE.
      *%--------------------------------------------------------------%*
           MOVE AGR-USER-ID OF ADSO-APPLICATION-GLOBAL-RECORD TO
                WK01-USER-ID.
      *%--------------------------------------------------------------%*
           MOVE AGR-FUNC-DESCRIPTION OF ADSO-APPLICATION-GLOBAL-RECORD
                TO WK01-FUNC-DESCRIPTION.
      *%--------------------------------------------------------------%*
           MOVE AGR-PASSED-ONE OF ADSO-APPLICATION-GLOBAL-RECORD TO
                WK01-PASSED-ONE.
      *%--------------------------------------------------------------%*
           MOVE AGR-MAP-RESPONSE OF ADSO-APPLICATION-GLOBAL-RECORD TO
                WK01-MAP-RESPONSE.
      *%--------------------------------------------------------------%*
           MOVE TRMNL-ID-SY00 OF FSYWG00M TO WK01-ID-SY00.
      *%--------------------------------------------------------------%*
           MOVE FULL-NAME-6001-SY00 OF FSYWG00M TO WK01-NAME-6001-SY00.
      *%--------------------------------------------------------------%*
           MOVE AM-PM-FLAG-SY00 OF FSYWG00M TO WK01-PM-FLAG-SY00.
      *%--------------------------------------------------------------%*
           MOVE CURR-RSPNS-ID-SY00 OF FSYWG00M TO WK01-RSPNS-ID-SY00.
      *%--------------------------------------------------------------%*
           MOVE ERROR-TEXT-SY00 OF FSYWG00M TO WK01-TEXT-SY00.
      *%--------------------------------------------------------------%*
           MOVE PAGE-STATUS-CODE-SY00 OF FSYWG00M TO
                WK01-STATUS-CODE-SY00.
      *%--------------------------------------------------------------%*
           MOVE WORK-HH-MM-TIME-SY00 OF FSYWG00M TO
                WK01-HH-MM-TIME-SY00.
      *%--------------------------------------------------------------%*
           MOVE RQST-PAY-MTHD-PU38 OF FPUWK38 TO WK01-PAY-MTHD-PU38.
      *%--------------------------------------------------------------%*
           MOVE ACTN-CODE-PU38 OF FPUWM38(0001) TO WK01-CODE-PU381.
      *%--------------------------------------------------------------%*
           MOVE ACTN-CODE-PU38 OF FPUWM38(0002) TO WK01-CODE-PU382.
      *%--------------------------------------------------------------%*
           MOVE ACTN-CODE-PU38 OF FPUWM38(0003) TO WK01-CODE-PU383.
      *%--------------------------------------------------------------%*
           MOVE ACTN-CODE-PU38 OF FPUWM38(0004) TO WK01-CODE-PU384.
      *%--------------------------------------------------------------%*
           MOVE ACTN-CODE-PU38 OF FPUWM38(0005) TO WK01-CODE-PU385.
      *%--------------------------------------------------------------%*
           MOVE ACTN-CODE-PU38 OF FPUWM38(0006) TO WK01-CODE-PU386.
      *%--------------------------------------------------------------%*
           MOVE ACTN-CODE-PU38 OF FPUWM38(0007) TO WK01-CODE-PU387.
      *%--------------------------------------------------------------%*
           MOVE ACTN-CODE-PU38 OF FPUWM38(0008) TO WK01-CODE-PU388.
      *%--------------------------------------------------------------%*
           MOVE ACTN-CODE-PU38 OF FPUWM38(0009) TO WK01-CODE-PU389.
      *%--------------------------------------------------------------%*
           MOVE ACTN-CODE-PU38 OF FPUWM38(0010) TO WK01-CODE-PU3810.
      *%--------------------------------------------------------------%*
           MOVE ACTN-CODE-PU38 OF FPUWM38(0011) TO WK01-CODE-PU3811.
      *%--------------------------------------------------------------%*
           MOVE ACTN-CODE-PU38 OF FPUWM38(0012) TO WK01-CODE-PU3812.
      *%--------------------------------------------------------------%*
           MOVE END-DATE-4078-PU38 OF FPUWM38(0001) TO
                WK01-DATE-4078-PU381.
      *%--------------------------------------------------------------%*
           MOVE END-DATE-4078-PU38 OF FPUWM38(0002) TO
                WK01-DATE-4078-PU382.
      *%--------------------------------------------------------------%*
           MOVE END-DATE-4078-PU38 OF FPUWM38(0003) TO
                WK01-DATE-4078-PU383.
      *%--------------------------------------------------------------%*
           MOVE END-DATE-4078-PU38 OF FPUWM38(0004) TO
                WK01-DATE-4078-PU384.
      *%--------------------------------------------------------------%*
           MOVE END-DATE-4078-PU38 OF FPUWM38(0005) TO
                WK01-DATE-4078-PU385.
      *%--------------------------------------------------------------%*
           MOVE END-DATE-4078-PU38 OF FPUWM38(0006) TO
                WK01-DATE-4078-PU386.
      *%--------------------------------------------------------------%*
           MOVE END-DATE-4078-PU38 OF FPUWM38(0007) TO
                WK01-DATE-4078-PU387.
      *%--------------------------------------------------------------%*
           MOVE END-DATE-4078-PU38 OF FPUWM38(0008) TO
                WK01-DATE-4078-PU388.
      *%--------------------------------------------------------------%*
           MOVE END-DATE-4078-PU38 OF FPUWM38(0009) TO
                WK01-DATE-4078-PU389.
      *%--------------------------------------------------------------%*
           MOVE END-DATE-4078-PU38 OF FPUWM38(0010) TO
                WK01-DATE-4078-PU3810.
      *%--------------------------------------------------------------%*
           MOVE END-DATE-4078-PU38 OF FPUWM38(0011) TO
                WK01-DATE-4078-PU3811.
      *%--------------------------------------------------------------%*
           MOVE END-DATE-4078-PU38 OF FPUWM38(0012) TO
                WK01-DATE-4078-PU3812.
      *%--------------------------------------------------------------%*
           MOVE ACTVY-DATE-4078-PU38 OF FPUWM38(0001) TO
                WK01-DATE-4078-PU3A1.
      *%--------------------------------------------------------------%*
           MOVE ACTVY-DATE-4078-PU38 OF FPUWM38(0002) TO
                WK01-DATE-4078-PU3A2.
      *%--------------------------------------------------------------%*
           MOVE ACTVY-DATE-4078-PU38 OF FPUWM38(0003) TO
                WK01-DATE-4078-PU3A3.
      *%--------------------------------------------------------------%*
           MOVE ACTVY-DATE-4078-PU38 OF FPUWM38(0004) TO
                WK01-DATE-4078-PU3A4.
      *%--------------------------------------------------------------%*
           MOVE ACTVY-DATE-4078-PU38 OF FPUWM38(0005) TO
                WK01-DATE-4078-PU3A5.
      *%--------------------------------------------------------------%*
           MOVE ACTVY-DATE-4078-PU38 OF FPUWM38(0006) TO
                WK01-DATE-4078-PU3A6.
      *%--------------------------------------------------------------%*
           MOVE ACTVY-DATE-4078-PU38 OF FPUWM38(0007) TO
                WK01-DATE-4078-PU3A7.
      *%--------------------------------------------------------------%*
           MOVE ACTVY-DATE-4078-PU38 OF FPUWM38(0008) TO
                WK01-DATE-4078-PU3A8.
      *%--------------------------------------------------------------%*
           MOVE ACTVY-DATE-4078-PU38 OF FPUWM38(0009) TO
                WK01-DATE-4078-PU3A9.
      *%--------------------------------------------------------------%*
           MOVE ACTVY-DATE-4078-PU38 OF FPUWM38(0010) TO
                WK01-DATE-4078-PU3A10.
      *%--------------------------------------------------------------%*
           MOVE ACTVY-DATE-4078-PU38 OF FPUWM38(0011) TO
                WK01-DATE-4078-PU3A11.
      *%--------------------------------------------------------------%*
           MOVE ACTVY-DATE-4078-PU38 OF FPUWM38(0012) TO
                WK01-DATE-4078-PU3A12.
      *%--------------------------------------------------------------%*
           MOVE PAY-MTHD-CODE-4078-PU38 OF FPUWM38(0001) TO
                WK01-MTHD-CODE-4078-PU381.
      *%--------------------------------------------------------------%*
           MOVE PAY-MTHD-CODE-4078-PU38 OF FPUWM38(0002) TO
                WK01-MTHD-CODE-4078-PU382.
      *%--------------------------------------------------------------%*
           MOVE PAY-MTHD-CODE-4078-PU38 OF FPUWM38(0003) TO
                WK01-MTHD-CODE-4078-PU383.
      *%--------------------------------------------------------------%*
           MOVE PAY-MTHD-CODE-4078-PU38 OF FPUWM38(0004) TO
                WK01-MTHD-CODE-4078-PU384.
      *%--------------------------------------------------------------%*
           MOVE PAY-MTHD-CODE-4078-PU38 OF FPUWM38(0005) TO
                WK01-MTHD-CODE-4078-PU385.
      *%--------------------------------------------------------------%*
           MOVE PAY-MTHD-CODE-4078-PU38 OF FPUWM38(0006) TO
                WK01-MTHD-CODE-4078-PU386.
      *%--------------------------------------------------------------%*
           MOVE PAY-MTHD-CODE-4078-PU38 OF FPUWM38(0007) TO
                WK01-MTHD-CODE-4078-PU387.
      *%--------------------------------------------------------------%*
           MOVE PAY-MTHD-CODE-4078-PU38 OF FPUWM38(0008) TO
                WK01-MTHD-CODE-4078-PU388.
      *%--------------------------------------------------------------%*
           MOVE PAY-MTHD-CODE-4078-PU38 OF FPUWM38(0009) TO
                WK01-MTHD-CODE-4078-PU389.
      *%--------------------------------------------------------------%*
           MOVE PAY-MTHD-CODE-4078-PU38 OF FPUWM38(0010) TO
                WK01-MTHD-CODE-4078-PU3810.
      *%--------------------------------------------------------------%*
           MOVE PAY-MTHD-CODE-4078-PU38 OF FPUWM38(0011) TO
                WK01-MTHD-CODE-4078-PU3811.
      *%--------------------------------------------------------------%*
           MOVE PAY-MTHD-CODE-4078-PU38 OF FPUWM38(0012) TO
                WK01-MTHD-CODE-4078-PU3812.
      *%--------------------------------------------------------------%*
           MOVE PAY-MTHD-DESC-4078-PU38 OF FPUWM38(0001) TO
                WK01-MTHD-DESC-4078-PU381.
      *%--------------------------------------------------------------%*
           MOVE PAY-MTHD-DESC-4078-PU38 OF FPUWM38(0002) TO
                WK01-MTHD-DESC-4078-PU382.
      *%--------------------------------------------------------------%*
           MOVE PAY-MTHD-DESC-4078-PU38 OF FPUWM38(0003) TO
                WK01-MTHD-DESC-4078-PU383.
      *%--------------------------------------------------------------%*
           MOVE PAY-MTHD-DESC-4078-PU38 OF FPUWM38(0004) TO
                WK01-MTHD-DESC-4078-PU384.
      *%--------------------------------------------------------------%*
           MOVE PAY-MTHD-DESC-4078-PU38 OF FPUWM38(0005) TO
                WK01-MTHD-DESC-4078-PU385.
      *%--------------------------------------------------------------%*
           MOVE PAY-MTHD-DESC-4078-PU38 OF FPUWM38(0006) TO
                WK01-MTHD-DESC-4078-PU386.
      *%--------------------------------------------------------------%*
           MOVE PAY-MTHD-DESC-4078-PU38 OF FPUWM38(0007) TO
                WK01-MTHD-DESC-4078-PU387.
      *%--------------------------------------------------------------%*
           MOVE PAY-MTHD-DESC-4078-PU38 OF FPUWM38(0008) TO
                WK01-MTHD-DESC-4078-PU388.
      *%--------------------------------------------------------------%*
           MOVE PAY-MTHD-DESC-4078-PU38 OF FPUWM38(0009) TO
                WK01-MTHD-DESC-4078-PU389.
      *%--------------------------------------------------------------%*
           MOVE PAY-MTHD-DESC-4078-PU38 OF FPUWM38(0010) TO
                WK01-MTHD-DESC-4078-PU3810.
      *%--------------------------------------------------------------%*
           MOVE PAY-MTHD-DESC-4078-PU38 OF FPUWM38(0011) TO
                WK01-MTHD-DESC-4078-PU3811.
      *%--------------------------------------------------------------%*
           MOVE PAY-MTHD-DESC-4078-PU38 OF FPUWM38(0012) TO
                WK01-MTHD-DESC-4078-PU3812.
      *%--------------------------------------------------------------%*
           MOVE START-DATE-4078-PU38 OF FPUWM38(0001) TO
                WK01-DATE-4078-PU3B1.
      *%--------------------------------------------------------------%*
           MOVE START-DATE-4078-PU38 OF FPUWM38(0002) TO
                WK01-DATE-4078-PU3B2.
      *%--------------------------------------------------------------%*
           MOVE START-DATE-4078-PU38 OF FPUWM38(0003) TO
                WK01-DATE-4078-PU3B3.
      *%--------------------------------------------------------------%*
           MOVE START-DATE-4078-PU38 OF FPUWM38(0004) TO
                WK01-DATE-4078-PU3B4.
      *%--------------------------------------------------------------%*
           MOVE START-DATE-4078-PU38 OF FPUWM38(0005) TO
                WK01-DATE-4078-PU3B5.
      *%--------------------------------------------------------------%*
           MOVE START-DATE-4078-PU38 OF FPUWM38(0006) TO
                WK01-DATE-4078-PU3B6.
      *%--------------------------------------------------------------%*
           MOVE START-DATE-4078-PU38 OF FPUWM38(0007) TO
                WK01-DATE-4078-PU3B7.
      *%--------------------------------------------------------------%*
           MOVE START-DATE-4078-PU38 OF FPUWM38(0008) TO
                WK01-DATE-4078-PU3B8.
      *%--------------------------------------------------------------%*
           MOVE START-DATE-4078-PU38 OF FPUWM38(0009) TO
                WK01-DATE-4078-PU3B9.
      *%--------------------------------------------------------------%*
           MOVE START-DATE-4078-PU38 OF FPUWM38(0010) TO
                WK01-DATE-4078-PU3B10.
      *%--------------------------------------------------------------%*
           MOVE START-DATE-4078-PU38 OF FPUWM38(0011) TO
                WK01-DATE-4078-PU3B11.
      *%--------------------------------------------------------------%*
           MOVE START-DATE-4078-PU38 OF FPUWM38(0012) TO
                WK01-DATE-4078-PU3B12.
