       01  MAP-CONTROL.

    ***Created by Convert/DC version V8R03 on 07/18/00 at 16:00***

           02  FPUMU65-MAP-CONTROL.
           03  FPUMU65T.
           04  WK01-DCXMAPL-PARMS.
               10  WK01-MAPNAME                  PIC X(8)
                                                 VALUE 'FPUMU65I'.
               10  WK01-IKE-LENGTH               PIC S9(8)  COMP
                                                 VALUE 18387.
               10  WK01-TINA-LENGTH              PIC S9(4)  COMP
                                                 VALUE 1217.
           05  WK01-ATTRIBUTES                   PIC X(60)
                                                 VALUE SPACE.
           05  WK01-ATTRIBUTES-ERROR             PIC X(60) VALUE
               'U  BIF'.
           05  WK01-CURSOR-DFLD                  PIC X(36)
                                                 VALUE SPACES.
           05  WK01-CURSOR-DFLD-QUAL             PIC X(30)
                                                 VALUE SPACES.
           05  WK01-ROW                          PIC S9(4) COMP
                                                 VALUE ZERO.
           05  WK01-COLUMN                       PIC S9(4) COMP
                                                 VALUE ZERO.
           05  WK01-ERROR-MSG                    PIC X(80)
                                                 VALUE SPACES.
           05  WK01-MAP-DATA-LEN                 PIC S9(6)
                                                 VALUE ZERO.
           05  WK01-1ST-FLAG                     PIC X(1)
                                                 VALUE 'Y'.
           05  WK01-FLAG-OUTPUT-DATA             PIC X(1)
                                                 VALUE 'Y'.
      *    05  WK01-STATUS-RETURN-FLAG           PIC X(1)
      *                                          VALUE SPACES.
           05  WK01-ALL-BUT-FLAG                 PIC X(1)
                                                 VALUE SPACES.
           05  WK01-FLAG-ALL-FIELDS-CHANGED      PIC X(1)  VALUE 'Y'.
           05  WK01-FLAG-ANY-FIELDS-CHANGED      PIC X(1)  VALUE 'N'.
           05  WK01-FLAG-ALL-FIELDS-ERROR        PIC X(1)  VALUE 'Y'.
           05  WK01-FLAG-ANY-FIELDS-ERROR        PIC X(1)  VALUE 'N'.
           05  WK01-FLAG-ALL-FIELDS-ERASE        PIC X(1)  VALUE 'Y'.
           05  WK01-FLAG-ANY-FIELDS-ERASE        PIC X(1)  VALUE 'Y'.

           05  WK01-VARDATA                      PIC X(11880)
                                                 VALUE SPACES.
           05  FILLER                            PIC X(100)
                                                 VALUE SPACES.
           04  WK01-ELEMENT-AREA.

               10  WK01-ID-SY00-Z              PIC X(1)
                                               VALUE SPACE.
               10  WK01-ID-SY00-F              PIC X(1)
                                               VALUE SPACE.
               10  WK01-ID-SY00-A              PIC X(1)
                                               VALUE SPACE.
               10  WK01-ID-SY00-V              PIC X(1)
                                               VALUE SPACE.
               10  WK01-ID-SY00-O              PIC X(1)
                                               VALUE SPACE.
               10  WK01-ID-SY00       PIC X(8)
                                               VALUE SPACES.
               10  WK01-NAME-6001-SY00-Z              PIC X(1)
                                               VALUE SPACE.
               10  WK01-NAME-6001-SY00-F              PIC X(1)
                                               VALUE SPACE.
               10  WK01-NAME-6001-SY00-A              PIC X(1)
                                               VALUE SPACE.
               10  WK01-NAME-6001-SY00-V              PIC X(1)
                                               VALUE SPACE.
               10  WK01-NAME-6001-SY00-O              PIC X(1)
                                               VALUE SPACE.
               10  WK01-NAME-6001-SY00       PIC X(35)
                                               VALUE SPACES.
               10  WK01-DATE-Z              PIC X(1)
                                               VALUE SPACE.
               10  WK01-DATE-F              PIC X(1)
                                               VALUE SPACE.
               10  WK01-DATE-A              PIC X(1)
                                               VALUE SPACE.
               10  WK01-DATE-V              PIC X(1)
                                               VALUE SPACE.
               10  WK01-DATE-O              PIC X(1)
                                               VALUE SPACE.
               10  WK01-DATE       PIC X(8)
                                               VALUE SPACES.
               10  WK01-HH-MM-TIME-SY00-Z              PIC X(1)
                                               VALUE SPACE.
               10  WK01-HH-MM-TIME-SY00-F              PIC X(1)
                                               VALUE SPACE.
               10  WK01-HH-MM-TIME-SY00-A              PIC X(1)
                                               VALUE SPACE.
               10  WK01-HH-MM-TIME-SY00-V              PIC X(1)
                                               VALUE SPACE.
               10  WK01-HH-MM-TIME-SY00-O              PIC X(1)
                                               VALUE SPACE.
               10  WK01-HH-MM-TIME-SY00       PIC X(4)
                                               VALUE SPACES.
               10  WK01-PM-FLAG-SY00-Z              PIC X(1)
                                               VALUE SPACE.
               10  WK01-PM-FLAG-SY00-F              PIC X(1)
                                               VALUE SPACE.
               10  WK01-PM-FLAG-SY00-A              PIC X(1)
                                               VALUE SPACE.
               10  WK01-PM-FLAG-SY00-V              PIC X(1)
                                               VALUE SPACE.
               10  WK01-PM-FLAG-SY00-O              PIC X(1)
                                               VALUE SPACE.
               10  WK01-PM-FLAG-SY00       PIC X(1)
                                               VALUE SPACES.
               10  WK01-USER-ID-Z              PIC X(1)
                                               VALUE SPACE.
               10  WK01-USER-ID-F              PIC X(1)
                                               VALUE SPACE.
               10  WK01-USER-ID-A              PIC X(1)
                                               VALUE SPACE.
               10  WK01-USER-ID-V              PIC X(1)
                                               VALUE SPACE.
               10  WK01-USER-ID-O              PIC X(1)
                                               VALUE SPACE.
               10  WK01-USER-ID       PIC X(32)
                                               VALUE SPACES.
               10  WK01-RSPNS-ID-SY00-Z              PIC X(1)
                                               VALUE SPACE.
               10  WK01-RSPNS-ID-SY00-F              PIC X(1)
                                               VALUE SPACE.
               10  WK01-RSPNS-ID-SY00-A              PIC X(1)
                                               VALUE SPACE.
               10  WK01-RSPNS-ID-SY00-V              PIC X(1)
                                               VALUE SPACE.
               10  WK01-RSPNS-ID-SY00-O              PIC X(1)
                                               VALUE SPACE.
               10  WK01-RSPNS-ID-SY00       PIC X(8)
                                               VALUE SPACES.
               10  WK01-FUNC-DESCRIPTION-Z              PIC X(1)
                                               VALUE SPACE.
               10  WK01-FUNC-DESCRIPTION-F              PIC X(1)
                                               VALUE SPACE.
               10  WK01-FUNC-DESCRIPTION-A              PIC X(1)
                                               VALUE SPACE.
               10  WK01-FUNC-DESCRIPTION-V              PIC X(1)
                                               VALUE SPACE.
               10  WK01-FUNC-DESCRIPTION-O              PIC X(1)
                                               VALUE SPACE.
               10  WK01-FUNC-DESCRIPTION       PIC X(28)
                                               VALUE SPACES.
               10  WK01-STATUS-CODE-SY00-Z              PIC X(1)
                                               VALUE SPACE.
               10  WK01-STATUS-CODE-SY00-F              PIC X(1)
                                               VALUE SPACE.
               10  WK01-STATUS-CODE-SY00-A              PIC X(1)
                                               VALUE SPACE.
               10  WK01-STATUS-CODE-SY00-V              PIC X(1)
                                               VALUE SPACE.
               10  WK01-STATUS-CODE-SY00-O              PIC X(1)
                                               VALUE SPACE.
               10  WK01-STATUS-CODE-SY00       PIC X(1)
                                               VALUE SPACES.
               10  WK01-CODE-PU65-Z              PIC X(1)
                                               VALUE SPACE.
               10  WK01-CODE-PU65-F              PIC X(1)
                                               VALUE SPACE.
               10  WK01-CODE-PU65-A              PIC X(1)
                                               VALUE SPACE.
               10  WK01-CODE-PU65-V              PIC X(1)
                                               VALUE SPACE.
               10  WK01-CODE-PU65-O              PIC X(1)
                                               VALUE SPACE.
               10  WK01-CODE-PU65       PIC X(1)
                                               VALUE SPACES.
               10  WK01-CLASS-CODE-PU65-Z              PIC X(1)
                                               VALUE SPACE.
               10  WK01-CLASS-CODE-PU65-F              PIC X(1)
                                               VALUE SPACE.
               10  WK01-CLASS-CODE-PU65-A              PIC X(1)
                                               VALUE SPACE.
               10  WK01-CLASS-CODE-PU65-V              PIC X(1)
                                               VALUE SPACE.
               10  WK01-CLASS-CODE-PU65-O              PIC X(1)
                                               VALUE SPACE.
               10  WK01-CLASS-CODE-PU65       PIC X(1)
                                               VALUE SPACES.
               10  WK01-NMBR-PU65-Z              PIC X(1)
                                               VALUE SPACE.
               10  WK01-NMBR-PU65-F              PIC X(1)
                                               VALUE SPACE.
               10  WK01-NMBR-PU65-A              PIC X(1)
                                               VALUE SPACE.
               10  WK01-NMBR-PU65-V              PIC X(1)
                                               VALUE SPACE.
               10  WK01-NMBR-PU65-O              PIC X(1)
                                               VALUE SPACE.
               10  WK01-NMBR-PU65       PIC X(8)
                                               VALUE SPACES.
               10  WK01-DATE-PU65-Z              PIC X(1)
                                               VALUE SPACE.
               10  WK01-DATE-PU65-F              PIC X(1)
                                               VALUE SPACE.
               10  WK01-DATE-PU65-A              PIC X(1)
                                               VALUE SPACE.
               10  WK01-DATE-PU65-V              PIC X(1)
                                               VALUE SPACE.
               10  WK01-DATE-PU65-O              PIC X(1)
                                               VALUE SPACE.
               10  WK01-DATE-PU65       PIC X(6)
                                               VALUE SPACES.
               10  WK01-VNDR-CHG-TEXT-PU65-Z              PIC X(1)
                                               VALUE SPACE.
               10  WK01-VNDR-CHG-TEXT-PU65-F              PIC X(1)
                                               VALUE SPACE.
               10  WK01-VNDR-CHG-TEXT-PU65-A              PIC X(1)
                                               VALUE SPACE.
               10  WK01-VNDR-CHG-TEXT-PU65-V              PIC X(1)
                                               VALUE SPACE.
               10  WK01-VNDR-CHG-TEXT-PU65-O              PIC X(1)
                                               VALUE SPACE.
               10  WK01-VNDR-CHG-TEXT-PU65       PIC X(35)
                                               VALUE SPACES.
               10  WK01-CODE-PU6A-Z              PIC X(1)
                                               VALUE SPACE.
               10  WK01-CODE-PU6A-F              PIC X(1)
                                               VALUE SPACE.
               10  WK01-CODE-PU6A-A              PIC X(1)
                                               VALUE SPACE.
               10  WK01-CODE-PU6A-V              PIC X(1)
                                               VALUE SPACE.
               10  WK01-CODE-PU6A-O              PIC X(1)
                                               VALUE SPACE.
               10  WK01-CODE-PU6A       PIC X(4)
                                               VALUE SPACES.
               10  WK01-NAME-PU65-Z              PIC X(1)
                                               VALUE SPACE.
               10  WK01-NAME-PU65-F              PIC X(1)
                                               VALUE SPACE.
               10  WK01-NAME-PU65-A              PIC X(1)
                                               VALUE SPACE.
               10  WK01-NAME-PU65-V              PIC X(1)
                                               VALUE SPACE.
               10  WK01-NAME-PU65-O              PIC X(1)
                                               VALUE SPACE.
               10  WK01-NAME-PU65       PIC X(35)
                                               VALUE SPACES.
               10  WK01-AMT-PU65-Z              PIC X(1)
                                               VALUE SPACE.
               10  WK01-AMT-PU65-F              PIC X(1)
                                               VALUE SPACE.
               10  WK01-AMT-PU65-A              PIC X(1)
                                               VALUE SPACE.
               10  WK01-AMT-PU65-V              PIC X(1)
                                               VALUE SPACE.
               10  WK01-AMT-PU65-O              PIC X(1)
                                               VALUE SPACE.
               10  WK01-AMT-PU65       PIC S9(7)V9(2)
                                               VALUE ZEROS.
               10  WK01-ID-LAST-NINE-PU65-Z              PIC X(1)
                                               VALUE SPACE.
               10  WK01-ID-LAST-NINE-PU65-F              PIC X(1)
                                               VALUE SPACE.
               10  WK01-ID-LAST-NINE-PU65-A              PIC X(1)
                                               VALUE SPACE.
               10  WK01-ID-LAST-NINE-PU65-V              PIC X(1)
                                               VALUE SPACE.
               10  WK01-ID-LAST-NINE-PU65-O              PIC X(1)
                                               VALUE SPACE.
               10  WK01-ID-LAST-NINE-PU65       PIC X(9)
                                               VALUE SPACES.
               10  WK01-KEY-PU65-Z              PIC X(1)
                                               VALUE SPACE.
               10  WK01-KEY-PU65-F              PIC X(1)
                                               VALUE SPACE.
               10  WK01-KEY-PU65-A              PIC X(1)
                                               VALUE SPACE.
               10  WK01-KEY-PU65-V              PIC X(1)
                                               VALUE SPACE.
               10  WK01-KEY-PU65-O              PIC X(1)
                                               VALUE SPACE.
               10  WK01-KEY-PU65       PIC X(35)
                                               VALUE SPACES.
               10  WK01-AMT-PU6A-Z              PIC X(1)
                                               VALUE SPACE.
               10  WK01-AMT-PU6A-F              PIC X(1)
                                               VALUE SPACE.
               10  WK01-AMT-PU6A-A              PIC X(1)
                                               VALUE SPACE.
               10  WK01-AMT-PU6A-V              PIC X(1)
                                               VALUE SPACE.
               10  WK01-AMT-PU6A-O              PIC X(1)
                                               VALUE SPACE.
               10  WK01-AMT-PU6A       PIC S9(7)V9(2)
                                               VALUE ZEROS.
               10  WK01-TYPE-CODE-PU65-Z              PIC X(1)
                                               VALUE SPACE.
               10  WK01-TYPE-CODE-PU65-F              PIC X(1)
                                               VALUE SPACE.
               10  WK01-TYPE-CODE-PU65-A              PIC X(1)
                                               VALUE SPACE.
               10  WK01-TYPE-CODE-PU65-V              PIC X(1)
                                               VALUE SPACE.
               10  WK01-TYPE-CODE-PU65-O              PIC X(1)
                                               VALUE SPACE.
               10  WK01-TYPE-CODE-PU65       PIC X(2)
                                               VALUE SPACES.
               10  WK01-LINE-ADR-PU65-Z              PIC X(1)
                                               VALUE SPACE.
               10  WK01-LINE-ADR-PU65-F              PIC X(1)
                                               VALUE SPACE.
               10  WK01-LINE-ADR-PU65-A              PIC X(1)
                                               VALUE SPACE.
               10  WK01-LINE-ADR-PU65-V              PIC X(1)
                                               VALUE SPACE.
               10  WK01-LINE-ADR-PU65-O              PIC X(1)
                                               VALUE SPACE.
               10  WK01-LINE-ADR-PU65       PIC X(35)
                                               VALUE SPACES.
               10  WK01-AMT-PU6B-Z              PIC X(1)
                                               VALUE SPACE.
               10  WK01-AMT-PU6B-F              PIC X(1)
                                               VALUE SPACE.
               10  WK01-AMT-PU6B-A              PIC X(1)
                                               VALUE SPACE.
               10  WK01-AMT-PU6B-V              PIC X(1)
                                               VALUE SPACE.
               10  WK01-AMT-PU6B-O              PIC X(1)
                                               VALUE SPACE.
               10  WK01-AMT-PU6B       PIC X(12)
                                               VALUE SPACES.
               10  WK01-TO-CODE-PU65-Z              PIC X(1)
                                               VALUE SPACE.
               10  WK01-TO-CODE-PU65-F              PIC X(1)
                                               VALUE SPACE.
               10  WK01-TO-CODE-PU65-A              PIC X(1)
                                               VALUE SPACE.
               10  WK01-TO-CODE-PU65-V              PIC X(1)
                                               VALUE SPACE.
               10  WK01-TO-CODE-PU65-O              PIC X(1)
                                               VALUE SPACE.
               10  WK01-TO-CODE-PU65       PIC X(6)
                                               VALUE SPACES.
               10  WK01-ADR-PU651-Z              PIC X(1)
                                               VALUE SPACE.
               10  WK01-ADR-PU651-F              PIC X(1)
                                               VALUE SPACE.
               10  WK01-ADR-PU651-A              PIC X(1)
                                               VALUE SPACE.
               10  WK01-ADR-PU651-V              PIC X(1)
                                               VALUE SPACE.
               10  WK01-ADR-PU651-O              PIC X(1)
                                               VALUE SPACE.
               10  WK01-ADR-PU651       PIC X(35)
                                               VALUE SPACES.
               10  WK01-TOTAL-AMT-PU65-Z              PIC X(1)
                                               VALUE SPACE.
               10  WK01-TOTAL-AMT-PU65-F              PIC X(1)
                                               VALUE SPACE.
               10  WK01-TOTAL-AMT-PU65-A              PIC X(1)
                                               VALUE SPACE.
               10  WK01-TOTAL-AMT-PU65-V              PIC X(1)
                                               VALUE SPACE.
               10  WK01-TOTAL-AMT-PU65-O              PIC X(1)
                                               VALUE SPACE.
               10  WK01-TOTAL-AMT-PU65       PIC S9(7)V9(2)
                                               VALUE ZEROS.
               10  WK01-PU6A-Z              PIC X(1)
                                               VALUE SPACE.
               10  WK01-PU6A-F              PIC X(1)
                                               VALUE SPACE.
               10  WK01-PU6A-A              PIC X(1)
                                               VALUE SPACE.
               10  WK01-PU6A-V              PIC X(1)
                                               VALUE SPACE.
               10  WK01-PU6A-O              PIC X(1)
                                               VALUE SPACE.
               10  WK01-PU6A       PIC X(6)
                                               VALUE SPACES.
               10  WK01-ADR-PU652-Z              PIC X(1)
                                               VALUE SPACE.
               10  WK01-ADR-PU652-F              PIC X(1)
                                               VALUE SPACE.
               10  WK01-ADR-PU652-A              PIC X(1)
                                               VALUE SPACE.
               10  WK01-ADR-PU652-V              PIC X(1)
                                               VALUE SPACE.
               10  WK01-ADR-PU652-O              PIC X(1)
                                               VALUE SPACE.
               10  WK01-ADR-PU652       PIC X(35)
                                               VALUE SPACES.
               10  WK01-CODE-PU6B11-Z              PIC X(1)
                                               VALUE SPACE.
               10  WK01-CODE-PU6B11-F              PIC X(1)
                                               VALUE SPACE.
               10  WK01-CODE-PU6B11-A              PIC X(1)
                                               VALUE SPACE.
               10  WK01-CODE-PU6B11-V              PIC X(1)
                                               VALUE SPACE.
               10  WK01-CODE-PU6B11-O              PIC X(1)
                                               VALUE SPACE.
               10  WK01-CODE-PU6B11       PIC X(1)
                                               VALUE SPACES.
               10  WK01-ADR-PU653-Z              PIC X(1)
                                               VALUE SPACE.
               10  WK01-ADR-PU653-F              PIC X(1)
                                               VALUE SPACE.
               10  WK01-ADR-PU653-A              PIC X(1)
                                               VALUE SPACE.
               10  WK01-ADR-PU653-V              PIC X(1)
                                               VALUE SPACE.
               10  WK01-ADR-PU653-O              PIC X(1)
                                               VALUE SPACE.
               10  WK01-ADR-PU653       PIC X(35)
                                               VALUE SPACES.
               10  WK01-COUNT-PU65-Z              PIC X(1)
                                               VALUE SPACE.
               10  WK01-COUNT-PU65-F              PIC X(1)
                                               VALUE SPACE.
               10  WK01-COUNT-PU65-A              PIC X(1)
                                               VALUE SPACE.
               10  WK01-COUNT-PU65-V              PIC X(1)
                                               VALUE SPACE.
               10  WK01-COUNT-PU65-O              PIC X(1)
                                               VALUE SPACE.
               10  WK01-COUNT-PU65       PIC 9(4)
                                               VALUE ZEROS.
               10  WK01-INDX-CODE-PU651-Z              PIC X(1)
                                               VALUE SPACE.
               10  WK01-INDX-CODE-PU651-F              PIC X(1)
                                               VALUE SPACE.
               10  WK01-INDX-CODE-PU651-A              PIC X(1)
                                               VALUE SPACE.
               10  WK01-INDX-CODE-PU651-V              PIC X(1)
                                               VALUE SPACE.
               10  WK01-INDX-CODE-PU651-O              PIC X(1)
                                               VALUE SPACE.
               10  WK01-INDX-CODE-PU651       PIC X(10)
                                               VALUE SPACES.
               10  WK01-ADR-PU654-Z              PIC X(1)
                                               VALUE SPACE.
               10  WK01-ADR-PU654-F              PIC X(1)
                                               VALUE SPACE.
               10  WK01-ADR-PU654-A              PIC X(1)
                                               VALUE SPACE.
               10  WK01-ADR-PU654-V              PIC X(1)
                                               VALUE SPACE.
               10  WK01-ADR-PU654-O              PIC X(1)
                                               VALUE SPACE.
               10  WK01-ADR-PU654       PIC X(35)
                                               VALUE SPACES.
               10  WK01-TEXT-FLAG-PU65-Z              PIC X(1)
                                               VALUE SPACE.
               10  WK01-TEXT-FLAG-PU65-F              PIC X(1)
                                               VALUE SPACE.
               10  WK01-TEXT-FLAG-PU65-A              PIC X(1)
                                               VALUE SPACE.
               10  WK01-TEXT-FLAG-PU65-V              PIC X(1)
                                               VALUE SPACE.
               10  WK01-TEXT-FLAG-PU65-O              PIC X(1)
                                               VALUE SPACE.
               10  WK01-TEXT-FLAG-PU65       PIC X(1)
                                               VALUE SPACES.
               10  WK01-CODE-PU6A11-Z              PIC X(1)
                                               VALUE SPACE.
               10  WK01-CODE-PU6A11-F              PIC X(1)
                                               VALUE SPACE.
               10  WK01-CODE-PU6A11-A              PIC X(1)
                                               VALUE SPACE.
               10  WK01-CODE-PU6A11-V              PIC X(1)
                                               VALUE SPACE.
               10  WK01-CODE-PU6A11-O              PIC X(1)
                                               VALUE SPACE.
               10  WK01-CODE-PU6A11       PIC X(6)
                                               VALUE SPACES.
               10  WK01-NAME-PU6A-Z              PIC X(1)
                                               VALUE SPACE.
               10  WK01-NAME-PU6A-F              PIC X(1)
                                               VALUE SPACE.
               10  WK01-NAME-PU6A-A              PIC X(1)
                                               VALUE SPACE.
               10  WK01-NAME-PU6A-V              PIC X(1)
                                               VALUE SPACE.
               10  WK01-NAME-PU6A-O              PIC X(1)
                                               VALUE SPACE.
               10  WK01-NAME-PU6A       PIC X(18)
                                               VALUE SPACES.
               10  WK01-CODE-PU6B-Z              PIC X(1)
                                               VALUE SPACE.
               10  WK01-CODE-PU6B-F              PIC X(1)
                                               VALUE SPACE.
               10  WK01-CODE-PU6B-A              PIC X(1)
                                               VALUE SPACE.
               10  WK01-CODE-PU6B-V              PIC X(1)
                                               VALUE SPACE.
               10  WK01-CODE-PU6B-O              PIC X(1)
                                               VALUE SPACE.
               10  WK01-CODE-PU6B       PIC X(2)
                                               VALUE SPACES.
               10  WK01-CODE-PU6C-Z              PIC X(1)
                                               VALUE SPACE.
               10  WK01-CODE-PU6C-F              PIC X(1)
                                               VALUE SPACE.
               10  WK01-CODE-PU6C-A              PIC X(1)
                                               VALUE SPACE.
               10  WK01-CODE-PU6C-V              PIC X(1)
                                               VALUE SPACE.
               10  WK01-CODE-PU6C-O              PIC X(1)
                                               VALUE SPACE.
               10  WK01-CODE-PU6C       PIC X(10)
                                               VALUE SPACES.
               10  WK01-CODE-PU6D-Z              PIC X(1)
                                               VALUE SPACE.
               10  WK01-CODE-PU6D-F              PIC X(1)
                                               VALUE SPACE.
               10  WK01-CODE-PU6D-A              PIC X(1)
                                               VALUE SPACE.
               10  WK01-CODE-PU6D-V              PIC X(1)
                                               VALUE SPACE.
               10  WK01-CODE-PU6D-O              PIC X(1)
                                               VALUE SPACE.
               10  WK01-CODE-PU6D       PIC X(2)
                                               VALUE SPACES.
               10  WK01-CODE-PU6A12-Z              PIC X(1)
                                               VALUE SPACE.
               10  WK01-CODE-PU6A12-F              PIC X(1)
                                               VALUE SPACE.
               10  WK01-CODE-PU6A12-A              PIC X(1)
                                               VALUE SPACE.
               10  WK01-CODE-PU6A12-V              PIC X(1)
                                               VALUE SPACE.
               10  WK01-CODE-PU6A12-O              PIC X(1)
                                               VALUE SPACE.
               10  WK01-CODE-PU6A12       PIC X(1)
                                               VALUE SPACES.
               10  WK01-INDX-CODE-PU652-Z              PIC X(1)
                                               VALUE SPACE.
               10  WK01-INDX-CODE-PU652-F              PIC X(1)
                                               VALUE SPACE.
               10  WK01-INDX-CODE-PU652-A              PIC X(1)
                                               VALUE SPACE.
               10  WK01-INDX-CODE-PU652-V              PIC X(1)
                                               VALUE SPACE.
               10  WK01-INDX-CODE-PU652-O              PIC X(1)
                                               VALUE SPACE.
               10  WK01-INDX-CODE-PU652       PIC X(10)
                                               VALUE SPACES.
               10  WK01-CODE-PU6E-Z              PIC X(1)
                                               VALUE SPACE.
               10  WK01-CODE-PU6E-F              PIC X(1)
                                               VALUE SPACE.
               10  WK01-CODE-PU6E-A              PIC X(1)
                                               VALUE SPACE.
               10  WK01-CODE-PU6E-V              PIC X(1)
                                               VALUE SPACE.
               10  WK01-CODE-PU6E-O              PIC X(1)
                                               VALUE SPACE.
               10  WK01-CODE-PU6E       PIC X(6)
                                               VALUE SPACES.
               10  WK01-CODE-PU6B12-Z              PIC X(1)
                                               VALUE SPACE.
               10  WK01-CODE-PU6B12-F              PIC X(1)
                                               VALUE SPACE.
               10  WK01-CODE-PU6B12-A              PIC X(1)
                                               VALUE SPACE.
               10  WK01-CODE-PU6B12-V              PIC X(1)
                                               VALUE SPACE.
               10  WK01-CODE-PU6B12-O              PIC X(1)
                                               VALUE SPACE.
               10  WK01-CODE-PU6B12       PIC X(6)
                                               VALUE SPACES.
               10  WK01-CODE-PU6F-Z              PIC X(1)
                                               VALUE SPACE.
               10  WK01-CODE-PU6F-F              PIC X(1)
                                               VALUE SPACE.
               10  WK01-CODE-PU6F-A              PIC X(1)
                                               VALUE SPACE.
               10  WK01-CODE-PU6F-V              PIC X(1)
                                               VALUE SPACE.
               10  WK01-CODE-PU6F-O              PIC X(1)
                                               VALUE SPACE.
               10  WK01-CODE-PU6F       PIC X(6)
                                               VALUE SPACES.
               10  WK01-CODE-PU6G-Z              PIC X(1)
                                               VALUE SPACE.
               10  WK01-CODE-PU6G-F              PIC X(1)
                                               VALUE SPACE.
               10  WK01-CODE-PU6G-A              PIC X(1)
                                               VALUE SPACE.
               10  WK01-CODE-PU6G-V              PIC X(1)
                                               VALUE SPACE.
               10  WK01-CODE-PU6G-O              PIC X(1)
                                               VALUE SPACE.
               10  WK01-CODE-PU6G       PIC X(6)
                                               VALUE SPACES.
               10  WK01-CODE-PU6H-Z              PIC X(1)
                                               VALUE SPACE.
               10  WK01-CODE-PU6H-F              PIC X(1)
                                               VALUE SPACE.
               10  WK01-CODE-PU6H-A              PIC X(1)
                                               VALUE SPACE.
               10  WK01-CODE-PU6H-V              PIC X(1)
                                               VALUE SPACE.
               10  WK01-CODE-PU6H-O              PIC X(1)
                                               VALUE SPACE.
               10  WK01-CODE-PU6H       PIC X(6)
                                               VALUE SPACES.
               10  WK01-CODE-PU6I-Z              PIC X(1)
                                               VALUE SPACE.
               10  WK01-CODE-PU6I-F              PIC X(1)
                                               VALUE SPACE.
               10  WK01-CODE-PU6I-A              PIC X(1)
                                               VALUE SPACE.
               10  WK01-CODE-PU6I-V              PIC X(1)
                                               VALUE SPACE.
               10  WK01-CODE-PU6I-O              PIC X(1)
                                               VALUE SPACE.
               10  WK01-CODE-PU6I       PIC X(6)
                                               VALUE SPACES.
               10  WK01-ACTN-CODE-PU65-Z              PIC X(1)
                                               VALUE SPACE.
               10  WK01-ACTN-CODE-PU65-F              PIC X(1)
                                               VALUE SPACE.
               10  WK01-ACTN-CODE-PU65-A              PIC X(1)
                                               VALUE SPACE.
               10  WK01-ACTN-CODE-PU65-V              PIC X(1)
                                               VALUE SPACE.
               10  WK01-ACTN-CODE-PU65-O              PIC X(1)
                                               VALUE SPACE.
               10  WK01-ACTN-CODE-PU65       PIC X(1)
                                               VALUE SPACES.
               10  WK01-NMBR-PU6A-Z              PIC X(1)
                                               VALUE SPACE.
               10  WK01-NMBR-PU6A-F              PIC X(1)
                                               VALUE SPACE.
               10  WK01-NMBR-PU6A-A              PIC X(1)
                                               VALUE SPACE.
               10  WK01-NMBR-PU6A-V              PIC X(1)
                                               VALUE SPACE.
               10  WK01-NMBR-PU6A-O              PIC X(1)
                                               VALUE SPACE.
               10  WK01-NMBR-PU6A       PIC 9(4)
                                               VALUE ZEROS.
               10  WK01-CODE-PU6J-Z              PIC X(1)
                                               VALUE SPACE.
               10  WK01-CODE-PU6J-F              PIC X(1)
                                               VALUE SPACE.
               10  WK01-CODE-PU6J-A              PIC X(1)
                                               VALUE SPACE.
               10  WK01-CODE-PU6J-V              PIC X(1)
                                               VALUE SPACE.
               10  WK01-CODE-PU6J-O              PIC X(1)
                                               VALUE SPACE.
               10  WK01-CODE-PU6J       PIC X(8)
                                               VALUE SPACES.
               10  WK01-MEA-CODE-PU65-Z              PIC X(1)
                                               VALUE SPACE.
               10  WK01-MEA-CODE-PU65-F              PIC X(1)
                                               VALUE SPACE.
               10  WK01-MEA-CODE-PU65-A              PIC X(1)
                                               VALUE SPACE.
               10  WK01-MEA-CODE-PU65-V              PIC X(1)
                                               VALUE SPACE.
               10  WK01-MEA-CODE-PU65-O              PIC X(1)
                                               VALUE SPACE.
               10  WK01-MEA-CODE-PU65       PIC X(3)
                                               VALUE SPACES.
               10  WK01-PU65-Z              PIC X(1)
                                               VALUE SPACE.
               10  WK01-PU65-F              PIC X(1)
                                               VALUE SPACE.
               10  WK01-PU65-A              PIC X(1)
                                               VALUE SPACE.
               10  WK01-PU65-V              PIC X(1)
                                               VALUE SPACE.
               10  WK01-PU65-O              PIC X(1)
                                               VALUE SPACE.
               10  WK01-PU65       PIC X(12)
                                               VALUE SPACES.
               10  WK01-PRICE-PU65-Z              PIC X(1)
                                               VALUE SPACE.
               10  WK01-PRICE-PU65-F              PIC X(1)
                                               VALUE SPACE.
               10  WK01-PRICE-PU65-A              PIC X(1)
                                               VALUE SPACE.
               10  WK01-PRICE-PU65-V              PIC X(1)
                                               VALUE SPACE.
               10  WK01-PRICE-PU65-O              PIC X(1)
                                               VALUE SPACE.
               10  WK01-PRICE-PU65       PIC X(12)
                                               VALUE SPACES.
               10  WK01-UNIT-PRICE-PU65-Z              PIC X(1)
                                               VALUE SPACE.
               10  WK01-UNIT-PRICE-PU65-F              PIC X(1)
                                               VALUE SPACE.
               10  WK01-UNIT-PRICE-PU65-A              PIC X(1)
                                               VALUE SPACE.
               10  WK01-UNIT-PRICE-PU65-V              PIC X(1)
                                               VALUE SPACE.
               10  WK01-UNIT-PRICE-PU65-O              PIC X(1)
                                               VALUE SPACE.
               10  WK01-UNIT-PRICE-PU65       PIC S9(7)V9(2)
                                               VALUE ZEROS.
               10  WK01-IND-PU6C-Z              PIC X(1)
                                               VALUE SPACE.
               10  WK01-IND-PU6C-F              PIC X(1)
                                               VALUE SPACE.
               10  WK01-IND-PU6C-A              PIC X(1)
                                               VALUE SPACE.
               10  WK01-IND-PU6C-V              PIC X(1)
                                               VALUE SPACE.
               10  WK01-IND-PU6C-O              PIC X(1)
                                               VALUE SPACE.
               10  WK01-IND-PU6C       PIC X(1)
                                               VALUE SPACES.
               10  WK01-FLAG-PU6A-Z              PIC X(1)
                                               VALUE SPACE.
               10  WK01-FLAG-PU6A-F              PIC X(1)
                                               VALUE SPACE.
               10  WK01-FLAG-PU6A-A              PIC X(1)
                                               VALUE SPACE.
               10  WK01-FLAG-PU6A-V              PIC X(1)
                                               VALUE SPACE.
               10  WK01-FLAG-PU6A-O              PIC X(1)
                                               VALUE SPACE.
               10  WK01-FLAG-PU6A       PIC X(1)
                                               VALUE SPACES.
               10  WK01-CMPLT-IND-PU65-Z              PIC X(1)
                                               VALUE SPACE.
               10  WK01-CMPLT-IND-PU65-F              PIC X(1)
                                               VALUE SPACE.
               10  WK01-CMPLT-IND-PU65-A              PIC X(1)
                                               VALUE SPACE.
               10  WK01-CMPLT-IND-PU65-V              PIC X(1)
                                               VALUE SPACE.
               10  WK01-CMPLT-IND-PU65-O              PIC X(1)
                                               VALUE SPACE.
               10  WK01-CMPLT-IND-PU65       PIC X(1)
                                               VALUE SPACES.
               10  WK01-IND-PU65-Z              PIC X(1)
                                               VALUE SPACE.
               10  WK01-IND-PU65-F              PIC X(1)
                                               VALUE SPACE.
               10  WK01-IND-PU65-A              PIC X(1)
                                               VALUE SPACE.
               10  WK01-IND-PU65-V              PIC X(1)
                                               VALUE SPACE.
               10  WK01-IND-PU65-O              PIC X(1)
                                               VALUE SPACE.
               10  WK01-IND-PU65       PIC X(1)
                                               VALUE SPACES.
               10  WK01-TMPLT-CODE-PU65-Z              PIC X(1)
                                               VALUE SPACE.
               10  WK01-TMPLT-CODE-PU65-F              PIC X(1)
                                               VALUE SPACE.
               10  WK01-TMPLT-CODE-PU65-A              PIC X(1)
                                               VALUE SPACE.
               10  WK01-TMPLT-CODE-PU65-V              PIC X(1)
                                               VALUE SPACE.
               10  WK01-TMPLT-CODE-PU65-O              PIC X(1)
                                               VALUE SPACE.
               10  WK01-TMPLT-CODE-PU65       PIC X(3)
                                               VALUE SPACES.
               10  WK01-PRNTR-CODE-PU65-Z              PIC X(1)
                                               VALUE SPACE.
               10  WK01-PRNTR-CODE-PU65-F              PIC X(1)
                                               VALUE SPACE.
               10  WK01-PRNTR-CODE-PU65-A              PIC X(1)
                                               VALUE SPACE.
               10  WK01-PRNTR-CODE-PU65-V              PIC X(1)
                                               VALUE SPACE.
               10  WK01-PRNTR-CODE-PU65-O              PIC X(1)
                                               VALUE SPACE.
               10  WK01-PRNTR-CODE-PU65       PIC X(4)
                                               VALUE SPACES.
               10  WK01-FLAG-PU65-Z              PIC X(1)
                                               VALUE SPACE.
               10  WK01-FLAG-PU65-F              PIC X(1)
                                               VALUE SPACE.
               10  WK01-FLAG-PU65-A              PIC X(1)
                                               VALUE SPACE.
               10  WK01-FLAG-PU65-V              PIC X(1)
                                               VALUE SPACE.
               10  WK01-FLAG-PU65-O              PIC X(1)
                                               VALUE SPACE.
               10  WK01-FLAG-PU65       PIC X(1)
                                               VALUE SPACES.
               10  WK01-IND-PU6B-Z              PIC X(1)
                                               VALUE SPACE.
               10  WK01-IND-PU6B-F              PIC X(1)
                                               VALUE SPACE.
               10  WK01-IND-PU6B-A              PIC X(1)
                                               VALUE SPACE.
               10  WK01-IND-PU6B-V              PIC X(1)
                                               VALUE SPACE.
               10  WK01-IND-PU6B-O              PIC X(1)
                                               VALUE SPACE.
               10  WK01-IND-PU6B       PIC X(1)
                                               VALUE SPACES.
               10  WK01-IND-PU6A-Z              PIC X(1)
                                               VALUE SPACE.
               10  WK01-IND-PU6A-F              PIC X(1)
                                               VALUE SPACE.
               10  WK01-IND-PU6A-A              PIC X(1)
                                               VALUE SPACE.
               10  WK01-IND-PU6A-V              PIC X(1)
                                               VALUE SPACE.
               10  WK01-IND-PU6A-O              PIC X(1)
                                               VALUE SPACE.
               10  WK01-IND-PU6A       PIC X(1)
                                               VALUE SPACES.
               10  WK01-DATE-PU6A-Z              PIC X(1)
                                               VALUE SPACE.
               10  WK01-DATE-PU6A-F              PIC X(1)
                                               VALUE SPACE.
               10  WK01-DATE-PU6A-A              PIC X(1)
                                               VALUE SPACE.
               10  WK01-DATE-PU6A-V              PIC X(1)
                                               VALUE SPACE.
               10  WK01-DATE-PU6A-O              PIC X(1)
                                               VALUE SPACE.
               10  WK01-DATE-PU6A       PIC X(6)
                                               VALUE SPACES.
               10  WK01-FAX-EXISTS-IND-PU65-Z              PIC X(1)
                                               VALUE SPACE.
               10  WK01-FAX-EXISTS-IND-PU65-F              PIC X(1)
                                               VALUE SPACE.
               10  WK01-FAX-EXISTS-IND-PU65-A              PIC X(1)
                                               VALUE SPACE.
               10  WK01-FAX-EXISTS-IND-PU65-V              PIC X(1)
                                               VALUE SPACE.
               10  WK01-FAX-EXISTS-IND-PU65-O              PIC X(1)
                                               VALUE SPACE.
               10  WK01-FAX-EXISTS-IND-PU65       PIC X(1)
                                               VALUE SPACES.
               10  WK01-ZZMESSAGE-Z              PIC X(1)
                                               VALUE SPACE.
               10  WK01-ZZMESSAGE-F              PIC X(1)
                                               VALUE SPACE.
               10  WK01-ZZMESSAGE-A              PIC X(1)
                                               VALUE SPACE.
               10  WK01-ZZMESSAGE-V              PIC X(1)
                                               VALUE SPACE.
               10  WK01-ZZMESSAGE-O              PIC X(1)
                                               VALUE SPACE.
               10  WK01-ZZMESSAGE       PIC X(160)
                                               VALUE SPACES.
               10  WK01-PASSED-ONE-Z              PIC X(1)
                                               VALUE SPACE.
               10  WK01-PASSED-ONE-F              PIC X(1)
                                               VALUE SPACE.
               10  WK01-PASSED-ONE-A              PIC X(1)
                                               VALUE SPACE.
               10  WK01-PASSED-ONE-V              PIC X(1)
                                               VALUE SPACE.
               10  WK01-PASSED-ONE-O              PIC X(1)
                                               VALUE SPACE.
               10  WK01-PASSED-ONE       PIC X(32)
                                               VALUE SPACES.
               10  WK01-MAP-RESPONSE-Z              PIC X(1)
                                               VALUE SPACE.
               10  WK01-MAP-RESPONSE-F              PIC X(1)
                                               VALUE SPACE.
               10  WK01-MAP-RESPONSE-A              PIC X(1)
                                               VALUE SPACE.
               10  WK01-MAP-RESPONSE-V              PIC X(1)
                                               VALUE SPACE.
               10  WK01-MAP-RESPONSE-O              PIC X(1)
                                               VALUE SPACE.
               10  WK01-MAP-RESPONSE       PIC X(8)
                                               VALUE SPACES.
               10  WK01-TEXT-SY00-Z              PIC X(1)
                                               VALUE SPACE.
               10  WK01-TEXT-SY00-F              PIC X(1)
                                               VALUE SPACE.
               10  WK01-TEXT-SY00-A              PIC X(1)
                                               VALUE SPACE.
               10  WK01-TEXT-SY00-V              PIC X(1)
                                               VALUE SPACE.
               10  WK01-TEXT-SY00-O              PIC X(1)
                                               VALUE SPACE.
               10  WK01-TEXT-SY00       PIC X(14)
                                               VALUE SPACES.
