    ***Created by Convert/DC version V8R03 on 12/04/00 at 11:00***

      *%--------------------------------------------------------------%*
           MOVE DCLINK-MESSAGE  TO WK01-ZZMESSAGE.
      *%--------------------------------------------------------------%*
           MOVE AGR-DATE OF ADSO-APPLICATION-GLOBAL-RECORD TO WK01-DATE.
      *%--------------------------------------------------------------%*
           MOVE AGR-USER-ID OF ADSO-APPLICATION-GLOBAL-RECORD TO
                WK01-USER-ID.
      *%--------------------------------------------------------------%*
           MOVE AGR-FUNC-DESCRIPTION OF ADSO-APPLICATION-GLOBAL-RECORD
                TO WK01-FUNC-DESCRIPTION.
      *%--------------------------------------------------------------%*
           MOVE AGR-PASSED-ONE OF ADSO-APPLICATION-GLOBAL-RECORD TO
                WK01-PASSED-ONE.
      *%--------------------------------------------------------------%*
           MOVE AGR-MAP-RESPONSE OF ADSO-APPLICATION-GLOBAL-RECORD TO
                WK01-MAP-RESPONSE.
      *%--------------------------------------------------------------%*
           MOVE TRMNL-ID-SY00 OF FSYWG00M TO WK01-ID-SY00.
      *%--------------------------------------------------------------%*
           MOVE FULL-NAME-6001-SY00 OF FSYWG00M TO WK01-NAME-6001-SY00.
      *%--------------------------------------------------------------%*
           MOVE AM-PM-FLAG-SY00 OF FSYWG00M TO WK01-PM-FLAG-SY00.
      *%--------------------------------------------------------------%*
           MOVE CURR-RSPNS-ID-SY00 OF FSYWG00M TO WK01-RSPNS-ID-SY00.
      *%--------------------------------------------------------------%*
           MOVE ERROR-TEXT-SY00 OF FSYWG00M TO WK01-TEXT-SY00.
      *%--------------------------------------------------------------%*
           MOVE PAGE-STATUS-CODE-SY00 OF FSYWG00M TO
                WK01-STATUS-CODE-SY00.
      *%--------------------------------------------------------------%*
           MOVE WORK-HH-MM-TIME-SY00 OF FSYWG00M TO
                WK01-HH-MM-TIME-SY00.
      *%--------------------------------------------------------------%*
           MOVE RQST-PO-CLASS-CODE-PU39 OF FPUWK39 TO
                WK01-PO-CLASS-CODE-PU39.
      *%--------------------------------------------------------------%*
           MOVE ACTN-CODE-PU39 OF FPUWM39(0001) TO WK01-CODE-PU391.
      *%--------------------------------------------------------------%*
           MOVE ACTN-CODE-PU39 OF FPUWM39(0002) TO WK01-CODE-PU392.
      *%--------------------------------------------------------------%*
           MOVE ACTN-CODE-PU39 OF FPUWM39(0003) TO WK01-CODE-PU393.
      *%--------------------------------------------------------------%*
           MOVE ACTN-CODE-PU39 OF FPUWM39(0004) TO WK01-CODE-PU394.
      *%--------------------------------------------------------------%*
           MOVE ACTN-CODE-PU39 OF FPUWM39(0005) TO WK01-CODE-PU395.
      *%--------------------------------------------------------------%*
           MOVE ACTN-CODE-PU39 OF FPUWM39(0006) TO WK01-CODE-PU396.
      *%--------------------------------------------------------------%*
           MOVE PO-CLASS-CODE-4084-PU39 OF FPUWM39(0001) TO
                WK01-CLASS-CODE-4084-PU391.
      *%--------------------------------------------------------------%*
           MOVE PO-CLASS-CODE-4084-PU39 OF FPUWM39(0002) TO
                WK01-CLASS-CODE-4084-PU392.
      *%--------------------------------------------------------------%*
           MOVE PO-CLASS-CODE-4084-PU39 OF FPUWM39(0003) TO
                WK01-CLASS-CODE-4084-PU393.
      *%--------------------------------------------------------------%*
           MOVE PO-CLASS-CODE-4084-PU39 OF FPUWM39(0004) TO
                WK01-CLASS-CODE-4084-PU394.
      *%--------------------------------------------------------------%*
           MOVE PO-CLASS-CODE-4084-PU39 OF FPUWM39(0005) TO
                WK01-CLASS-CODE-4084-PU395.
      *%--------------------------------------------------------------%*
           MOVE PO-CLASS-CODE-4084-PU39 OF FPUWM39(0006) TO
                WK01-CLASS-CODE-4084-PU396.
      *%--------------------------------------------------------------%*
           MOVE PO-CLASS-DESC-4084-PU39 OF FPUWM39(0001) TO
                WK01-CLASS-DESC-4084-PU391.
      *%--------------------------------------------------------------%*
           MOVE PO-CLASS-DESC-4084-PU39 OF FPUWM39(0002) TO
                WK01-CLASS-DESC-4084-PU392.
      *%--------------------------------------------------------------%*
           MOVE PO-CLASS-DESC-4084-PU39 OF FPUWM39(0003) TO
                WK01-CLASS-DESC-4084-PU393.
      *%--------------------------------------------------------------%*
           MOVE PO-CLASS-DESC-4084-PU39 OF FPUWM39(0004) TO
                WK01-CLASS-DESC-4084-PU394.
      *%--------------------------------------------------------------%*
           MOVE PO-CLASS-DESC-4084-PU39 OF FPUWM39(0005) TO
                WK01-CLASS-DESC-4084-PU395.
      *%--------------------------------------------------------------%*
           MOVE PO-CLASS-DESC-4084-PU39 OF FPUWM39(0006) TO
                WK01-CLASS-DESC-4084-PU396.
      *%--------------------------------------------------------------%*
           MOVE START-DATE-4084-PU39 OF FPUWM39(0001) TO
                WK01-DATE-4084-PU391.
      *%--------------------------------------------------------------%*
           MOVE START-DATE-4084-PU39 OF FPUWM39(0002) TO
                WK01-DATE-4084-PU392.
      *%--------------------------------------------------------------%*
           MOVE START-DATE-4084-PU39 OF FPUWM39(0003) TO
                WK01-DATE-4084-PU393.
      *%--------------------------------------------------------------%*
           MOVE START-DATE-4084-PU39 OF FPUWM39(0004) TO
                WK01-DATE-4084-PU394.
      *%--------------------------------------------------------------%*
           MOVE START-DATE-4084-PU39 OF FPUWM39(0005) TO
                WK01-DATE-4084-PU395.
      *%--------------------------------------------------------------%*
           MOVE START-DATE-4084-PU39 OF FPUWM39(0006) TO
                WK01-DATE-4084-PU396.
      *%--------------------------------------------------------------%*
           MOVE END-DATE-4084-PU39 OF FPUWM39(0001) TO
                WK01-DATE-4084-PU3A1.
      *%--------------------------------------------------------------%*
           MOVE END-DATE-4084-PU39 OF FPUWM39(0002) TO
                WK01-DATE-4084-PU3A2.
      *%--------------------------------------------------------------%*
           MOVE END-DATE-4084-PU39 OF FPUWM39(0003) TO
                WK01-DATE-4084-PU3A3.
      *%--------------------------------------------------------------%*
           MOVE END-DATE-4084-PU39 OF FPUWM39(0004) TO
                WK01-DATE-4084-PU3A4.
      *%--------------------------------------------------------------%*
           MOVE END-DATE-4084-PU39 OF FPUWM39(0005) TO
                WK01-DATE-4084-PU3A5.
      *%--------------------------------------------------------------%*
           MOVE END-DATE-4084-PU39 OF FPUWM39(0006) TO
                WK01-DATE-4084-PU3A6.
      *%--------------------------------------------------------------%*
           MOVE ACTVY-DATE-4084-PU39 OF FPUWM39(0001) TO
                WK01-DATE-4084-PU3B1.
      *%--------------------------------------------------------------%*
           MOVE ACTVY-DATE-4084-PU39 OF FPUWM39(0002) TO
                WK01-DATE-4084-PU3B2.
      *%--------------------------------------------------------------%*
           MOVE ACTVY-DATE-4084-PU39 OF FPUWM39(0004) TO
                WK01-DATE-4084-PU3B4.
      *%--------------------------------------------------------------%*
           MOVE ACTVY-DATE-4084-PU39 OF FPUWM39(0005) TO
                WK01-DATE-4084-PU3B5.
      *%--------------------------------------------------------------%*
           MOVE ACTVY-DATE-4084-PU39 OF FPUWM39(0006) TO
                WK01-DATE-4084-PU3B6.
      *%--------------------------------------------------------------%*
           MOVE ACTVY-DATE-4084-PU39 OF FPUWM39(0003) TO
                WK01-DATE-4084-PU3B3.
      *%--------------------------------------------------------------%*
           MOVE MAX-AMT-4084-PU39 OF FPUWM39(0001) TO
                WK01-AMT-4084-PU391.
      *%--------------------------------------------------------------%*
           MOVE MAX-AMT-4084-PU39 OF FPUWM39(0002) TO
                WK01-AMT-4084-PU392.
      *%--------------------------------------------------------------%*
           MOVE MAX-AMT-4084-PU39 OF FPUWM39(0003) TO
                WK01-AMT-4084-PU393.
      *%--------------------------------------------------------------%*
           MOVE MAX-AMT-4084-PU39 OF FPUWM39(0004) TO
                WK01-AMT-4084-PU394.
      *%--------------------------------------------------------------%*
           MOVE MAX-AMT-4084-PU39 OF FPUWM39(0005) TO
                WK01-AMT-4084-PU395.
      *%--------------------------------------------------------------%*
           MOVE MAX-AMT-4084-PU39 OF FPUWM39(0006) TO
                WK01-AMT-4084-PU396.
