      *---------------------------------------------------------------*
      *                                                               *
      *  RECORD FPUWK14                              04/24/00  12:39  *
      *                                                               *
      *---------------------------------------------------------------*
       01  FPUWK14.
           02  PO-NMBR-4083-PU14                        PIC X(8).
           02  CHNG-SEQ-NMBR-4096-PU14                  PIC X(3).
           02  ITEM-NMBR-4085-PU14                      PIC X(4).
           02  RQST-SEQ-NMBR-PU14                       PIC X(4).
           02  OPEN-FLD-FLAG-PU14                       PIC X(1).
