      *---------------------------------------------------------------*
      *                                                               *
      *  RECORD FPUWK33                              04/24/00  12:38  *
      *                                                               *
      *---------------------------------------------------------------*
       01  FPUWK33.
           02  RQST-UNIT-MEA-PU33                       PIC X(3).
