      *---------------------------------------------------------------*
      *                                                               *
      *  RECORD FPUWK37                              04/24/00  12:39  *
      *                                                               *
      *---------------------------------------------------------------*
       01  FPUWK37.
           02  RQST-TRNST-RISK-PU37                     PIC X(2).
