      *---------------------------------------------------------------*
      *                                                               *
      *  RECORD FPUWK38                              04/24/00  12:39  *
      *                                                               *
      *---------------------------------------------------------------*
       01  FPUWK38.
           02  RQST-PAY-MTHD-PU38                       PIC X(2).
