      *---------------------------------------------------------------*
      *                                                               *
      *  RECORD FPUWK02                              04/24/00  12:38  *
      *                                                               *
      *---------------------------------------------------------------*
       01  FPUWK02.
           02  RQST-CODE-4070-PU02                      PIC X(8).
