      *---------------------------------------------------------------*
      *                                                               *
      *  RECORD FPUWK61                              04/24/00  12:37  *
      *                                                               *
      *---------------------------------------------------------------*
       01  FPUWK61.
           02  RQST-CLAUSE-CODE-PU61                    PIC X(8).
