      *%---------------------------------------------------------------*
      *%                                                               *
      *%                   200-FSYIU01 ROUTINE                         *
      *%                                                               *
      *%---------------------------------------------------------------*
       200-FSYIU01.

      ******************************************************************
      *******
      ***  LINK TO ELEMENT SECURITY ASSEMBLER PROGRAM
      ******************************************************************
      *******
      *** EVENTUALLY THIS PROCESS FSYIU01 WILL BE DELETED OUT OF THE ENT
      *RIRE SYSTEM
      *LINK PROGRAM 'FZYAU01'.
      ******************************************************************
      *******
      *

       200-FSYIU01-EXIT.
           EXIT.
