      *---------------------------------------------------------------*
      *                                                               *
      *  RECORD FSYWG03D                             04/24/00  12:55  *
      *                                                               *
      *---------------------------------------------------------------*
       01  FSYWG03D.
           02  COA-CODE-4000-SY03                       PIC X(1).
           02  FIMS-ENTY-CODE-4011-SY03                 PIC X(8).
           02  ELMNT-NAME-4011-SY03                     PIC X(30).
           02  OPTN-1-CODE-4012-SY03                    PIC X(8).
           02  OPTN-2-CODE-4012-SY03                    PIC X(8).
           02  LEVEL-NMBR-4012-SY03                     PIC 9(2).
