      *---------------------------------------------------------------*
      *                                                               *
      *  RECORD FSYWG02                              04/24/00  12:52  *
      *                                                               *
      *---------------------------------------------------------------*
       01  FSYWG02.
           02  GROUP-LOCK-SY02 OCCURS 24.
               03  LTERM-ID-SY02                        PIC X(8).
               03  COUNT-LOCK-SY02                      PIC 9(3).
           02  CODE-DB-STATUS-SY02            COMP      PIC S9(8).
