      *---------------------------------------------------------------*
      *                                                               *
      *  RECORD FSYWG99S                             04/24/00  12:52  *
      *                                                               *
      *---------------------------------------------------------------*
       01  FSYWG99S.
           02  RSP-NAME-SY99                            PIC X(8).
           02  PAGE-FLAG-SY99                           PIC X(1).
           02  PAGE-NUM-SY99                  COMP-3    PIC S9(4).
           02  SCRTCH-FILLER-SY99                       PIC X(1760).
