      *---------------------------------------------------------------*
      *                                                               *
      *  RECORD FSYWD15                              04/24/00  13:18  *
      *                                                               *
      *---------------------------------------------------------------*
       01  FSYWD15.
           02  HOLD-INDX-KEY-SY15                       PIC X(10).
