       01  FTADU05-CURSOR-CODES.
           10  DBLINK-S-4401-4406-N-CODE
                                        PIC X(1)        VALUE 'C'.
           10  DBLINK-S-4405-4408-P-CODE
                                        PIC X(1)        VALUE 'C'.
           10  DBLINK-S-4405-4408-N-CODE
                                        PIC X(1)        VALUE 'C'.
           10  DBLINK-S-4205-4211-N-CODE
                                        PIC X(1)        VALUE 'C'.
           10  DBLINK-S-4215-4205-N-CODE
                                        PIC X(1)        VALUE 'C'.
           10  DBLINK-S-4402-4403-N-CODE
                                        PIC X(1)        VALUE 'C'.
           10  DBLINK-S-4000-4076-P-CODE
                                        PIC X(1)        VALUE 'C'.
           10  DBLINK-S-4180-4181-P-CODE
                                        PIC X(1)        VALUE 'C'.
