       01  FTADU08-CURSOR-CODES.
           10  DBLINK-S-4410-4411-P-CODE
                                        PIC X(1)        VALUE 'C'.
           10  DBLINK-S-4410-4411-N-CODE
                                        PIC X(1)        VALUE 'C'.
           10  DBLINK-S-4205-4211-N-CODE
                                        PIC X(1)        VALUE 'C'.
           10  DBLINK-S-4215-4205-N-CODE
                                        PIC X(1)        VALUE 'C'.
           10  DBLINK-S-4401-4406-N-CODE
                                        PIC X(1)        VALUE 'C'.
           10  DBLINK-S-4000-4076-P-CODE
                                        PIC X(1)        VALUE 'C'.
           10  DBLINK-S-4033-4062-P-CODE
                                        PIC X(1)        VALUE 'C'.
           10  DBLINK-S-4180-4181-P-CODE
                                        PIC X(1)        VALUE 'C'.
           10  DBLINK-S-6117-6157-P-CODE
                                        PIC X(1)        VALUE 'C'.
           10  DBLINK-S-6311-6186-P-CODE
                                        PIC X(1)        VALUE 'C'.
