    ***Created by Convert/DC version V8R03 on 12/05/00 at 14:00***

      *%--------------------------------------------------------------%*
           MOVE DCLINK-MESSAGE  TO WK01-ZZMESSAGE.
      *%--------------------------------------------------------------%*
           MOVE AGR-DATE OF ADSO-APPLICATION-GLOBAL-RECORD TO WK01-DATE.
      *%--------------------------------------------------------------%*
           MOVE AGR-USER-ID OF ADSO-APPLICATION-GLOBAL-RECORD TO
                WK01-USER-ID.
      *%--------------------------------------------------------------%*
           MOVE AGR-FUNC-DESCRIPTION OF ADSO-APPLICATION-GLOBAL-RECORD
                TO WK01-FUNC-DESCRIPTION.
      *%--------------------------------------------------------------%*
           MOVE AGR-PASSED-ONE OF ADSO-APPLICATION-GLOBAL-RECORD TO
                WK01-PASSED-ONE.
      *%--------------------------------------------------------------%*
           MOVE AGR-MAP-RESPONSE OF ADSO-APPLICATION-GLOBAL-RECORD TO
                WK01-MAP-RESPONSE.
      *%--------------------------------------------------------------%*
           MOVE TRMNL-ID-SY00 OF FSYWG00M TO WK01-ID-SY00.
      *%--------------------------------------------------------------%*
           MOVE FULL-NAME-6001-SY00 OF FSYWG00M TO WK01-NAME-6001-SY00.
      *%--------------------------------------------------------------%*
           MOVE AM-PM-FLAG-SY00 OF FSYWG00M TO WK01-PM-FLAG-SY00.
      *%--------------------------------------------------------------%*
           MOVE CURR-RSPNS-ID-SY00 OF FSYWG00M TO WK01-RSPNS-ID-SY00.
      *%--------------------------------------------------------------%*
           MOVE ERROR-TEXT-SY00 OF FSYWG00M TO WK01-TEXT-SY00.
      *%--------------------------------------------------------------%*
           MOVE PAGE-STATUS-CODE-SY00 OF FSYWG00M TO
                WK01-STATUS-CODE-SY00.
      *%--------------------------------------------------------------%*
           MOVE WORK-HH-MM-TIME-SY00 OF FSYWG00M TO
                WK01-HH-MM-TIME-SY00.
      *%--------------------------------------------------------------%*
           MOVE TRVL-ACCT-LAST-NINE-4400-TA18 OF FTAWK18 TO
                WK01-ACCT-LST-NN-4400-T18.
      *%--------------------------------------------------------------%*
           MOVE RQST-TRIP-NMBR-TA18 OF FTAWK18 TO WK01-TRIP-NMBR-TA18.
      *%--------------------------------------------------------------%*
           MOVE ACTN-CODE-TA18 OF FTAWM18(0001) TO WK01-CODE-TA181.
      *%--------------------------------------------------------------%*
           MOVE ACTN-CODE-TA18 OF FTAWM18(0002) TO WK01-CODE-TA182.
      *%--------------------------------------------------------------%*
           MOVE ACTN-CODE-TA18 OF FTAWM18(0003) TO WK01-CODE-TA183.
      *%--------------------------------------------------------------%*
           MOVE ACTN-CODE-TA18 OF FTAWM18(0004) TO WK01-CODE-TA184.
      *%--------------------------------------------------------------%*
           MOVE ACTN-CODE-TA18 OF FTAWM18(0005) TO WK01-CODE-TA185.
      *%--------------------------------------------------------------%*
           MOVE ACTN-CODE-TA18 OF FTAWM18(0006) TO WK01-CODE-TA186.
      *%--------------------------------------------------------------%*
           MOVE ACTN-CODE-TA18 OF FTAWM18(0007) TO WK01-CODE-TA187.
      *%--------------------------------------------------------------%*
           MOVE ACTN-CODE-TA18 OF FTAWM18(0008) TO WK01-CODE-TA188.
      *%--------------------------------------------------------------%*
           MOVE ACTN-CODE-TA18 OF FTAWM18(0009) TO WK01-CODE-TA189.
      *%--------------------------------------------------------------%*
           MOVE ACTN-CODE-TA18 OF FTAWM18(0010) TO WK01-CODE-TA1810.
      *%--------------------------------------------------------------%*
           MOVE ACTN-CODE-TA18 OF FTAWM18(0011) TO WK01-CODE-TA1811.
      *%--------------------------------------------------------------%*
           MOVE TRIP-NMBR-4402-TA18 OF FTAWM18(0001) TO
                WK01-NMBR-4402-TA181.
      *%--------------------------------------------------------------%*
           MOVE TRIP-NMBR-4402-TA18 OF FTAWM18(0002) TO
                WK01-NMBR-4402-TA182.
      *%--------------------------------------------------------------%*
           MOVE TRIP-NMBR-4402-TA18 OF FTAWM18(0003) TO
                WK01-NMBR-4402-TA183.
      *%--------------------------------------------------------------%*
           MOVE TRIP-NMBR-4402-TA18 OF FTAWM18(0004) TO
                WK01-NMBR-4402-TA184.
      *%--------------------------------------------------------------%*
           MOVE TRIP-NMBR-4402-TA18 OF FTAWM18(0005) TO
                WK01-NMBR-4402-TA185.
      *%--------------------------------------------------------------%*
           MOVE TRIP-NMBR-4402-TA18 OF FTAWM18(0006) TO
                WK01-NMBR-4402-TA186.
      *%--------------------------------------------------------------%*
           MOVE TRIP-NMBR-4402-TA18 OF FTAWM18(0007) TO
                WK01-NMBR-4402-TA187.
      *%--------------------------------------------------------------%*
           MOVE TRIP-NMBR-4402-TA18 OF FTAWM18(0008) TO
                WK01-NMBR-4402-TA188.
      *%--------------------------------------------------------------%*
           MOVE TRIP-NMBR-4402-TA18 OF FTAWM18(0009) TO
                WK01-NMBR-4402-TA189.
      *%--------------------------------------------------------------%*
           MOVE TRIP-NMBR-4402-TA18 OF FTAWM18(0010) TO
                WK01-NMBR-4402-TA1810.
      *%--------------------------------------------------------------%*
           MOVE TRIP-NMBR-4402-TA18 OF FTAWM18(0011) TO
                WK01-NMBR-4402-TA1811.
      *%--------------------------------------------------------------%*
           MOVE TRIP-DESC-4402-TA18 OF FTAWM18(0001) TO
                WK01-DESC-4402-TA181.
      *%--------------------------------------------------------------%*
           MOVE TRIP-DESC-4402-TA18 OF FTAWM18(0002) TO
                WK01-DESC-4402-TA182.
      *%--------------------------------------------------------------%*
           MOVE TRIP-DESC-4402-TA18 OF FTAWM18(0003) TO
                WK01-DESC-4402-TA183.
      *%--------------------------------------------------------------%*
           MOVE TRIP-DESC-4402-TA18 OF FTAWM18(0004) TO
                WK01-DESC-4402-TA184.
      *%--------------------------------------------------------------%*
           MOVE TRIP-DESC-4402-TA18 OF FTAWM18(0005) TO
                WK01-DESC-4402-TA185.
      *%--------------------------------------------------------------%*
           MOVE TRIP-DESC-4402-TA18 OF FTAWM18(0006) TO
                WK01-DESC-4402-TA186.
      *%--------------------------------------------------------------%*
           MOVE TRIP-DESC-4402-TA18 OF FTAWM18(0007) TO
                WK01-DESC-4402-TA187.
      *%--------------------------------------------------------------%*
           MOVE TRIP-DESC-4402-TA18 OF FTAWM18(0008) TO
                WK01-DESC-4402-TA188.
      *%--------------------------------------------------------------%*
           MOVE TRIP-DESC-4402-TA18 OF FTAWM18(0009) TO
                WK01-DESC-4402-TA189.
      *%--------------------------------------------------------------%*
           MOVE TRIP-DESC-4402-TA18 OF FTAWM18(0010) TO
                WK01-DESC-4402-TA1810.
      *%--------------------------------------------------------------%*
           MOVE TRIP-DESC-4402-TA18 OF FTAWM18(0011) TO
                WK01-DESC-4402-TA1811.
      *%--------------------------------------------------------------%*
           MOVE RCNCLTN-DUE-DATE-4401-TA18 OF FTAWM18(0001) TO
                WK01-DUE-DATE-4401-TA181.
      *%--------------------------------------------------------------%*
           MOVE RCNCLTN-DUE-DATE-4401-TA18 OF FTAWM18(0002) TO
                WK01-DUE-DATE-4401-TA182.
      *%--------------------------------------------------------------%*
           MOVE RCNCLTN-DUE-DATE-4401-TA18 OF FTAWM18(0003) TO
                WK01-DUE-DATE-4401-TA183.
      *%--------------------------------------------------------------%*
           MOVE RCNCLTN-DUE-DATE-4401-TA18 OF FTAWM18(0004) TO
                WK01-DUE-DATE-4401-TA184.
      *%--------------------------------------------------------------%*
           MOVE RCNCLTN-DUE-DATE-4401-TA18 OF FTAWM18(0005) TO
                WK01-DUE-DATE-4401-TA185.
      *%--------------------------------------------------------------%*
           MOVE RCNCLTN-DUE-DATE-4401-TA18 OF FTAWM18(0006) TO
                WK01-DUE-DATE-4401-TA186.
      *%--------------------------------------------------------------%*
           MOVE RCNCLTN-DUE-DATE-4401-TA18 OF FTAWM18(0007) TO
                WK01-DUE-DATE-4401-TA187.
      *%--------------------------------------------------------------%*
           MOVE RCNCLTN-DUE-DATE-4401-TA18 OF FTAWM18(0008) TO
                WK01-DUE-DATE-4401-TA188.
      *%--------------------------------------------------------------%*
           MOVE RCNCLTN-DUE-DATE-4401-TA18 OF FTAWM18(0009) TO
                WK01-DUE-DATE-4401-TA189.
      *%--------------------------------------------------------------%*
           MOVE RCNCLTN-DUE-DATE-4401-TA18 OF FTAWM18(0010) TO
                WK01-DUE-DATE-4401-TA1810.
      *%--------------------------------------------------------------%*
           MOVE RCNCLTN-DUE-DATE-4401-TA18 OF FTAWM18(0011) TO
                WK01-DUE-DATE-4401-TA1811.
      *%--------------------------------------------------------------%*
           MOVE EVENT-NMBR-4401-TA18 OF FTAWM18(0001) TO
                WK01-NMBR-4401-TA181.
      *%--------------------------------------------------------------%*
           MOVE EVENT-NMBR-4401-TA18 OF FTAWM18(0002) TO
                WK01-NMBR-4401-TA182.
      *%--------------------------------------------------------------%*
           MOVE EVENT-NMBR-4401-TA18 OF FTAWM18(0003) TO
                WK01-NMBR-4401-TA183.
      *%--------------------------------------------------------------%*
           MOVE EVENT-NMBR-4401-TA18 OF FTAWM18(0004) TO
                WK01-NMBR-4401-TA184.
      *%--------------------------------------------------------------%*
           MOVE EVENT-NMBR-4401-TA18 OF FTAWM18(0005) TO
                WK01-NMBR-4401-TA185.
      *%--------------------------------------------------------------%*
           MOVE EVENT-NMBR-4401-TA18 OF FTAWM18(0006) TO
                WK01-NMBR-4401-TA186.
      *%--------------------------------------------------------------%*
           MOVE EVENT-NMBR-4401-TA18 OF FTAWM18(0007) TO
                WK01-NMBR-4401-TA187.
      *%--------------------------------------------------------------%*
           MOVE EVENT-NMBR-4401-TA18 OF FTAWM18(0008) TO
                WK01-NMBR-4401-TA188.
      *%--------------------------------------------------------------%*
           MOVE EVENT-NMBR-4401-TA18 OF FTAWM18(0009) TO
                WK01-NMBR-4401-TA189.
      *%--------------------------------------------------------------%*
           MOVE EVENT-NMBR-4401-TA18 OF FTAWM18(0010) TO
                WK01-NMBR-4401-TA1810.
      *%--------------------------------------------------------------%*
           MOVE EVENT-NMBR-4401-TA18 OF FTAWM18(0011) TO
                WK01-NMBR-4401-TA1811.
      *%--------------------------------------------------------------%*
           MOVE NAME-KEY-6117-TA18 OF FTAWM18 TO WK01-KEY-6117-TA18.
      *%--------------------------------------------------------------%*
           MOVE MSG-DESC-TA18 OF FTAWM18 TO WK01-DESC-TA18.
      *%--------------------------------------------------------------%*
           MOVE EMPLY-IND-4400-TA18 OF FTAWM18 TO WK01-IND-4400-TA18.
      *%--------------------------------------------------------------%*
           MOVE EVENT-STATUS-TA18 OF FTAWM18(0001) TO WK01-STATUS-TA181.
      *%--------------------------------------------------------------%*
           MOVE EVENT-STATUS-TA18 OF FTAWM18(0002) TO WK01-STATUS-TA182.
      *%--------------------------------------------------------------%*
           MOVE EVENT-STATUS-TA18 OF FTAWM18(0003) TO WK01-STATUS-TA183.
      *%--------------------------------------------------------------%*
           MOVE EVENT-STATUS-TA18 OF FTAWM18(0004) TO WK01-STATUS-TA184.
      *%--------------------------------------------------------------%*
           MOVE EVENT-STATUS-TA18 OF FTAWM18(0005) TO WK01-STATUS-TA185.
      *%--------------------------------------------------------------%*
           MOVE EVENT-STATUS-TA18 OF FTAWM18(0006) TO WK01-STATUS-TA186.
      *%--------------------------------------------------------------%*
           MOVE EVENT-STATUS-TA18 OF FTAWM18(0007) TO WK01-STATUS-TA187.
      *%--------------------------------------------------------------%*
           MOVE EVENT-STATUS-TA18 OF FTAWM18(0008) TO WK01-STATUS-TA188.
      *%--------------------------------------------------------------%*
           MOVE EVENT-STATUS-TA18 OF FTAWM18(0009) TO WK01-STATUS-TA189.
      *%--------------------------------------------------------------%*
           MOVE EVENT-STATUS-TA18 OF FTAWM18(0010) TO
                WK01-STATUS-TA1810.
      *%--------------------------------------------------------------%*
           MOVE EVENT-STATUS-TA18 OF FTAWM18(0011) TO
                WK01-STATUS-TA1811.
