       01  MAP-CONTROL.

    ***Created by Convert/DC version V8R03 on 12/11/00 at 12:00***

           02  FTAMU09-MAP-CONTROL.
           03  FTAMU09T.
           04  WK01-DCXMAPL-PARMS.
               10  WK01-MAPNAME                  PIC X(8)
                                                 VALUE 'FTAMU09I'.
               10  WK01-IKE-LENGTH               PIC S9(8)  COMP
                                                 VALUE 15757.
               10  WK01-TINA-LENGTH              PIC S9(4)  COMP
                                                 VALUE 1062.
           05  WK01-ATTRIBUTES                   PIC X(60)
                                                 VALUE SPACE.
           05  WK01-ATTRIBUTES-ERROR             PIC X(60) VALUE
               'U  BIF'.
           05  WK01-CURSOR-DFLD                  PIC X(36)
                                                 VALUE SPACES.
           05  WK01-CURSOR-DFLD-QUAL             PIC X(30)
                                                 VALUE SPACES.
           05  WK01-ROW                          PIC S9(4) COMP
                                                 VALUE ZERO.
           05  WK01-COLUMN                       PIC S9(4) COMP
                                                 VALUE ZERO.
           05  WK01-ERROR-MSG                    PIC X(80)
                                                 VALUE SPACES.
           05  WK01-MAP-DATA-LEN                 PIC S9(6)
                                                 VALUE ZERO.
           05  WK01-1ST-FLAG                     PIC X(1)
                                                 VALUE 'Y'.
           05  WK01-FLAG-OUTPUT-DATA             PIC X(1)
                                                 VALUE 'Y'.
      *    05  WK01-STATUS-RETURN-FLAG           PIC X(1)
      *                                          VALUE SPACES.
           05  WK01-ALL-BUT-FLAG                 PIC X(1)
                                                 VALUE SPACES.
           05  WK01-FLAG-ALL-FIELDS-CHANGED      PIC X(1)  VALUE 'Y'.
           05  WK01-FLAG-ANY-FIELDS-CHANGED      PIC X(1)  VALUE 'N'.
           05  WK01-FLAG-ALL-FIELDS-ERROR        PIC X(1)  VALUE 'Y'.
           05  WK01-FLAG-ANY-FIELDS-ERROR        PIC X(1)  VALUE 'N'.
           05  WK01-FLAG-ALL-FIELDS-ERASE        PIC X(1)  VALUE 'Y'.
           05  WK01-FLAG-ANY-FIELDS-ERASE        PIC X(1)  VALUE 'Y'.

           05  WK01-VARDATA                      PIC X(11880)
                                                 VALUE SPACES.
           05  FILLER                            PIC X(100)
                                                 VALUE SPACES.
           04  WK01-ELEMENT-AREA.

               10  WK01-ID-SY00-Z              PIC X(1)
                                               VALUE SPACE.
               10  WK01-ID-SY00-F              PIC X(1)
                                               VALUE SPACE.
               10  WK01-ID-SY00-A              PIC X(1)
                                               VALUE SPACE.
               10  WK01-ID-SY00-V              PIC X(1)
                                               VALUE SPACE.
               10  WK01-ID-SY00-O              PIC X(1)
                                               VALUE SPACE.
               10  WK01-ID-SY00       PIC X(8)
                                               VALUE SPACES.
               10  WK01-NAME-6001-SY00-Z              PIC X(1)
                                               VALUE SPACE.
               10  WK01-NAME-6001-SY00-F              PIC X(1)
                                               VALUE SPACE.
               10  WK01-NAME-6001-SY00-A              PIC X(1)
                                               VALUE SPACE.
               10  WK01-NAME-6001-SY00-V              PIC X(1)
                                               VALUE SPACE.
               10  WK01-NAME-6001-SY00-O              PIC X(1)
                                               VALUE SPACE.
               10  WK01-NAME-6001-SY00       PIC X(35)
                                               VALUE SPACES.
               10  WK01-DATE-Z              PIC X(1)
                                               VALUE SPACE.
               10  WK01-DATE-F              PIC X(1)
                                               VALUE SPACE.
               10  WK01-DATE-A              PIC X(1)
                                               VALUE SPACE.
               10  WK01-DATE-V              PIC X(1)
                                               VALUE SPACE.
               10  WK01-DATE-O              PIC X(1)
                                               VALUE SPACE.
               10  WK01-DATE       PIC X(8)
                                               VALUE SPACES.
               10  WK01-HH-MM-TIME-SY00-Z              PIC X(1)
                                               VALUE SPACE.
               10  WK01-HH-MM-TIME-SY00-F              PIC X(1)
                                               VALUE SPACE.
               10  WK01-HH-MM-TIME-SY00-A              PIC X(1)
                                               VALUE SPACE.
               10  WK01-HH-MM-TIME-SY00-V              PIC X(1)
                                               VALUE SPACE.
               10  WK01-HH-MM-TIME-SY00-O              PIC X(1)
                                               VALUE SPACE.
               10  WK01-HH-MM-TIME-SY00       PIC X(4)
                                               VALUE SPACES.
               10  WK01-PM-FLAG-SY00-Z              PIC X(1)
                                               VALUE SPACE.
               10  WK01-PM-FLAG-SY00-F              PIC X(1)
                                               VALUE SPACE.
               10  WK01-PM-FLAG-SY00-A              PIC X(1)
                                               VALUE SPACE.
               10  WK01-PM-FLAG-SY00-V              PIC X(1)
                                               VALUE SPACE.
               10  WK01-PM-FLAG-SY00-O              PIC X(1)
                                               VALUE SPACE.
               10  WK01-PM-FLAG-SY00       PIC X(1)
                                               VALUE SPACES.
               10  WK01-USER-ID-Z              PIC X(1)
                                               VALUE SPACE.
               10  WK01-USER-ID-F              PIC X(1)
                                               VALUE SPACE.
               10  WK01-USER-ID-A              PIC X(1)
                                               VALUE SPACE.
               10  WK01-USER-ID-V              PIC X(1)
                                               VALUE SPACE.
               10  WK01-USER-ID-O              PIC X(1)
                                               VALUE SPACE.
               10  WK01-USER-ID       PIC X(32)
                                               VALUE SPACES.
               10  WK01-RSPNS-ID-SY00-Z              PIC X(1)
                                               VALUE SPACE.
               10  WK01-RSPNS-ID-SY00-F              PIC X(1)
                                               VALUE SPACE.
               10  WK01-RSPNS-ID-SY00-A              PIC X(1)
                                               VALUE SPACE.
               10  WK01-RSPNS-ID-SY00-V              PIC X(1)
                                               VALUE SPACE.
               10  WK01-RSPNS-ID-SY00-O              PIC X(1)
                                               VALUE SPACE.
               10  WK01-RSPNS-ID-SY00       PIC X(8)
                                               VALUE SPACES.
               10  WK01-FUNC-DESCRIPTION-Z              PIC X(1)
                                               VALUE SPACE.
               10  WK01-FUNC-DESCRIPTION-F              PIC X(1)
                                               VALUE SPACE.
               10  WK01-FUNC-DESCRIPTION-A              PIC X(1)
                                               VALUE SPACE.
               10  WK01-FUNC-DESCRIPTION-V              PIC X(1)
                                               VALUE SPACE.
               10  WK01-FUNC-DESCRIPTION-O              PIC X(1)
                                               VALUE SPACE.
               10  WK01-FUNC-DESCRIPTION       PIC X(28)
                                               VALUE SPACES.
               10  WK01-STATUS-CODE-SY00-Z              PIC X(1)
                                               VALUE SPACE.
               10  WK01-STATUS-CODE-SY00-F              PIC X(1)
                                               VALUE SPACE.
               10  WK01-STATUS-CODE-SY00-A              PIC X(1)
                                               VALUE SPACE.
               10  WK01-STATUS-CODE-SY00-V              PIC X(1)
                                               VALUE SPACE.
               10  WK01-STATUS-CODE-SY00-O              PIC X(1)
                                               VALUE SPACE.
               10  WK01-STATUS-CODE-SY00       PIC X(1)
                                               VALUE SPACES.
               10  WK01-TEXT-SY01-Z              PIC X(1)
                                               VALUE SPACE.
               10  WK01-TEXT-SY01-F              PIC X(1)
                                               VALUE SPACE.
               10  WK01-TEXT-SY01-A              PIC X(1)
                                               VALUE SPACE.
               10  WK01-TEXT-SY01-V              PIC X(1)
                                               VALUE SPACE.
               10  WK01-TEXT-SY01-O              PIC X(1)
                                               VALUE SPACE.
               10  WK01-TEXT-SY01       PIC X(8)
                                               VALUE SPACES.
               10  WK01-TEXT-SY0A-Z              PIC X(1)
                                               VALUE SPACE.
               10  WK01-TEXT-SY0A-F              PIC X(1)
                                               VALUE SPACE.
               10  WK01-TEXT-SY0A-A              PIC X(1)
                                               VALUE SPACE.
               10  WK01-TEXT-SY0A-V              PIC X(1)
                                               VALUE SPACE.
               10  WK01-TEXT-SY0A-O              PIC X(1)
                                               VALUE SPACE.
               10  WK01-TEXT-SY0A       PIC X(11)
                                               VALUE SPACES.
               10  WK01-TEXT-SY0B-Z              PIC X(1)
                                               VALUE SPACE.
               10  WK01-TEXT-SY0B-F              PIC X(1)
                                               VALUE SPACE.
               10  WK01-TEXT-SY0B-A              PIC X(1)
                                               VALUE SPACE.
               10  WK01-TEXT-SY0B-V              PIC X(1)
                                               VALUE SPACE.
               10  WK01-TEXT-SY0B-O              PIC X(1)
                                               VALUE SPACE.
               10  WK01-TEXT-SY0B       PIC X(5)
                                               VALUE SPACES.
               10  WK01-CODE-TA09-Z              PIC X(1)
                                               VALUE SPACE.
               10  WK01-CODE-TA09-F              PIC X(1)
                                               VALUE SPACE.
               10  WK01-CODE-TA09-A              PIC X(1)
                                               VALUE SPACE.
               10  WK01-CODE-TA09-V              PIC X(1)
                                               VALUE SPACE.
               10  WK01-CODE-TA09-O              PIC X(1)
                                               VALUE SPACE.
               10  WK01-CODE-TA09       PIC X(1)
                                               VALUE SPACES.
               10  WK01-LIT-TA09-Z              PIC X(1)
                                               VALUE SPACE.
               10  WK01-LIT-TA09-F              PIC X(1)
                                               VALUE SPACE.
               10  WK01-LIT-TA09-A              PIC X(1)
                                               VALUE SPACE.
               10  WK01-LIT-TA09-V              PIC X(1)
                                               VALUE SPACE.
               10  WK01-LIT-TA09-O              PIC X(1)
                                               VALUE SPACE.
               10  WK01-LIT-TA09       PIC X(8)
                                               VALUE SPACES.
               10  WK01-DELETE-TA09-Z              PIC X(1)
                                               VALUE SPACE.
               10  WK01-DELETE-TA09-F              PIC X(1)
                                               VALUE SPACE.
               10  WK01-DELETE-TA09-A              PIC X(1)
                                               VALUE SPACE.
               10  WK01-DELETE-TA09-V              PIC X(1)
                                               VALUE SPACE.
               10  WK01-DELETE-TA09-O              PIC X(1)
                                               VALUE SPACE.
               10  WK01-DELETE-TA09       PIC X(1)
                                               VALUE SPACES.
               10  WK01-NMBR-4410-TA09-Z              PIC X(1)
                                               VALUE SPACE.
               10  WK01-NMBR-4410-TA09-F              PIC X(1)
                                               VALUE SPACE.
               10  WK01-NMBR-4410-TA09-A              PIC X(1)
                                               VALUE SPACE.
               10  WK01-NMBR-4410-TA09-V              PIC X(1)
                                               VALUE SPACE.
               10  WK01-NMBR-4410-TA09-O              PIC X(1)
                                               VALUE SPACE.
               10  WK01-NMBR-4410-TA09       PIC X(8)
                                               VALUE SPACES.
               10  WK01-LIT-TA0A-Z              PIC X(1)
                                               VALUE SPACE.
               10  WK01-LIT-TA0A-F              PIC X(1)
                                               VALUE SPACE.
               10  WK01-LIT-TA0A-A              PIC X(1)
                                               VALUE SPACE.
               10  WK01-LIT-TA0A-V              PIC X(1)
                                               VALUE SPACE.
               10  WK01-LIT-TA0A-O              PIC X(1)
                                               VALUE SPACE.
               10  WK01-LIT-TA0A       PIC X(7)
                                               VALUE SPACES.
               10  WK01-CHECK-TA09-Z              PIC X(1)
                                               VALUE SPACE.
               10  WK01-CHECK-TA09-F              PIC X(1)
                                               VALUE SPACE.
               10  WK01-CHECK-TA09-A              PIC X(1)
                                               VALUE SPACE.
               10  WK01-CHECK-TA09-V              PIC X(1)
                                               VALUE SPACE.
               10  WK01-CHECK-TA09-O              PIC X(1)
                                               VALUE SPACE.
               10  WK01-CHECK-TA09       PIC X(1)
                                               VALUE SPACES.
               10  WK01-ID-LAST-NIN-4073-T09-Z              PIC X(1)
                                               VALUE SPACE.
               10  WK01-ID-LAST-NIN-4073-T09-F              PIC X(1)
                                               VALUE SPACE.
               10  WK01-ID-LAST-NIN-4073-T09-A              PIC X(1)
                                               VALUE SPACE.
               10  WK01-ID-LAST-NIN-4073-T09-V              PIC X(1)
                                               VALUE SPACE.
               10  WK01-ID-LAST-NIN-4073-T09-O              PIC X(1)
                                               VALUE SPACE.
               10  WK01-ID-LAST-NIN-4073-T09       PIC X(9)
                                               VALUE SPACES.
               10  WK01-KEY-6117-TA09-Z              PIC X(1)
                                               VALUE SPACE.
               10  WK01-KEY-6117-TA09-F              PIC X(1)
                                               VALUE SPACE.
               10  WK01-KEY-6117-TA09-A              PIC X(1)
                                               VALUE SPACE.
               10  WK01-KEY-6117-TA09-V              PIC X(1)
                                               VALUE SPACE.
               10  WK01-KEY-6117-TA09-O              PIC X(1)
                                               VALUE SPACE.
               10  WK01-KEY-6117-TA09       PIC X(35)
                                               VALUE SPACES.
               10  WK01-PAD-HLD-IND-4410-T09-Z              PIC X(1)
                                               VALUE SPACE.
               10  WK01-PAD-HLD-IND-4410-T09-F              PIC X(1)
                                               VALUE SPACE.
               10  WK01-PAD-HLD-IND-4410-T09-A              PIC X(1)
                                               VALUE SPACE.
               10  WK01-PAD-HLD-IND-4410-T09-V              PIC X(1)
                                               VALUE SPACE.
               10  WK01-PAD-HLD-IND-4410-T09-O              PIC X(1)
                                               VALUE SPACE.
               10  WK01-PAD-HLD-IND-4410-T09       PIC X(1)
                                               VALUE SPACES.
               10  WK01-AMT-4410-TA09-Z              PIC X(1)
                                               VALUE SPACE.
               10  WK01-AMT-4410-TA09-F              PIC X(1)
                                               VALUE SPACE.
               10  WK01-AMT-4410-TA09-A              PIC X(1)
                                               VALUE SPACE.
               10  WK01-AMT-4410-TA09-V              PIC X(1)
                                               VALUE SPACE.
               10  WK01-AMT-4410-TA09-O              PIC X(1)
                                               VALUE SPACE.
               10  WK01-AMT-4410-TA09       PIC X(17)
                                               VALUE SPACES.
               10  WK01-INV-NMBR-4410-TA09-Z              PIC X(1)
                                               VALUE SPACE.
               10  WK01-INV-NMBR-4410-TA09-F              PIC X(1)
                                               VALUE SPACE.
               10  WK01-INV-NMBR-4410-TA09-A              PIC X(1)
                                               VALUE SPACE.
               10  WK01-INV-NMBR-4410-TA09-V              PIC X(1)
                                               VALUE SPACE.
               10  WK01-INV-NMBR-4410-TA09-O              PIC X(1)
                                               VALUE SPACE.
               10  WK01-INV-NMBR-4410-TA09       PIC X(9)
                                               VALUE SPACES.
               10  WK01-MEMO-4410-TA09-Z              PIC X(1)
                                               VALUE SPACE.
               10  WK01-MEMO-4410-TA09-F              PIC X(1)
                                               VALUE SPACE.
               10  WK01-MEMO-4410-TA09-A              PIC X(1)
                                               VALUE SPACE.
               10  WK01-MEMO-4410-TA09-V              PIC X(1)
                                               VALUE SPACE.
               10  WK01-MEMO-4410-TA09-O              PIC X(1)
                                               VALUE SPACE.
               10  WK01-MEMO-4410-TA09       PIC X(1)
                                               VALUE SPACES.
               10  WK01-DATE-4410-TA09-Z              PIC X(1)
                                               VALUE SPACE.
               10  WK01-DATE-4410-TA09-F              PIC X(1)
                                               VALUE SPACE.
               10  WK01-DATE-4410-TA09-A              PIC X(1)
                                               VALUE SPACE.
               10  WK01-DATE-4410-TA09-V              PIC X(1)
                                               VALUE SPACE.
               10  WK01-DATE-4410-TA09-O              PIC X(1)
                                               VALUE SPACE.
               10  WK01-DATE-4410-TA09       PIC X(8)
                                               VALUE SPACES.
               10  WK01-INV-DATE-4410-TA09-Z              PIC X(1)
                                               VALUE SPACE.
               10  WK01-INV-DATE-4410-TA09-F              PIC X(1)
                                               VALUE SPACE.
               10  WK01-INV-DATE-4410-TA09-A              PIC X(1)
                                               VALUE SPACE.
               10  WK01-INV-DATE-4410-TA09-V              PIC X(1)
                                               VALUE SPACE.
               10  WK01-INV-DATE-4410-TA09-O              PIC X(1)
                                               VALUE SPACE.
               10  WK01-INV-DATE-4410-TA09       PIC X(8)
                                               VALUE SPACES.
               10  WK01-GRPNG-IND-4410-TA09-Z              PIC X(1)
                                               VALUE SPACE.
               10  WK01-GRPNG-IND-4410-TA09-F              PIC X(1)
                                               VALUE SPACE.
               10  WK01-GRPNG-IND-4410-TA09-A              PIC X(1)
                                               VALUE SPACE.
               10  WK01-GRPNG-IND-4410-TA09-V              PIC X(1)
                                               VALUE SPACE.
               10  WK01-GRPNG-IND-4410-TA09-O              PIC X(1)
                                               VALUE SPACE.
               10  WK01-GRPNG-IND-4410-TA09       PIC X(1)
                                               VALUE SPACES.
               10  WK01-TYPE-IND-4410-TA09-Z              PIC X(1)
                                               VALUE SPACE.
               10  WK01-TYPE-IND-4410-TA09-F              PIC X(1)
                                               VALUE SPACE.
               10  WK01-TYPE-IND-4410-TA09-A              PIC X(1)
                                               VALUE SPACE.
               10  WK01-TYPE-IND-4410-TA09-V              PIC X(1)
                                               VALUE SPACE.
               10  WK01-TYPE-IND-4410-TA09-O              PIC X(1)
                                               VALUE SPACE.
               10  WK01-TYPE-IND-4410-TA09       PIC X(1)
                                               VALUE SPACES.
               10  WK01-TYPE-DESC-TA09-Z              PIC X(1)
                                               VALUE SPACE.
               10  WK01-TYPE-DESC-TA09-F              PIC X(1)
                                               VALUE SPACE.
               10  WK01-TYPE-DESC-TA09-A              PIC X(1)
                                               VALUE SPACE.
               10  WK01-TYPE-DESC-TA09-V              PIC X(1)
                                               VALUE SPACE.
               10  WK01-TYPE-DESC-TA09-O              PIC X(1)
                                               VALUE SPACE.
               10  WK01-TYPE-DESC-TA09       PIC X(10)
                                               VALUE SPACES.
               10  WK01-DUE-DATE-4410-TA09-Z              PIC X(1)
                                               VALUE SPACE.
               10  WK01-DUE-DATE-4410-TA09-F              PIC X(1)
                                               VALUE SPACE.
               10  WK01-DUE-DATE-4410-TA09-A              PIC X(1)
                                               VALUE SPACE.
               10  WK01-DUE-DATE-4410-TA09-V              PIC X(1)
                                               VALUE SPACE.
               10  WK01-DUE-DATE-4410-TA09-O              PIC X(1)
                                               VALUE SPACE.
               10  WK01-DUE-DATE-4410-TA09       PIC X(8)
                                               VALUE SPACES.
               10  WK01-TEXT-IND-TA09-Z              PIC X(1)
                                               VALUE SPACE.
               10  WK01-TEXT-IND-TA09-F              PIC X(1)
                                               VALUE SPACE.
               10  WK01-TEXT-IND-TA09-A              PIC X(1)
                                               VALUE SPACE.
               10  WK01-TEXT-IND-TA09-V              PIC X(1)
                                               VALUE SPACE.
               10  WK01-TEXT-IND-TA09-O              PIC X(1)
                                               VALUE SPACE.
               10  WK01-TEXT-IND-TA09       PIC X(1)
                                               VALUE SPACES.
               10  WK01-ACCT-CODE-4033-TA09-Z              PIC X(1)
                                               VALUE SPACE.
               10  WK01-ACCT-CODE-4033-TA09-F              PIC X(1)
                                               VALUE SPACE.
               10  WK01-ACCT-CODE-4033-TA09-A              PIC X(1)
                                               VALUE SPACE.
               10  WK01-ACCT-CODE-4033-TA09-V              PIC X(1)
                                               VALUE SPACE.
               10  WK01-ACCT-CODE-4033-TA09-O              PIC X(1)
                                               VALUE SPACE.
               10  WK01-ACCT-CODE-4033-TA09       PIC X(2)
                                               VALUE SPACES.
               10  WK01-CODE-DESC-4062-TA09-Z              PIC X(1)
                                               VALUE SPACE.
               10  WK01-CODE-DESC-4062-TA09-F              PIC X(1)
                                               VALUE SPACE.
               10  WK01-CODE-DESC-4062-TA09-A              PIC X(1)
                                               VALUE SPACE.
               10  WK01-CODE-DESC-4062-TA09-V              PIC X(1)
                                               VALUE SPACE.
               10  WK01-CODE-DESC-4062-TA09-O              PIC X(1)
                                               VALUE SPACE.
               10  WK01-CODE-DESC-4062-TA09       PIC X(35)
                                               VALUE SPACES.
               10  WK01-TEXT-IND-TA0A-Z              PIC X(1)
                                               VALUE SPACE.
               10  WK01-TEXT-IND-TA0A-F              PIC X(1)
                                               VALUE SPACE.
               10  WK01-TEXT-IND-TA0A-A              PIC X(1)
                                               VALUE SPACE.
               10  WK01-TEXT-IND-TA0A-V              PIC X(1)
                                               VALUE SPACE.
               10  WK01-TEXT-IND-TA0A-O              PIC X(1)
                                               VALUE SPACE.
               10  WK01-TEXT-IND-TA0A       PIC X(1)
                                               VALUE SPACES.
               10  WK01-NMBR-TA09-Z              PIC X(1)
                                               VALUE SPACE.
               10  WK01-NMBR-TA09-F              PIC X(1)
                                               VALUE SPACE.
               10  WK01-NMBR-TA09-A              PIC X(1)
                                               VALUE SPACE.
               10  WK01-NMBR-TA09-V              PIC X(1)
                                               VALUE SPACE.
               10  WK01-NMBR-TA09-O              PIC X(1)
                                               VALUE SPACE.
               10  WK01-NMBR-TA09       PIC X(8)
                                               VALUE SPACES.
               10  WK01-DATE-TA09-Z              PIC X(1)
                                               VALUE SPACE.
               10  WK01-DATE-TA09-F              PIC X(1)
                                               VALUE SPACE.
               10  WK01-DATE-TA09-A              PIC X(1)
                                               VALUE SPACE.
               10  WK01-DATE-TA09-V              PIC X(1)
                                               VALUE SPACE.
               10  WK01-DATE-TA09-O              PIC X(1)
                                               VALUE SPACE.
               10  WK01-DATE-TA09       PIC X(8)
                                               VALUE SPACES.
               10  WK01-STATUS-TA09-Z              PIC X(1)
                                               VALUE SPACE.
               10  WK01-STATUS-TA09-F              PIC X(1)
                                               VALUE SPACE.
               10  WK01-STATUS-TA09-A              PIC X(1)
                                               VALUE SPACE.
               10  WK01-STATUS-TA09-V              PIC X(1)
                                               VALUE SPACE.
               10  WK01-STATUS-TA09-O              PIC X(1)
                                               VALUE SPACE.
               10  WK01-STATUS-TA09       PIC X(10)
                                               VALUE SPACES.
               10  WK01-IND-4410-TA0B-Z              PIC X(1)
                                               VALUE SPACE.
               10  WK01-IND-4410-TA0B-F              PIC X(1)
                                               VALUE SPACE.
               10  WK01-IND-4410-TA0B-A              PIC X(1)
                                               VALUE SPACE.
               10  WK01-IND-4410-TA0B-V              PIC X(1)
                                               VALUE SPACE.
               10  WK01-IND-4410-TA0B-O              PIC X(1)
                                               VALUE SPACE.
               10  WK01-IND-4410-TA0B       PIC X(1)
                                               VALUE SPACES.
               10  WK01-IND-4410-TA09-Z              PIC X(1)
                                               VALUE SPACE.
               10  WK01-IND-4410-TA09-F              PIC X(1)
                                               VALUE SPACE.
               10  WK01-IND-4410-TA09-A              PIC X(1)
                                               VALUE SPACE.
               10  WK01-IND-4410-TA09-V              PIC X(1)
                                               VALUE SPACE.
               10  WK01-IND-4410-TA09-O              PIC X(1)
                                               VALUE SPACE.
               10  WK01-IND-4410-TA09       PIC X(1)
                                               VALUE SPACES.
               10  WK01-TYPE-CODE-6139-TA09-Z              PIC X(1)
                                               VALUE SPACE.
               10  WK01-TYPE-CODE-6139-TA09-F              PIC X(1)
                                               VALUE SPACE.
               10  WK01-TYPE-CODE-6139-TA09-A              PIC X(1)
                                               VALUE SPACE.
               10  WK01-TYPE-CODE-6139-TA09-V              PIC X(1)
                                               VALUE SPACE.
               10  WK01-TYPE-CODE-6139-TA09-O              PIC X(1)
                                               VALUE SPACE.
               10  WK01-TYPE-CODE-6139-TA09       PIC X(2)
                                               VALUE SPACES.
               10  WK01-DESC-6137-TA09-Z              PIC X(1)
                                               VALUE SPACE.
               10  WK01-DESC-6137-TA09-F              PIC X(1)
                                               VALUE SPACE.
               10  WK01-DESC-6137-TA09-A              PIC X(1)
                                               VALUE SPACE.
               10  WK01-DESC-6137-TA09-V              PIC X(1)
                                               VALUE SPACE.
               10  WK01-DESC-6137-TA09-O              PIC X(1)
                                               VALUE SPACE.
               10  WK01-DESC-6137-TA09       PIC X(10)
                                               VALUE SPACES.
               10  WK01-TMPLT-CODE-TA09-Z              PIC X(1)
                                               VALUE SPACE.
               10  WK01-TMPLT-CODE-TA09-F              PIC X(1)
                                               VALUE SPACE.
               10  WK01-TMPLT-CODE-TA09-A              PIC X(1)
                                               VALUE SPACE.
               10  WK01-TMPLT-CODE-TA09-V              PIC X(1)
                                               VALUE SPACE.
               10  WK01-TMPLT-CODE-TA09-O              PIC X(1)
                                               VALUE SPACE.
               10  WK01-TMPLT-CODE-TA09       PIC X(3)
                                               VALUE SPACES.
               10  WK01-ADR-6139-TA091-Z              PIC X(1)
                                               VALUE SPACE.
               10  WK01-ADR-6139-TA091-F              PIC X(1)
                                               VALUE SPACE.
               10  WK01-ADR-6139-TA091-A              PIC X(1)
                                               VALUE SPACE.
               10  WK01-ADR-6139-TA091-V              PIC X(1)
                                               VALUE SPACE.
               10  WK01-ADR-6139-TA091-O              PIC X(1)
                                               VALUE SPACE.
               10  WK01-ADR-6139-TA091       PIC X(35)
                                               VALUE SPACES.
               10  WK01-IND-4410-TA0A-Z              PIC X(1)
                                               VALUE SPACE.
               10  WK01-IND-4410-TA0A-F              PIC X(1)
                                               VALUE SPACE.
               10  WK01-IND-4410-TA0A-A              PIC X(1)
                                               VALUE SPACE.
               10  WK01-IND-4410-TA0A-V              PIC X(1)
                                               VALUE SPACE.
               10  WK01-IND-4410-TA0A-O              PIC X(1)
                                               VALUE SPACE.
               10  WK01-IND-4410-TA0A       PIC X(1)
                                               VALUE SPACES.
               10  WK01-ADR-TYPE-TA09-Z              PIC X(1)
                                               VALUE SPACE.
               10  WK01-ADR-TYPE-TA09-F              PIC X(1)
                                               VALUE SPACE.
               10  WK01-ADR-TYPE-TA09-A              PIC X(1)
                                               VALUE SPACE.
               10  WK01-ADR-TYPE-TA09-V              PIC X(1)
                                               VALUE SPACE.
               10  WK01-ADR-TYPE-TA09-O              PIC X(1)
                                               VALUE SPACE.
               10  WK01-ADR-TYPE-TA09       PIC X(2)
                                               VALUE SPACES.
               10  WK01-ADR-6139-TA092-Z              PIC X(1)
                                               VALUE SPACE.
               10  WK01-ADR-6139-TA092-F              PIC X(1)
                                               VALUE SPACE.
               10  WK01-ADR-6139-TA092-A              PIC X(1)
                                               VALUE SPACE.
               10  WK01-ADR-6139-TA092-V              PIC X(1)
                                               VALUE SPACE.
               10  WK01-ADR-6139-TA092-O              PIC X(1)
                                               VALUE SPACE.
               10  WK01-ADR-6139-TA092       PIC X(35)
                                               VALUE SPACES.
               10  WK01-DATE-4410-TA0A-Z              PIC X(1)
                                               VALUE SPACE.
               10  WK01-DATE-4410-TA0A-F              PIC X(1)
                                               VALUE SPACE.
               10  WK01-DATE-4410-TA0A-A              PIC X(1)
                                               VALUE SPACE.
               10  WK01-DATE-4410-TA0A-V              PIC X(1)
                                               VALUE SPACE.
               10  WK01-DATE-4410-TA0A-O              PIC X(1)
                                               VALUE SPACE.
               10  WK01-DATE-4410-TA0A       PIC X(8)
                                               VALUE SPACES.
               10  WK01-ADR-6139-TA093-Z              PIC X(1)
                                               VALUE SPACE.
               10  WK01-ADR-6139-TA093-F              PIC X(1)
                                               VALUE SPACE.
               10  WK01-ADR-6139-TA093-A              PIC X(1)
                                               VALUE SPACE.
               10  WK01-ADR-6139-TA093-V              PIC X(1)
                                               VALUE SPACE.
               10  WK01-ADR-6139-TA093-O              PIC X(1)
                                               VALUE SPACE.
               10  WK01-ADR-6139-TA093       PIC X(35)
                                               VALUE SPACES.
               10  WK01-ERROR-IND-4410-TA09-Z              PIC X(1)
                                               VALUE SPACE.
               10  WK01-ERROR-IND-4410-TA09-F              PIC X(1)
                                               VALUE SPACE.
               10  WK01-ERROR-IND-4410-TA09-A              PIC X(1)
                                               VALUE SPACE.
               10  WK01-ERROR-IND-4410-TA09-V              PIC X(1)
                                               VALUE SPACE.
               10  WK01-ERROR-IND-4410-TA09-O              PIC X(1)
                                               VALUE SPACE.
               10  WK01-ERROR-IND-4410-TA09       PIC X(1)
                                               VALUE SPACES.
               10  WK01-ADR-6139-TA094-Z              PIC X(1)
                                               VALUE SPACE.
               10  WK01-ADR-6139-TA094-F              PIC X(1)
                                               VALUE SPACE.
               10  WK01-ADR-6139-TA094-A              PIC X(1)
                                               VALUE SPACE.
               10  WK01-ADR-6139-TA094-V              PIC X(1)
                                               VALUE SPACE.
               10  WK01-ADR-6139-TA094-O              PIC X(1)
                                               VALUE SPACE.
               10  WK01-ADR-6139-TA094       PIC X(35)
                                               VALUE SPACES.
               10  WK01-CNTR-DTL-4410-TA09-Z              PIC X(1)
                                               VALUE SPACE.
               10  WK01-CNTR-DTL-4410-TA09-F              PIC X(1)
                                               VALUE SPACE.
               10  WK01-CNTR-DTL-4410-TA09-A              PIC X(1)
                                               VALUE SPACE.
               10  WK01-CNTR-DTL-4410-TA09-V              PIC X(1)
                                               VALUE SPACE.
               10  WK01-CNTR-DTL-4410-TA09-O              PIC X(1)
                                               VALUE SPACE.
               10  WK01-CNTR-DTL-4410-TA09-X.
                   15  WK01-CNTR-DTL-4410-TA09   PIC 9(4)
                                               VALUE ZEROS.
               10  WK01-NAME-6139-TA09-Z              PIC X(1)
                                               VALUE SPACE.
               10  WK01-NAME-6139-TA09-F              PIC X(1)
                                               VALUE SPACE.
               10  WK01-NAME-6139-TA09-A              PIC X(1)
                                               VALUE SPACE.
               10  WK01-NAME-6139-TA09-V              PIC X(1)
                                               VALUE SPACE.
               10  WK01-NAME-6139-TA09-O              PIC X(1)
                                               VALUE SPACE.
               10  WK01-NAME-6139-TA09       PIC X(18)
                                               VALUE SPACES.
               10  WK01-CODE-6151-TA09-Z              PIC X(1)
                                               VALUE SPACE.
               10  WK01-CODE-6151-TA09-F              PIC X(1)
                                               VALUE SPACE.
               10  WK01-CODE-6151-TA09-A              PIC X(1)
                                               VALUE SPACE.
               10  WK01-CODE-6151-TA09-V              PIC X(1)
                                               VALUE SPACE.
               10  WK01-CODE-6151-TA09-O              PIC X(1)
                                               VALUE SPACE.
               10  WK01-CODE-6151-TA09       PIC X(2)
                                               VALUE SPACES.
               10  WK01-CODE-6152-TA09-Z              PIC X(1)
                                               VALUE SPACE.
               10  WK01-CODE-6152-TA09-F              PIC X(1)
                                               VALUE SPACE.
               10  WK01-CODE-6152-TA09-A              PIC X(1)
                                               VALUE SPACE.
               10  WK01-CODE-6152-TA09-V              PIC X(1)
                                               VALUE SPACE.
               10  WK01-CODE-6152-TA09-O              PIC X(1)
                                               VALUE SPACE.
               10  WK01-CODE-6152-TA09       PIC X(10)
                                               VALUE SPACES.
               10  WK01-CODE-6153-TA09-Z              PIC X(1)
                                               VALUE SPACE.
               10  WK01-CODE-6153-TA09-F              PIC X(1)
                                               VALUE SPACE.
               10  WK01-CODE-6153-TA09-A              PIC X(1)
                                               VALUE SPACE.
               10  WK01-CODE-6153-TA09-V              PIC X(1)
                                               VALUE SPACE.
               10  WK01-CODE-6153-TA09-O              PIC X(1)
                                               VALUE SPACE.
               10  WK01-CODE-6153-TA09       PIC X(2)
                                               VALUE SPACES.
               10  WK01-ZZMESSAGE-Z              PIC X(1)
                                               VALUE SPACE.
               10  WK01-ZZMESSAGE-F              PIC X(1)
                                               VALUE SPACE.
               10  WK01-ZZMESSAGE-A              PIC X(1)
                                               VALUE SPACE.
               10  WK01-ZZMESSAGE-V              PIC X(1)
                                               VALUE SPACE.
               10  WK01-ZZMESSAGE-O              PIC X(1)
                                               VALUE SPACE.
               10  WK01-ZZMESSAGE       PIC X(160)
                                               VALUE SPACES.
               10  WK01-PASSED-ONE-Z              PIC X(1)
                                               VALUE SPACE.
               10  WK01-PASSED-ONE-F              PIC X(1)
                                               VALUE SPACE.
               10  WK01-PASSED-ONE-A              PIC X(1)
                                               VALUE SPACE.
               10  WK01-PASSED-ONE-V              PIC X(1)
                                               VALUE SPACE.
               10  WK01-PASSED-ONE-O              PIC X(1)
                                               VALUE SPACE.
               10  WK01-PASSED-ONE       PIC X(32)
                                               VALUE SPACES.
               10  WK01-MAP-RESPONSE-Z              PIC X(1)
                                               VALUE SPACE.
               10  WK01-MAP-RESPONSE-F              PIC X(1)
                                               VALUE SPACE.
               10  WK01-MAP-RESPONSE-A              PIC X(1)
                                               VALUE SPACE.
               10  WK01-MAP-RESPONSE-V              PIC X(1)
                                               VALUE SPACE.
               10  WK01-MAP-RESPONSE-O              PIC X(1)
                                               VALUE SPACE.
               10  WK01-MAP-RESPONSE       PIC X(8)
                                               VALUE SPACES.
               10  WK01-TEXT-SY00-Z              PIC X(1)
                                               VALUE SPACE.
               10  WK01-TEXT-SY00-F              PIC X(1)
                                               VALUE SPACE.
               10  WK01-TEXT-SY00-A              PIC X(1)
                                               VALUE SPACE.
               10  WK01-TEXT-SY00-V              PIC X(1)
                                               VALUE SPACE.
               10  WK01-TEXT-SY00-O              PIC X(1)
                                               VALUE SPACE.
               10  WK01-TEXT-SY00       PIC X(14)
                                               VALUE SPACES.
           04  WK01-SUBSCRIPTED-WORK-AREA.
               05  FILLER                      PIC X(1).
               05  WK01-ADR-6139-TA09-F             PIC X(1)
                                               OCCURS 4.
