      *---------------------------------------------------------------*
      *                                                               *
      *  RECORD FTAWK09                              04/24/00  12:47  *
      *                                                               *
      *---------------------------------------------------------------*
       01  FTAWK09.
           02  DCMNT-NMBR-4410-TA09                     PIC X(8).
