      *---------------------------------------------------------------*
      *                                                               *
      *  RECORD FTAWK29                              04/24/00  12:45  *
      *                                                               *
      *---------------------------------------------------------------*
       01  FTAWK29.
           02  RQST-ADVNC-TYPE-TA29                     PIC X(4).
