       01  MAP-CONTROL.

    ***Created by Convert/DC version V8R03 on 11/20/00 at 12:00***

           02  FUTMI20-MAP-CONTROL.
           03  FUTMI20T.
           04  WK01-DCXMAPL-PARMS.
               10  WK01-MAPNAME                  PIC X(8)
                                                 VALUE 'FUTMI20I'.
               10  WK01-IKE-LENGTH               PIC S9(8)  COMP
                                                 VALUE 15231.
               10  WK01-TINA-LENGTH              PIC S9(4)  COMP
                                                 VALUE 1113.
           05  WK01-ATTRIBUTES                   PIC X(60)
                                                 VALUE SPACE.
           05  WK01-ATTRIBUTES-ERROR             PIC X(60) VALUE
               'U  BIF'.
           05  WK01-CURSOR-DFLD                  PIC X(36)
                                                 VALUE SPACES.
           05  WK01-CURSOR-DFLD-QUAL             PIC X(30)
                                                 VALUE SPACES.
           05  WK01-ROW                          PIC S9(4) COMP
                                                 VALUE ZERO.
           05  WK01-COLUMN                       PIC S9(4) COMP
                                                 VALUE ZERO.
           05  WK01-ERROR-MSG                    PIC X(80)
                                                 VALUE SPACES.
           05  WK01-MAP-DATA-LEN                 PIC S9(6)
                                                 VALUE ZERO.
           05  WK01-1ST-FLAG                     PIC X(1)
                                                 VALUE 'Y'.
           05  WK01-FLAG-OUTPUT-DATA             PIC X(1)
                                                 VALUE 'Y'.
      *    05  WK01-STATUS-RETURN-FLAG           PIC X(1)
      *                                          VALUE SPACES.
           05  WK01-ALL-BUT-FLAG                 PIC X(1)
                                                 VALUE SPACES.
           05  WK01-FLAG-ALL-FIELDS-CHANGED      PIC X(1)  VALUE 'Y'.
           05  WK01-FLAG-ANY-FIELDS-CHANGED      PIC X(1)  VALUE 'N'.
           05  WK01-FLAG-ALL-FIELDS-ERROR        PIC X(1)  VALUE 'Y'.
           05  WK01-FLAG-ANY-FIELDS-ERROR        PIC X(1)  VALUE 'N'.
           05  WK01-FLAG-ALL-FIELDS-ERASE        PIC X(1)  VALUE 'Y'.
           05  WK01-FLAG-ANY-FIELDS-ERASE        PIC X(1)  VALUE 'Y'.

           05  WK01-VARDATA                      PIC X(11880)
                                                 VALUE SPACES.
           05  FILLER                            PIC X(100)
                                                 VALUE SPACES.
           04  WK01-ELEMENT-AREA.

               10  WK01-ID-SY00-Z              PIC X(1)
                                               VALUE SPACE.
               10  WK01-ID-SY00-F              PIC X(1)
                                               VALUE SPACE.
               10  WK01-ID-SY00-A              PIC X(1)
                                               VALUE SPACE.
               10  WK01-ID-SY00-V              PIC X(1)
                                               VALUE SPACE.
               10  WK01-ID-SY00-O              PIC X(1)
                                               VALUE SPACE.
               10  WK01-ID-SY00       PIC X(8)
                                               VALUE SPACES.
               10  WK01-NAME-6001-SY00-Z              PIC X(1)
                                               VALUE SPACE.
               10  WK01-NAME-6001-SY00-F              PIC X(1)
                                               VALUE SPACE.
               10  WK01-NAME-6001-SY00-A              PIC X(1)
                                               VALUE SPACE.
               10  WK01-NAME-6001-SY00-V              PIC X(1)
                                               VALUE SPACE.
               10  WK01-NAME-6001-SY00-O              PIC X(1)
                                               VALUE SPACE.
               10  WK01-NAME-6001-SY00       PIC X(35)
                                               VALUE SPACES.
               10  WK01-DATE-Z              PIC X(1)
                                               VALUE SPACE.
               10  WK01-DATE-F              PIC X(1)
                                               VALUE SPACE.
               10  WK01-DATE-A              PIC X(1)
                                               VALUE SPACE.
               10  WK01-DATE-V              PIC X(1)
                                               VALUE SPACE.
               10  WK01-DATE-O              PIC X(1)
                                               VALUE SPACE.
               10  WK01-DATE       PIC X(8)
                                               VALUE SPACES.
               10  WK01-HH-MM-TIME-SY00-Z              PIC X(1)
                                               VALUE SPACE.
               10  WK01-HH-MM-TIME-SY00-F              PIC X(1)
                                               VALUE SPACE.
               10  WK01-HH-MM-TIME-SY00-A              PIC X(1)
                                               VALUE SPACE.
               10  WK01-HH-MM-TIME-SY00-V              PIC X(1)
                                               VALUE SPACE.
               10  WK01-HH-MM-TIME-SY00-O              PIC X(1)
                                               VALUE SPACE.
               10  WK01-HH-MM-TIME-SY00       PIC X(4)
                                               VALUE SPACES.
               10  WK01-PM-FLAG-SY00-Z              PIC X(1)
                                               VALUE SPACE.
               10  WK01-PM-FLAG-SY00-F              PIC X(1)
                                               VALUE SPACE.
               10  WK01-PM-FLAG-SY00-A              PIC X(1)
                                               VALUE SPACE.
               10  WK01-PM-FLAG-SY00-V              PIC X(1)
                                               VALUE SPACE.
               10  WK01-PM-FLAG-SY00-O              PIC X(1)
                                               VALUE SPACE.
               10  WK01-PM-FLAG-SY00       PIC X(1)
                                               VALUE SPACES.
               10  WK01-USER-ID-Z              PIC X(1)
                                               VALUE SPACE.
               10  WK01-USER-ID-F              PIC X(1)
                                               VALUE SPACE.
               10  WK01-USER-ID-A              PIC X(1)
                                               VALUE SPACE.
               10  WK01-USER-ID-V              PIC X(1)
                                               VALUE SPACE.
               10  WK01-USER-ID-O              PIC X(1)
                                               VALUE SPACE.
               10  WK01-USER-ID       PIC X(32)
                                               VALUE SPACES.
               10  WK01-RSPNS-ID-SY00-Z              PIC X(1)
                                               VALUE SPACE.
               10  WK01-RSPNS-ID-SY00-F              PIC X(1)
                                               VALUE SPACE.
               10  WK01-RSPNS-ID-SY00-A              PIC X(1)
                                               VALUE SPACE.
               10  WK01-RSPNS-ID-SY00-V              PIC X(1)
                                               VALUE SPACE.
               10  WK01-RSPNS-ID-SY00-O              PIC X(1)
                                               VALUE SPACE.
               10  WK01-RSPNS-ID-SY00       PIC X(8)
                                               VALUE SPACES.
               10  WK01-FUNC-DESCRIPTION-Z              PIC X(1)
                                               VALUE SPACE.
               10  WK01-FUNC-DESCRIPTION-F              PIC X(1)
                                               VALUE SPACE.
               10  WK01-FUNC-DESCRIPTION-A              PIC X(1)
                                               VALUE SPACE.
               10  WK01-FUNC-DESCRIPTION-V              PIC X(1)
                                               VALUE SPACE.
               10  WK01-FUNC-DESCRIPTION-O              PIC X(1)
                                               VALUE SPACE.
               10  WK01-FUNC-DESCRIPTION       PIC X(28)
                                               VALUE SPACES.
               10  WK01-STATUS-CODE-SY00-Z              PIC X(1)
                                               VALUE SPACE.
               10  WK01-STATUS-CODE-SY00-F              PIC X(1)
                                               VALUE SPACE.
               10  WK01-STATUS-CODE-SY00-A              PIC X(1)
                                               VALUE SPACE.
               10  WK01-STATUS-CODE-SY00-V              PIC X(1)
                                               VALUE SPACE.
               10  WK01-STATUS-CODE-SY00-O              PIC X(1)
                                               VALUE SPACE.
               10  WK01-STATUS-CODE-SY00       PIC X(1)
                                               VALUE SPACES.
               10  WK01-TEXT-SY01-Z              PIC X(1)
                                               VALUE SPACE.
               10  WK01-TEXT-SY01-F              PIC X(1)
                                               VALUE SPACE.
               10  WK01-TEXT-SY01-A              PIC X(1)
                                               VALUE SPACE.
               10  WK01-TEXT-SY01-V              PIC X(1)
                                               VALUE SPACE.
               10  WK01-TEXT-SY01-O              PIC X(1)
                                               VALUE SPACE.
               10  WK01-TEXT-SY01       PIC X(8)
                                               VALUE SPACES.
               10  WK01-TEXT-SY0A-Z              PIC X(1)
                                               VALUE SPACE.
               10  WK01-TEXT-SY0A-F              PIC X(1)
                                               VALUE SPACE.
               10  WK01-TEXT-SY0A-A              PIC X(1)
                                               VALUE SPACE.
               10  WK01-TEXT-SY0A-V              PIC X(1)
                                               VALUE SPACE.
               10  WK01-TEXT-SY0A-O              PIC X(1)
                                               VALUE SPACE.
               10  WK01-TEXT-SY0A       PIC X(11)
                                               VALUE SPACES.
               10  WK01-TEXT-SY0B-Z              PIC X(1)
                                               VALUE SPACE.
               10  WK01-TEXT-SY0B-F              PIC X(1)
                                               VALUE SPACE.
               10  WK01-TEXT-SY0B-A              PIC X(1)
                                               VALUE SPACE.
               10  WK01-TEXT-SY0B-V              PIC X(1)
                                               VALUE SPACE.
               10  WK01-TEXT-SY0B-O              PIC X(1)
                                               VALUE SPACE.
               10  WK01-TEXT-SY0B       PIC X(5)
                                               VALUE SPACES.
               10  WK01-KEY-UT20-Z              PIC X(1)
                                               VALUE SPACE.
               10  WK01-KEY-UT20-F              PIC X(1)
                                               VALUE SPACE.
               10  WK01-KEY-UT20-A              PIC X(1)
                                               VALUE SPACE.
               10  WK01-KEY-UT20-V              PIC X(1)
                                               VALUE SPACE.
               10  WK01-KEY-UT20-O              PIC X(1)
                                               VALUE SPACE.
               10  WK01-KEY-UT20       PIC X(35)
                                               VALUE SPACES.
               10  WK01-CODE-UT201-Z              PIC X(1)
                                               VALUE SPACE.
               10  WK01-CODE-UT201-F              PIC X(1)
                                               VALUE SPACE.
               10  WK01-CODE-UT201-A              PIC X(1)
                                               VALUE SPACE.
               10  WK01-CODE-UT201-V              PIC X(1)
                                               VALUE SPACE.
               10  WK01-CODE-UT201-O              PIC X(1)
                                               VALUE SPACE.
               10  WK01-CODE-UT201       PIC X(1)
                                               VALUE SPACES.
               10  WK01-TO-CODE-UT201-Z              PIC X(1)
                                               VALUE SPACE.
               10  WK01-TO-CODE-UT201-F              PIC X(1)
                                               VALUE SPACE.
               10  WK01-TO-CODE-UT201-A              PIC X(1)
                                               VALUE SPACE.
               10  WK01-TO-CODE-UT201-V              PIC X(1)
                                               VALUE SPACE.
               10  WK01-TO-CODE-UT201-O              PIC X(1)
                                               VALUE SPACE.
               10  WK01-TO-CODE-UT201       PIC X(6)
                                               VALUE SPACES.
               10  WK01-TYPE-CODE-UT201-Z              PIC X(1)
                                               VALUE SPACE.
               10  WK01-TYPE-CODE-UT201-F              PIC X(1)
                                               VALUE SPACE.
               10  WK01-TYPE-CODE-UT201-A              PIC X(1)
                                               VALUE SPACE.
               10  WK01-TYPE-CODE-UT201-V              PIC X(1)
                                               VALUE SPACE.
               10  WK01-TYPE-CODE-UT201-O              PIC X(1)
                                               VALUE SPACE.
               10  WK01-TYPE-CODE-UT201       PIC X(1)
                                               VALUE SPACES.
               10  WK01-NAME-KEY-UT201-Z              PIC X(1)
                                               VALUE SPACE.
               10  WK01-NAME-KEY-UT201-F              PIC X(1)
                                               VALUE SPACE.
               10  WK01-NAME-KEY-UT201-A              PIC X(1)
                                               VALUE SPACE.
               10  WK01-NAME-KEY-UT201-V              PIC X(1)
                                               VALUE SPACE.
               10  WK01-NAME-KEY-UT201-O              PIC X(1)
                                               VALUE SPACE.
               10  WK01-NAME-KEY-UT201       PIC X(35)
                                               VALUE SPACES.
               10  WK01-CODE-UT202-Z              PIC X(1)
                                               VALUE SPACE.
               10  WK01-CODE-UT202-F              PIC X(1)
                                               VALUE SPACE.
               10  WK01-CODE-UT202-A              PIC X(1)
                                               VALUE SPACE.
               10  WK01-CODE-UT202-V              PIC X(1)
                                               VALUE SPACE.
               10  WK01-CODE-UT202-O              PIC X(1)
                                               VALUE SPACE.
               10  WK01-CODE-UT202       PIC X(1)
                                               VALUE SPACES.
               10  WK01-TO-CODE-UT202-Z              PIC X(1)
                                               VALUE SPACE.
               10  WK01-TO-CODE-UT202-F              PIC X(1)
                                               VALUE SPACE.
               10  WK01-TO-CODE-UT202-A              PIC X(1)
                                               VALUE SPACE.
               10  WK01-TO-CODE-UT202-V              PIC X(1)
                                               VALUE SPACE.
               10  WK01-TO-CODE-UT202-O              PIC X(1)
                                               VALUE SPACE.
               10  WK01-TO-CODE-UT202       PIC X(6)
                                               VALUE SPACES.
               10  WK01-TYPE-CODE-UT202-Z              PIC X(1)
                                               VALUE SPACE.
               10  WK01-TYPE-CODE-UT202-F              PIC X(1)
                                               VALUE SPACE.
               10  WK01-TYPE-CODE-UT202-A              PIC X(1)
                                               VALUE SPACE.
               10  WK01-TYPE-CODE-UT202-V              PIC X(1)
                                               VALUE SPACE.
               10  WK01-TYPE-CODE-UT202-O              PIC X(1)
                                               VALUE SPACE.
               10  WK01-TYPE-CODE-UT202       PIC X(1)
                                               VALUE SPACES.
               10  WK01-NAME-KEY-UT202-Z              PIC X(1)
                                               VALUE SPACE.
               10  WK01-NAME-KEY-UT202-F              PIC X(1)
                                               VALUE SPACE.
               10  WK01-NAME-KEY-UT202-A              PIC X(1)
                                               VALUE SPACE.
               10  WK01-NAME-KEY-UT202-V              PIC X(1)
                                               VALUE SPACE.
               10  WK01-NAME-KEY-UT202-O              PIC X(1)
                                               VALUE SPACE.
               10  WK01-NAME-KEY-UT202       PIC X(35)
                                               VALUE SPACES.
               10  WK01-CODE-UT203-Z              PIC X(1)
                                               VALUE SPACE.
               10  WK01-CODE-UT203-F              PIC X(1)
                                               VALUE SPACE.
               10  WK01-CODE-UT203-A              PIC X(1)
                                               VALUE SPACE.
               10  WK01-CODE-UT203-V              PIC X(1)
                                               VALUE SPACE.
               10  WK01-CODE-UT203-O              PIC X(1)
                                               VALUE SPACE.
               10  WK01-CODE-UT203       PIC X(1)
                                               VALUE SPACES.
               10  WK01-TO-CODE-UT203-Z              PIC X(1)
                                               VALUE SPACE.
               10  WK01-TO-CODE-UT203-F              PIC X(1)
                                               VALUE SPACE.
               10  WK01-TO-CODE-UT203-A              PIC X(1)
                                               VALUE SPACE.
               10  WK01-TO-CODE-UT203-V              PIC X(1)
                                               VALUE SPACE.
               10  WK01-TO-CODE-UT203-O              PIC X(1)
                                               VALUE SPACE.
               10  WK01-TO-CODE-UT203       PIC X(6)
                                               VALUE SPACES.
               10  WK01-TYPE-CODE-UT203-Z              PIC X(1)
                                               VALUE SPACE.
               10  WK01-TYPE-CODE-UT203-F              PIC X(1)
                                               VALUE SPACE.
               10  WK01-TYPE-CODE-UT203-A              PIC X(1)
                                               VALUE SPACE.
               10  WK01-TYPE-CODE-UT203-V              PIC X(1)
                                               VALUE SPACE.
               10  WK01-TYPE-CODE-UT203-O              PIC X(1)
                                               VALUE SPACE.
               10  WK01-TYPE-CODE-UT203       PIC X(1)
                                               VALUE SPACES.
               10  WK01-NAME-KEY-UT203-Z              PIC X(1)
                                               VALUE SPACE.
               10  WK01-NAME-KEY-UT203-F              PIC X(1)
                                               VALUE SPACE.
               10  WK01-NAME-KEY-UT203-A              PIC X(1)
                                               VALUE SPACE.
               10  WK01-NAME-KEY-UT203-V              PIC X(1)
                                               VALUE SPACE.
               10  WK01-NAME-KEY-UT203-O              PIC X(1)
                                               VALUE SPACE.
               10  WK01-NAME-KEY-UT203       PIC X(35)
                                               VALUE SPACES.
               10  WK01-CODE-UT204-Z              PIC X(1)
                                               VALUE SPACE.
               10  WK01-CODE-UT204-F              PIC X(1)
                                               VALUE SPACE.
               10  WK01-CODE-UT204-A              PIC X(1)
                                               VALUE SPACE.
               10  WK01-CODE-UT204-V              PIC X(1)
                                               VALUE SPACE.
               10  WK01-CODE-UT204-O              PIC X(1)
                                               VALUE SPACE.
               10  WK01-CODE-UT204       PIC X(1)
                                               VALUE SPACES.
               10  WK01-TO-CODE-UT204-Z              PIC X(1)
                                               VALUE SPACE.
               10  WK01-TO-CODE-UT204-F              PIC X(1)
                                               VALUE SPACE.
               10  WK01-TO-CODE-UT204-A              PIC X(1)
                                               VALUE SPACE.
               10  WK01-TO-CODE-UT204-V              PIC X(1)
                                               VALUE SPACE.
               10  WK01-TO-CODE-UT204-O              PIC X(1)
                                               VALUE SPACE.
               10  WK01-TO-CODE-UT204       PIC X(6)
                                               VALUE SPACES.
               10  WK01-TYPE-CODE-UT204-Z              PIC X(1)
                                               VALUE SPACE.
               10  WK01-TYPE-CODE-UT204-F              PIC X(1)
                                               VALUE SPACE.
               10  WK01-TYPE-CODE-UT204-A              PIC X(1)
                                               VALUE SPACE.
               10  WK01-TYPE-CODE-UT204-V              PIC X(1)
                                               VALUE SPACE.
               10  WK01-TYPE-CODE-UT204-O              PIC X(1)
                                               VALUE SPACE.
               10  WK01-TYPE-CODE-UT204       PIC X(1)
                                               VALUE SPACES.
               10  WK01-NAME-KEY-UT204-Z              PIC X(1)
                                               VALUE SPACE.
               10  WK01-NAME-KEY-UT204-F              PIC X(1)
                                               VALUE SPACE.
               10  WK01-NAME-KEY-UT204-A              PIC X(1)
                                               VALUE SPACE.
               10  WK01-NAME-KEY-UT204-V              PIC X(1)
                                               VALUE SPACE.
               10  WK01-NAME-KEY-UT204-O              PIC X(1)
                                               VALUE SPACE.
               10  WK01-NAME-KEY-UT204       PIC X(35)
                                               VALUE SPACES.
               10  WK01-CODE-UT205-Z              PIC X(1)
                                               VALUE SPACE.
               10  WK01-CODE-UT205-F              PIC X(1)
                                               VALUE SPACE.
               10  WK01-CODE-UT205-A              PIC X(1)
                                               VALUE SPACE.
               10  WK01-CODE-UT205-V              PIC X(1)
                                               VALUE SPACE.
               10  WK01-CODE-UT205-O              PIC X(1)
                                               VALUE SPACE.
               10  WK01-CODE-UT205       PIC X(1)
                                               VALUE SPACES.
               10  WK01-TO-CODE-UT205-Z              PIC X(1)
                                               VALUE SPACE.
               10  WK01-TO-CODE-UT205-F              PIC X(1)
                                               VALUE SPACE.
               10  WK01-TO-CODE-UT205-A              PIC X(1)
                                               VALUE SPACE.
               10  WK01-TO-CODE-UT205-V              PIC X(1)
                                               VALUE SPACE.
               10  WK01-TO-CODE-UT205-O              PIC X(1)
                                               VALUE SPACE.
               10  WK01-TO-CODE-UT205       PIC X(6)
                                               VALUE SPACES.
               10  WK01-TYPE-CODE-UT205-Z              PIC X(1)
                                               VALUE SPACE.
               10  WK01-TYPE-CODE-UT205-F              PIC X(1)
                                               VALUE SPACE.
               10  WK01-TYPE-CODE-UT205-A              PIC X(1)
                                               VALUE SPACE.
               10  WK01-TYPE-CODE-UT205-V              PIC X(1)
                                               VALUE SPACE.
               10  WK01-TYPE-CODE-UT205-O              PIC X(1)
                                               VALUE SPACE.
               10  WK01-TYPE-CODE-UT205       PIC X(1)
                                               VALUE SPACES.
               10  WK01-NAME-KEY-UT205-Z              PIC X(1)
                                               VALUE SPACE.
               10  WK01-NAME-KEY-UT205-F              PIC X(1)
                                               VALUE SPACE.
               10  WK01-NAME-KEY-UT205-A              PIC X(1)
                                               VALUE SPACE.
               10  WK01-NAME-KEY-UT205-V              PIC X(1)
                                               VALUE SPACE.
               10  WK01-NAME-KEY-UT205-O              PIC X(1)
                                               VALUE SPACE.
               10  WK01-NAME-KEY-UT205       PIC X(35)
                                               VALUE SPACES.
               10  WK01-CODE-UT206-Z              PIC X(1)
                                               VALUE SPACE.
               10  WK01-CODE-UT206-F              PIC X(1)
                                               VALUE SPACE.
               10  WK01-CODE-UT206-A              PIC X(1)
                                               VALUE SPACE.
               10  WK01-CODE-UT206-V              PIC X(1)
                                               VALUE SPACE.
               10  WK01-CODE-UT206-O              PIC X(1)
                                               VALUE SPACE.
               10  WK01-CODE-UT206       PIC X(1)
                                               VALUE SPACES.
               10  WK01-TO-CODE-UT206-Z              PIC X(1)
                                               VALUE SPACE.
               10  WK01-TO-CODE-UT206-F              PIC X(1)
                                               VALUE SPACE.
               10  WK01-TO-CODE-UT206-A              PIC X(1)
                                               VALUE SPACE.
               10  WK01-TO-CODE-UT206-V              PIC X(1)
                                               VALUE SPACE.
               10  WK01-TO-CODE-UT206-O              PIC X(1)
                                               VALUE SPACE.
               10  WK01-TO-CODE-UT206       PIC X(6)
                                               VALUE SPACES.
               10  WK01-TYPE-CODE-UT206-Z              PIC X(1)
                                               VALUE SPACE.
               10  WK01-TYPE-CODE-UT206-F              PIC X(1)
                                               VALUE SPACE.
               10  WK01-TYPE-CODE-UT206-A              PIC X(1)
                                               VALUE SPACE.
               10  WK01-TYPE-CODE-UT206-V              PIC X(1)
                                               VALUE SPACE.
               10  WK01-TYPE-CODE-UT206-O              PIC X(1)
                                               VALUE SPACE.
               10  WK01-TYPE-CODE-UT206       PIC X(1)
                                               VALUE SPACES.
               10  WK01-NAME-KEY-UT206-Z              PIC X(1)
                                               VALUE SPACE.
               10  WK01-NAME-KEY-UT206-F              PIC X(1)
                                               VALUE SPACE.
               10  WK01-NAME-KEY-UT206-A              PIC X(1)
                                               VALUE SPACE.
               10  WK01-NAME-KEY-UT206-V              PIC X(1)
                                               VALUE SPACE.
               10  WK01-NAME-KEY-UT206-O              PIC X(1)
                                               VALUE SPACE.
               10  WK01-NAME-KEY-UT206       PIC X(35)
                                               VALUE SPACES.
               10  WK01-CODE-UT207-Z              PIC X(1)
                                               VALUE SPACE.
               10  WK01-CODE-UT207-F              PIC X(1)
                                               VALUE SPACE.
               10  WK01-CODE-UT207-A              PIC X(1)
                                               VALUE SPACE.
               10  WK01-CODE-UT207-V              PIC X(1)
                                               VALUE SPACE.
               10  WK01-CODE-UT207-O              PIC X(1)
                                               VALUE SPACE.
               10  WK01-CODE-UT207       PIC X(1)
                                               VALUE SPACES.
               10  WK01-TO-CODE-UT207-Z              PIC X(1)
                                               VALUE SPACE.
               10  WK01-TO-CODE-UT207-F              PIC X(1)
                                               VALUE SPACE.
               10  WK01-TO-CODE-UT207-A              PIC X(1)
                                               VALUE SPACE.
               10  WK01-TO-CODE-UT207-V              PIC X(1)
                                               VALUE SPACE.
               10  WK01-TO-CODE-UT207-O              PIC X(1)
                                               VALUE SPACE.
               10  WK01-TO-CODE-UT207       PIC X(6)
                                               VALUE SPACES.
               10  WK01-TYPE-CODE-UT207-Z              PIC X(1)
                                               VALUE SPACE.
               10  WK01-TYPE-CODE-UT207-F              PIC X(1)
                                               VALUE SPACE.
               10  WK01-TYPE-CODE-UT207-A              PIC X(1)
                                               VALUE SPACE.
               10  WK01-TYPE-CODE-UT207-V              PIC X(1)
                                               VALUE SPACE.
               10  WK01-TYPE-CODE-UT207-O              PIC X(1)
                                               VALUE SPACE.
               10  WK01-TYPE-CODE-UT207       PIC X(1)
                                               VALUE SPACES.
               10  WK01-NAME-KEY-UT207-Z              PIC X(1)
                                               VALUE SPACE.
               10  WK01-NAME-KEY-UT207-F              PIC X(1)
                                               VALUE SPACE.
               10  WK01-NAME-KEY-UT207-A              PIC X(1)
                                               VALUE SPACE.
               10  WK01-NAME-KEY-UT207-V              PIC X(1)
                                               VALUE SPACE.
               10  WK01-NAME-KEY-UT207-O              PIC X(1)
                                               VALUE SPACE.
               10  WK01-NAME-KEY-UT207       PIC X(35)
                                               VALUE SPACES.
               10  WK01-CODE-UT208-Z              PIC X(1)
                                               VALUE SPACE.
               10  WK01-CODE-UT208-F              PIC X(1)
                                               VALUE SPACE.
               10  WK01-CODE-UT208-A              PIC X(1)
                                               VALUE SPACE.
               10  WK01-CODE-UT208-V              PIC X(1)
                                               VALUE SPACE.
               10  WK01-CODE-UT208-O              PIC X(1)
                                               VALUE SPACE.
               10  WK01-CODE-UT208       PIC X(1)
                                               VALUE SPACES.
               10  WK01-TO-CODE-UT208-Z              PIC X(1)
                                               VALUE SPACE.
               10  WK01-TO-CODE-UT208-F              PIC X(1)
                                               VALUE SPACE.
               10  WK01-TO-CODE-UT208-A              PIC X(1)
                                               VALUE SPACE.
               10  WK01-TO-CODE-UT208-V              PIC X(1)
                                               VALUE SPACE.
               10  WK01-TO-CODE-UT208-O              PIC X(1)
                                               VALUE SPACE.
               10  WK01-TO-CODE-UT208       PIC X(6)
                                               VALUE SPACES.
               10  WK01-TYPE-CODE-UT208-Z              PIC X(1)
                                               VALUE SPACE.
               10  WK01-TYPE-CODE-UT208-F              PIC X(1)
                                               VALUE SPACE.
               10  WK01-TYPE-CODE-UT208-A              PIC X(1)
                                               VALUE SPACE.
               10  WK01-TYPE-CODE-UT208-V              PIC X(1)
                                               VALUE SPACE.
               10  WK01-TYPE-CODE-UT208-O              PIC X(1)
                                               VALUE SPACE.
               10  WK01-TYPE-CODE-UT208       PIC X(1)
                                               VALUE SPACES.
               10  WK01-NAME-KEY-UT208-Z              PIC X(1)
                                               VALUE SPACE.
               10  WK01-NAME-KEY-UT208-F              PIC X(1)
                                               VALUE SPACE.
               10  WK01-NAME-KEY-UT208-A              PIC X(1)
                                               VALUE SPACE.
               10  WK01-NAME-KEY-UT208-V              PIC X(1)
                                               VALUE SPACE.
               10  WK01-NAME-KEY-UT208-O              PIC X(1)
                                               VALUE SPACE.
               10  WK01-NAME-KEY-UT208       PIC X(35)
                                               VALUE SPACES.
               10  WK01-CODE-UT209-Z              PIC X(1)
                                               VALUE SPACE.
               10  WK01-CODE-UT209-F              PIC X(1)
                                               VALUE SPACE.
               10  WK01-CODE-UT209-A              PIC X(1)
                                               VALUE SPACE.
               10  WK01-CODE-UT209-V              PIC X(1)
                                               VALUE SPACE.
               10  WK01-CODE-UT209-O              PIC X(1)
                                               VALUE SPACE.
               10  WK01-CODE-UT209       PIC X(1)
                                               VALUE SPACES.
               10  WK01-TO-CODE-UT209-Z              PIC X(1)
                                               VALUE SPACE.
               10  WK01-TO-CODE-UT209-F              PIC X(1)
                                               VALUE SPACE.
               10  WK01-TO-CODE-UT209-A              PIC X(1)
                                               VALUE SPACE.
               10  WK01-TO-CODE-UT209-V              PIC X(1)
                                               VALUE SPACE.
               10  WK01-TO-CODE-UT209-O              PIC X(1)
                                               VALUE SPACE.
               10  WK01-TO-CODE-UT209       PIC X(6)
                                               VALUE SPACES.
               10  WK01-TYPE-CODE-UT209-Z              PIC X(1)
                                               VALUE SPACE.
               10  WK01-TYPE-CODE-UT209-F              PIC X(1)
                                               VALUE SPACE.
               10  WK01-TYPE-CODE-UT209-A              PIC X(1)
                                               VALUE SPACE.
               10  WK01-TYPE-CODE-UT209-V              PIC X(1)
                                               VALUE SPACE.
               10  WK01-TYPE-CODE-UT209-O              PIC X(1)
                                               VALUE SPACE.
               10  WK01-TYPE-CODE-UT209       PIC X(1)
                                               VALUE SPACES.
               10  WK01-NAME-KEY-UT209-Z              PIC X(1)
                                               VALUE SPACE.
               10  WK01-NAME-KEY-UT209-F              PIC X(1)
                                               VALUE SPACE.
               10  WK01-NAME-KEY-UT209-A              PIC X(1)
                                               VALUE SPACE.
               10  WK01-NAME-KEY-UT209-V              PIC X(1)
                                               VALUE SPACE.
               10  WK01-NAME-KEY-UT209-O              PIC X(1)
                                               VALUE SPACE.
               10  WK01-NAME-KEY-UT209       PIC X(35)
                                               VALUE SPACES.
               10  WK01-CODE-UT2010-Z              PIC X(1)
                                               VALUE SPACE.
               10  WK01-CODE-UT2010-F              PIC X(1)
                                               VALUE SPACE.
               10  WK01-CODE-UT2010-A              PIC X(1)
                                               VALUE SPACE.
               10  WK01-CODE-UT2010-V              PIC X(1)
                                               VALUE SPACE.
               10  WK01-CODE-UT2010-O              PIC X(1)
                                               VALUE SPACE.
               10  WK01-CODE-UT2010       PIC X(1)
                                               VALUE SPACES.
               10  WK01-TO-CODE-UT2010-Z              PIC X(1)
                                               VALUE SPACE.
               10  WK01-TO-CODE-UT2010-F              PIC X(1)
                                               VALUE SPACE.
               10  WK01-TO-CODE-UT2010-A              PIC X(1)
                                               VALUE SPACE.
               10  WK01-TO-CODE-UT2010-V              PIC X(1)
                                               VALUE SPACE.
               10  WK01-TO-CODE-UT2010-O              PIC X(1)
                                               VALUE SPACE.
               10  WK01-TO-CODE-UT2010       PIC X(6)
                                               VALUE SPACES.
               10  WK01-TYPE-CODE-UT2010-Z              PIC X(1)
                                               VALUE SPACE.
               10  WK01-TYPE-CODE-UT2010-F              PIC X(1)
                                               VALUE SPACE.
               10  WK01-TYPE-CODE-UT2010-A              PIC X(1)
                                               VALUE SPACE.
               10  WK01-TYPE-CODE-UT2010-V              PIC X(1)
                                               VALUE SPACE.
               10  WK01-TYPE-CODE-UT2010-O              PIC X(1)
                                               VALUE SPACE.
               10  WK01-TYPE-CODE-UT2010       PIC X(1)
                                               VALUE SPACES.
               10  WK01-NAME-KEY-UT2010-Z              PIC X(1)
                                               VALUE SPACE.
               10  WK01-NAME-KEY-UT2010-F              PIC X(1)
                                               VALUE SPACE.
               10  WK01-NAME-KEY-UT2010-A              PIC X(1)
                                               VALUE SPACE.
               10  WK01-NAME-KEY-UT2010-V              PIC X(1)
                                               VALUE SPACE.
               10  WK01-NAME-KEY-UT2010-O              PIC X(1)
                                               VALUE SPACE.
               10  WK01-NAME-KEY-UT2010       PIC X(35)
                                               VALUE SPACES.
               10  WK01-ZZMESSAGE-Z              PIC X(1)
                                               VALUE SPACE.
               10  WK01-ZZMESSAGE-F              PIC X(1)
                                               VALUE SPACE.
               10  WK01-ZZMESSAGE-A              PIC X(1)
                                               VALUE SPACE.
               10  WK01-ZZMESSAGE-V              PIC X(1)
                                               VALUE SPACE.
               10  WK01-ZZMESSAGE-O              PIC X(1)
                                               VALUE SPACE.
               10  WK01-ZZMESSAGE       PIC X(160)
                                               VALUE SPACES.
               10  WK01-PASSED-ONE-Z              PIC X(1)
                                               VALUE SPACE.
               10  WK01-PASSED-ONE-F              PIC X(1)
                                               VALUE SPACE.
               10  WK01-PASSED-ONE-A              PIC X(1)
                                               VALUE SPACE.
               10  WK01-PASSED-ONE-V              PIC X(1)
                                               VALUE SPACE.
               10  WK01-PASSED-ONE-O              PIC X(1)
                                               VALUE SPACE.
               10  WK01-PASSED-ONE       PIC X(32)
                                               VALUE SPACES.
               10  WK01-MAP-RESPONSE-Z              PIC X(1)
                                               VALUE SPACE.
               10  WK01-MAP-RESPONSE-F              PIC X(1)
                                               VALUE SPACE.
               10  WK01-MAP-RESPONSE-A              PIC X(1)
                                               VALUE SPACE.
               10  WK01-MAP-RESPONSE-V              PIC X(1)
                                               VALUE SPACE.
               10  WK01-MAP-RESPONSE-O              PIC X(1)
                                               VALUE SPACE.
               10  WK01-MAP-RESPONSE       PIC X(8)
                                               VALUE SPACES.
               10  WK01-TEXT-SY00-Z              PIC X(1)
                                               VALUE SPACE.
               10  WK01-TEXT-SY00-F              PIC X(1)
                                               VALUE SPACE.
               10  WK01-TEXT-SY00-A              PIC X(1)
                                               VALUE SPACE.
               10  WK01-TEXT-SY00-V              PIC X(1)
                                               VALUE SPACE.
               10  WK01-TEXT-SY00-O              PIC X(1)
                                               VALUE SPACE.
               10  WK01-TEXT-SY00       PIC X(14)
                                               VALUE SPACES.
           04  WK01-SUBSCRIPTED-WORK-AREA.
               05  FILLER                      PIC X(1).
               05  WK01-CODE-UT20-F             PIC X(1)
                                               OCCURS 10.
               05  WK01-TO-CODE-UT20-F             PIC X(1)
                                               OCCURS 10.
               05  WK01-TYPE-CODE-UT20-F             PIC X(1)
                                               OCCURS 10.
               05  WK01-NAME-KEY-UT20-F             PIC X(1)
                                               OCCURS 10.
