    ***Created by Convert/DC version V8R03 on 12/04/00 at 10:00***

      *%--------------------------------------------------------------%*
           MOVE DCLINK-MESSAGE  TO WK01-ZZMESSAGE.
      *%--------------------------------------------------------------%*
           MOVE AGR-DATE OF ADSO-APPLICATION-GLOBAL-RECORD TO WK01-DATE.
      *%--------------------------------------------------------------%*
           MOVE AGR-USER-ID OF ADSO-APPLICATION-GLOBAL-RECORD TO
                WK01-USER-ID.
      *%--------------------------------------------------------------%*
           MOVE AGR-FUNC-DESCRIPTION OF ADSO-APPLICATION-GLOBAL-RECORD
                TO WK01-FUNC-DESCRIPTION.
      *%--------------------------------------------------------------%*
           MOVE AGR-PASSED-ONE OF ADSO-APPLICATION-GLOBAL-RECORD TO
                WK01-PASSED-ONE.
      *%--------------------------------------------------------------%*
           MOVE AGR-MAP-RESPONSE OF ADSO-APPLICATION-GLOBAL-RECORD TO
                WK01-MAP-RESPONSE.
      *%--------------------------------------------------------------%*
           MOVE TRMNL-ID-SY00 OF FSYWG00M TO WK01-ID-SY00.
      *%--------------------------------------------------------------%*
           MOVE FULL-NAME-6001-SY00 OF FSYWG00M TO WK01-NAME-6001-SY00.
      *%--------------------------------------------------------------%*
           MOVE AM-PM-FLAG-SY00 OF FSYWG00M TO WK01-PM-FLAG-SY00.
      *%--------------------------------------------------------------%*
           MOVE CURR-RSPNS-ID-SY00 OF FSYWG00M TO WK01-RSPNS-ID-SY00.
      *%--------------------------------------------------------------%*
           MOVE ERROR-TEXT-SY00 OF FSYWG00M TO WK01-TEXT-SY00.
      *%--------------------------------------------------------------%*
           MOVE PAGE-STATUS-CODE-SY00 OF FSYWG00M TO
                WK01-STATUS-CODE-SY00.
      *%--------------------------------------------------------------%*
           MOVE WORK-HH-MM-TIME-SY00 OF FSYWG00M TO
                WK01-HH-MM-TIME-SY00.
      *%--------------------------------------------------------------%*
           MOVE RQST-ADR-TYPE-CODE-UT06 OF FUTWK06 TO
                WK01-ADR-TYPE-CODE-UT06.
      *%--------------------------------------------------------------%*
           MOVE NAME-KEY-6157-R-6186-UT06 OF FUTWM06 TO
                WK01-KEY-6157-R-6186-UT06.
      *%--------------------------------------------------------------%*
           MOVE LINE-ADR-6139-1-6185-UT06 OF FUTWM06(0001) TO
                WK01-ADR-6139-1-6185-UT061.
      *%--------------------------------------------------------------%*
           MOVE LINE-ADR-6139-1-6185-UT06 OF FUTWM06(0002) TO
                WK01-ADR-6139-1-6185-UT062.
      *%--------------------------------------------------------------%*
           MOVE LINE-ADR-6139-1-6185-UT06 OF FUTWM06(0003) TO
                WK01-ADR-6139-1-6185-UT063.
      *%--------------------------------------------------------------%*
           MOVE LINE-ADR-6139-1-6185-UT06 OF FUTWM06(0004) TO
                WK01-ADR-6139-1-6185-UT064.
      *%--------------------------------------------------------------%*
           MOVE LINE-ADR-6139-2-6185-UT06 OF FUTWM06(0001) TO
                WK01-ADR-6139-2-6185-UT061.
      *%--------------------------------------------------------------%*
           MOVE LINE-ADR-6139-2-6185-UT06 OF FUTWM06(0002) TO
                WK01-ADR-6139-2-6185-UT062.
      *%--------------------------------------------------------------%*
           MOVE LINE-ADR-6139-2-6185-UT06 OF FUTWM06(0003) TO
                WK01-ADR-6139-2-6185-UT063.
      *%--------------------------------------------------------------%*
           MOVE LINE-ADR-6139-2-6185-UT06 OF FUTWM06(0004) TO
                WK01-ADR-6139-2-6185-UT064.
      *%--------------------------------------------------------------%*
           MOVE LINE-ADR-6139-3-6185-UT06 OF FUTWM06(0001) TO
                WK01-ADR-6139-3-6185-UT061.
      *%--------------------------------------------------------------%*
           MOVE LINE-ADR-6139-3-6185-UT06 OF FUTWM06(0002) TO
                WK01-ADR-6139-3-6185-UT062.
      *%--------------------------------------------------------------%*
           MOVE LINE-ADR-6139-3-6185-UT06 OF FUTWM06(0003) TO
                WK01-ADR-6139-3-6185-UT063.
      *%--------------------------------------------------------------%*
           MOVE LINE-ADR-6139-3-6185-UT06 OF FUTWM06(0004) TO
                WK01-ADR-6139-3-6185-UT064.
      *%--------------------------------------------------------------%*
           MOVE CITY-NAME-UT06 OF FUTWM06(0001) TO
                WK01-CITY-NAME-UT061.
      *%--------------------------------------------------------------%*
           MOVE CITY-NAME-UT06 OF FUTWM06(0002) TO
                WK01-CITY-NAME-UT062.
      *%--------------------------------------------------------------%*
           MOVE CITY-NAME-UT06 OF FUTWM06(0003) TO
                WK01-CITY-NAME-UT063.
      *%--------------------------------------------------------------%*
           MOVE CITY-NAME-UT06 OF FUTWM06(0004) TO
                WK01-CITY-NAME-UT064.
      *%--------------------------------------------------------------%*
           MOVE STATE-CODE-UT06 OF FUTWM06(0001) TO
                WK01-STATE-CODE-UT061.
      *%--------------------------------------------------------------%*
           MOVE STATE-CODE-UT06 OF FUTWM06(0002) TO
                WK01-STATE-CODE-UT062.
      *%--------------------------------------------------------------%*
           MOVE STATE-CODE-UT06 OF FUTWM06(0003) TO
                WK01-STATE-CODE-UT063.
      *%--------------------------------------------------------------%*
           MOVE STATE-CODE-UT06 OF FUTWM06(0004) TO
                WK01-STATE-CODE-UT064.
      *%--------------------------------------------------------------%*
           MOVE START-DATE-6139-R-6185-UT06 OF FUTWM06(0001) TO
                WK01-DAT-6139-R-6185-UT061.
      *%--------------------------------------------------------------%*
           MOVE START-DATE-6139-R-6185-UT06 OF FUTWM06(0002) TO
                WK01-DAT-6139-R-6185-UT062.
      *%--------------------------------------------------------------%*
           MOVE START-DATE-6139-R-6185-UT06 OF FUTWM06(0003) TO
                WK01-DAT-6139-R-6185-UT063.
      *%--------------------------------------------------------------%*
           MOVE START-DATE-6139-R-6185-UT06 OF FUTWM06(0004) TO
                WK01-DAT-6139-R-6185-UT064.
      *%--------------------------------------------------------------%*
      *%--------------------------------------------------------------%*
           MOVE END-DATE-6139-R-6185-UT06 OF FUTWM06(0001) TO
                WK01-DAT-6139-R-6185-UT0A1.
      *%--------------------------------------------------------------%*
           MOVE END-DATE-6139-R-6185-UT06 OF FUTWM06(0002) TO
                WK01-DAT-6139-R-6185-UT0A2.
      *%--------------------------------------------------------------%*
           MOVE END-DATE-6139-R-6185-UT06 OF FUTWM06(0003) TO
                WK01-DAT-6139-R-6185-UT0A3.
      *%--------------------------------------------------------------%*
           MOVE END-DATE-6139-R-6185-UT06 OF FUTWM06(0004) TO
                WK01-DAT-6139-R-6185-UT0A4.
      *%--------------------------------------------------------------%*
      *%--------------------------------------------------------------%*
           MOVE ADR-TYPE-6139-R-6185-UT06 OF FUTWM06(0001) TO
                WK01-TYP-6139-R-6185-UT061.
      *%--------------------------------------------------------------%*
           MOVE ADR-TYPE-6139-R-6185-UT06 OF FUTWM06(0002) TO
                WK01-TYP-6139-R-6185-UT062.
      *%--------------------------------------------------------------%*
           MOVE ADR-TYPE-6139-R-6185-UT06 OF FUTWM06(0003) TO
                WK01-TYP-6139-R-6185-UT063.
      *%--------------------------------------------------------------%*
           MOVE ADR-TYPE-6139-R-6185-UT06 OF FUTWM06(0004) TO
                WK01-TYP-6139-R-6185-UT064.
      *%--------------------------------------------------------------%*
      *%--------------------------------------------------------------%*
           MOVE ACH-IND-UT06 OF FUTWM06(0001) TO
                WK01-ACH-IND-UT061
      *%--------------------------------------------------------------%*
           MOVE ACH-IND-UT06 OF FUTWM06(0002) TO
                WK01-ACH-IND-UT062
      *%--------------------------------------------------------------%*
           MOVE ACH-IND-UT06 OF FUTWM06(0003) TO
                WK01-ACH-IND-UT063
      *%--------------------------------------------------------------%*
           MOVE ACH-IND-UT06 OF FUTWM06(0004) TO
                WK01-ACH-IND-UT064.
      *%--------------------------------------------------------------%*
      *%--------------------------------------------------------------%*
           MOVE ACTN-CODE-UT06 OF FUTWM06(0001) TO WK01-CODE-UT061.
      *%--------------------------------------------------------------%*
           MOVE ACTN-CODE-UT06 OF FUTWM06(0002) TO WK01-CODE-UT062.
      *%--------------------------------------------------------------%*
           MOVE ACTN-CODE-UT06 OF FUTWM06(0003) TO WK01-CODE-UT063.
      *%--------------------------------------------------------------%*
           MOVE ACTN-CODE-UT06 OF FUTWM06(0004) TO WK01-CODE-UT064.
      *%--------------------------------------------------------------%*
      *%--------------------------------------------------------------%*
           MOVE WORK-PRSN-ID-UT06 OF FUTWK06 TO WK01-PRSN-ID-UT06.
