       01  MAP-CONTROL.

    ***Created by Convert/DC version V8R03 on 12/04/00 at 10:00***

           02  FUTMI06-MAP-CONTROL.
           03  FUTMI06T.
           04  WK01-DCXMAPL-PARMS.
               10  WK01-MAPNAME                  PIC X(8)
                                                 VALUE 'FUTMI06I'.
               10  WK01-IKE-LENGTH               PIC S9(8)  COMP
                                                 VALUE 14968.
               10  WK01-TINA-LENGTH              PIC S9(4)  COMP
                                                 VALUE 1255.
           05  WK01-ATTRIBUTES                   PIC X(60)
                                                 VALUE SPACE.
           05  WK01-ATTRIBUTES-ERROR             PIC X(60) VALUE
               'U  BIF'.
           05  WK01-CURSOR-DFLD                  PIC X(36)
                                                 VALUE SPACES.
           05  WK01-CURSOR-DFLD-QUAL             PIC X(30)
                                                 VALUE SPACES.
           05  WK01-ROW                          PIC S9(4) COMP
                                                 VALUE ZERO.
           05  WK01-COLUMN                       PIC S9(4) COMP
                                                 VALUE ZERO.
           05  WK01-ERROR-MSG                    PIC X(80)
                                                 VALUE SPACES.
           05  WK01-MAP-DATA-LEN                 PIC S9(6)
                                                 VALUE ZERO.
           05  WK01-1ST-FLAG                     PIC X(1)
                                                 VALUE 'Y'.
           05  WK01-FLAG-OUTPUT-DATA             PIC X(1)
                                                 VALUE 'Y'.
      *    05  WK01-STATUS-RETURN-FLAG           PIC X(1)
      *                                          VALUE SPACES.
           05  WK01-ALL-BUT-FLAG                 PIC X(1)
                                                 VALUE SPACES.
           05  WK01-FLAG-ALL-FIELDS-CHANGED      PIC X(1)  VALUE 'Y'.
           05  WK01-FLAG-ANY-FIELDS-CHANGED      PIC X(1)  VALUE 'N'.
           05  WK01-FLAG-ALL-FIELDS-ERROR        PIC X(1)  VALUE 'Y'.
           05  WK01-FLAG-ANY-FIELDS-ERROR        PIC X(1)  VALUE 'N'.
           05  WK01-FLAG-ALL-FIELDS-ERASE        PIC X(1)  VALUE 'Y'.
           05  WK01-FLAG-ANY-FIELDS-ERASE        PIC X(1)  VALUE 'Y'.

           05  WK01-VARDATA                      PIC X(11880)
                                                 VALUE SPACES.
           05  FILLER                            PIC X(100)
                                                 VALUE SPACES.
           04  WK01-ELEMENT-AREA.

               10  WK01-ID-SY00-Z              PIC X(1)
                                               VALUE SPACE.
               10  WK01-ID-SY00-F              PIC X(1)
                                               VALUE SPACE.
               10  WK01-ID-SY00-A              PIC X(1)
                                               VALUE SPACE.
               10  WK01-ID-SY00-V              PIC X(1)
                                               VALUE SPACE.
               10  WK01-ID-SY00-O              PIC X(1)
                                               VALUE SPACE.
               10  WK01-ID-SY00       PIC X(8)
                                               VALUE SPACES.
               10  WK01-NAME-6001-SY00-Z              PIC X(1)
                                               VALUE SPACE.
               10  WK01-NAME-6001-SY00-F              PIC X(1)
                                               VALUE SPACE.
               10  WK01-NAME-6001-SY00-A              PIC X(1)
                                               VALUE SPACE.
               10  WK01-NAME-6001-SY00-V              PIC X(1)
                                               VALUE SPACE.
               10  WK01-NAME-6001-SY00-O              PIC X(1)
                                               VALUE SPACE.
               10  WK01-NAME-6001-SY00       PIC X(35)
                                               VALUE SPACES.
               10  WK01-DATE-Z              PIC X(1)
                                               VALUE SPACE.
               10  WK01-DATE-F              PIC X(1)
                                               VALUE SPACE.
               10  WK01-DATE-A              PIC X(1)
                                               VALUE SPACE.
               10  WK01-DATE-V              PIC X(1)
                                               VALUE SPACE.
               10  WK01-DATE-O              PIC X(1)
                                               VALUE SPACE.
               10  WK01-DATE       PIC X(8)
                                               VALUE SPACES.
               10  WK01-HH-MM-TIME-SY00-Z              PIC X(1)
                                               VALUE SPACE.
               10  WK01-HH-MM-TIME-SY00-F              PIC X(1)
                                               VALUE SPACE.
               10  WK01-HH-MM-TIME-SY00-A              PIC X(1)
                                               VALUE SPACE.
               10  WK01-HH-MM-TIME-SY00-V              PIC X(1)
                                               VALUE SPACE.
               10  WK01-HH-MM-TIME-SY00-O              PIC X(1)
                                               VALUE SPACE.
               10  WK01-HH-MM-TIME-SY00       PIC X(4)
                                               VALUE SPACES.
               10  WK01-PM-FLAG-SY00-Z              PIC X(1)
                                               VALUE SPACE.
               10  WK01-PM-FLAG-SY00-F              PIC X(1)
                                               VALUE SPACE.
               10  WK01-PM-FLAG-SY00-A              PIC X(1)
                                               VALUE SPACE.
               10  WK01-PM-FLAG-SY00-V              PIC X(1)
                                               VALUE SPACE.
               10  WK01-PM-FLAG-SY00-O              PIC X(1)
                                               VALUE SPACE.
               10  WK01-PM-FLAG-SY00       PIC X(1)
                                               VALUE SPACES.
               10  WK01-USER-ID-Z              PIC X(1)
                                               VALUE SPACE.
               10  WK01-USER-ID-F              PIC X(1)
                                               VALUE SPACE.
               10  WK01-USER-ID-A              PIC X(1)
                                               VALUE SPACE.
               10  WK01-USER-ID-V              PIC X(1)
                                               VALUE SPACE.
               10  WK01-USER-ID-O              PIC X(1)
                                               VALUE SPACE.
               10  WK01-USER-ID       PIC X(32)
                                               VALUE SPACES.
               10  WK01-RSPNS-ID-SY00-Z              PIC X(1)
                                               VALUE SPACE.
               10  WK01-RSPNS-ID-SY00-F              PIC X(1)
                                               VALUE SPACE.
               10  WK01-RSPNS-ID-SY00-A              PIC X(1)
                                               VALUE SPACE.
               10  WK01-RSPNS-ID-SY00-V              PIC X(1)
                                               VALUE SPACE.
               10  WK01-RSPNS-ID-SY00-O              PIC X(1)
                                               VALUE SPACE.
               10  WK01-RSPNS-ID-SY00       PIC X(8)
                                               VALUE SPACES.
               10  WK01-FUNC-DESCRIPTION-Z              PIC X(1)
                                               VALUE SPACE.
               10  WK01-FUNC-DESCRIPTION-F              PIC X(1)
                                               VALUE SPACE.
               10  WK01-FUNC-DESCRIPTION-A              PIC X(1)
                                               VALUE SPACE.
               10  WK01-FUNC-DESCRIPTION-V              PIC X(1)
                                               VALUE SPACE.
               10  WK01-FUNC-DESCRIPTION-O              PIC X(1)
                                               VALUE SPACE.
               10  WK01-FUNC-DESCRIPTION       PIC X(28)
                                               VALUE SPACES.
               10  WK01-STATUS-CODE-SY00-Z              PIC X(1)
                                               VALUE SPACE.
               10  WK01-STATUS-CODE-SY00-F              PIC X(1)
                                               VALUE SPACE.
               10  WK01-STATUS-CODE-SY00-A              PIC X(1)
                                               VALUE SPACE.
               10  WK01-STATUS-CODE-SY00-V              PIC X(1)
                                               VALUE SPACE.
               10  WK01-STATUS-CODE-SY00-O              PIC X(1)
                                               VALUE SPACE.
               10  WK01-STATUS-CODE-SY00       PIC X(1)
                                               VALUE SPACES.
               10  WK01-PRSN-ID-UT06-Z              PIC X(1)
                                               VALUE SPACE.
               10  WK01-PRSN-ID-UT06-F              PIC X(1)
                                               VALUE SPACE.
               10  WK01-PRSN-ID-UT06-A              PIC X(1)
                                               VALUE SPACE.
               10  WK01-PRSN-ID-UT06-V              PIC X(1)
                                               VALUE SPACE.
               10  WK01-PRSN-ID-UT06-O              PIC X(1)
                                               VALUE SPACE.
               10  WK01-PRSN-ID-UT06       PIC X(9)
                                               VALUE SPACES.
               10  WK01-KEY-6157-R-6186-UT06-Z              PIC X(1)
                                               VALUE SPACE.
               10  WK01-KEY-6157-R-6186-UT06-F              PIC X(1)
                                               VALUE SPACE.
               10  WK01-KEY-6157-R-6186-UT06-A              PIC X(1)
                                               VALUE SPACE.
               10  WK01-KEY-6157-R-6186-UT06-V              PIC X(1)
                                               VALUE SPACE.
               10  WK01-KEY-6157-R-6186-UT06-O              PIC X(1)
                                               VALUE SPACE.
               10  WK01-KEY-6157-R-6186-UT06       PIC X(35)
                                               VALUE SPACES.
               10  WK01-CODE-UT061-Z              PIC X(1)
                                               VALUE SPACE.
               10  WK01-CODE-UT061-F              PIC X(1)
                                               VALUE SPACE.
               10  WK01-CODE-UT061-A              PIC X(1)
                                               VALUE SPACE.
               10  WK01-CODE-UT061-V              PIC X(1)
                                               VALUE SPACE.
               10  WK01-CODE-UT061-O              PIC X(1)
                                               VALUE SPACE.
               10  WK01-CODE-UT061       PIC X(1)
                                               VALUE SPACES.
               10  WK01-TYP-6139-R-6185-UT061-Z              PIC X(1)
                                               VALUE SPACE.
               10  WK01-TYP-6139-R-6185-UT061-F              PIC X(1)
                                               VALUE SPACE.
               10  WK01-TYP-6139-R-6185-UT061-A              PIC X(1)
                                               VALUE SPACE.
               10  WK01-TYP-6139-R-6185-UT061-V              PIC X(1)
                                               VALUE SPACE.
               10  WK01-TYP-6139-R-6185-UT061-O              PIC X(1)
                                               VALUE SPACE.
               10  WK01-TYP-6139-R-6185-UT061       PIC X(2)
                                               VALUE SPACES.
               10  WK01-ADR-6139-1-6185-UT061-Z              PIC X(1)
                                               VALUE SPACE.
               10  WK01-ADR-6139-1-6185-UT061-F              PIC X(1)
                                               VALUE SPACE.
               10  WK01-ADR-6139-1-6185-UT061-A              PIC X(1)
                                               VALUE SPACE.
               10  WK01-ADR-6139-1-6185-UT061-V              PIC X(1)
                                               VALUE SPACE.
               10  WK01-ADR-6139-1-6185-UT061-O              PIC X(1)
                                               VALUE SPACE.
               10  WK01-ADR-6139-1-6185-UT061       PIC X(35)
                                               VALUE SPACES.
               10  WK01-DAT-6139-R-6185-UT061-Z              PIC X(1)
                                               VALUE SPACE.
               10  WK01-DAT-6139-R-6185-UT061-F              PIC X(1)
                                               VALUE SPACE.
               10  WK01-DAT-6139-R-6185-UT061-A              PIC X(1)
                                               VALUE SPACE.
               10  WK01-DAT-6139-R-6185-UT061-V              PIC X(1)
                                               VALUE SPACE.
               10  WK01-DAT-6139-R-6185-UT061-O              PIC X(1)
                                               VALUE SPACE.
               10  WK01-DAT-6139-R-6185-UT061       PIC X(6)
                                               VALUE SPACES.
               10  WK01-DAT-6139-R-6185-UT0A1-Z              PIC X(1)
                                               VALUE SPACE.
               10  WK01-DAT-6139-R-6185-UT0A1-F              PIC X(1)
                                               VALUE SPACE.
               10  WK01-DAT-6139-R-6185-UT0A1-A              PIC X(1)
                                               VALUE SPACE.
               10  WK01-DAT-6139-R-6185-UT0A1-V              PIC X(1)
                                               VALUE SPACE.
               10  WK01-DAT-6139-R-6185-UT0A1-O              PIC X(1)
                                               VALUE SPACE.
               10  WK01-DAT-6139-R-6185-UT0A1       PIC X(6)
                                               VALUE SPACES.

               10  WK01-ACH-IND-UT061-Z           PIC X(1)
                                               VALUE SPACE.
               10  WK01-ACH-IND-UT061-F           PIC X(1)
                                               VALUE SPACE.
               10  WK01-ACH-IND-UT061-A           PIC X(1)
                                               VALUE SPACE.
               10  WK01-ACH-IND-UT061-V           PIC X(1)
                                               VALUE SPACE.
               10  WK01-ACH-IND-UT061-O           PIC X(1)
                                               VALUE SPACE.
               10  WK01-ACH-IND-UT061    PIC X(1)
                                               VALUE SPACES.
               10  WK01-ADR-6139-2-6185-UT061-Z              PIC X(1)
                                               VALUE SPACE.
               10  WK01-ADR-6139-2-6185-UT061-F              PIC X(1)
                                               VALUE SPACE.
               10  WK01-ADR-6139-2-6185-UT061-A              PIC X(1)
                                               VALUE SPACE.
               10  WK01-ADR-6139-2-6185-UT061-V              PIC X(1)
                                               VALUE SPACE.
               10  WK01-ADR-6139-2-6185-UT061-O              PIC X(1)
                                               VALUE SPACE.
               10  WK01-ADR-6139-2-6185-UT061       PIC X(35)
                                               VALUE SPACES.
DMW
               10  WK01-ADR-6139-3-6185-UT061-Z              PIC X(1)
                                               VALUE SPACE.
               10  WK01-ADR-6139-3-6185-UT061-F              PIC X(1)
                                               VALUE SPACE.
               10  WK01-ADR-6139-3-6185-UT061-A              PIC X(1)
                                               VALUE SPACE.
               10  WK01-ADR-6139-3-6185-UT061-V              PIC X(1)
                                               VALUE SPACE.
               10  WK01-ADR-6139-3-6185-UT061-O              PIC X(1)
                                               VALUE SPACE.
               10  WK01-ADR-6139-3-6185-UT061       PIC X(35)
                                               VALUE SPACES.
DMW
               10  WK01-CITY-NAME-UT061-Z                    PIC X(1)
                                               VALUE SPACE.
               10  WK01-CITY-NAME-UT061-F                    PIC X(1)
                                               VALUE SPACE.
               10  WK01-CITY-NAME-UT061-A                    PIC X(1)
                                               VALUE SPACE.
               10  WK01-CITY-NAME-UT061-V                    PIC X(1)
                                               VALUE SPACE.
               10  WK01-CITY-NAME-UT061-O                    PIC X(1)
                                               VALUE SPACE.
               10  WK01-CITY-NAME-UT061             PIC X(18)
                                               VALUE SPACES.
DMW
               10  WK01-STATE-CODE-UT061-Z                   PIC X(1)
                                               VALUE SPACE.
               10  WK01-STATE-CODE-UT061-F                   PIC X(1)
                                               VALUE SPACE.
               10  WK01-STATE-CODE-UT061-A                   PIC X(1)
                                               VALUE SPACE.
               10  WK01-STATE-CODE-UT061-V                   PIC X(1)
                                               VALUE SPACE.
               10  WK01-STATE-CODE-UT061-O                   PIC X(1)
                                               VALUE SPACE.
               10  WK01-STATE-CODE-UT061            PIC X(02)
                                               VALUE SPACES.
               10  WK01-CODE-UT062-Z              PIC X(1)
                                               VALUE SPACE.
               10  WK01-CODE-UT062-F              PIC X(1)
                                               VALUE SPACE.
               10  WK01-CODE-UT062-A              PIC X(1)
                                               VALUE SPACE.
               10  WK01-CODE-UT062-V              PIC X(1)
                                               VALUE SPACE.
               10  WK01-CODE-UT062-O              PIC X(1)
                                               VALUE SPACE.
               10  WK01-CODE-UT062                PIC X(1)
                                               VALUE SPACES.
               10  WK01-TYP-6139-R-6185-UT062-Z              PIC X(1)
                                               VALUE SPACE.
               10  WK01-TYP-6139-R-6185-UT062-F              PIC X(1)
                                               VALUE SPACE.
               10  WK01-TYP-6139-R-6185-UT062-A              PIC X(1)
                                               VALUE SPACE.
               10  WK01-TYP-6139-R-6185-UT062-V              PIC X(1)
                                               VALUE SPACE.
               10  WK01-TYP-6139-R-6185-UT062-O              PIC X(1)
                                               VALUE SPACE.
               10  WK01-TYP-6139-R-6185-UT062       PIC X(2)
                                               VALUE SPACES.
               10  WK01-ADR-6139-1-6185-UT062-Z              PIC X(1)
                                               VALUE SPACE.
               10  WK01-ADR-6139-1-6185-UT062-F              PIC X(1)
                                               VALUE SPACE.
               10  WK01-ADR-6139-1-6185-UT062-A              PIC X(1)
                                               VALUE SPACE.
               10  WK01-ADR-6139-1-6185-UT062-V              PIC X(1)
                                               VALUE SPACE.
               10  WK01-ADR-6139-1-6185-UT062-O              PIC X(1)
                                               VALUE SPACE.
               10  WK01-ADR-6139-1-6185-UT062       PIC X(35)
                                               VALUE SPACES.
               10  WK01-DAT-6139-R-6185-UT062-Z              PIC X(1)
                                               VALUE SPACE.
               10  WK01-DAT-6139-R-6185-UT062-F              PIC X(1)
                                               VALUE SPACE.
               10  WK01-DAT-6139-R-6185-UT062-A              PIC X(1)
                                               VALUE SPACE.
               10  WK01-DAT-6139-R-6185-UT062-V              PIC X(1)
                                               VALUE SPACE.
               10  WK01-DAT-6139-R-6185-UT062-O              PIC X(1)
                                               VALUE SPACE.
               10  WK01-DAT-6139-R-6185-UT062       PIC X(6)
                                               VALUE SPACES.
               10  WK01-DAT-6139-R-6185-UT0A2-Z              PIC X(1)
                                               VALUE SPACE.
               10  WK01-DAT-6139-R-6185-UT0A2-F              PIC X(1)
                                               VALUE SPACE.
               10  WK01-DAT-6139-R-6185-UT0A2-A              PIC X(1)
                                               VALUE SPACE.
               10  WK01-DAT-6139-R-6185-UT0A2-V              PIC X(1)
                                               VALUE SPACE.
               10  WK01-DAT-6139-R-6185-UT0A2-O              PIC X(1)
                                               VALUE SPACE.
               10  WK01-DAT-6139-R-6185-UT0A2       PIC X(6)
                                               VALUE SPACES.
               10  WK01-ACH-IND-UT062-Z           PIC X(1)
                                               VALUE SPACE.
               10  WK01-ACH-IND-UT062-F           PIC X(1)
                                               VALUE SPACE.
               10  WK01-ACH-IND-UT062-A           PIC X(1)
                                               VALUE SPACE.
               10  WK01-ACH-IND-UT062-V           PIC X(1)
                                               VALUE SPACE.
               10  WK01-ACH-IND-UT062-O           PIC X(1)
                                               VALUE SPACE.
               10  WK01-ACH-IND-UT062    PIC X(1)
                                               VALUE SPACES.
               10  WK01-ADR-6139-2-6185-UT062-Z              PIC X(1)
                                               VALUE SPACE.
               10  WK01-ADR-6139-2-6185-UT062-F              PIC X(1)
                                               VALUE SPACE.
               10  WK01-ADR-6139-2-6185-UT062-A              PIC X(1)
                                               VALUE SPACE.
               10  WK01-ADR-6139-2-6185-UT062-V              PIC X(1)
                                               VALUE SPACE.
               10  WK01-ADR-6139-2-6185-UT062-O              PIC X(1)
                                               VALUE SPACE.
               10  WK01-ADR-6139-2-6185-UT062       PIC X(35)
                                               VALUE SPACES.
DMW
               10  WK01-ADR-6139-3-6185-UT062-Z              PIC X(1)
                                               VALUE SPACE.
               10  WK01-ADR-6139-3-6185-UT062-F              PIC X(1)
                                               VALUE SPACE.
               10  WK01-ADR-6139-3-6185-UT062-A              PIC X(1)
                                               VALUE SPACE.
               10  WK01-ADR-6139-3-6185-UT062-V              PIC X(1)
                                               VALUE SPACE.
               10  WK01-ADR-6139-3-6185-UT062-O              PIC X(1)
                                               VALUE SPACE.
               10  WK01-ADR-6139-3-6185-UT062       PIC X(35)
                                               VALUE SPACES.
DMW
               10  WK01-CITY-NAME-UT062-Z                    PIC X(1)
                                               VALUE SPACE.
               10  WK01-CITY-NAME-UT062-F                    PIC X(1)
                                               VALUE SPACE.
               10  WK01-CITY-NAME-UT062-A                    PIC X(1)
                                               VALUE SPACE.
               10  WK01-CITY-NAME-UT062-V                    PIC X(1)
                                               VALUE SPACE.
               10  WK01-CITY-NAME-UT062-O                    PIC X(1)
                                               VALUE SPACE.
               10  WK01-CITY-NAME-UT062             PIC X(18)
                                               VALUE SPACES.
DMW
               10  WK01-STATE-CODE-UT062-Z                   PIC X(1)
                                               VALUE SPACE.
               10  WK01-STATE-CODE-UT062-F                   PIC X(1)
                                               VALUE SPACE.
               10  WK01-STATE-CODE-UT062-A                   PIC X(1)
                                               VALUE SPACE.
               10  WK01-STATE-CODE-UT062-V                   PIC X(1)
                                               VALUE SPACE.
               10  WK01-STATE-CODE-UT062-O                   PIC X(1)
                                               VALUE SPACE.
               10  WK01-STATE-CODE-UT062            PIC X(02)
                                               VALUE SPACES.
               10  WK01-CODE-UT063-Z              PIC X(1)
                                               VALUE SPACE.
               10  WK01-CODE-UT063-F              PIC X(1)
                                               VALUE SPACE.
               10  WK01-CODE-UT063-A              PIC X(1)
                                               VALUE SPACE.
               10  WK01-CODE-UT063-V              PIC X(1)
                                               VALUE SPACE.
               10  WK01-CODE-UT063-O              PIC X(1)
                                               VALUE SPACE.
               10  WK01-CODE-UT063       PIC X(1)
                                               VALUE SPACES.
               10  WK01-TYP-6139-R-6185-UT063-Z              PIC X(1)
                                               VALUE SPACE.
               10  WK01-TYP-6139-R-6185-UT063-F              PIC X(1)
                                               VALUE SPACE.
               10  WK01-TYP-6139-R-6185-UT063-A              PIC X(1)
                                               VALUE SPACE.
               10  WK01-TYP-6139-R-6185-UT063-V              PIC X(1)
                                               VALUE SPACE.
               10  WK01-TYP-6139-R-6185-UT063-O              PIC X(1)
                                               VALUE SPACE.
               10  WK01-TYP-6139-R-6185-UT063       PIC X(2)
                                               VALUE SPACES.
               10  WK01-ADR-6139-1-6185-UT063-Z              PIC X(1)
                                               VALUE SPACE.
               10  WK01-ADR-6139-1-6185-UT063-F              PIC X(1)
                                               VALUE SPACE.
               10  WK01-ADR-6139-1-6185-UT063-A              PIC X(1)
                                               VALUE SPACE.
               10  WK01-ADR-6139-1-6185-UT063-V              PIC X(1)
                                               VALUE SPACE.
               10  WK01-ADR-6139-1-6185-UT063-O              PIC X(1)
                                               VALUE SPACE.
               10  WK01-ADR-6139-1-6185-UT063       PIC X(35)
                                               VALUE SPACES.
               10  WK01-DAT-6139-R-6185-UT063-Z              PIC X(1)
                                               VALUE SPACE.
               10  WK01-DAT-6139-R-6185-UT063-F              PIC X(1)
                                               VALUE SPACE.
               10  WK01-DAT-6139-R-6185-UT063-A              PIC X(1)
                                               VALUE SPACE.
               10  WK01-DAT-6139-R-6185-UT063-V              PIC X(1)
                                               VALUE SPACE.
               10  WK01-DAT-6139-R-6185-UT063-O              PIC X(1)
                                               VALUE SPACE.
               10  WK01-DAT-6139-R-6185-UT063       PIC X(6)
                                               VALUE SPACES.
               10  WK01-DAT-6139-R-6185-UT0A3-Z              PIC X(1)
                                               VALUE SPACE.
               10  WK01-DAT-6139-R-6185-UT0A3-F              PIC X(1)
                                               VALUE SPACE.
               10  WK01-DAT-6139-R-6185-UT0A3-A              PIC X(1)
                                               VALUE SPACE.
               10  WK01-DAT-6139-R-6185-UT0A3-V              PIC X(1)
                                               VALUE SPACE.
               10  WK01-DAT-6139-R-6185-UT0A3-O              PIC X(1)
                                               VALUE SPACE.
               10  WK01-DAT-6139-R-6185-UT0A3       PIC X(6)
                                               VALUE SPACES.
               10  WK01-ACH-IND-UT063-Z           PIC X(1)
                                               VALUE SPACE.
               10  WK01-ACH-IND-UT063-F           PIC X(1)
                                               VALUE SPACE.
               10  WK01-ACH-IND-UT063-A           PIC X(1)
                                               VALUE SPACE.
               10  WK01-ACH-IND-UT063-V           PIC X(1)
                                               VALUE SPACE.
               10  WK01-ACH-IND-UT063-O           PIC X(1)
                                               VALUE SPACE.
               10  WK01-ACH-IND-UT063    PIC X(1)
                                               VALUE SPACES.
               10  WK01-ADR-6139-2-6185-UT063-Z              PIC X(1)
                                               VALUE SPACE.
               10  WK01-ADR-6139-2-6185-UT063-F              PIC X(1)
                                               VALUE SPACE.
               10  WK01-ADR-6139-2-6185-UT063-A              PIC X(1)
                                               VALUE SPACE.
               10  WK01-ADR-6139-2-6185-UT063-V              PIC X(1)
                                               VALUE SPACE.
               10  WK01-ADR-6139-2-6185-UT063-O              PIC X(1)
                                               VALUE SPACE.
               10  WK01-ADR-6139-2-6185-UT063       PIC X(35)
                                               VALUE SPACES.
DMW
               10  WK01-ADR-6139-3-6185-UT063-Z              PIC X(1)
                                               VALUE SPACE.
               10  WK01-ADR-6139-3-6185-UT063-F              PIC X(1)
                                               VALUE SPACE.
               10  WK01-ADR-6139-3-6185-UT063-A              PIC X(1)
                                               VALUE SPACE.
               10  WK01-ADR-6139-3-6185-UT063-V              PIC X(1)
                                               VALUE SPACE.
               10  WK01-ADR-6139-3-6185-UT063-O              PIC X(1)
                                               VALUE SPACE.
               10  WK01-ADR-6139-3-6185-UT063       PIC X(35)
                                               VALUE SPACES.
DMW
               10  WK01-CITY-NAME-UT063-Z                    PIC X(1)
                                               VALUE SPACE.
               10  WK01-CITY-NAME-UT063-F                    PIC X(1)
                                               VALUE SPACE.
               10  WK01-CITY-NAME-UT063-A                    PIC X(1)
                                               VALUE SPACE.
               10  WK01-CITY-NAME-UT063-V                    PIC X(1)
                                               VALUE SPACE.
               10  WK01-CITY-NAME-UT063-O                    PIC X(1)
                                               VALUE SPACE.
               10  WK01-CITY-NAME-UT063             PIC X(18)
                                               VALUE SPACES.
DMW
               10  WK01-STATE-CODE-UT063-Z                   PIC X(1)
                                               VALUE SPACE.
               10  WK01-STATE-CODE-UT063-F                   PIC X(1)
                                               VALUE SPACE.
               10  WK01-STATE-CODE-UT063-A                   PIC X(1)
                                               VALUE SPACE.
               10  WK01-STATE-CODE-UT063-V                   PIC X(1)
                                               VALUE SPACE.
               10  WK01-STATE-CODE-UT063-O                   PIC X(1)
                                               VALUE SPACE.
               10  WK01-STATE-CODE-UT063            PIC X(02)
                                               VALUE SPACES.
               10  WK01-CODE-UT064-Z              PIC X(1)
                                               VALUE SPACE.
               10  WK01-CODE-UT064-F              PIC X(1)
                                               VALUE SPACE.
               10  WK01-CODE-UT064-A              PIC X(1)
                                               VALUE SPACE.
               10  WK01-CODE-UT064-V              PIC X(1)
                                               VALUE SPACE.
               10  WK01-CODE-UT064-O              PIC X(1)
                                               VALUE SPACE.
               10  WK01-CODE-UT064       PIC X(1)
                                               VALUE SPACES.
               10  WK01-TYP-6139-R-6185-UT064-Z              PIC X(1)
                                               VALUE SPACE.
               10  WK01-TYP-6139-R-6185-UT064-F              PIC X(1)
                                               VALUE SPACE.
               10  WK01-TYP-6139-R-6185-UT064-A              PIC X(1)
                                               VALUE SPACE.
               10  WK01-TYP-6139-R-6185-UT064-V              PIC X(1)
                                               VALUE SPACE.
               10  WK01-TYP-6139-R-6185-UT064-O              PIC X(1)
                                               VALUE SPACE.
               10  WK01-TYP-6139-R-6185-UT064       PIC X(2)
                                               VALUE SPACES.
               10  WK01-ADR-6139-1-6185-UT064-Z              PIC X(1)
                                               VALUE SPACE.
               10  WK01-ADR-6139-1-6185-UT064-F              PIC X(1)
                                               VALUE SPACE.
               10  WK01-ADR-6139-1-6185-UT064-A              PIC X(1)
                                               VALUE SPACE.
               10  WK01-ADR-6139-1-6185-UT064-V              PIC X(1)
                                               VALUE SPACE.
               10  WK01-ADR-6139-1-6185-UT064-O              PIC X(1)
                                               VALUE SPACE.
               10  WK01-ADR-6139-1-6185-UT064       PIC X(35)
                                               VALUE SPACES.
               10  WK01-DAT-6139-R-6185-UT064-Z              PIC X(1)
                                               VALUE SPACE.
               10  WK01-DAT-6139-R-6185-UT064-F              PIC X(1)
                                               VALUE SPACE.
               10  WK01-DAT-6139-R-6185-UT064-A              PIC X(1)
                                               VALUE SPACE.
               10  WK01-DAT-6139-R-6185-UT064-V              PIC X(1)
                                               VALUE SPACE.
               10  WK01-DAT-6139-R-6185-UT064-O              PIC X(1)
                                               VALUE SPACE.
               10  WK01-DAT-6139-R-6185-UT064       PIC X(6)
                                               VALUE SPACES.
               10  WK01-DAT-6139-R-6185-UT0A4-Z              PIC X(1)
                                               VALUE SPACE.
               10  WK01-DAT-6139-R-6185-UT0A4-F              PIC X(1)
                                               VALUE SPACE.
               10  WK01-DAT-6139-R-6185-UT0A4-A              PIC X(1)
                                               VALUE SPACE.
               10  WK01-DAT-6139-R-6185-UT0A4-V              PIC X(1)
                                               VALUE SPACE.
               10  WK01-DAT-6139-R-6185-UT0A4-O              PIC X(1)
                                               VALUE SPACE.
               10  WK01-DAT-6139-R-6185-UT0A4       PIC X(6)
                                               VALUE SPACES.
               10  WK01-ACH-IND-UT064-Z           PIC X(1)
                                               VALUE SPACE.
               10  WK01-ACH-IND-UT064-F           PIC X(1)
                                               VALUE SPACE.
               10  WK01-ACH-IND-UT064-A           PIC X(1)
                                               VALUE SPACE.
               10  WK01-ACH-IND-UT064-V           PIC X(1)
                                               VALUE SPACE.
               10  WK01-ACH-IND-UT064-O           PIC X(1)
                                               VALUE SPACE.
               10  WK01-ACH-IND-UT064    PIC X(1)
                                               VALUE SPACES.
               10  WK01-ADR-6139-2-6185-UT064-Z              PIC X(1)
                                               VALUE SPACE.
               10  WK01-ADR-6139-2-6185-UT064-F              PIC X(1)
                                               VALUE SPACE.
               10  WK01-ADR-6139-2-6185-UT064-A              PIC X(1)
                                               VALUE SPACE.
               10  WK01-ADR-6139-2-6185-UT064-V              PIC X(1)
                                               VALUE SPACE.
               10  WK01-ADR-6139-2-6185-UT064-O              PIC X(1)
                                               VALUE SPACE.
               10  WK01-ADR-6139-2-6185-UT064       PIC X(35)
                                               VALUE SPACES.
DMW
               10  WK01-ADR-6139-3-6185-UT064-Z              PIC X(1)
                                               VALUE SPACE.
               10  WK01-ADR-6139-3-6185-UT064-F              PIC X(1)
                                               VALUE SPACE.
               10  WK01-ADR-6139-3-6185-UT064-A              PIC X(1)
                                               VALUE SPACE.
               10  WK01-ADR-6139-3-6185-UT064-V              PIC X(1)
                                               VALUE SPACE.
               10  WK01-ADR-6139-3-6185-UT064-O              PIC X(1)
                                               VALUE SPACE.
               10  WK01-ADR-6139-3-6185-UT064       PIC X(35)
                                               VALUE SPACES.
DMW
               10  WK01-CITY-NAME-UT064-Z                    PIC X(1)
                                               VALUE SPACE.
               10  WK01-CITY-NAME-UT064-F                    PIC X(1)
                                               VALUE SPACE.
               10  WK01-CITY-NAME-UT064-A                    PIC X(1)
                                               VALUE SPACE.
               10  WK01-CITY-NAME-UT064-V                    PIC X(1)
                                               VALUE SPACE.
               10  WK01-CITY-NAME-UT064-O                    PIC X(1)
                                               VALUE SPACE.
               10  WK01-CITY-NAME-UT064             PIC X(18)
                                               VALUE SPACES.
DMW
               10  WK01-STATE-CODE-UT064-Z                   PIC X(1)
                                               VALUE SPACE.
               10  WK01-STATE-CODE-UT064-F                   PIC X(1)
                                               VALUE SPACE.
               10  WK01-STATE-CODE-UT064-A                   PIC X(1)
                                               VALUE SPACE.
               10  WK01-STATE-CODE-UT064-V                   PIC X(1)
                                               VALUE SPACE.
               10  WK01-STATE-CODE-UT064-O                   PIC X(1)
                                               VALUE SPACE.
               10  WK01-STATE-CODE-UT064            PIC X(02)
                                               VALUE SPACES.
               10  WK01-ADR-TYPE-CODE-UT06-Z              PIC X(1)
                                               VALUE SPACE.
               10  WK01-ADR-TYPE-CODE-UT06-F              PIC X(1)
                                               VALUE SPACE.
               10  WK01-ADR-TYPE-CODE-UT06-A              PIC X(1)
                                               VALUE SPACE.
               10  WK01-ADR-TYPE-CODE-UT06-V              PIC X(1)
                                               VALUE SPACE.
               10  WK01-ADR-TYPE-CODE-UT06-O              PIC X(1)
                                               VALUE SPACE.
               10  WK01-ADR-TYPE-CODE-UT06       PIC X(2)
                                               VALUE SPACES.
               10  WK01-ZZMESSAGE-Z              PIC X(1)
                                               VALUE SPACE.
               10  WK01-ZZMESSAGE-F              PIC X(1)
                                               VALUE SPACE.
               10  WK01-ZZMESSAGE-A              PIC X(1)
                                               VALUE SPACE.
               10  WK01-ZZMESSAGE-V              PIC X(1)
                                               VALUE SPACE.
               10  WK01-ZZMESSAGE-O              PIC X(1)
                                               VALUE SPACE.
               10  WK01-ZZMESSAGE       PIC X(160)
                                               VALUE SPACES.
               10  WK01-PASSED-ONE-Z              PIC X(1)
                                               VALUE SPACE.
               10  WK01-PASSED-ONE-F              PIC X(1)
                                               VALUE SPACE.
               10  WK01-PASSED-ONE-A              PIC X(1)
                                               VALUE SPACE.
               10  WK01-PASSED-ONE-V              PIC X(1)
                                               VALUE SPACE.
               10  WK01-PASSED-ONE-O              PIC X(1)
                                               VALUE SPACE.
               10  WK01-PASSED-ONE       PIC X(32)
                                               VALUE SPACES.
               10  WK01-MAP-RESPONSE-Z              PIC X(1)
                                               VALUE SPACE.
               10  WK01-MAP-RESPONSE-F              PIC X(1)
                                               VALUE SPACE.
               10  WK01-MAP-RESPONSE-A              PIC X(1)
                                               VALUE SPACE.
               10  WK01-MAP-RESPONSE-V              PIC X(1)
                                               VALUE SPACE.
               10  WK01-MAP-RESPONSE-O              PIC X(1)
                                               VALUE SPACE.
               10  WK01-MAP-RESPONSE       PIC X(8)
                                               VALUE SPACES.
               10  WK01-TEXT-SY00-Z              PIC X(1)
                                               VALUE SPACE.
               10  WK01-TEXT-SY00-F              PIC X(1)
                                               VALUE SPACE.
               10  WK01-TEXT-SY00-A              PIC X(1)
                                               VALUE SPACE.
               10  WK01-TEXT-SY00-V              PIC X(1)
                                               VALUE SPACE.
               10  WK01-TEXT-SY00-O              PIC X(1)
                                               VALUE SPACE.
               10  WK01-TEXT-SY00       PIC X(14)
                                               VALUE SPACES.
           04  WK01-SUBSCRIPTED-WORK-AREA.
               05  FILLER                      PIC X(1).
dmw            05  WK01-ADR-6139-1-6185-UT06-F             PIC X(1)
                                               OCCURS 04.
               05  WK01-ADR-6139-2-6185-UT06-F             PIC X(1)
                                               OCCURS 04.
               05  WK01-ADR-6139-3-6185-UT06-F             PIC X(1)
                                               OCCURS 04.
               05  WK01-CITY-NAME-UT06-F                   PIC X(1)
                                               OCCURS 04.
               05  WK01-STATE-CODE-UT06-F                  PIC X(1)
                                               OCCURS 04.
               05  WK01-DAT-6139-R-6185-UT06-F             PIC X(1)
                                               OCCURS 04.
               05  WK01-DAT-6139-R-6185-UT0A-F             PIC X(1)
                                               OCCURS 04.
               05  WK01-TYP-6139-R-6185-UT06-F             PIC X(1)
                                               OCCURS 04.
               05  WK01-CODE-UT06-F             PIC X(1)
                                               OCCURS 04.
               05  WK01-ACH-IND-UT06-F          PIC X(1)
                                               OCCURS 04.
