      *%--------------------------------------------------------------%*
           MOVE DCLINK-MESSAGE  TO WK01-ZZMESSAGE.
      *%--------------------------------------------------------------%*
           MOVE AGR-DATE OF ADSO-APPLICATION-GLOBAL-RECORD TO WK01-DATE.
      *%--------------------------------------------------------------%*
           MOVE AGR-USER-ID OF ADSO-APPLICATION-GLOBAL-RECORD TO
                WK01-USER-ID.
      *%--------------------------------------------------------------%*
           MOVE AGR-FUNC-DESCRIPTION OF ADSO-APPLICATION-GLOBAL-RECORD
                TO WK01-FUNC-DESCRIPTION.
      *%--------------------------------------------------------------%*
           MOVE AGR-PASSED-ONE OF ADSO-APPLICATION-GLOBAL-RECORD TO
                WK01-PASSED-ONE.
      *%--------------------------------------------------------------%*
           MOVE AGR-MAP-RESPONSE OF ADSO-APPLICATION-GLOBAL-RECORD TO
                WK01-MAP-RESPONSE.
      *%--------------------------------------------------------------%*
           MOVE TRMNL-ID-SY00 OF FSYWG00M TO WK01-ID-SY00.
      *%--------------------------------------------------------------%*
           MOVE FULL-NAME-6001-SY00 OF FSYWG00M TO WK01-NAME-6001-SY00.
      *%--------------------------------------------------------------%*
           MOVE AM-PM-FLAG-SY00 OF FSYWG00M TO WK01-PM-FLAG-SY00.
      *%--------------------------------------------------------------%*
           MOVE CURR-RSPNS-ID-SY00 OF FSYWG00M TO WK01-RSPNS-ID-SY00.
      *%--------------------------------------------------------------%*
           MOVE ERROR-TEXT-SY00 OF FSYWG00M TO WK01-TEXT-SY00.
      *%--------------------------------------------------------------%*
           MOVE PAGE-STATUS-CODE-SY00 OF FSYWG00M TO
                WK01-STATUS-CODE-SY00.
      *%--------------------------------------------------------------%*
           MOVE WORK-HH-MM-TIME-SY00 OF FSYWG00M TO
                WK01-HH-MM-TIME-SY00.
      *%--------------------------------------------------------------%*
           MOVE ACTN-CODE-UT19 OF FUTWN19(0001) TO WK01-CODE-UT191.
      *%--------------------------------------------------------------%*
           MOVE ACTN-CODE-UT19 OF FUTWN19(0002) TO WK01-CODE-UT192.
      *%--------------------------------------------------------------%*
           MOVE ACTN-CODE-UT19 OF FUTWN19(0003) TO WK01-CODE-UT193.
      *%--------------------------------------------------------------%*
           MOVE ACTN-CODE-UT19 OF FUTWN19(0004) TO WK01-CODE-UT194.
      *%--------------------------------------------------------------%*
           MOVE ACTN-CODE-UT19 OF FUTWN19(0005) TO WK01-CODE-UT195.
      *%--------------------------------------------------------------%*
           MOVE ACTN-CODE-UT19 OF FUTWN19(0006) TO WK01-CODE-UT196.
      *%--------------------------------------------------------------%*
           MOVE ACTN-CODE-UT19 OF FUTWN19(0007) TO WK01-CODE-UT197.
      *%--------------------------------------------------------------%*
           MOVE ACTN-CODE-UT19 OF FUTWN19(0008) TO WK01-CODE-UT198.
      *%--------------------------------------------------------------%*
           MOVE ACTN-CODE-UT19 OF FUTWN19(0009) TO WK01-CODE-UT199.
      *%--------------------------------------------------------------%*
           MOVE ACTN-CODE-UT19 OF FUTWN19(0010) TO WK01-CODE-UT1910.
      *%--------------------------------------------------------------%*
           MOVE ACTN-CODE-UT19 OF FUTWN19(0011) TO WK01-CODE-UT1911.
      *%--------------------------------------------------------------%*
           MOVE ACTN-CODE-UT19 OF FUTWN19(0012) TO WK01-CODE-UT1912.
      *%--------------------------------------------------------------%*
           MOVE ACTN-CODE-UT19 OF FUTWN19(0013) TO WK01-CODE-UT1913.
      *%--------------------------------------------------------------%*
           MOVE EMPL-NAME-6117-UT19 OF FUTWN19(0001) TO
                WK01-EMP-NAME-6117-UT191.
      *%--------------------------------------------------------------%*
           MOVE EMPL-NAME-6117-UT19 OF FUTWN19(0002) TO
                WK01-EMP-NAME-6117-UT192.
      *%--------------------------------------------------------------%*
           MOVE EMPL-NAME-6117-UT19 OF FUTWN19(0003) TO
                WK01-EMP-NAME-6117-UT193.
      *%--------------------------------------------------------------%*
           MOVE EMPL-NAME-6117-UT19 OF FUTWN19(0004) TO
                WK01-EMP-NAME-6117-UT194.
      *%--------------------------------------------------------------%*
           MOVE EMPL-NAME-6117-UT19 OF FUTWN19(0005) TO
                WK01-EMP-NAME-6117-UT195.
      *%--------------------------------------------------------------%*
           MOVE EMPL-NAME-6117-UT19 OF FUTWN19(0006) TO
                WK01-EMP-NAME-6117-UT196.
      *%--------------------------------------------------------------%*
           MOVE EMPL-NAME-6117-UT19 OF FUTWN19(0007) TO
                WK01-EMP-NAME-6117-UT197.
      *%--------------------------------------------------------------%*
           MOVE EMPL-NAME-6117-UT19 OF FUTWN19(0008) TO
                WK01-EMP-NAME-6117-UT198.
      *%--------------------------------------------------------------%*
           MOVE EMPL-NAME-6117-UT19 OF FUTWN19(0009) TO
                WK01-EMP-NAME-6117-UT199.
      *%--------------------------------------------------------------%*
           MOVE EMPL-NAME-6117-UT19 OF FUTWN19(0010) TO
                WK01-EMP-NAME-6117-UT1910.
      *%--------------------------------------------------------------%*
           MOVE EMPL-NAME-6117-UT19 OF FUTWN19(0011) TO
                WK01-EMP-NAME-6117-UT1911.
      *%--------------------------------------------------------------%*
           MOVE EMPL-NAME-6117-UT19 OF FUTWN19(0012) TO
                WK01-EMP-NAME-6117-UT1912.
      *%--------------------------------------------------------------%*
           MOVE EMPL-NAME-6117-UT19 OF FUTWN19(0013) TO
                WK01-EMP-NAME-6117-UT1913.
      *%--------------------------------------------------------------%*
           MOVE EMPL-ID-RQST-UT19 OF FUTWK19 TO
                WK01-EMPID-RQST-UT19.
      *%--------------------------------------------------------------%*
           MOVE EMPL-ID-6117-UT19 OF FUTWN19(0001) TO
                WK01-EMPID-6117-UT191.
      *%--------------------------------------------------------------%*
           MOVE EMPL-ID-6117-UT19 OF FUTWN19(0002) TO
                WK01-EMPID-6117-UT192.
      *%--------------------------------------------------------------%*
           MOVE EMPL-ID-6117-UT19 OF FUTWN19(0003) TO
                WK01-EMPID-6117-UT193.
      *%--------------------------------------------------------------%*
           MOVE EMPL-ID-6117-UT19 OF FUTWN19(0004) TO
                WK01-EMPID-6117-UT194.
      *%--------------------------------------------------------------%*
           MOVE EMPL-ID-6117-UT19 OF FUTWN19(0005) TO
                WK01-EMPID-6117-UT195.
      *%--------------------------------------------------------------%*
           MOVE EMPL-ID-6117-UT19 OF FUTWN19(0006) TO
                WK01-EMPID-6117-UT196.
      *%--------------------------------------------------------------%*
           MOVE EMPL-ID-6117-UT19 OF FUTWN19(0007) TO
                WK01-EMPID-6117-UT197.
      *%--------------------------------------------------------------%*
           MOVE EMPL-ID-6117-UT19 OF FUTWN19(0008) TO
                WK01-EMPID-6117-UT198.
      *%--------------------------------------------------------------%*
           MOVE EMPL-ID-6117-UT19 OF FUTWN19(0009) TO
                WK01-EMPID-6117-UT199.
      *%--------------------------------------------------------------%*
           MOVE EMPL-ID-6117-UT19 OF FUTWN19(0010) TO
                WK01-EMPID-6117-UT1910.
      *%--------------------------------------------------------------%*
           MOVE EMPL-ID-6117-UT19 OF FUTWN19(0011) TO
                WK01-EMPID-6117-UT1911.
      *%--------------------------------------------------------------%*
           MOVE EMPL-ID-6117-UT19 OF FUTWN19(0012) TO
                WK01-EMPID-6117-UT1912.
      *%--------------------------------------------------------------%*
           MOVE EMPL-ID-6117-UT19 OF FUTWN19(0013) TO
                WK01-EMPID-6117-UT1913.
      *%--------------------------------------------------------------%*
           MOVE EMPL-STATUS-6117-UT19 OF FUTWN19(0001) TO
                WK01-EMP-STAT-6117-UT191.
      *%--------------------------------------------------------------%*
           MOVE EMPL-STATUS-6117-UT19 OF FUTWN19(0002) TO
                WK01-EMP-STAT-6117-UT192.
      *%--------------------------------------------------------------%*
           MOVE EMPL-STATUS-6117-UT19 OF FUTWN19(0003) TO
                WK01-EMP-STAT-6117-UT193.
      *%--------------------------------------------------------------%*
           MOVE EMPL-STATUS-6117-UT19 OF FUTWN19(0004) TO
                WK01-EMP-STAT-6117-UT194.
      *%--------------------------------------------------------------%*
           MOVE EMPL-STATUS-6117-UT19 OF FUTWN19(0005) TO
                WK01-EMP-STAT-6117-UT195.
      *%--------------------------------------------------------------%*
           MOVE EMPL-STATUS-6117-UT19 OF FUTWN19(0006) TO
                WK01-EMP-STAT-6117-UT196.
      *%--------------------------------------------------------------%*
           MOVE EMPL-STATUS-6117-UT19 OF FUTWN19(0007) TO
                WK01-EMP-STAT-6117-UT197.
      *%--------------------------------------------------------------%*
           MOVE EMPL-STATUS-6117-UT19 OF FUTWN19(0008) TO
                WK01-EMP-STAT-6117-UT198.
      *%--------------------------------------------------------------%*
           MOVE EMPL-STATUS-6117-UT19 OF FUTWN19(0009) TO
                WK01-EMP-STAT-6117-UT199.
      *%--------------------------------------------------------------%*
           MOVE EMPL-STATUS-6117-UT19 OF FUTWN19(0010) TO
                WK01-EMP-STAT-6117-UT1910.
      *%--------------------------------------------------------------%*
           MOVE EMPL-STATUS-6117-UT19 OF FUTWN19(0011) TO
                WK01-EMP-STAT-6117-UT1911.
      *%--------------------------------------------------------------%*
           MOVE EMPL-STATUS-6117-UT19 OF FUTWN19(0012) TO
                WK01-EMP-STAT-6117-UT1912.
      *%--------------------------------------------------------------%*
           MOVE EMPL-STATUS-6117-UT19 OF FUTWN19(0013) TO
                WK01-EMP-STAT-6117-UT1913.
      *%--------------------------------------------------------------%*
           MOVE VNDR-FLAG-UT19 OF FUTWN19(0001) TO
                WK01-VNDR-FLAG-UT191.
      *%--------------------------------------------------------------%*
           MOVE VNDR-FLAG-UT19 OF FUTWN19(0002) TO
                WK01-VNDR-FLAG-UT192.
      *%--------------------------------------------------------------%*
           MOVE VNDR-FLAG-UT19 OF FUTWN19(0003) TO
                WK01-VNDR-FLAG-UT193.
      *%--------------------------------------------------------------%*
           MOVE VNDR-FLAG-UT19 OF FUTWN19(0004) TO
                WK01-VNDR-FLAG-UT194.
      *%--------------------------------------------------------------%*
           MOVE VNDR-FLAG-UT19 OF FUTWN19(0005) TO
                WK01-VNDR-FLAG-UT195.
      *%--------------------------------------------------------------%*
           MOVE VNDR-FLAG-UT19 OF FUTWN19(0006) TO
                WK01-VNDR-FLAG-UT196.
      *%--------------------------------------------------------------%*
           MOVE VNDR-FLAG-UT19 OF FUTWN19(0007) TO
                WK01-VNDR-FLAG-UT197.
      *%--------------------------------------------------------------%*
           MOVE VNDR-FLAG-UT19 OF FUTWN19(0008) TO
                WK01-VNDR-FLAG-UT198.
      *%--------------------------------------------------------------%*
           MOVE VNDR-FLAG-UT19 OF FUTWN19(0009) TO
                WK01-VNDR-FLAG-UT199.
      *%--------------------------------------------------------------%*
           MOVE VNDR-FLAG-UT19 OF FUTWN19(0010) TO
                WK01-VNDR-FLAG-UT1910.
      *%--------------------------------------------------------------%*
           MOVE VNDR-FLAG-UT19 OF FUTWN19(0011) TO
                WK01-VNDR-FLAG-UT1911.
      *%--------------------------------------------------------------%*
           MOVE VNDR-FLAG-UT19 OF FUTWN19(0012) TO
                WK01-VNDR-FLAG-UT1912.
      *%--------------------------------------------------------------%*
           MOVE VNDR-FLAG-UT19 OF FUTWN19(0013) TO
                WK01-VNDR-FLAG-UT1913.
      *%--------------------------------------------------------------%*
           MOVE TRVL-FLAG-UT19 OF FUTWN19(0001) TO
                WK01-TRVL-FLAG-UT191.
      *%--------------------------------------------------------------%*
           MOVE TRVL-FLAG-UT19 OF FUTWN19(0002) TO
                WK01-TRVL-FLAG-UT192.
      *%--------------------------------------------------------------%*
           MOVE TRVL-FLAG-UT19 OF FUTWN19(0003) TO
                WK01-TRVL-FLAG-UT193.
      *%--------------------------------------------------------------%*
           MOVE TRVL-FLAG-UT19 OF FUTWN19(0004) TO
                WK01-TRVL-FLAG-UT194.
      *%--------------------------------------------------------------%*
           MOVE TRVL-FLAG-UT19 OF FUTWN19(0005) TO
                WK01-TRVL-FLAG-UT195.
      *%--------------------------------------------------------------%*
           MOVE TRVL-FLAG-UT19 OF FUTWN19(0006) TO
                WK01-TRVL-FLAG-UT196.
      *%--------------------------------------------------------------%*
           MOVE TRVL-FLAG-UT19 OF FUTWN19(0007) TO
                WK01-TRVL-FLAG-UT197.
      *%--------------------------------------------------------------%*
           MOVE TRVL-FLAG-UT19 OF FUTWN19(0008) TO
                WK01-TRVL-FLAG-UT198.
      *%--------------------------------------------------------------%*
           MOVE TRVL-FLAG-UT19 OF FUTWN19(0009) TO
                WK01-TRVL-FLAG-UT199.
      *%--------------------------------------------------------------%*
           MOVE TRVL-FLAG-UT19 OF FUTWN19(0010) TO
                WK01-TRVL-FLAG-UT1910.
      *%--------------------------------------------------------------%*
           MOVE TRVL-FLAG-UT19 OF FUTWN19(0011) TO
                WK01-TRVL-FLAG-UT1911.
      *%--------------------------------------------------------------%*
           MOVE TRVL-FLAG-UT19 OF FUTWN19(0012) TO
                WK01-TRVL-FLAG-UT1912.
      *%--------------------------------------------------------------%*
           MOVE TRVL-FLAG-UT19 OF FUTWN19(0013) TO
                WK01-TRVL-FLAG-UT1913.
      *%--------------------------------------------------------------%*
