    ***Created by Convert/DC version V8R03 on 12/11/00 at 10:00***

      *%--------------------------------------------------------------%*
           MOVE DCLINK-MESSAGE  TO WK01-ZZMESSAGE.
      *%--------------------------------------------------------------%*
           MOVE AGR-DATE OF ADSO-APPLICATION-GLOBAL-RECORD TO WK01-DATE.
      *%--------------------------------------------------------------%*
           MOVE AGR-USER-ID OF ADSO-APPLICATION-GLOBAL-RECORD TO
                WK01-USER-ID.
      *%--------------------------------------------------------------%*
           MOVE AGR-FUNC-DESCRIPTION OF ADSO-APPLICATION-GLOBAL-RECORD
                TO WK01-FUNC-DESCRIPTION.
      *%--------------------------------------------------------------%*
           MOVE AGR-PASSED-ONE OF ADSO-APPLICATION-GLOBAL-RECORD TO
                WK01-PASSED-ONE.
      *%--------------------------------------------------------------%*
           MOVE AGR-MAP-RESPONSE OF ADSO-APPLICATION-GLOBAL-RECORD TO
                WK01-MAP-RESPONSE.
      *%--------------------------------------------------------------%*
           MOVE TRMNL-ID-SY00 OF FSYWG00M TO WK01-ID-SY00.
      *%--------------------------------------------------------------%*
           MOVE FULL-NAME-6001-SY00 OF FSYWG00M TO WK01-NAME-6001-SY00.
      *%--------------------------------------------------------------%*
           MOVE AM-PM-FLAG-SY00 OF FSYWG00M TO WK01-PM-FLAG-SY00.
      *%--------------------------------------------------------------%*
           MOVE CURR-RSPNS-ID-SY00 OF FSYWG00M TO WK01-RSPNS-ID-SY00.
      *%--------------------------------------------------------------%*
           MOVE ERROR-TEXT-SY00 OF FSYWG00M TO WK01-TEXT-SY00.
      *%--------------------------------------------------------------%*
           MOVE PAGE-STATUS-CODE-SY00 OF FSYWG00M TO
                WK01-STATUS-CODE-SY00.
      *%--------------------------------------------------------------%*
           MOVE WORK-HH-MM-TIME-SY00 OF FSYWG00M TO
                WK01-HH-MM-TIME-SY00.
      *%--------------------------------------------------------------%*
           MOVE ACTN-CODE-UT01 OF FUTWM01(0001) TO WK01-CODE-UT011.
      *%--------------------------------------------------------------%*
           MOVE ACTN-CODE-UT01 OF FUTWM01(0002) TO WK01-CODE-UT012.
      *%--------------------------------------------------------------%*
           MOVE ACTN-CODE-UT01 OF FUTWM01(0003) TO WK01-CODE-UT013.
      *%--------------------------------------------------------------%*
           MOVE ACTN-CODE-UT01 OF FUTWM01(0004) TO WK01-CODE-UT014.
      *%--------------------------------------------------------------%*
           MOVE ACTN-CODE-UT01 OF FUTWM01(0005) TO WK01-CODE-UT015.
      *%--------------------------------------------------------------%*
           MOVE ACTN-CODE-UT01 OF FUTWM01(0006) TO WK01-CODE-UT016.
      *%--------------------------------------------------------------%*
           MOVE ACTN-CODE-UT01 OF FUTWM01(0007) TO WK01-CODE-UT017.
      *%--------------------------------------------------------------%*
           MOVE ACTN-CODE-UT01 OF FUTWM01(0008) TO WK01-CODE-UT018.
      *%--------------------------------------------------------------%*
           MOVE ACTN-CODE-UT01 OF FUTWM01(0009) TO WK01-CODE-UT019.
      *%--------------------------------------------------------------%*
           MOVE ACTN-CODE-UT01 OF FUTWM01(0010) TO WK01-CODE-UT0110.
      *%--------------------------------------------------------------%*
           MOVE ACTN-CODE-UT01 OF FUTWM01(0011) TO WK01-CODE-UT0111.
      *%--------------------------------------------------------------%*
           MOVE ACTN-CODE-UT01 OF FUTWM01(0012) TO WK01-CODE-UT0112.
      *%--------------------------------------------------------------%*
           MOVE ACTN-CODE-UT01 OF FUTWM01(0013) TO WK01-CODE-UT0113.
      *%--------------------------------------------------------------%*
           MOVE DCMNT-TYPE-CODE-4203-UT01 OF FUTWM01(0001) TO
                WK01-TYPE-CODE-4203-UT011.
      *%--------------------------------------------------------------%*
           MOVE DCMNT-TYPE-CODE-4203-UT01 OF FUTWM01(0002) TO
                WK01-TYPE-CODE-4203-UT012.
      *%--------------------------------------------------------------%*
           MOVE DCMNT-TYPE-CODE-4203-UT01 OF FUTWM01(0003) TO
                WK01-TYPE-CODE-4203-UT013.
      *%--------------------------------------------------------------%*
           MOVE DCMNT-TYPE-CODE-4203-UT01 OF FUTWM01(0004) TO
                WK01-TYPE-CODE-4203-UT014.
      *%--------------------------------------------------------------%*
           MOVE DCMNT-TYPE-CODE-4203-UT01 OF FUTWM01(0005) TO
                WK01-TYPE-CODE-4203-UT015.
      *%--------------------------------------------------------------%*
           MOVE DCMNT-TYPE-CODE-4203-UT01 OF FUTWM01(0006) TO
                WK01-TYPE-CODE-4203-UT016.
      *%--------------------------------------------------------------%*
           MOVE DCMNT-TYPE-CODE-4203-UT01 OF FUTWM01(0007) TO
                WK01-TYPE-CODE-4203-UT017.
      *%--------------------------------------------------------------%*
           MOVE DCMNT-TYPE-CODE-4203-UT01 OF FUTWM01(0008) TO
                WK01-TYPE-CODE-4203-UT018.
      *%--------------------------------------------------------------%*
           MOVE DCMNT-TYPE-CODE-4203-UT01 OF FUTWM01(0009) TO
                WK01-TYPE-CODE-4203-UT019.
      *%--------------------------------------------------------------%*
           MOVE DCMNT-TYPE-CODE-4203-UT01 OF FUTWM01(0010) TO
                WK01-TYPE-CODE-4203-UT0110.
      *%--------------------------------------------------------------%*
           MOVE DCMNT-TYPE-CODE-4203-UT01 OF FUTWM01(0011) TO
                WK01-TYPE-CODE-4203-UT0111.
      *%--------------------------------------------------------------%*
           MOVE DCMNT-TYPE-CODE-4203-UT01 OF FUTWM01(0012) TO
                WK01-TYPE-CODE-4203-UT0112.
      *%--------------------------------------------------------------%*
           MOVE DCMNT-TYPE-CODE-4203-UT01 OF FUTWM01(0013) TO
                WK01-TYPE-CODE-4203-UT0113.
      *%--------------------------------------------------------------%*
           MOVE DCMNT-TYPE-DESC-4203-UT01 OF FUTWM01(0001) TO
                WK01-TYPE-DESC-4203-UT011.
      *%--------------------------------------------------------------%*
           MOVE DCMNT-TYPE-DESC-4203-UT01 OF FUTWM01(0002) TO
                WK01-TYPE-DESC-4203-UT012.
      *%--------------------------------------------------------------%*
           MOVE DCMNT-TYPE-DESC-4203-UT01 OF FUTWM01(0003) TO
                WK01-TYPE-DESC-4203-UT013.
      *%--------------------------------------------------------------%*
           MOVE DCMNT-TYPE-DESC-4203-UT01 OF FUTWM01(0004) TO
                WK01-TYPE-DESC-4203-UT014.
      *%--------------------------------------------------------------%*
           MOVE DCMNT-TYPE-DESC-4203-UT01 OF FUTWM01(0005) TO
                WK01-TYPE-DESC-4203-UT015.
      *%--------------------------------------------------------------%*
           MOVE DCMNT-TYPE-DESC-4203-UT01 OF FUTWM01(0006) TO
                WK01-TYPE-DESC-4203-UT016.
      *%--------------------------------------------------------------%*
           MOVE DCMNT-TYPE-DESC-4203-UT01 OF FUTWM01(0007) TO
                WK01-TYPE-DESC-4203-UT017.
      *%--------------------------------------------------------------%*
           MOVE DCMNT-TYPE-DESC-4203-UT01 OF FUTWM01(0008) TO
                WK01-TYPE-DESC-4203-UT018.
      *%--------------------------------------------------------------%*
           MOVE DCMNT-TYPE-DESC-4203-UT01 OF FUTWM01(0009) TO
                WK01-TYPE-DESC-4203-UT019.
      *%--------------------------------------------------------------%*
           MOVE DCMNT-TYPE-DESC-4203-UT01 OF FUTWM01(0010) TO
                WK01-TYPE-DESC-4203-UT0110.
      *%--------------------------------------------------------------%*
           MOVE DCMNT-TYPE-DESC-4203-UT01 OF FUTWM01(0011) TO
                WK01-TYPE-DESC-4203-UT0111.
      *%--------------------------------------------------------------%*
           MOVE DCMNT-TYPE-DESC-4203-UT01 OF FUTWM01(0012) TO
                WK01-TYPE-DESC-4203-UT0112.
      *%--------------------------------------------------------------%*
           MOVE DCMNT-TYPE-DESC-4203-UT01 OF FUTWM01(0013) TO
                WK01-TYPE-DESC-4203-UT0113.
      *%--------------------------------------------------------------%*
           MOVE START-DATE-4203-UT01 OF FUTWM01(0001) TO
                WK01-DATE-4203-UT011.
      *%--------------------------------------------------------------%*
           MOVE START-DATE-4203-UT01 OF FUTWM01(0002) TO
                WK01-DATE-4203-UT012.
      *%--------------------------------------------------------------%*
           MOVE START-DATE-4203-UT01 OF FUTWM01(0003) TO
                WK01-DATE-4203-UT013.
      *%--------------------------------------------------------------%*
           MOVE START-DATE-4203-UT01 OF FUTWM01(0004) TO
                WK01-DATE-4203-UT014.
      *%--------------------------------------------------------------%*
           MOVE START-DATE-4203-UT01 OF FUTWM01(0005) TO
                WK01-DATE-4203-UT015.
      *%--------------------------------------------------------------%*
           MOVE START-DATE-4203-UT01 OF FUTWM01(0006) TO
                WK01-DATE-4203-UT016.
      *%--------------------------------------------------------------%*
           MOVE START-DATE-4203-UT01 OF FUTWM01(0007) TO
                WK01-DATE-4203-UT017.
      *%--------------------------------------------------------------%*
           MOVE START-DATE-4203-UT01 OF FUTWM01(0008) TO
                WK01-DATE-4203-UT018.
      *%--------------------------------------------------------------%*
           MOVE START-DATE-4203-UT01 OF FUTWM01(0009) TO
                WK01-DATE-4203-UT019.
      *%--------------------------------------------------------------%*
           MOVE START-DATE-4203-UT01 OF FUTWM01(0010) TO
                WK01-DATE-4203-UT0110.
      *%--------------------------------------------------------------%*
           MOVE START-DATE-4203-UT01 OF FUTWM01(0011) TO
                WK01-DATE-4203-UT0111.
      *%--------------------------------------------------------------%*
           MOVE START-DATE-4203-UT01 OF FUTWM01(0012) TO
                WK01-DATE-4203-UT0112.
      *%--------------------------------------------------------------%*
           MOVE START-DATE-4203-UT01 OF FUTWM01(0013) TO
                WK01-DATE-4203-UT0113.
      *%--------------------------------------------------------------%*
           MOVE END-DATE-4203-UT01 OF FUTWM01(0001) TO
                WK01-DATE-4203-UT0A1.
      *%--------------------------------------------------------------%*
           MOVE END-DATE-4203-UT01 OF FUTWM01(0002) TO
                WK01-DATE-4203-UT0A2.
      *%--------------------------------------------------------------%*
           MOVE END-DATE-4203-UT01 OF FUTWM01(0003) TO
                WK01-DATE-4203-UT0A3.
      *%--------------------------------------------------------------%*
           MOVE END-DATE-4203-UT01 OF FUTWM01(0004) TO
                WK01-DATE-4203-UT0A4.
      *%--------------------------------------------------------------%*
           MOVE END-DATE-4203-UT01 OF FUTWM01(0005) TO
                WK01-DATE-4203-UT0A5.
      *%--------------------------------------------------------------%*
           MOVE END-DATE-4203-UT01 OF FUTWM01(0006) TO
                WK01-DATE-4203-UT0A6.
      *%--------------------------------------------------------------%*
           MOVE END-DATE-4203-UT01 OF FUTWM01(0007) TO
                WK01-DATE-4203-UT0A7.
      *%--------------------------------------------------------------%*
           MOVE END-DATE-4203-UT01 OF FUTWM01(0008) TO
                WK01-DATE-4203-UT0A8.
      *%--------------------------------------------------------------%*
           MOVE END-DATE-4203-UT01 OF FUTWM01(0009) TO
                WK01-DATE-4203-UT0A9.
      *%--------------------------------------------------------------%*
           MOVE END-DATE-4203-UT01 OF FUTWM01(0010) TO
                WK01-DATE-4203-UT0A10.
      *%--------------------------------------------------------------%*
           MOVE END-DATE-4203-UT01 OF FUTWM01(0011) TO
                WK01-DATE-4203-UT0A11.
      *%--------------------------------------------------------------%*
           MOVE END-DATE-4203-UT01 OF FUTWM01(0012) TO
                WK01-DATE-4203-UT0A12.
      *%--------------------------------------------------------------%*
           MOVE END-DATE-4203-UT01 OF FUTWM01(0013) TO
                WK01-DATE-4203-UT0A13.
      *%--------------------------------------------------------------%*
           MOVE ACTVY-DATE-4203-UT01 OF FUTWM01(0001) TO
                WK01-DATE-4203-UT0B1.
      *%--------------------------------------------------------------%*
           MOVE ACTVY-DATE-4203-UT01 OF FUTWM01(0002) TO
                WK01-DATE-4203-UT0B2.
      *%--------------------------------------------------------------%*
           MOVE ACTVY-DATE-4203-UT01 OF FUTWM01(0003) TO
                WK01-DATE-4203-UT0B3.
      *%--------------------------------------------------------------%*
           MOVE ACTVY-DATE-4203-UT01 OF FUTWM01(0004) TO
                WK01-DATE-4203-UT0B4.
      *%--------------------------------------------------------------%*
           MOVE ACTVY-DATE-4203-UT01 OF FUTWM01(0005) TO
                WK01-DATE-4203-UT0B5.
      *%--------------------------------------------------------------%*
           MOVE ACTVY-DATE-4203-UT01 OF FUTWM01(0006) TO
                WK01-DATE-4203-UT0B6.
      *%--------------------------------------------------------------%*
           MOVE ACTVY-DATE-4203-UT01 OF FUTWM01(0007) TO
                WK01-DATE-4203-UT0B7.
      *%--------------------------------------------------------------%*
           MOVE ACTVY-DATE-4203-UT01 OF FUTWM01(0008) TO
                WK01-DATE-4203-UT0B8.
      *%--------------------------------------------------------------%*
           MOVE ACTVY-DATE-4203-UT01 OF FUTWM01(0009) TO
                WK01-DATE-4203-UT0B9.
      *%--------------------------------------------------------------%*
           MOVE ACTVY-DATE-4203-UT01 OF FUTWM01(0010) TO
                WK01-DATE-4203-UT0B10.
      *%--------------------------------------------------------------%*
           MOVE ACTVY-DATE-4203-UT01 OF FUTWM01(0011) TO
                WK01-DATE-4203-UT0B11.
      *%--------------------------------------------------------------%*
           MOVE ACTVY-DATE-4203-UT01 OF FUTWM01(0012) TO
                WK01-DATE-4203-UT0B12.
      *%--------------------------------------------------------------%*
           MOVE ACTVY-DATE-4203-UT01 OF FUTWM01(0013) TO
                WK01-DATE-4203-UT0B13.
      *%--------------------------------------------------------------%*
           MOVE DCMNT-TYPE-SEQ-NMBR-4203-UT01 OF FUTWM01(0001) TO
                WK01-TYP-SQ-NMBR-4203-UT011.
      *%--------------------------------------------------------------%*
           MOVE DCMNT-TYPE-SEQ-NMBR-4203-UT01 OF FUTWM01(0002) TO
                WK01-TYP-SQ-NMBR-4203-UT012.
      *%--------------------------------------------------------------%*
           MOVE DCMNT-TYPE-SEQ-NMBR-4203-UT01 OF FUTWM01(0003) TO
                WK01-TYP-SQ-NMBR-4203-UT013.
      *%--------------------------------------------------------------%*
           MOVE DCMNT-TYPE-SEQ-NMBR-4203-UT01 OF FUTWM01(0004) TO
                WK01-TYP-SQ-NMBR-4203-UT014.
      *%--------------------------------------------------------------%*
           MOVE DCMNT-TYPE-SEQ-NMBR-4203-UT01 OF FUTWM01(0005) TO
                WK01-TYP-SQ-NMBR-4203-UT015.
      *%--------------------------------------------------------------%*
           MOVE DCMNT-TYPE-SEQ-NMBR-4203-UT01 OF FUTWM01(0006) TO
                WK01-TYP-SQ-NMBR-4203-UT016.
      *%--------------------------------------------------------------%*
           MOVE DCMNT-TYPE-SEQ-NMBR-4203-UT01 OF FUTWM01(0007) TO
                WK01-TYP-SQ-NMBR-4203-UT017.
      *%--------------------------------------------------------------%*
           MOVE DCMNT-TYPE-SEQ-NMBR-4203-UT01 OF FUTWM01(0008) TO
                WK01-TYP-SQ-NMBR-4203-UT018.
      *%--------------------------------------------------------------%*
           MOVE DCMNT-TYPE-SEQ-NMBR-4203-UT01 OF FUTWM01(0009) TO
                WK01-TYP-SQ-NMBR-4203-UT019.
      *%--------------------------------------------------------------%*
           MOVE DCMNT-TYPE-SEQ-NMBR-4203-UT01 OF FUTWM01(0010) TO
                WK01-TYP-SQ-NMBR-4203-UT0110.
      *%--------------------------------------------------------------%*
           MOVE DCMNT-TYPE-SEQ-NMBR-4203-UT01 OF FUTWM01(0011) TO
                WK01-TYP-SQ-NMBR-4203-UT0111.
      *%--------------------------------------------------------------%*
           MOVE DCMNT-TYPE-SEQ-NMBR-4203-UT01 OF FUTWM01(0012) TO
                WK01-TYP-SQ-NMBR-4203-UT0112.
      *%--------------------------------------------------------------%*
           MOVE DCMNT-TYPE-SEQ-NMBR-4203-UT01 OF FUTWM01(0013) TO
                WK01-TYP-SQ-NMBR-4203-UT0113.
