       01  MAP-CONTROL.

    ***Created by Convert/DC version V8R03 on 12/11/00 at 11:00***

           02  FUTMU05-MAP-CONTROL.
           03  FUTMU05T.
           04  WK01-DCXMAPL-PARMS.
               10  WK01-MAPNAME                  PIC X(8)
                                                 VALUE 'FUTMU05I'.
               10  WK01-IKE-LENGTH               PIC S9(8)  COMP
                                                 VALUE 15494.
               10  WK01-TINA-LENGTH              PIC S9(4)  COMP
                                                 VALUE 1013.
           05  WK01-ATTRIBUTES                   PIC X(60)
                                                 VALUE SPACE.
           05  WK01-ATTRIBUTES-ERROR             PIC X(60) VALUE
               'U  BIF'.
           05  WK01-CURSOR-DFLD                  PIC X(36)
                                                 VALUE SPACES.
           05  WK01-CURSOR-DFLD-QUAL             PIC X(30)
                                                 VALUE SPACES.
           05  WK01-ROW                          PIC S9(4) COMP
                                                 VALUE ZERO.
           05  WK01-COLUMN                       PIC S9(4) COMP
                                                 VALUE ZERO.
           05  WK01-ERROR-MSG                    PIC X(80)
                                                 VALUE SPACES.
           05  WK01-MAP-DATA-LEN                 PIC S9(6)
                                                 VALUE ZERO.
           05  WK01-1ST-FLAG                     PIC X(1)
                                                 VALUE 'Y'.
           05  WK01-FLAG-OUTPUT-DATA             PIC X(1)
                                                 VALUE 'Y'.
      *    05  WK01-STATUS-RETURN-FLAG           PIC X(1)
      *                                          VALUE SPACES.
           05  WK01-ALL-BUT-FLAG                 PIC X(1)
                                                 VALUE SPACES.
           05  WK01-FLAG-ALL-FIELDS-CHANGED      PIC X(1)  VALUE 'Y'.
           05  WK01-FLAG-ANY-FIELDS-CHANGED      PIC X(1)  VALUE 'N'.
           05  WK01-FLAG-ALL-FIELDS-ERROR        PIC X(1)  VALUE 'Y'.
           05  WK01-FLAG-ANY-FIELDS-ERROR        PIC X(1)  VALUE 'N'.
           05  WK01-FLAG-ALL-FIELDS-ERASE        PIC X(1)  VALUE 'Y'.
           05  WK01-FLAG-ANY-FIELDS-ERASE        PIC X(1)  VALUE 'Y'.

           05  WK01-VARDATA                      PIC X(11880)
                                                 VALUE SPACES.
           05  FILLER                            PIC X(100)
                                                 VALUE SPACES.
           04  WK01-ELEMENT-AREA.

               10  WK01-ID-SY00-Z              PIC X(1)
                                               VALUE SPACE.
               10  WK01-ID-SY00-F              PIC X(1)
                                               VALUE SPACE.
               10  WK01-ID-SY00-A              PIC X(1)
                                               VALUE SPACE.
               10  WK01-ID-SY00-V              PIC X(1)
                                               VALUE SPACE.
               10  WK01-ID-SY00-O              PIC X(1)
                                               VALUE SPACE.
               10  WK01-ID-SY00       PIC X(8)
                                               VALUE SPACES.
               10  WK01-NAME-6001-SY00-Z              PIC X(1)
                                               VALUE SPACE.
               10  WK01-NAME-6001-SY00-F              PIC X(1)
                                               VALUE SPACE.
               10  WK01-NAME-6001-SY00-A              PIC X(1)
                                               VALUE SPACE.
               10  WK01-NAME-6001-SY00-V              PIC X(1)
                                               VALUE SPACE.
               10  WK01-NAME-6001-SY00-O              PIC X(1)
                                               VALUE SPACE.
               10  WK01-NAME-6001-SY00       PIC X(35)
                                               VALUE SPACES.
               10  WK01-DATE-Z              PIC X(1)
                                               VALUE SPACE.
               10  WK01-DATE-F              PIC X(1)
                                               VALUE SPACE.
               10  WK01-DATE-A              PIC X(1)
                                               VALUE SPACE.
               10  WK01-DATE-V              PIC X(1)
                                               VALUE SPACE.
               10  WK01-DATE-O              PIC X(1)
                                               VALUE SPACE.
               10  WK01-DATE       PIC X(8)
                                               VALUE SPACES.
               10  WK01-HH-MM-TIME-SY00-Z              PIC X(1)
                                               VALUE SPACE.
               10  WK01-HH-MM-TIME-SY00-F              PIC X(1)
                                               VALUE SPACE.
               10  WK01-HH-MM-TIME-SY00-A              PIC X(1)
                                               VALUE SPACE.
               10  WK01-HH-MM-TIME-SY00-V              PIC X(1)
                                               VALUE SPACE.
               10  WK01-HH-MM-TIME-SY00-O              PIC X(1)
                                               VALUE SPACE.
               10  WK01-HH-MM-TIME-SY00       PIC X(4)
                                               VALUE SPACES.
               10  WK01-PM-FLAG-SY00-Z              PIC X(1)
                                               VALUE SPACE.
               10  WK01-PM-FLAG-SY00-F              PIC X(1)
                                               VALUE SPACE.
               10  WK01-PM-FLAG-SY00-A              PIC X(1)
                                               VALUE SPACE.
               10  WK01-PM-FLAG-SY00-V              PIC X(1)
                                               VALUE SPACE.
               10  WK01-PM-FLAG-SY00-O              PIC X(1)
                                               VALUE SPACE.
               10  WK01-PM-FLAG-SY00       PIC X(1)
                                               VALUE SPACES.
               10  WK01-USER-ID-Z              PIC X(1)
                                               VALUE SPACE.
               10  WK01-USER-ID-F              PIC X(1)
                                               VALUE SPACE.
               10  WK01-USER-ID-A              PIC X(1)
                                               VALUE SPACE.
               10  WK01-USER-ID-V              PIC X(1)
                                               VALUE SPACE.
               10  WK01-USER-ID-O              PIC X(1)
                                               VALUE SPACE.
               10  WK01-USER-ID       PIC X(32)
                                               VALUE SPACES.
               10  WK01-RSPNS-ID-SY00-Z              PIC X(1)
                                               VALUE SPACE.
               10  WK01-RSPNS-ID-SY00-F              PIC X(1)
                                               VALUE SPACE.
               10  WK01-RSPNS-ID-SY00-A              PIC X(1)
                                               VALUE SPACE.
               10  WK01-RSPNS-ID-SY00-V              PIC X(1)
                                               VALUE SPACE.
               10  WK01-RSPNS-ID-SY00-O              PIC X(1)
                                               VALUE SPACE.
               10  WK01-RSPNS-ID-SY00       PIC X(8)
                                               VALUE SPACES.
               10  WK01-FUNC-DESCRIPTION-Z              PIC X(1)
                                               VALUE SPACE.
               10  WK01-FUNC-DESCRIPTION-F              PIC X(1)
                                               VALUE SPACE.
               10  WK01-FUNC-DESCRIPTION-A              PIC X(1)
                                               VALUE SPACE.
               10  WK01-FUNC-DESCRIPTION-V              PIC X(1)
                                               VALUE SPACE.
               10  WK01-FUNC-DESCRIPTION-O              PIC X(1)
                                               VALUE SPACE.
               10  WK01-FUNC-DESCRIPTION       PIC X(28)
                                               VALUE SPACES.
               10  WK01-STATUS-CODE-SY00-Z              PIC X(1)
                                               VALUE SPACE.
               10  WK01-STATUS-CODE-SY00-F              PIC X(1)
                                               VALUE SPACE.
               10  WK01-STATUS-CODE-SY00-A              PIC X(1)
                                               VALUE SPACE.
               10  WK01-STATUS-CODE-SY00-V              PIC X(1)
                                               VALUE SPACE.
               10  WK01-STATUS-CODE-SY00-O              PIC X(1)
                                               VALUE SPACE.
               10  WK01-STATUS-CODE-SY00       PIC X(1)
                                               VALUE SPACES.
               10  WK01-CODE-6153-UT05-Z              PIC X(1)
                                               VALUE SPACE.
               10  WK01-CODE-6153-UT05-F              PIC X(1)
                                               VALUE SPACE.
               10  WK01-CODE-6153-UT05-A              PIC X(1)
                                               VALUE SPACE.
               10  WK01-CODE-6153-UT05-V              PIC X(1)
                                               VALUE SPACE.
               10  WK01-CODE-6153-UT05-O              PIC X(1)
                                               VALUE SPACE.
               10  WK01-CODE-6153-UT05       PIC X(2)
                                               VALUE SPACES.
               10  WK01-NAME-6153-UT05-Z              PIC X(1)
                                               VALUE SPACE.
               10  WK01-NAME-6153-UT05-F              PIC X(1)
                                               VALUE SPACE.
               10  WK01-NAME-6153-UT05-A              PIC X(1)
                                               VALUE SPACE.
               10  WK01-NAME-6153-UT05-V              PIC X(1)
                                               VALUE SPACE.
               10  WK01-NAME-6153-UT05-O              PIC X(1)
                                               VALUE SPACE.
               10  WK01-NAME-6153-UT05       PIC X(35)
                                               VALUE SPACES.
               10  WK01-CODE-6151-UT05-Z              PIC X(1)
                                               VALUE SPACE.
               10  WK01-CODE-6151-UT05-F              PIC X(1)
                                               VALUE SPACE.
               10  WK01-CODE-6151-UT05-A              PIC X(1)
                                               VALUE SPACE.
               10  WK01-CODE-6151-UT05-V              PIC X(1)
                                               VALUE SPACE.
               10  WK01-CODE-6151-UT05-O              PIC X(1)
                                               VALUE SPACE.
               10  WK01-CODE-6151-UT05       PIC X(2)
                                               VALUE SPACES.
               10  WK01-NAME-6151-UT05-Z              PIC X(1)
                                               VALUE SPACE.
               10  WK01-NAME-6151-UT05-F              PIC X(1)
                                               VALUE SPACE.
               10  WK01-NAME-6151-UT05-A              PIC X(1)
                                               VALUE SPACE.
               10  WK01-NAME-6151-UT05-V              PIC X(1)
                                               VALUE SPACE.
               10  WK01-NAME-6151-UT05-O              PIC X(1)
                                               VALUE SPACE.
               10  WK01-NAME-6151-UT05       PIC X(35)
                                               VALUE SPACES.
               10  WK01-CODE-UT051-Z              PIC X(1)
                                               VALUE SPACE.
               10  WK01-CODE-UT051-F              PIC X(1)
                                               VALUE SPACE.
               10  WK01-CODE-UT051-A              PIC X(1)
                                               VALUE SPACE.
               10  WK01-CODE-UT051-V              PIC X(1)
                                               VALUE SPACE.
               10  WK01-CODE-UT051-O              PIC X(1)
                                               VALUE SPACE.
               10  WK01-CODE-UT051       PIC X(1)
                                               VALUE SPACES.
               10  WK01-CODE-6152-UT051-Z              PIC X(1)
                                               VALUE SPACE.
               10  WK01-CODE-6152-UT051-F              PIC X(1)
                                               VALUE SPACE.
               10  WK01-CODE-6152-UT051-A              PIC X(1)
                                               VALUE SPACE.
               10  WK01-CODE-6152-UT051-V              PIC X(1)
                                               VALUE SPACE.
               10  WK01-CODE-6152-UT051-O              PIC X(1)
                                               VALUE SPACE.
               10  WK01-CODE-6152-UT051       PIC X(10)
                                               VALUE SPACES.
               10  WK01-NAME-6152-UT051-Z              PIC X(1)
                                               VALUE SPACE.
               10  WK01-NAME-6152-UT051-F              PIC X(1)
                                               VALUE SPACE.
               10  WK01-NAME-6152-UT051-A              PIC X(1)
                                               VALUE SPACE.
               10  WK01-NAME-6152-UT051-V              PIC X(1)
                                               VALUE SPACE.
               10  WK01-NAME-6152-UT051-O              PIC X(1)
                                               VALUE SPACE.
               10  WK01-NAME-6152-UT051       PIC X(18)
                                               VALUE SPACES.
               10  WK01-ADD-FLAG-6152-UT051-Z              PIC X(1)
                                               VALUE SPACE.
               10  WK01-ADD-FLAG-6152-UT051-F              PIC X(1)
                                               VALUE SPACE.
               10  WK01-ADD-FLAG-6152-UT051-A              PIC X(1)
                                               VALUE SPACE.
               10  WK01-ADD-FLAG-6152-UT051-V              PIC X(1)
                                               VALUE SPACE.
               10  WK01-ADD-FLAG-6152-UT051-O              PIC X(1)
                                               VALUE SPACE.
               10  WK01-ADD-FLAG-6152-UT051       PIC X(1)
                                               VALUE SPACES.
               10  WK01-CODE-UT052-Z              PIC X(1)
                                               VALUE SPACE.
               10  WK01-CODE-UT052-F              PIC X(1)
                                               VALUE SPACE.
               10  WK01-CODE-UT052-A              PIC X(1)
                                               VALUE SPACE.
               10  WK01-CODE-UT052-V              PIC X(1)
                                               VALUE SPACE.
               10  WK01-CODE-UT052-O              PIC X(1)
                                               VALUE SPACE.
               10  WK01-CODE-UT052       PIC X(1)
                                               VALUE SPACES.
               10  WK01-CODE-6152-UT052-Z              PIC X(1)
                                               VALUE SPACE.
               10  WK01-CODE-6152-UT052-F              PIC X(1)
                                               VALUE SPACE.
               10  WK01-CODE-6152-UT052-A              PIC X(1)
                                               VALUE SPACE.
               10  WK01-CODE-6152-UT052-V              PIC X(1)
                                               VALUE SPACE.
               10  WK01-CODE-6152-UT052-O              PIC X(1)
                                               VALUE SPACE.
               10  WK01-CODE-6152-UT052       PIC X(10)
                                               VALUE SPACES.
               10  WK01-NAME-6152-UT052-Z              PIC X(1)
                                               VALUE SPACE.
               10  WK01-NAME-6152-UT052-F              PIC X(1)
                                               VALUE SPACE.
               10  WK01-NAME-6152-UT052-A              PIC X(1)
                                               VALUE SPACE.
               10  WK01-NAME-6152-UT052-V              PIC X(1)
                                               VALUE SPACE.
               10  WK01-NAME-6152-UT052-O              PIC X(1)
                                               VALUE SPACE.
               10  WK01-NAME-6152-UT052       PIC X(18)
                                               VALUE SPACES.
               10  WK01-ADD-FLAG-6152-UT052-Z              PIC X(1)
                                               VALUE SPACE.
               10  WK01-ADD-FLAG-6152-UT052-F              PIC X(1)
                                               VALUE SPACE.
               10  WK01-ADD-FLAG-6152-UT052-A              PIC X(1)
                                               VALUE SPACE.
               10  WK01-ADD-FLAG-6152-UT052-V              PIC X(1)
                                               VALUE SPACE.
               10  WK01-ADD-FLAG-6152-UT052-O              PIC X(1)
                                               VALUE SPACE.
               10  WK01-ADD-FLAG-6152-UT052       PIC X(1)
                                               VALUE SPACES.
               10  WK01-CODE-UT053-Z              PIC X(1)
                                               VALUE SPACE.
               10  WK01-CODE-UT053-F              PIC X(1)
                                               VALUE SPACE.
               10  WK01-CODE-UT053-A              PIC X(1)
                                               VALUE SPACE.
               10  WK01-CODE-UT053-V              PIC X(1)
                                               VALUE SPACE.
               10  WK01-CODE-UT053-O              PIC X(1)
                                               VALUE SPACE.
               10  WK01-CODE-UT053       PIC X(1)
                                               VALUE SPACES.
               10  WK01-CODE-6152-UT053-Z              PIC X(1)
                                               VALUE SPACE.
               10  WK01-CODE-6152-UT053-F              PIC X(1)
                                               VALUE SPACE.
               10  WK01-CODE-6152-UT053-A              PIC X(1)
                                               VALUE SPACE.
               10  WK01-CODE-6152-UT053-V              PIC X(1)
                                               VALUE SPACE.
               10  WK01-CODE-6152-UT053-O              PIC X(1)
                                               VALUE SPACE.
               10  WK01-CODE-6152-UT053       PIC X(10)
                                               VALUE SPACES.
               10  WK01-NAME-6152-UT053-Z              PIC X(1)
                                               VALUE SPACE.
               10  WK01-NAME-6152-UT053-F              PIC X(1)
                                               VALUE SPACE.
               10  WK01-NAME-6152-UT053-A              PIC X(1)
                                               VALUE SPACE.
               10  WK01-NAME-6152-UT053-V              PIC X(1)
                                               VALUE SPACE.
               10  WK01-NAME-6152-UT053-O              PIC X(1)
                                               VALUE SPACE.
               10  WK01-NAME-6152-UT053       PIC X(18)
                                               VALUE SPACES.
               10  WK01-ADD-FLAG-6152-UT053-Z              PIC X(1)
                                               VALUE SPACE.
               10  WK01-ADD-FLAG-6152-UT053-F              PIC X(1)
                                               VALUE SPACE.
               10  WK01-ADD-FLAG-6152-UT053-A              PIC X(1)
                                               VALUE SPACE.
               10  WK01-ADD-FLAG-6152-UT053-V              PIC X(1)
                                               VALUE SPACE.
               10  WK01-ADD-FLAG-6152-UT053-O              PIC X(1)
                                               VALUE SPACE.
               10  WK01-ADD-FLAG-6152-UT053       PIC X(1)
                                               VALUE SPACES.
               10  WK01-CODE-UT054-Z              PIC X(1)
                                               VALUE SPACE.
               10  WK01-CODE-UT054-F              PIC X(1)
                                               VALUE SPACE.
               10  WK01-CODE-UT054-A              PIC X(1)
                                               VALUE SPACE.
               10  WK01-CODE-UT054-V              PIC X(1)
                                               VALUE SPACE.
               10  WK01-CODE-UT054-O              PIC X(1)
                                               VALUE SPACE.
               10  WK01-CODE-UT054       PIC X(1)
                                               VALUE SPACES.
               10  WK01-CODE-6152-UT054-Z              PIC X(1)
                                               VALUE SPACE.
               10  WK01-CODE-6152-UT054-F              PIC X(1)
                                               VALUE SPACE.
               10  WK01-CODE-6152-UT054-A              PIC X(1)
                                               VALUE SPACE.
               10  WK01-CODE-6152-UT054-V              PIC X(1)
                                               VALUE SPACE.
               10  WK01-CODE-6152-UT054-O              PIC X(1)
                                               VALUE SPACE.
               10  WK01-CODE-6152-UT054       PIC X(10)
                                               VALUE SPACES.
               10  WK01-NAME-6152-UT054-Z              PIC X(1)
                                               VALUE SPACE.
               10  WK01-NAME-6152-UT054-F              PIC X(1)
                                               VALUE SPACE.
               10  WK01-NAME-6152-UT054-A              PIC X(1)
                                               VALUE SPACE.
               10  WK01-NAME-6152-UT054-V              PIC X(1)
                                               VALUE SPACE.
               10  WK01-NAME-6152-UT054-O              PIC X(1)
                                               VALUE SPACE.
               10  WK01-NAME-6152-UT054       PIC X(18)
                                               VALUE SPACES.
               10  WK01-ADD-FLAG-6152-UT054-Z              PIC X(1)
                                               VALUE SPACE.
               10  WK01-ADD-FLAG-6152-UT054-F              PIC X(1)
                                               VALUE SPACE.
               10  WK01-ADD-FLAG-6152-UT054-A              PIC X(1)
                                               VALUE SPACE.
               10  WK01-ADD-FLAG-6152-UT054-V              PIC X(1)
                                               VALUE SPACE.
               10  WK01-ADD-FLAG-6152-UT054-O              PIC X(1)
                                               VALUE SPACE.
               10  WK01-ADD-FLAG-6152-UT054       PIC X(1)
                                               VALUE SPACES.
               10  WK01-CODE-UT055-Z              PIC X(1)
                                               VALUE SPACE.
               10  WK01-CODE-UT055-F              PIC X(1)
                                               VALUE SPACE.
               10  WK01-CODE-UT055-A              PIC X(1)
                                               VALUE SPACE.
               10  WK01-CODE-UT055-V              PIC X(1)
                                               VALUE SPACE.
               10  WK01-CODE-UT055-O              PIC X(1)
                                               VALUE SPACE.
               10  WK01-CODE-UT055       PIC X(1)
                                               VALUE SPACES.
               10  WK01-CODE-6152-UT055-Z              PIC X(1)
                                               VALUE SPACE.
               10  WK01-CODE-6152-UT055-F              PIC X(1)
                                               VALUE SPACE.
               10  WK01-CODE-6152-UT055-A              PIC X(1)
                                               VALUE SPACE.
               10  WK01-CODE-6152-UT055-V              PIC X(1)
                                               VALUE SPACE.
               10  WK01-CODE-6152-UT055-O              PIC X(1)
                                               VALUE SPACE.
               10  WK01-CODE-6152-UT055       PIC X(10)
                                               VALUE SPACES.
               10  WK01-NAME-6152-UT055-Z              PIC X(1)
                                               VALUE SPACE.
               10  WK01-NAME-6152-UT055-F              PIC X(1)
                                               VALUE SPACE.
               10  WK01-NAME-6152-UT055-A              PIC X(1)
                                               VALUE SPACE.
               10  WK01-NAME-6152-UT055-V              PIC X(1)
                                               VALUE SPACE.
               10  WK01-NAME-6152-UT055-O              PIC X(1)
                                               VALUE SPACE.
               10  WK01-NAME-6152-UT055       PIC X(18)
                                               VALUE SPACES.
               10  WK01-ADD-FLAG-6152-UT055-Z              PIC X(1)
                                               VALUE SPACE.
               10  WK01-ADD-FLAG-6152-UT055-F              PIC X(1)
                                               VALUE SPACE.
               10  WK01-ADD-FLAG-6152-UT055-A              PIC X(1)
                                               VALUE SPACE.
               10  WK01-ADD-FLAG-6152-UT055-V              PIC X(1)
                                               VALUE SPACE.
               10  WK01-ADD-FLAG-6152-UT055-O              PIC X(1)
                                               VALUE SPACE.
               10  WK01-ADD-FLAG-6152-UT055       PIC X(1)
                                               VALUE SPACES.
               10  WK01-CODE-UT056-Z              PIC X(1)
                                               VALUE SPACE.
               10  WK01-CODE-UT056-F              PIC X(1)
                                               VALUE SPACE.
               10  WK01-CODE-UT056-A              PIC X(1)
                                               VALUE SPACE.
               10  WK01-CODE-UT056-V              PIC X(1)
                                               VALUE SPACE.
               10  WK01-CODE-UT056-O              PIC X(1)
                                               VALUE SPACE.
               10  WK01-CODE-UT056       PIC X(1)
                                               VALUE SPACES.
               10  WK01-CODE-6152-UT056-Z              PIC X(1)
                                               VALUE SPACE.
               10  WK01-CODE-6152-UT056-F              PIC X(1)
                                               VALUE SPACE.
               10  WK01-CODE-6152-UT056-A              PIC X(1)
                                               VALUE SPACE.
               10  WK01-CODE-6152-UT056-V              PIC X(1)
                                               VALUE SPACE.
               10  WK01-CODE-6152-UT056-O              PIC X(1)
                                               VALUE SPACE.
               10  WK01-CODE-6152-UT056       PIC X(10)
                                               VALUE SPACES.
               10  WK01-NAME-6152-UT056-Z              PIC X(1)
                                               VALUE SPACE.
               10  WK01-NAME-6152-UT056-F              PIC X(1)
                                               VALUE SPACE.
               10  WK01-NAME-6152-UT056-A              PIC X(1)
                                               VALUE SPACE.
               10  WK01-NAME-6152-UT056-V              PIC X(1)
                                               VALUE SPACE.
               10  WK01-NAME-6152-UT056-O              PIC X(1)
                                               VALUE SPACE.
               10  WK01-NAME-6152-UT056       PIC X(18)
                                               VALUE SPACES.
               10  WK01-ADD-FLAG-6152-UT056-Z              PIC X(1)
                                               VALUE SPACE.
               10  WK01-ADD-FLAG-6152-UT056-F              PIC X(1)
                                               VALUE SPACE.
               10  WK01-ADD-FLAG-6152-UT056-A              PIC X(1)
                                               VALUE SPACE.
               10  WK01-ADD-FLAG-6152-UT056-V              PIC X(1)
                                               VALUE SPACE.
               10  WK01-ADD-FLAG-6152-UT056-O              PIC X(1)
                                               VALUE SPACE.
               10  WK01-ADD-FLAG-6152-UT056       PIC X(1)
                                               VALUE SPACES.
               10  WK01-CODE-UT057-Z              PIC X(1)
                                               VALUE SPACE.
               10  WK01-CODE-UT057-F              PIC X(1)
                                               VALUE SPACE.
               10  WK01-CODE-UT057-A              PIC X(1)
                                               VALUE SPACE.
               10  WK01-CODE-UT057-V              PIC X(1)
                                               VALUE SPACE.
               10  WK01-CODE-UT057-O              PIC X(1)
                                               VALUE SPACE.
               10  WK01-CODE-UT057       PIC X(1)
                                               VALUE SPACES.
               10  WK01-CODE-6152-UT057-Z              PIC X(1)
                                               VALUE SPACE.
               10  WK01-CODE-6152-UT057-F              PIC X(1)
                                               VALUE SPACE.
               10  WK01-CODE-6152-UT057-A              PIC X(1)
                                               VALUE SPACE.
               10  WK01-CODE-6152-UT057-V              PIC X(1)
                                               VALUE SPACE.
               10  WK01-CODE-6152-UT057-O              PIC X(1)
                                               VALUE SPACE.
               10  WK01-CODE-6152-UT057       PIC X(10)
                                               VALUE SPACES.
               10  WK01-NAME-6152-UT057-Z              PIC X(1)
                                               VALUE SPACE.
               10  WK01-NAME-6152-UT057-F              PIC X(1)
                                               VALUE SPACE.
               10  WK01-NAME-6152-UT057-A              PIC X(1)
                                               VALUE SPACE.
               10  WK01-NAME-6152-UT057-V              PIC X(1)
                                               VALUE SPACE.
               10  WK01-NAME-6152-UT057-O              PIC X(1)
                                               VALUE SPACE.
               10  WK01-NAME-6152-UT057       PIC X(18)
                                               VALUE SPACES.
               10  WK01-ADD-FLAG-6152-UT057-Z              PIC X(1)
                                               VALUE SPACE.
               10  WK01-ADD-FLAG-6152-UT057-F              PIC X(1)
                                               VALUE SPACE.
               10  WK01-ADD-FLAG-6152-UT057-A              PIC X(1)
                                               VALUE SPACE.
               10  WK01-ADD-FLAG-6152-UT057-V              PIC X(1)
                                               VALUE SPACE.
               10  WK01-ADD-FLAG-6152-UT057-O              PIC X(1)
                                               VALUE SPACE.
               10  WK01-ADD-FLAG-6152-UT057       PIC X(1)
                                               VALUE SPACES.
               10  WK01-CODE-UT058-Z              PIC X(1)
                                               VALUE SPACE.
               10  WK01-CODE-UT058-F              PIC X(1)
                                               VALUE SPACE.
               10  WK01-CODE-UT058-A              PIC X(1)
                                               VALUE SPACE.
               10  WK01-CODE-UT058-V              PIC X(1)
                                               VALUE SPACE.
               10  WK01-CODE-UT058-O              PIC X(1)
                                               VALUE SPACE.
               10  WK01-CODE-UT058       PIC X(1)
                                               VALUE SPACES.
               10  WK01-CODE-6152-UT058-Z              PIC X(1)
                                               VALUE SPACE.
               10  WK01-CODE-6152-UT058-F              PIC X(1)
                                               VALUE SPACE.
               10  WK01-CODE-6152-UT058-A              PIC X(1)
                                               VALUE SPACE.
               10  WK01-CODE-6152-UT058-V              PIC X(1)
                                               VALUE SPACE.
               10  WK01-CODE-6152-UT058-O              PIC X(1)
                                               VALUE SPACE.
               10  WK01-CODE-6152-UT058       PIC X(10)
                                               VALUE SPACES.
               10  WK01-NAME-6152-UT058-Z              PIC X(1)
                                               VALUE SPACE.
               10  WK01-NAME-6152-UT058-F              PIC X(1)
                                               VALUE SPACE.
               10  WK01-NAME-6152-UT058-A              PIC X(1)
                                               VALUE SPACE.
               10  WK01-NAME-6152-UT058-V              PIC X(1)
                                               VALUE SPACE.
               10  WK01-NAME-6152-UT058-O              PIC X(1)
                                               VALUE SPACE.
               10  WK01-NAME-6152-UT058       PIC X(18)
                                               VALUE SPACES.
               10  WK01-ADD-FLAG-6152-UT058-Z              PIC X(1)
                                               VALUE SPACE.
               10  WK01-ADD-FLAG-6152-UT058-F              PIC X(1)
                                               VALUE SPACE.
               10  WK01-ADD-FLAG-6152-UT058-A              PIC X(1)
                                               VALUE SPACE.
               10  WK01-ADD-FLAG-6152-UT058-V              PIC X(1)
                                               VALUE SPACE.
               10  WK01-ADD-FLAG-6152-UT058-O              PIC X(1)
                                               VALUE SPACE.
               10  WK01-ADD-FLAG-6152-UT058       PIC X(1)
                                               VALUE SPACES.
               10  WK01-CODE-UT059-Z              PIC X(1)
                                               VALUE SPACE.
               10  WK01-CODE-UT059-F              PIC X(1)
                                               VALUE SPACE.
               10  WK01-CODE-UT059-A              PIC X(1)
                                               VALUE SPACE.
               10  WK01-CODE-UT059-V              PIC X(1)
                                               VALUE SPACE.
               10  WK01-CODE-UT059-O              PIC X(1)
                                               VALUE SPACE.
               10  WK01-CODE-UT059       PIC X(1)
                                               VALUE SPACES.
               10  WK01-CODE-6152-UT059-Z              PIC X(1)
                                               VALUE SPACE.
               10  WK01-CODE-6152-UT059-F              PIC X(1)
                                               VALUE SPACE.
               10  WK01-CODE-6152-UT059-A              PIC X(1)
                                               VALUE SPACE.
               10  WK01-CODE-6152-UT059-V              PIC X(1)
                                               VALUE SPACE.
               10  WK01-CODE-6152-UT059-O              PIC X(1)
                                               VALUE SPACE.
               10  WK01-CODE-6152-UT059       PIC X(10)
                                               VALUE SPACES.
               10  WK01-NAME-6152-UT059-Z              PIC X(1)
                                               VALUE SPACE.
               10  WK01-NAME-6152-UT059-F              PIC X(1)
                                               VALUE SPACE.
               10  WK01-NAME-6152-UT059-A              PIC X(1)
                                               VALUE SPACE.
               10  WK01-NAME-6152-UT059-V              PIC X(1)
                                               VALUE SPACE.
               10  WK01-NAME-6152-UT059-O              PIC X(1)
                                               VALUE SPACE.
               10  WK01-NAME-6152-UT059       PIC X(18)
                                               VALUE SPACES.
               10  WK01-ADD-FLAG-6152-UT059-Z              PIC X(1)
                                               VALUE SPACE.
               10  WK01-ADD-FLAG-6152-UT059-F              PIC X(1)
                                               VALUE SPACE.
               10  WK01-ADD-FLAG-6152-UT059-A              PIC X(1)
                                               VALUE SPACE.
               10  WK01-ADD-FLAG-6152-UT059-V              PIC X(1)
                                               VALUE SPACE.
               10  WK01-ADD-FLAG-6152-UT059-O              PIC X(1)
                                               VALUE SPACE.
               10  WK01-ADD-FLAG-6152-UT059       PIC X(1)
                                               VALUE SPACES.
               10  WK01-CODE-UT0510-Z              PIC X(1)
                                               VALUE SPACE.
               10  WK01-CODE-UT0510-F              PIC X(1)
                                               VALUE SPACE.
               10  WK01-CODE-UT0510-A              PIC X(1)
                                               VALUE SPACE.
               10  WK01-CODE-UT0510-V              PIC X(1)
                                               VALUE SPACE.
               10  WK01-CODE-UT0510-O              PIC X(1)
                                               VALUE SPACE.
               10  WK01-CODE-UT0510       PIC X(1)
                                               VALUE SPACES.
               10  WK01-CODE-6152-UT0510-Z              PIC X(1)
                                               VALUE SPACE.
               10  WK01-CODE-6152-UT0510-F              PIC X(1)
                                               VALUE SPACE.
               10  WK01-CODE-6152-UT0510-A              PIC X(1)
                                               VALUE SPACE.
               10  WK01-CODE-6152-UT0510-V              PIC X(1)
                                               VALUE SPACE.
               10  WK01-CODE-6152-UT0510-O              PIC X(1)
                                               VALUE SPACE.
               10  WK01-CODE-6152-UT0510       PIC X(10)
                                               VALUE SPACES.
               10  WK01-NAME-6152-UT0510-Z              PIC X(1)
                                               VALUE SPACE.
               10  WK01-NAME-6152-UT0510-F              PIC X(1)
                                               VALUE SPACE.
               10  WK01-NAME-6152-UT0510-A              PIC X(1)
                                               VALUE SPACE.
               10  WK01-NAME-6152-UT0510-V              PIC X(1)
                                               VALUE SPACE.
               10  WK01-NAME-6152-UT0510-O              PIC X(1)
                                               VALUE SPACE.
               10  WK01-NAME-6152-UT0510       PIC X(18)
                                               VALUE SPACES.
               10  WK01-ADD-FLAG-6152-UT0510-Z              PIC X(1)
                                               VALUE SPACE.
               10  WK01-ADD-FLAG-6152-UT0510-F              PIC X(1)
                                               VALUE SPACE.
               10  WK01-ADD-FLAG-6152-UT0510-A              PIC X(1)
                                               VALUE SPACE.
               10  WK01-ADD-FLAG-6152-UT0510-V              PIC X(1)
                                               VALUE SPACE.
               10  WK01-ADD-FLAG-6152-UT0510-O              PIC X(1)
                                               VALUE SPACE.
               10  WK01-ADD-FLAG-6152-UT0510       PIC X(1)
                                               VALUE SPACES.
               10  WK01-ZIP-CODE-UT05-Z              PIC X(1)
                                               VALUE SPACE.
               10  WK01-ZIP-CODE-UT05-F              PIC X(1)
                                               VALUE SPACE.
               10  WK01-ZIP-CODE-UT05-A              PIC X(1)
                                               VALUE SPACE.
               10  WK01-ZIP-CODE-UT05-V              PIC X(1)
                                               VALUE SPACE.
               10  WK01-ZIP-CODE-UT05-O              PIC X(1)
                                               VALUE SPACE.
               10  WK01-ZIP-CODE-UT05       PIC X(10)
                                               VALUE SPACES.
               10  WK01-ZZMESSAGE-Z              PIC X(1)
                                               VALUE SPACE.
               10  WK01-ZZMESSAGE-F              PIC X(1)
                                               VALUE SPACE.
               10  WK01-ZZMESSAGE-A              PIC X(1)
                                               VALUE SPACE.
               10  WK01-ZZMESSAGE-V              PIC X(1)
                                               VALUE SPACE.
               10  WK01-ZZMESSAGE-O              PIC X(1)
                                               VALUE SPACE.
               10  WK01-ZZMESSAGE       PIC X(160)
                                               VALUE SPACES.
               10  WK01-PASSED-ONE-Z              PIC X(1)
                                               VALUE SPACE.
               10  WK01-PASSED-ONE-F              PIC X(1)
                                               VALUE SPACE.
               10  WK01-PASSED-ONE-A              PIC X(1)
                                               VALUE SPACE.
               10  WK01-PASSED-ONE-V              PIC X(1)
                                               VALUE SPACE.
               10  WK01-PASSED-ONE-O              PIC X(1)
                                               VALUE SPACE.
               10  WK01-PASSED-ONE       PIC X(32)
                                               VALUE SPACES.
               10  WK01-MAP-RESPONSE-Z              PIC X(1)
                                               VALUE SPACE.
               10  WK01-MAP-RESPONSE-F              PIC X(1)
                                               VALUE SPACE.
               10  WK01-MAP-RESPONSE-A              PIC X(1)
                                               VALUE SPACE.
               10  WK01-MAP-RESPONSE-V              PIC X(1)
                                               VALUE SPACE.
               10  WK01-MAP-RESPONSE-O              PIC X(1)
                                               VALUE SPACE.
               10  WK01-MAP-RESPONSE       PIC X(8)
                                               VALUE SPACES.
               10  WK01-TEXT-SY00-Z              PIC X(1)
                                               VALUE SPACE.
               10  WK01-TEXT-SY00-F              PIC X(1)
                                               VALUE SPACE.
               10  WK01-TEXT-SY00-A              PIC X(1)
                                               VALUE SPACE.
               10  WK01-TEXT-SY00-V              PIC X(1)
                                               VALUE SPACE.
               10  WK01-TEXT-SY00-O              PIC X(1)
                                               VALUE SPACE.
               10  WK01-TEXT-SY00       PIC X(14)
                                               VALUE SPACES.
           04  WK01-SUBSCRIPTED-WORK-AREA.
               05  FILLER                      PIC X(1).
               05  WK01-CODE-UT05-F             PIC X(1)
                                               OCCURS 10.
               05  WK01-NAME-6152-UT05-F             PIC X(1)
                                               OCCURS 10.
               05  WK01-ADD-FLAG-6152-UT05-F             PIC X(1)
                                               OCCURS 10.
               05  WK01-CODE-6152-UT05-F             PIC X(1)
                                               OCCURS 10.
