       01  MAP-CONTROL.

    ***Created by Convert/DC version V8R03 on 12/11/00 at 08:00***

           02  FUTMI31-MAP-CONTROL.
           03  FUTMI31T.
           04  WK01-DCXMAPL-PARMS.
               10  WK01-MAPNAME                  PIC X(8)
                                                 VALUE 'FUTMI31I'.
               10  WK01-IKE-LENGTH               PIC S9(8)  COMP
                                                 VALUE 17598.
               10  WK01-TINA-LENGTH              PIC S9(4)  COMP
                                                 VALUE 1205.
           05  WK01-ATTRIBUTES                   PIC X(60)
                                                 VALUE SPACE.
           05  WK01-ATTRIBUTES-ERROR             PIC X(60) VALUE
               'U  BIF'.
           05  WK01-CURSOR-DFLD                  PIC X(36)
                                                 VALUE SPACES.
           05  WK01-CURSOR-DFLD-QUAL             PIC X(30)
                                                 VALUE SPACES.
           05  WK01-ROW                          PIC S9(4) COMP
                                                 VALUE ZERO.
           05  WK01-COLUMN                       PIC S9(4) COMP
                                                 VALUE ZERO.
           05  WK01-ERROR-MSG                    PIC X(80)
                                                 VALUE SPACES.
           05  WK01-MAP-DATA-LEN                 PIC S9(6)
                                                 VALUE ZERO.
           05  WK01-1ST-FLAG                     PIC X(1)
                                                 VALUE 'Y'.
           05  WK01-FLAG-OUTPUT-DATA             PIC X(1)
                                                 VALUE 'Y'.
      *    05  WK01-STATUS-RETURN-FLAG           PIC X(1)
      *                                          VALUE SPACES.
           05  WK01-ALL-BUT-FLAG                 PIC X(1)
                                                 VALUE SPACES.
           05  WK01-FLAG-ALL-FIELDS-CHANGED      PIC X(1)  VALUE 'Y'.
           05  WK01-FLAG-ANY-FIELDS-CHANGED      PIC X(1)  VALUE 'N'.
           05  WK01-FLAG-ALL-FIELDS-ERROR        PIC X(1)  VALUE 'Y'.
           05  WK01-FLAG-ANY-FIELDS-ERROR        PIC X(1)  VALUE 'N'.
           05  WK01-FLAG-ALL-FIELDS-ERASE        PIC X(1)  VALUE 'Y'.
           05  WK01-FLAG-ANY-FIELDS-ERASE        PIC X(1)  VALUE 'Y'.

           05  WK01-VARDATA                      PIC X(11880)
                                                 VALUE SPACES.
           05  FILLER                            PIC X(100)
                                                 VALUE SPACES.
           04  WK01-ELEMENT-AREA.

               10  WK01-ID-SY00-Z              PIC X(1)
                                               VALUE SPACE.
               10  WK01-ID-SY00-F              PIC X(1)
                                               VALUE SPACE.
               10  WK01-ID-SY00-A              PIC X(1)
                                               VALUE SPACE.
               10  WK01-ID-SY00-V              PIC X(1)
                                               VALUE SPACE.
               10  WK01-ID-SY00-O              PIC X(1)
                                               VALUE SPACE.
               10  WK01-ID-SY00       PIC X(8)
                                               VALUE SPACES.
               10  WK01-NAME-6001-SY00-Z              PIC X(1)
                                               VALUE SPACE.
               10  WK01-NAME-6001-SY00-F              PIC X(1)
                                               VALUE SPACE.
               10  WK01-NAME-6001-SY00-A              PIC X(1)
                                               VALUE SPACE.
               10  WK01-NAME-6001-SY00-V              PIC X(1)
                                               VALUE SPACE.
               10  WK01-NAME-6001-SY00-O              PIC X(1)
                                               VALUE SPACE.
               10  WK01-NAME-6001-SY00       PIC X(35)
                                               VALUE SPACES.
               10  WK01-DATE-Z              PIC X(1)
                                               VALUE SPACE.
               10  WK01-DATE-F              PIC X(1)
                                               VALUE SPACE.
               10  WK01-DATE-A              PIC X(1)
                                               VALUE SPACE.
               10  WK01-DATE-V              PIC X(1)
                                               VALUE SPACE.
               10  WK01-DATE-O              PIC X(1)
                                               VALUE SPACE.
               10  WK01-DATE       PIC X(8)
                                               VALUE SPACES.
               10  WK01-HH-MM-TIME-SY00-Z              PIC X(1)
                                               VALUE SPACE.
               10  WK01-HH-MM-TIME-SY00-F              PIC X(1)
                                               VALUE SPACE.
               10  WK01-HH-MM-TIME-SY00-A              PIC X(1)
                                               VALUE SPACE.
               10  WK01-HH-MM-TIME-SY00-V              PIC X(1)
                                               VALUE SPACE.
               10  WK01-HH-MM-TIME-SY00-O              PIC X(1)
                                               VALUE SPACE.
               10  WK01-HH-MM-TIME-SY00       PIC X(4)
                                               VALUE SPACES.
               10  WK01-PM-FLAG-SY00-Z              PIC X(1)
                                               VALUE SPACE.
               10  WK01-PM-FLAG-SY00-F              PIC X(1)
                                               VALUE SPACE.
               10  WK01-PM-FLAG-SY00-A              PIC X(1)
                                               VALUE SPACE.
               10  WK01-PM-FLAG-SY00-V              PIC X(1)
                                               VALUE SPACE.
               10  WK01-PM-FLAG-SY00-O              PIC X(1)
                                               VALUE SPACE.
               10  WK01-PM-FLAG-SY00       PIC X(1)
                                               VALUE SPACES.
               10  WK01-USER-ID-Z              PIC X(1)
                                               VALUE SPACE.
               10  WK01-USER-ID-F              PIC X(1)
                                               VALUE SPACE.
               10  WK01-USER-ID-A              PIC X(1)
                                               VALUE SPACE.
               10  WK01-USER-ID-V              PIC X(1)
                                               VALUE SPACE.
               10  WK01-USER-ID-O              PIC X(1)
                                               VALUE SPACE.
               10  WK01-USER-ID       PIC X(32)
                                               VALUE SPACES.
               10  WK01-RSPNS-ID-SY00-Z              PIC X(1)
                                               VALUE SPACE.
               10  WK01-RSPNS-ID-SY00-F              PIC X(1)
                                               VALUE SPACE.
               10  WK01-RSPNS-ID-SY00-A              PIC X(1)
                                               VALUE SPACE.
               10  WK01-RSPNS-ID-SY00-V              PIC X(1)
                                               VALUE SPACE.
               10  WK01-RSPNS-ID-SY00-O              PIC X(1)
                                               VALUE SPACE.
               10  WK01-RSPNS-ID-SY00       PIC X(8)
                                               VALUE SPACES.
               10  WK01-FUNC-DESCRIPTION-Z              PIC X(1)
                                               VALUE SPACE.
               10  WK01-FUNC-DESCRIPTION-F              PIC X(1)
                                               VALUE SPACE.
               10  WK01-FUNC-DESCRIPTION-A              PIC X(1)
                                               VALUE SPACE.
               10  WK01-FUNC-DESCRIPTION-V              PIC X(1)
                                               VALUE SPACE.
               10  WK01-FUNC-DESCRIPTION-O              PIC X(1)
                                               VALUE SPACE.
               10  WK01-FUNC-DESCRIPTION       PIC X(28)
                                               VALUE SPACES.
               10  WK01-STATUS-CODE-SY00-Z              PIC X(1)
                                               VALUE SPACE.
               10  WK01-STATUS-CODE-SY00-F              PIC X(1)
                                               VALUE SPACE.
               10  WK01-STATUS-CODE-SY00-A              PIC X(1)
                                               VALUE SPACE.
               10  WK01-STATUS-CODE-SY00-V              PIC X(1)
                                               VALUE SPACE.
               10  WK01-STATUS-CODE-SY00-O              PIC X(1)
                                               VALUE SPACE.
               10  WK01-STATUS-CODE-SY00       PIC X(1)
                                               VALUE SPACES.
               10  WK01-ID-LAST-NINE-UT31-Z              PIC X(1)
                                               VALUE SPACE.
               10  WK01-ID-LAST-NINE-UT31-F              PIC X(1)
                                               VALUE SPACE.
               10  WK01-ID-LAST-NINE-UT31-A              PIC X(1)
                                               VALUE SPACE.
               10  WK01-ID-LAST-NINE-UT31-V              PIC X(1)
                                               VALUE SPACE.
               10  WK01-ID-LAST-NINE-UT31-O              PIC X(1)
                                               VALUE SPACE.
               10  WK01-ID-LAST-NINE-UT31       PIC X(9)
                                               VALUE SPACES.
               10  WK01-KEY-UT31-Z              PIC X(1)
                                               VALUE SPACE.
               10  WK01-KEY-UT31-F              PIC X(1)
                                               VALUE SPACE.
               10  WK01-KEY-UT31-A              PIC X(1)
                                               VALUE SPACE.
               10  WK01-KEY-UT31-V              PIC X(1)
                                               VALUE SPACE.
               10  WK01-KEY-UT31-O              PIC X(1)
                                               VALUE SPACE.
               10  WK01-KEY-UT31       PIC X(35)
                                               VALUE SPACES.
               10  WK01-CODE-UT311-Z              PIC X(1)
                                               VALUE SPACE.
               10  WK01-CODE-UT311-F              PIC X(1)
                                               VALUE SPACE.
               10  WK01-CODE-UT311-A              PIC X(1)
                                               VALUE SPACE.
               10  WK01-CODE-UT311-V              PIC X(1)
                                               VALUE SPACE.
               10  WK01-CODE-UT311-O              PIC X(1)
                                               VALUE SPACE.
               10  WK01-CODE-UT311       PIC X(1)
                                               VALUE SPACES.
               10  WK01-TYPE-CODE-UT311-Z              PIC X(1)
                                               VALUE SPACE.
               10  WK01-TYPE-CODE-UT311-F              PIC X(1)
                                               VALUE SPACE.
               10  WK01-TYPE-CODE-UT311-A              PIC X(1)
                                               VALUE SPACE.
               10  WK01-TYPE-CODE-UT311-V              PIC X(1)
                                               VALUE SPACE.
               10  WK01-TYPE-CODE-UT311-O              PIC X(1)
                                               VALUE SPACE.
               10  WK01-TYPE-CODE-UT311       PIC X(2)
                                               VALUE SPACES.
               10  WK01-TYPE-DESC-UT311-Z              PIC X(1)
                                               VALUE SPACE.
               10  WK01-TYPE-DESC-UT311-F              PIC X(1)
                                               VALUE SPACE.
               10  WK01-TYPE-DESC-UT311-A              PIC X(1)
                                               VALUE SPACE.
               10  WK01-TYPE-DESC-UT311-V              PIC X(1)
                                               VALUE SPACE.
               10  WK01-TYPE-DESC-UT311-O              PIC X(1)
                                               VALUE SPACE.
               10  WK01-TYPE-DESC-UT311       PIC X(30)
                                               VALUE SPACES.
               10  WK01-DATE-UT311-Z              PIC X(1)
                                               VALUE SPACE.
               10  WK01-DATE-UT311-F              PIC X(1)
                                               VALUE SPACE.
               10  WK01-DATE-UT311-A              PIC X(1)
                                               VALUE SPACE.
               10  WK01-DATE-UT311-V              PIC X(1)
                                               VALUE SPACE.
               10  WK01-DATE-UT311-O              PIC X(1)
                                               VALUE SPACE.
               10  WK01-DATE-UT311       PIC S9(8)
                                               VALUE ZEROS.
               10  WK01-DATE-UT3A1-Z              PIC X(1)
                                               VALUE SPACE.
               10  WK01-DATE-UT3A1-F              PIC X(1)
                                               VALUE SPACE.
               10  WK01-DATE-UT3A1-A              PIC X(1)
                                               VALUE SPACE.
               10  WK01-DATE-UT3A1-V              PIC X(1)
                                               VALUE SPACE.
               10  WK01-DATE-UT3A1-O              PIC X(1)
                                               VALUE SPACE.
               10  WK01-DATE-UT3A1       PIC S9(8)
                                               VALUE ZEROS.
               10  WK01-CODE-UT312-Z              PIC X(1)
                                               VALUE SPACE.
               10  WK01-CODE-UT312-F              PIC X(1)
                                               VALUE SPACE.
               10  WK01-CODE-UT312-A              PIC X(1)
                                               VALUE SPACE.
               10  WK01-CODE-UT312-V              PIC X(1)
                                               VALUE SPACE.
               10  WK01-CODE-UT312-O              PIC X(1)
                                               VALUE SPACE.
               10  WK01-CODE-UT312       PIC X(1)
                                               VALUE SPACES.
               10  WK01-TYPE-CODE-UT312-Z              PIC X(1)
                                               VALUE SPACE.
               10  WK01-TYPE-CODE-UT312-F              PIC X(1)
                                               VALUE SPACE.
               10  WK01-TYPE-CODE-UT312-A              PIC X(1)
                                               VALUE SPACE.
               10  WK01-TYPE-CODE-UT312-V              PIC X(1)
                                               VALUE SPACE.
               10  WK01-TYPE-CODE-UT312-O              PIC X(1)
                                               VALUE SPACE.
               10  WK01-TYPE-CODE-UT312       PIC X(2)
                                               VALUE SPACES.
               10  WK01-TYPE-DESC-UT312-Z              PIC X(1)
                                               VALUE SPACE.
               10  WK01-TYPE-DESC-UT312-F              PIC X(1)
                                               VALUE SPACE.
               10  WK01-TYPE-DESC-UT312-A              PIC X(1)
                                               VALUE SPACE.
               10  WK01-TYPE-DESC-UT312-V              PIC X(1)
                                               VALUE SPACE.
               10  WK01-TYPE-DESC-UT312-O              PIC X(1)
                                               VALUE SPACE.
               10  WK01-TYPE-DESC-UT312       PIC X(30)
                                               VALUE SPACES.
               10  WK01-DATE-UT312-Z              PIC X(1)
                                               VALUE SPACE.
               10  WK01-DATE-UT312-F              PIC X(1)
                                               VALUE SPACE.
               10  WK01-DATE-UT312-A              PIC X(1)
                                               VALUE SPACE.
               10  WK01-DATE-UT312-V              PIC X(1)
                                               VALUE SPACE.
               10  WK01-DATE-UT312-O              PIC X(1)
                                               VALUE SPACE.
               10  WK01-DATE-UT312       PIC S9(8)
                                               VALUE ZEROS.
               10  WK01-DATE-UT3A2-Z              PIC X(1)
                                               VALUE SPACE.
               10  WK01-DATE-UT3A2-F              PIC X(1)
                                               VALUE SPACE.
               10  WK01-DATE-UT3A2-A              PIC X(1)
                                               VALUE SPACE.
               10  WK01-DATE-UT3A2-V              PIC X(1)
                                               VALUE SPACE.
               10  WK01-DATE-UT3A2-O              PIC X(1)
                                               VALUE SPACE.
               10  WK01-DATE-UT3A2       PIC S9(8)
                                               VALUE ZEROS.
               10  WK01-CODE-UT313-Z              PIC X(1)
                                               VALUE SPACE.
               10  WK01-CODE-UT313-F              PIC X(1)
                                               VALUE SPACE.
               10  WK01-CODE-UT313-A              PIC X(1)
                                               VALUE SPACE.
               10  WK01-CODE-UT313-V              PIC X(1)
                                               VALUE SPACE.
               10  WK01-CODE-UT313-O              PIC X(1)
                                               VALUE SPACE.
               10  WK01-CODE-UT313       PIC X(1)
                                               VALUE SPACES.
               10  WK01-TYPE-CODE-UT313-Z              PIC X(1)
                                               VALUE SPACE.
               10  WK01-TYPE-CODE-UT313-F              PIC X(1)
                                               VALUE SPACE.
               10  WK01-TYPE-CODE-UT313-A              PIC X(1)
                                               VALUE SPACE.
               10  WK01-TYPE-CODE-UT313-V              PIC X(1)
                                               VALUE SPACE.
               10  WK01-TYPE-CODE-UT313-O              PIC X(1)
                                               VALUE SPACE.
               10  WK01-TYPE-CODE-UT313       PIC X(2)
                                               VALUE SPACES.
               10  WK01-TYPE-DESC-UT313-Z              PIC X(1)
                                               VALUE SPACE.
               10  WK01-TYPE-DESC-UT313-F              PIC X(1)
                                               VALUE SPACE.
               10  WK01-TYPE-DESC-UT313-A              PIC X(1)
                                               VALUE SPACE.
               10  WK01-TYPE-DESC-UT313-V              PIC X(1)
                                               VALUE SPACE.
               10  WK01-TYPE-DESC-UT313-O              PIC X(1)
                                               VALUE SPACE.
               10  WK01-TYPE-DESC-UT313       PIC X(30)
                                               VALUE SPACES.
               10  WK01-DATE-UT313-Z              PIC X(1)
                                               VALUE SPACE.
               10  WK01-DATE-UT313-F              PIC X(1)
                                               VALUE SPACE.
               10  WK01-DATE-UT313-A              PIC X(1)
                                               VALUE SPACE.
               10  WK01-DATE-UT313-V              PIC X(1)
                                               VALUE SPACE.
               10  WK01-DATE-UT313-O              PIC X(1)
                                               VALUE SPACE.
               10  WK01-DATE-UT313       PIC S9(8)
                                               VALUE ZEROS.
               10  WK01-DATE-UT3A3-Z              PIC X(1)
                                               VALUE SPACE.
               10  WK01-DATE-UT3A3-F              PIC X(1)
                                               VALUE SPACE.
               10  WK01-DATE-UT3A3-A              PIC X(1)
                                               VALUE SPACE.
               10  WK01-DATE-UT3A3-V              PIC X(1)
                                               VALUE SPACE.
               10  WK01-DATE-UT3A3-O              PIC X(1)
                                               VALUE SPACE.
               10  WK01-DATE-UT3A3       PIC S9(8)
                                               VALUE ZEROS.
               10  WK01-CODE-UT314-Z              PIC X(1)
                                               VALUE SPACE.
               10  WK01-CODE-UT314-F              PIC X(1)
                                               VALUE SPACE.
               10  WK01-CODE-UT314-A              PIC X(1)
                                               VALUE SPACE.
               10  WK01-CODE-UT314-V              PIC X(1)
                                               VALUE SPACE.
               10  WK01-CODE-UT314-O              PIC X(1)
                                               VALUE SPACE.
               10  WK01-CODE-UT314       PIC X(1)
                                               VALUE SPACES.
               10  WK01-TYPE-CODE-UT314-Z              PIC X(1)
                                               VALUE SPACE.
               10  WK01-TYPE-CODE-UT314-F              PIC X(1)
                                               VALUE SPACE.
               10  WK01-TYPE-CODE-UT314-A              PIC X(1)
                                               VALUE SPACE.
               10  WK01-TYPE-CODE-UT314-V              PIC X(1)
                                               VALUE SPACE.
               10  WK01-TYPE-CODE-UT314-O              PIC X(1)
                                               VALUE SPACE.
               10  WK01-TYPE-CODE-UT314       PIC X(2)
                                               VALUE SPACES.
               10  WK01-TYPE-DESC-UT314-Z              PIC X(1)
                                               VALUE SPACE.
               10  WK01-TYPE-DESC-UT314-F              PIC X(1)
                                               VALUE SPACE.
               10  WK01-TYPE-DESC-UT314-A              PIC X(1)
                                               VALUE SPACE.
               10  WK01-TYPE-DESC-UT314-V              PIC X(1)
                                               VALUE SPACE.
               10  WK01-TYPE-DESC-UT314-O              PIC X(1)
                                               VALUE SPACE.
               10  WK01-TYPE-DESC-UT314       PIC X(30)
                                               VALUE SPACES.
               10  WK01-DATE-UT314-Z              PIC X(1)
                                               VALUE SPACE.
               10  WK01-DATE-UT314-F              PIC X(1)
                                               VALUE SPACE.
               10  WK01-DATE-UT314-A              PIC X(1)
                                               VALUE SPACE.
               10  WK01-DATE-UT314-V              PIC X(1)
                                               VALUE SPACE.
               10  WK01-DATE-UT314-O              PIC X(1)
                                               VALUE SPACE.
               10  WK01-DATE-UT314       PIC S9(8)
                                               VALUE ZEROS.
               10  WK01-DATE-UT3A4-Z              PIC X(1)
                                               VALUE SPACE.
               10  WK01-DATE-UT3A4-F              PIC X(1)
                                               VALUE SPACE.
               10  WK01-DATE-UT3A4-A              PIC X(1)
                                               VALUE SPACE.
               10  WK01-DATE-UT3A4-V              PIC X(1)
                                               VALUE SPACE.
               10  WK01-DATE-UT3A4-O              PIC X(1)
                                               VALUE SPACE.
               10  WK01-DATE-UT3A4       PIC S9(8)
                                               VALUE ZEROS.
               10  WK01-CODE-UT315-Z              PIC X(1)
                                               VALUE SPACE.
               10  WK01-CODE-UT315-F              PIC X(1)
                                               VALUE SPACE.
               10  WK01-CODE-UT315-A              PIC X(1)
                                               VALUE SPACE.
               10  WK01-CODE-UT315-V              PIC X(1)
                                               VALUE SPACE.
               10  WK01-CODE-UT315-O              PIC X(1)
                                               VALUE SPACE.
               10  WK01-CODE-UT315       PIC X(1)
                                               VALUE SPACES.
               10  WK01-TYPE-CODE-UT315-Z              PIC X(1)
                                               VALUE SPACE.
               10  WK01-TYPE-CODE-UT315-F              PIC X(1)
                                               VALUE SPACE.
               10  WK01-TYPE-CODE-UT315-A              PIC X(1)
                                               VALUE SPACE.
               10  WK01-TYPE-CODE-UT315-V              PIC X(1)
                                               VALUE SPACE.
               10  WK01-TYPE-CODE-UT315-O              PIC X(1)
                                               VALUE SPACE.
               10  WK01-TYPE-CODE-UT315       PIC X(2)
                                               VALUE SPACES.
               10  WK01-TYPE-DESC-UT315-Z              PIC X(1)
                                               VALUE SPACE.
               10  WK01-TYPE-DESC-UT315-F              PIC X(1)
                                               VALUE SPACE.
               10  WK01-TYPE-DESC-UT315-A              PIC X(1)
                                               VALUE SPACE.
               10  WK01-TYPE-DESC-UT315-V              PIC X(1)
                                               VALUE SPACE.
               10  WK01-TYPE-DESC-UT315-O              PIC X(1)
                                               VALUE SPACE.
               10  WK01-TYPE-DESC-UT315       PIC X(30)
                                               VALUE SPACES.
               10  WK01-DATE-UT315-Z              PIC X(1)
                                               VALUE SPACE.
               10  WK01-DATE-UT315-F              PIC X(1)
                                               VALUE SPACE.
               10  WK01-DATE-UT315-A              PIC X(1)
                                               VALUE SPACE.
               10  WK01-DATE-UT315-V              PIC X(1)
                                               VALUE SPACE.
               10  WK01-DATE-UT315-O              PIC X(1)
                                               VALUE SPACE.
               10  WK01-DATE-UT315       PIC S9(8)
                                               VALUE ZEROS.
               10  WK01-DATE-UT3A5-Z              PIC X(1)
                                               VALUE SPACE.
               10  WK01-DATE-UT3A5-F              PIC X(1)
                                               VALUE SPACE.
               10  WK01-DATE-UT3A5-A              PIC X(1)
                                               VALUE SPACE.
               10  WK01-DATE-UT3A5-V              PIC X(1)
                                               VALUE SPACE.
               10  WK01-DATE-UT3A5-O              PIC X(1)
                                               VALUE SPACE.
               10  WK01-DATE-UT3A5       PIC S9(8)
                                               VALUE ZEROS.
               10  WK01-CODE-UT316-Z              PIC X(1)
                                               VALUE SPACE.
               10  WK01-CODE-UT316-F              PIC X(1)
                                               VALUE SPACE.
               10  WK01-CODE-UT316-A              PIC X(1)
                                               VALUE SPACE.
               10  WK01-CODE-UT316-V              PIC X(1)
                                               VALUE SPACE.
               10  WK01-CODE-UT316-O              PIC X(1)
                                               VALUE SPACE.
               10  WK01-CODE-UT316       PIC X(1)
                                               VALUE SPACES.
               10  WK01-TYPE-CODE-UT316-Z              PIC X(1)
                                               VALUE SPACE.
               10  WK01-TYPE-CODE-UT316-F              PIC X(1)
                                               VALUE SPACE.
               10  WK01-TYPE-CODE-UT316-A              PIC X(1)
                                               VALUE SPACE.
               10  WK01-TYPE-CODE-UT316-V              PIC X(1)
                                               VALUE SPACE.
               10  WK01-TYPE-CODE-UT316-O              PIC X(1)
                                               VALUE SPACE.
               10  WK01-TYPE-CODE-UT316       PIC X(2)
                                               VALUE SPACES.
               10  WK01-TYPE-DESC-UT316-Z              PIC X(1)
                                               VALUE SPACE.
               10  WK01-TYPE-DESC-UT316-F              PIC X(1)
                                               VALUE SPACE.
               10  WK01-TYPE-DESC-UT316-A              PIC X(1)
                                               VALUE SPACE.
               10  WK01-TYPE-DESC-UT316-V              PIC X(1)
                                               VALUE SPACE.
               10  WK01-TYPE-DESC-UT316-O              PIC X(1)
                                               VALUE SPACE.
               10  WK01-TYPE-DESC-UT316       PIC X(30)
                                               VALUE SPACES.
               10  WK01-DATE-UT316-Z              PIC X(1)
                                               VALUE SPACE.
               10  WK01-DATE-UT316-F              PIC X(1)
                                               VALUE SPACE.
               10  WK01-DATE-UT316-A              PIC X(1)
                                               VALUE SPACE.
               10  WK01-DATE-UT316-V              PIC X(1)
                                               VALUE SPACE.
               10  WK01-DATE-UT316-O              PIC X(1)
                                               VALUE SPACE.
               10  WK01-DATE-UT316       PIC S9(8)
                                               VALUE ZEROS.
               10  WK01-DATE-UT3A6-Z              PIC X(1)
                                               VALUE SPACE.
               10  WK01-DATE-UT3A6-F              PIC X(1)
                                               VALUE SPACE.
               10  WK01-DATE-UT3A6-A              PIC X(1)
                                               VALUE SPACE.
               10  WK01-DATE-UT3A6-V              PIC X(1)
                                               VALUE SPACE.
               10  WK01-DATE-UT3A6-O              PIC X(1)
                                               VALUE SPACE.
               10  WK01-DATE-UT3A6       PIC S9(8)
                                               VALUE ZEROS.
               10  WK01-CODE-UT317-Z              PIC X(1)
                                               VALUE SPACE.
               10  WK01-CODE-UT317-F              PIC X(1)
                                               VALUE SPACE.
               10  WK01-CODE-UT317-A              PIC X(1)
                                               VALUE SPACE.
               10  WK01-CODE-UT317-V              PIC X(1)
                                               VALUE SPACE.
               10  WK01-CODE-UT317-O              PIC X(1)
                                               VALUE SPACE.
               10  WK01-CODE-UT317       PIC X(1)
                                               VALUE SPACES.
               10  WK01-TYPE-CODE-UT317-Z              PIC X(1)
                                               VALUE SPACE.
               10  WK01-TYPE-CODE-UT317-F              PIC X(1)
                                               VALUE SPACE.
               10  WK01-TYPE-CODE-UT317-A              PIC X(1)
                                               VALUE SPACE.
               10  WK01-TYPE-CODE-UT317-V              PIC X(1)
                                               VALUE SPACE.
               10  WK01-TYPE-CODE-UT317-O              PIC X(1)
                                               VALUE SPACE.
               10  WK01-TYPE-CODE-UT317       PIC X(2)
                                               VALUE SPACES.
               10  WK01-TYPE-DESC-UT317-Z              PIC X(1)
                                               VALUE SPACE.
               10  WK01-TYPE-DESC-UT317-F              PIC X(1)
                                               VALUE SPACE.
               10  WK01-TYPE-DESC-UT317-A              PIC X(1)
                                               VALUE SPACE.
               10  WK01-TYPE-DESC-UT317-V              PIC X(1)
                                               VALUE SPACE.
               10  WK01-TYPE-DESC-UT317-O              PIC X(1)
                                               VALUE SPACE.
               10  WK01-TYPE-DESC-UT317       PIC X(30)
                                               VALUE SPACES.
               10  WK01-DATE-UT317-Z              PIC X(1)
                                               VALUE SPACE.
               10  WK01-DATE-UT317-F              PIC X(1)
                                               VALUE SPACE.
               10  WK01-DATE-UT317-A              PIC X(1)
                                               VALUE SPACE.
               10  WK01-DATE-UT317-V              PIC X(1)
                                               VALUE SPACE.
               10  WK01-DATE-UT317-O              PIC X(1)
                                               VALUE SPACE.
               10  WK01-DATE-UT317       PIC S9(8)
                                               VALUE ZEROS.
               10  WK01-DATE-UT3A7-Z              PIC X(1)
                                               VALUE SPACE.
               10  WK01-DATE-UT3A7-F              PIC X(1)
                                               VALUE SPACE.
               10  WK01-DATE-UT3A7-A              PIC X(1)
                                               VALUE SPACE.
               10  WK01-DATE-UT3A7-V              PIC X(1)
                                               VALUE SPACE.
               10  WK01-DATE-UT3A7-O              PIC X(1)
                                               VALUE SPACE.
               10  WK01-DATE-UT3A7       PIC S9(8)
                                               VALUE ZEROS.
               10  WK01-CODE-UT318-Z              PIC X(1)
                                               VALUE SPACE.
               10  WK01-CODE-UT318-F              PIC X(1)
                                               VALUE SPACE.
               10  WK01-CODE-UT318-A              PIC X(1)
                                               VALUE SPACE.
               10  WK01-CODE-UT318-V              PIC X(1)
                                               VALUE SPACE.
               10  WK01-CODE-UT318-O              PIC X(1)
                                               VALUE SPACE.
               10  WK01-CODE-UT318       PIC X(1)
                                               VALUE SPACES.
               10  WK01-TYPE-CODE-UT318-Z              PIC X(1)
                                               VALUE SPACE.
               10  WK01-TYPE-CODE-UT318-F              PIC X(1)
                                               VALUE SPACE.
               10  WK01-TYPE-CODE-UT318-A              PIC X(1)
                                               VALUE SPACE.
               10  WK01-TYPE-CODE-UT318-V              PIC X(1)
                                               VALUE SPACE.
               10  WK01-TYPE-CODE-UT318-O              PIC X(1)
                                               VALUE SPACE.
               10  WK01-TYPE-CODE-UT318       PIC X(2)
                                               VALUE SPACES.
               10  WK01-TYPE-DESC-UT318-Z              PIC X(1)
                                               VALUE SPACE.
               10  WK01-TYPE-DESC-UT318-F              PIC X(1)
                                               VALUE SPACE.
               10  WK01-TYPE-DESC-UT318-A              PIC X(1)
                                               VALUE SPACE.
               10  WK01-TYPE-DESC-UT318-V              PIC X(1)
                                               VALUE SPACE.
               10  WK01-TYPE-DESC-UT318-O              PIC X(1)
                                               VALUE SPACE.
               10  WK01-TYPE-DESC-UT318       PIC X(30)
                                               VALUE SPACES.
               10  WK01-DATE-UT318-Z              PIC X(1)
                                               VALUE SPACE.
               10  WK01-DATE-UT318-F              PIC X(1)
                                               VALUE SPACE.
               10  WK01-DATE-UT318-A              PIC X(1)
                                               VALUE SPACE.
               10  WK01-DATE-UT318-V              PIC X(1)
                                               VALUE SPACE.
               10  WK01-DATE-UT318-O              PIC X(1)
                                               VALUE SPACE.
               10  WK01-DATE-UT318       PIC S9(8)
                                               VALUE ZEROS.
               10  WK01-DATE-UT3A8-Z              PIC X(1)
                                               VALUE SPACE.
               10  WK01-DATE-UT3A8-F              PIC X(1)
                                               VALUE SPACE.
               10  WK01-DATE-UT3A8-A              PIC X(1)
                                               VALUE SPACE.
               10  WK01-DATE-UT3A8-V              PIC X(1)
                                               VALUE SPACE.
               10  WK01-DATE-UT3A8-O              PIC X(1)
                                               VALUE SPACE.
               10  WK01-DATE-UT3A8       PIC S9(8)
                                               VALUE ZEROS.
               10  WK01-CODE-UT319-Z              PIC X(1)
                                               VALUE SPACE.
               10  WK01-CODE-UT319-F              PIC X(1)
                                               VALUE SPACE.
               10  WK01-CODE-UT319-A              PIC X(1)
                                               VALUE SPACE.
               10  WK01-CODE-UT319-V              PIC X(1)
                                               VALUE SPACE.
               10  WK01-CODE-UT319-O              PIC X(1)
                                               VALUE SPACE.
               10  WK01-CODE-UT319       PIC X(1)
                                               VALUE SPACES.
               10  WK01-TYPE-CODE-UT319-Z              PIC X(1)
                                               VALUE SPACE.
               10  WK01-TYPE-CODE-UT319-F              PIC X(1)
                                               VALUE SPACE.
               10  WK01-TYPE-CODE-UT319-A              PIC X(1)
                                               VALUE SPACE.
               10  WK01-TYPE-CODE-UT319-V              PIC X(1)
                                               VALUE SPACE.
               10  WK01-TYPE-CODE-UT319-O              PIC X(1)
                                               VALUE SPACE.
               10  WK01-TYPE-CODE-UT319       PIC X(2)
                                               VALUE SPACES.
               10  WK01-TYPE-DESC-UT319-Z              PIC X(1)
                                               VALUE SPACE.
               10  WK01-TYPE-DESC-UT319-F              PIC X(1)
                                               VALUE SPACE.
               10  WK01-TYPE-DESC-UT319-A              PIC X(1)
                                               VALUE SPACE.
               10  WK01-TYPE-DESC-UT319-V              PIC X(1)
                                               VALUE SPACE.
               10  WK01-TYPE-DESC-UT319-O              PIC X(1)
                                               VALUE SPACE.
               10  WK01-TYPE-DESC-UT319       PIC X(30)
                                               VALUE SPACES.
               10  WK01-DATE-UT319-Z              PIC X(1)
                                               VALUE SPACE.
               10  WK01-DATE-UT319-F              PIC X(1)
                                               VALUE SPACE.
               10  WK01-DATE-UT319-A              PIC X(1)
                                               VALUE SPACE.
               10  WK01-DATE-UT319-V              PIC X(1)
                                               VALUE SPACE.
               10  WK01-DATE-UT319-O              PIC X(1)
                                               VALUE SPACE.
               10  WK01-DATE-UT319       PIC S9(8)
                                               VALUE ZEROS.
               10  WK01-DATE-UT3A9-Z              PIC X(1)
                                               VALUE SPACE.
               10  WK01-DATE-UT3A9-F              PIC X(1)
                                               VALUE SPACE.
               10  WK01-DATE-UT3A9-A              PIC X(1)
                                               VALUE SPACE.
               10  WK01-DATE-UT3A9-V              PIC X(1)
                                               VALUE SPACE.
               10  WK01-DATE-UT3A9-O              PIC X(1)
                                               VALUE SPACE.
               10  WK01-DATE-UT3A9       PIC S9(8)
                                               VALUE ZEROS.
               10  WK01-CODE-UT3110-Z              PIC X(1)
                                               VALUE SPACE.
               10  WK01-CODE-UT3110-F              PIC X(1)
                                               VALUE SPACE.
               10  WK01-CODE-UT3110-A              PIC X(1)
                                               VALUE SPACE.
               10  WK01-CODE-UT3110-V              PIC X(1)
                                               VALUE SPACE.
               10  WK01-CODE-UT3110-O              PIC X(1)
                                               VALUE SPACE.
               10  WK01-CODE-UT3110       PIC X(1)
                                               VALUE SPACES.
               10  WK01-TYPE-CODE-UT3110-Z              PIC X(1)
                                               VALUE SPACE.
               10  WK01-TYPE-CODE-UT3110-F              PIC X(1)
                                               VALUE SPACE.
               10  WK01-TYPE-CODE-UT3110-A              PIC X(1)
                                               VALUE SPACE.
               10  WK01-TYPE-CODE-UT3110-V              PIC X(1)
                                               VALUE SPACE.
               10  WK01-TYPE-CODE-UT3110-O              PIC X(1)
                                               VALUE SPACE.
               10  WK01-TYPE-CODE-UT3110       PIC X(2)
                                               VALUE SPACES.
               10  WK01-TYPE-DESC-UT3110-Z              PIC X(1)
                                               VALUE SPACE.
               10  WK01-TYPE-DESC-UT3110-F              PIC X(1)
                                               VALUE SPACE.
               10  WK01-TYPE-DESC-UT3110-A              PIC X(1)
                                               VALUE SPACE.
               10  WK01-TYPE-DESC-UT3110-V              PIC X(1)
                                               VALUE SPACE.
               10  WK01-TYPE-DESC-UT3110-O              PIC X(1)
                                               VALUE SPACE.
               10  WK01-TYPE-DESC-UT3110       PIC X(30)
                                               VALUE SPACES.
               10  WK01-DATE-UT3110-Z              PIC X(1)
                                               VALUE SPACE.
               10  WK01-DATE-UT3110-F              PIC X(1)
                                               VALUE SPACE.
               10  WK01-DATE-UT3110-A              PIC X(1)
                                               VALUE SPACE.
               10  WK01-DATE-UT3110-V              PIC X(1)
                                               VALUE SPACE.
               10  WK01-DATE-UT3110-O              PIC X(1)
                                               VALUE SPACE.
               10  WK01-DATE-UT3110       PIC S9(8)
                                               VALUE ZEROS.
               10  WK01-DATE-UT3A10-Z              PIC X(1)
                                               VALUE SPACE.
               10  WK01-DATE-UT3A10-F              PIC X(1)
                                               VALUE SPACE.
               10  WK01-DATE-UT3A10-A              PIC X(1)
                                               VALUE SPACE.
               10  WK01-DATE-UT3A10-V              PIC X(1)
                                               VALUE SPACE.
               10  WK01-DATE-UT3A10-O              PIC X(1)
                                               VALUE SPACE.
               10  WK01-DATE-UT3A10       PIC S9(8)
                                               VALUE ZEROS.
               10  WK01-ADR-TYPE-CODE-UT31-Z              PIC X(1)
                                               VALUE SPACE.
               10  WK01-ADR-TYPE-CODE-UT31-F              PIC X(1)
                                               VALUE SPACE.
               10  WK01-ADR-TYPE-CODE-UT31-A              PIC X(1)
                                               VALUE SPACE.
               10  WK01-ADR-TYPE-CODE-UT31-V              PIC X(1)
                                               VALUE SPACE.
               10  WK01-ADR-TYPE-CODE-UT31-O              PIC X(1)
                                               VALUE SPACE.
               10  WK01-ADR-TYPE-CODE-UT31       PIC X(2)
                                               VALUE SPACES.
               10  WK01-ZZMESSAGE-Z              PIC X(1)
                                               VALUE SPACE.
               10  WK01-ZZMESSAGE-F              PIC X(1)
                                               VALUE SPACE.
               10  WK01-ZZMESSAGE-A              PIC X(1)
                                               VALUE SPACE.
               10  WK01-ZZMESSAGE-V              PIC X(1)
                                               VALUE SPACE.
               10  WK01-ZZMESSAGE-O              PIC X(1)
                                               VALUE SPACE.
               10  WK01-ZZMESSAGE       PIC X(160)
                                               VALUE SPACES.
               10  WK01-PASSED-ONE-Z              PIC X(1)
                                               VALUE SPACE.
               10  WK01-PASSED-ONE-F              PIC X(1)
                                               VALUE SPACE.
               10  WK01-PASSED-ONE-A              PIC X(1)
                                               VALUE SPACE.
               10  WK01-PASSED-ONE-V              PIC X(1)
                                               VALUE SPACE.
               10  WK01-PASSED-ONE-O              PIC X(1)
                                               VALUE SPACE.
               10  WK01-PASSED-ONE       PIC X(32)
                                               VALUE SPACES.
               10  WK01-MAP-RESPONSE-Z              PIC X(1)
                                               VALUE SPACE.
               10  WK01-MAP-RESPONSE-F              PIC X(1)
                                               VALUE SPACE.
               10  WK01-MAP-RESPONSE-A              PIC X(1)
                                               VALUE SPACE.
               10  WK01-MAP-RESPONSE-V              PIC X(1)
                                               VALUE SPACE.
               10  WK01-MAP-RESPONSE-O              PIC X(1)
                                               VALUE SPACE.
               10  WK01-MAP-RESPONSE       PIC X(8)
                                               VALUE SPACES.
               10  WK01-TEXT-SY00-Z              PIC X(1)
                                               VALUE SPACE.
               10  WK01-TEXT-SY00-F              PIC X(1)
                                               VALUE SPACE.
               10  WK01-TEXT-SY00-A              PIC X(1)
                                               VALUE SPACE.
               10  WK01-TEXT-SY00-V              PIC X(1)
                                               VALUE SPACE.
               10  WK01-TEXT-SY00-O              PIC X(1)
                                               VALUE SPACE.
               10  WK01-TEXT-SY00       PIC X(14)
                                               VALUE SPACES.
           04  WK01-SUBSCRIPTED-WORK-AREA.
               05  FILLER                      PIC X(1).
               05  WK01-CODE-UT31-F             PIC X(1)
                                               OCCURS 10.
               05  WK01-TYPE-DESC-UT31-F             PIC X(1)
                                               OCCURS 10.
               05  WK01-TYPE-CODE-UT31-F             PIC X(1)
                                               OCCURS 10.
               05  WK01-DATE-UT31-F             PIC X(1)
                                               OCCURS 10.
               05  WK01-DATE-UT3A-F             PIC X(1)
                                               OCCURS 10.
