      *---------------------------------------------------------------*
      *                                                               *
      *  RECORD FUTWK15                              04/24/00  12:48  *
      *                                                               *
      *---------------------------------------------------------------*
       01  FUTWK15.
           02  USER-ID-UT15                             PIC X(8).
           02  DCMNT-TYPE-UT15                          PIC X(3).
           02  NAME-KEY-UT15                            PIC X(35).
           02  DCMNT-DESC-UT15                          PIC X(35).
           02  RQST-TMPLT-CODE-UT15                     PIC X(3).
