      *---------------------------------------------------------------*
      *                                                               *
      *  RECORD FUTWD32                              04/24/00  13:23  *
      *                                                               *
      *---------------------------------------------------------------*
       01  FUTWD32.
           02  WORK-DATE-UT32                 COMP-3    PIC S9(8).
