      *---------------------------------------------------------------*
      *                                                               *
      *  RECORD FUTWK04                              04/24/00  12:47  *
      *                                                               *
      *---------------------------------------------------------------*
       01  FUTWK04.
           02  RQST-NAME-KEY-UT04                       PIC X(35).
           02  NAME-TYPE-UT04                           PIC X(1).
           02  SAVE-DBKEY-ID-1ST-4173-UT04    COMP      PIC S9(8).
