      *---------------------------------------------------------------*
      *                                                               *
      *  RECORD FUTWK07                              04/24/00  12:48  *
      *                                                               *
      *---------------------------------------------------------------*
       01  FUTWK07.
           02  RQST-ADR-TYPE-CODE-UT07                  PIC X(2).
