    ***Created by Convert/DC version V8R03 on 05/24/00 at 11:00***

      *%--------------------------------------------------------------%*
           IF WK01-ZZMESSAGE-Z = 'Y'
               MOVE WK01-ZZMESSAGE TO DCLINK-MESSAGE
           END-IF.
      *%--------------------------------------------------------------%*
           IF WK01-DATE-Z = 'Y'
               MOVE WK01-DATE TO AGR-DATE OF
                ADSO-APPLICATION-GLOBAL-RECORD
           END-IF.
      *%--------------------------------------------------------------%*
           IF WK01-USER-ID-Z = 'Y'
               MOVE WK01-USER-ID TO AGR-USER-ID OF
                ADSO-APPLICATION-GLOBAL-RECORD
           END-IF.
      *%--------------------------------------------------------------%*
           IF WK01-ID-SY00-Z = 'Y'
               MOVE WK01-ID-SY00 TO TRMNL-ID-SY00 OF FZYWG00M
           END-IF.
      *%--------------------------------------------------------------%*
           IF WK01-NAME-6001-SY00-Z = 'Y'
               MOVE WK01-NAME-6001-SY00 TO FULL-NAME-6001-SY00 OF
                FZYWG00M
           END-IF.
      *%--------------------------------------------------------------%*
           IF WK01-PM-FLAG-SY00-Z = 'Y'
               MOVE WK01-PM-FLAG-SY00 TO AM-PM-FLAG-SY00 OF FZYWG00M
           END-IF.
      *%--------------------------------------------------------------%*
           IF WK01-STATUS-CODE-SY00-Z = 'Y'
               MOVE WK01-STATUS-CODE-SY00 TO PAGE-STATUS-CODE-SY00 OF
                FZYWG00M
           END-IF.
      *%--------------------------------------------------------------%*
           IF WK01-HH-MM-TIME-SY00-Z = 'Y'
               MOVE WK01-HH-MM-TIME-SY00 TO WORK-HH-MM-TIME-SY00 OF
                FZYWG00M
           END-IF.
      *%--------------------------------------------------------------%*
           IF WK01-PASSED-THREE-Z = 'Y'
               MOVE WK01-PASSED-THREE TO AGR-PASSED-THREE OF
                ADSO-APPLICATION-GLOBAL-RECORD
           END-IF.
