    ***Created by Convert/DC version V8R03 on 07/18/00 at 15:00***

      *%--------------------------------------------------------------%*
           MOVE DCLINK-MESSAGE  TO WK01-ZZMESSAGE.
      *%--------------------------------------------------------------%*
           MOVE AGR-DATE OF ADSO-APPLICATION-GLOBAL-RECORD TO WK01-DATE.
      *%--------------------------------------------------------------%*
           MOVE AGR-USER-ID OF ADSO-APPLICATION-GLOBAL-RECORD TO
                WK01-USER-ID.
      *%--------------------------------------------------------------%*
           MOVE AGR-FUNC-DESCRIPTION OF ADSO-APPLICATION-GLOBAL-RECORD
                TO WK01-FUNC-DESCRIPTION.
      *%--------------------------------------------------------------%*
           MOVE AGR-PASSED-ONE OF ADSO-APPLICATION-GLOBAL-RECORD TO
                WK01-PASSED-ONE.
      *%--------------------------------------------------------------%*
           MOVE AGR-MAP-RESPONSE OF ADSO-APPLICATION-GLOBAL-RECORD TO
                WK01-MAP-RESPONSE.
      *%--------------------------------------------------------------%*
           MOVE TRMNL-ID-SY00 OF FZYWG00M TO WK01-ID-SY00.
      *%--------------------------------------------------------------%*
           MOVE FULL-NAME-6001-SY00 OF FZYWG00M TO WK01-NAME-6001-SY00.
      *%--------------------------------------------------------------%*
           MOVE AM-PM-FLAG-SY00 OF FZYWG00M TO WK01-PM-FLAG-SY00.
      *%--------------------------------------------------------------%*
           MOVE CURR-RSPNS-ID-SY00 OF FZYWG00M TO WK01-RSPNS-ID-SY00.
      *%--------------------------------------------------------------%*
           MOVE ERROR-TEXT-SY00 OF FZYWG00M TO WK01-TEXT-SY00.
      *%--------------------------------------------------------------%*
           MOVE PAGE-STATUS-CODE-SY00 OF FZYWG00M TO
                WK01-STATUS-CODE-SY00.
      *%--------------------------------------------------------------%*
           MOVE WORK-HH-MM-TIME-SY00 OF FZYWG00M TO
                WK01-HH-MM-TIME-SY00.
      *%--------------------------------------------------------------%*
           MOVE RQST-PRFL-CODE-8013-SY14 OF FZYWK14 TO
                WK01-PRFL-CODE-8013-SY14.
      *%--------------------------------------------------------------%*
           MOVE NO-PRFL-ACTN-CODE-SY14 OF FZYWM14 TO
                WK01-PRFL-ACTN-CODE-SY14.
      *%--------------------------------------------------------------%*
           MOVE ACTN-CODE-SY14 OF FZYWM14(0001) TO WK01-CODE-SY141.
      *%--------------------------------------------------------------%*
           MOVE ACTN-CODE-SY14 OF FZYWM14(0002) TO WK01-CODE-SY142.
      *%--------------------------------------------------------------%*
           MOVE ACTN-CODE-SY14 OF FZYWM14(0003) TO WK01-CODE-SY143.
      *%--------------------------------------------------------------%*
           MOVE ACTN-CODE-SY14 OF FZYWM14(0004) TO WK01-CODE-SY144.
      *%--------------------------------------------------------------%*
           MOVE ACTN-CODE-SY14 OF FZYWM14(0005) TO WK01-CODE-SY145.
      *%--------------------------------------------------------------%*
           MOVE ACTN-CODE-SY14 OF FZYWM14(0006) TO WK01-CODE-SY146.
      *%--------------------------------------------------------------%*
           MOVE ACTN-CODE-SY14 OF FZYWM14(0007) TO WK01-CODE-SY147.
      *%--------------------------------------------------------------%*
           MOVE ACTN-CODE-SY14 OF FZYWM14(0008) TO WK01-CODE-SY148.
      *%--------------------------------------------------------------%*
           MOVE ACTN-CODE-SY14 OF FZYWM14(0009) TO WK01-CODE-SY149.
      *%--------------------------------------------------------------%*
           MOVE ACTN-CODE-SY14 OF FZYWM14(0010) TO WK01-CODE-SY1410.
      *%--------------------------------------------------------------%*
           MOVE ACTN-CODE-SY14 OF FZYWM14(0011) TO WK01-CODE-SY1411.
      *%--------------------------------------------------------------%*
           MOVE ACTN-CODE-SY14 OF FZYWM14(0012) TO WK01-CODE-SY1412.
      *%--------------------------------------------------------------%*
           MOVE PRFL-CODE-8013-SY14 OF FZYWM14(0001) TO
                WK01-CODE-8013-SY141.
      *%--------------------------------------------------------------%*
           MOVE PRFL-CODE-8013-SY14 OF FZYWM14(0002) TO
                WK01-CODE-8013-SY142.
      *%--------------------------------------------------------------%*
           MOVE PRFL-CODE-8013-SY14 OF FZYWM14(0003) TO
                WK01-CODE-8013-SY143.
      *%--------------------------------------------------------------%*
           MOVE PRFL-CODE-8013-SY14 OF FZYWM14(0004) TO
                WK01-CODE-8013-SY144.
      *%--------------------------------------------------------------%*
           MOVE PRFL-CODE-8013-SY14 OF FZYWM14(0005) TO
                WK01-CODE-8013-SY145.
      *%--------------------------------------------------------------%*
           MOVE PRFL-CODE-8013-SY14 OF FZYWM14(0006) TO
                WK01-CODE-8013-SY146.
      *%--------------------------------------------------------------%*
           MOVE PRFL-CODE-8013-SY14 OF FZYWM14(0007) TO
                WK01-CODE-8013-SY147.
      *%--------------------------------------------------------------%*
           MOVE PRFL-CODE-8013-SY14 OF FZYWM14(0008) TO
                WK01-CODE-8013-SY148.
      *%--------------------------------------------------------------%*
           MOVE PRFL-CODE-8013-SY14 OF FZYWM14(0009) TO
                WK01-CODE-8013-SY149.
      *%--------------------------------------------------------------%*
           MOVE PRFL-CODE-8013-SY14 OF FZYWM14(0010) TO
                WK01-CODE-8013-SY1410.
      *%--------------------------------------------------------------%*
           MOVE PRFL-CODE-8013-SY14 OF FZYWM14(0011) TO
                WK01-CODE-8013-SY1411.
      *%--------------------------------------------------------------%*
           MOVE PRFL-CODE-8013-SY14 OF FZYWM14(0012) TO
                WK01-CODE-8013-SY1412.
      *%--------------------------------------------------------------%*
           MOVE LONG-DESC-8013-SY14 OF FZYWM14(0001) TO
                WK01-DESC-8013-SY141.
      *%--------------------------------------------------------------%*
           MOVE LONG-DESC-8013-SY14 OF FZYWM14(0002) TO
                WK01-DESC-8013-SY142.
      *%--------------------------------------------------------------%*
           MOVE LONG-DESC-8013-SY14 OF FZYWM14(0003) TO
                WK01-DESC-8013-SY143.
      *%--------------------------------------------------------------%*
           MOVE LONG-DESC-8013-SY14 OF FZYWM14(0004) TO
                WK01-DESC-8013-SY144.
      *%--------------------------------------------------------------%*
           MOVE LONG-DESC-8013-SY14 OF FZYWM14(0005) TO
                WK01-DESC-8013-SY145.
      *%--------------------------------------------------------------%*
           MOVE LONG-DESC-8013-SY14 OF FZYWM14(0006) TO
                WK01-DESC-8013-SY146.
      *%--------------------------------------------------------------%*
           MOVE LONG-DESC-8013-SY14 OF FZYWM14(0007) TO
                WK01-DESC-8013-SY147.
      *%--------------------------------------------------------------%*
           MOVE LONG-DESC-8013-SY14 OF FZYWM14(0008) TO
                WK01-DESC-8013-SY148.
      *%--------------------------------------------------------------%*
           MOVE LONG-DESC-8013-SY14 OF FZYWM14(0009) TO
                WK01-DESC-8013-SY149.
      *%--------------------------------------------------------------%*
           MOVE LONG-DESC-8013-SY14 OF FZYWM14(0010) TO
                WK01-DESC-8013-SY1410.
      *%--------------------------------------------------------------%*
           MOVE LONG-DESC-8013-SY14 OF FZYWM14(0011) TO
                WK01-DESC-8013-SY1411.
      *%--------------------------------------------------------------%*
           MOVE LONG-DESC-8013-SY14 OF FZYWM14(0012) TO
                WK01-DESC-8013-SY1412.
      *%--------------------------------------------------------------%*
           MOVE NO-PRFL-CODE-8013-SY14 OF FZYWM14 TO
                WK01-PRFL-CODE-8013-SY1A.
