      *---------------------------------------------------------------*
      *                                                               *
      *  RECORD FZYWK14                              04/24/00  12:51  *
      *                                                               *
      *---------------------------------------------------------------*
       01  FZYWK14.
           02  RQST-PRFL-CODE-8013-SY14                 PIC X(8).
