       975-TO-TEXT-088 SECTION.
           MOVE TXT-IDD-SEQ TO
               IDD-SEQ-088 OF TEXT-088
                                                                     .
           MOVE TXT-SOURCE TO
               SOURCE-088 OF TEXT-088
                                                                     .
       975-TO-TEXT-088-EXIT.
           EXIT.
