       975-TO-PANELFLD-121 SECTION.
           MOVE PLF-PFLNAME TO
               PFLNAME-121 OF PANELFLD-121
                                                                     .
           MOVE PLF-PFLTOTLN TO
               PFLTOTLN-121 OF PANELFLD-121
                                                                     .
           MOVE PLF-PFLOCCUR TO
               PFLOCCUR-121 OF PANELFLD-121
                                                                     .
           MOVE PLF-PFLFIELD-FLAG TO
               PFLFIELD-FLAG-121 OF PANELFLD-121
                                                                     .
           MOVE PLF-PFLDEVCT TO
               PFLDEVCT-121 OF PANELFLD-121
                                                                     .
           MOVE PLF-PFLPAGE-FLAG TO
               PFLPAGE-FLAG-121 OF PANELFLD-121
                                                                     .
       975-TO-PANELFLD-121-EXIT.
           EXIT.
