       975-TO-R6269 SECTION.
           MOVE CPT-USER-CD TO
               USER-CODE-6269 OF R6269
                                                                     .
           MOVE CPT-LAST-ACTVY-DT TO
               LAST-ACTVY-DATE-6269 OF R6269
                                                                     .
           MOVE CPT-PARA-TEXT TO
               PARA-TEXT-6269 OF R6269
                                                                     .
       975-TO-R6269-EXIT.
           EXIT.
