       976-FROM-R4407-CARD-TYPE SECTION.

FCYI **        MOVE USER-CODE-4407 OF R4407-CARD-TYPE
FCYI           MOVE DBLINK-USER-CD
               TO CDT-USER-CD.

               MOVE LAST-ACTVY-DATE-4407 OF R4407-CARD-TYPE
               TO CDT-LAST-ACTVY-DT.

               MOVE UNVRS-CODE-4407 OF R4407-CARD-TYPE
               TO CDT-UNVRS-CD.

               MOVE CRDT-CARD-TYPE-4407 OF R4407-CARD-TYPE
               TO CDT-CRDT-CARD-TYP.

               MOVE SHORT-DESC-4407 OF R4407-CARD-TYPE
               TO CDT-SHORT-DESC.

               MOVE STNDD-LONG-DESC-4407 OF R4407-CARD-TYPE
               TO CDT-STD-LONG-DESC.
       976-FROM-R4407-CARD-TYPE-EXIT.
           EXIT.
