       976-FROM-R4167-PRNTR-TBL SECTION.

FCCCE**        MOVE USER-CODE-4167 OF R4167-PRNTR-TBL
FCCCE          MOVE DBLINK-USER-CD
               TO PRT-USER-CD.

               MOVE LAST-ACTVY-DATE-4167 OF R4167-PRNTR-TBL
               TO PRT-LAST-ACTVY-DT.

               MOVE UNVRS-CODE-4167 OF R4167-PRNTR-TBL
               TO PRT-UNVRS-CD.

               MOVE PRNTR-LCTN-DESC-4167 OF R4167-PRNTR-TBL
               TO PRT-PRNTR-LCTN-DESC.

               MOVE PRNTR-DEST-CODE-4167 OF R4167-PRNTR-TBL
               TO PRT-PRNTR-DEST-CD.

               MOVE PRINT-CHECK-IND-4167 OF R4167-PRNTR-TBL
               TO PRT-PRINT-CHECK-IND.
       976-FROM-R4167-PRNTR-TBL-EXIT.
           EXIT.
