       976-FROM-R4403-TRIP-ENC SECTION.

FCCCE**        MOVE USER-CODE-4403 OF R4403-TRIP-ENC
FCCCE          MOVE DBLINK-USER-CD
               TO TRE-USER-CD.

               MOVE LAST-ACTVY-DATE-4403 OF R4403-TRIP-ENC
               TO TRE-LAST-ACTVY-DT.

           IF SEQ-NMBR-4403 OF R4403-TRIP-ENC  NOT NUMERIC
               MOVE ZEROS TO TRE-SEQ-NBR
           ELSE
               MOVE SEQ-NMBR-4403 OF R4403-TRIP-ENC
               TO TRE-SEQ-NBR
           END-IF.

               MOVE COA-CODE-4403 OF R4403-TRIP-ENC
               TO TRE-COA-CD.

               MOVE ACCT-INDX-CODE-4403 OF R4403-TRIP-ENC
               TO TRE-ACCT-INDX-CD.

               MOVE FUND-CODE-4403 OF R4403-TRIP-ENC
               TO TRE-FUND-CD.

               MOVE ORGZN-CODE-4403 OF R4403-TRIP-ENC
               TO TRE-ORGN-CD.

               MOVE ACCT-CODE-4403 OF R4403-TRIP-ENC
               TO TRE-ACCT-CD.

               MOVE PRGRM-CODE-4403 OF R4403-TRIP-ENC
               TO TRE-PRGRM-CD.

               MOVE ACTVY-CODE-4403 OF R4403-TRIP-ENC
               TO TRE-ACTVY-CD.

               MOVE LCTN-CODE-4403 OF R4403-TRIP-ENC
               TO TRE-LCTN-CD.

               MOVE ACCT-ERROR-IND-4403 OF R4403-TRIP-ENC
               TO TRE-ACCT-ERROR-IND.

           IF ENCMBRNC-AMT-4403 OF R4403-TRIP-ENC  NOT NUMERIC
               MOVE ZEROS TO TRE-ENCMBR-AMT
           ELSE
               MOVE ENCMBRNC-AMT-4403 OF R4403-TRIP-ENC
               TO TRE-ENCMBR-AMT
           END-IF.

               MOVE RULE-CLASS-CODE-4403 OF R4403-TRIP-ENC
               TO TRE-RULE-CLS-CD.

               MOVE NSF-OVRDE-4403 OF R4403-TRIP-ENC
               TO TRE-NSF-OVRDE.

               MOVE FSCL-YR-4403 OF R4403-TRIP-ENC
               TO TRE-FSCL-YR.

               MOVE PSTNG-PRD-4403 OF R4403-TRIP-ENC
               TO TRE-PSTNG-PRD.

               MOVE LIEN-CLOSED-CODE-4403 OF R4403-TRIP-ENC
               TO TRE-LIEN-CLOSED-CD.
       976-FROM-R4403-TRIP-ENC-EXIT.
           EXIT.
