       976-FROM-R6600-TABL-HDR SECTION.

FCCCE**        MOVE USER-CODE-6600 OF R6600-TABL-HDR
FCCCE          MOVE DBLINK-USER-CD
               TO TBH-USER-CD.

               MOVE LAST-ACTVY-DATE-6600 OF R6600-TABL-HDR
               TO TBH-LAST-ACTVY-DT.

               MOVE UNVRS-CODE-6600 OF R6600-TABL-HDR
               TO TBH-UNVRS-CD.

               MOVE APLCN-CODE-6600 OF R6600-TABL-HDR
               TO TBH-APLCN-CD.

               MOVE TABLE-CODE-6600 OF R6600-TABL-HDR
               TO TBH-TABLE-CD.

               MOVE FNCTN-DESC-6600 OF R6600-TABL-HDR
               TO TBH-FNCTN-DESC.

           IF TABLE-DTL-CODE-LGTH-6600 OF R6600-TABL-HDR  NOT NUMERIC
               MOVE ZEROS TO TBH-TBL-DTL-CD-LGTH
           ELSE
               MOVE TABLE-DTL-CODE-LGTH-6600 OF R6600-TABL-HDR
               TO TBH-TBL-DTL-CD-LGTH
           END-IF.

               MOVE DTL-CODE-CLMN-LABEL-6600 OF R6600-TABL-HDR (1)
               TO TBH-DTL-CD-CLMN-LBL-1.

               MOVE DTL-CODE-CLMN-LABEL-6600 OF R6600-TABL-HDR (2)
               TO TBH-DTL-CD-CLMN-LBL-2.

               MOVE FLAG-1-LABEL-6600 OF R6600-TABL-HDR (1)
               TO TBH-FLAG-1-LABEL-1.

               MOVE FLAG-1-LABEL-6600 OF R6600-TABL-HDR (2)
               TO TBH-FLAG-1-LABEL-2.

               MOVE FLAG-1-VALUE-6600 OF R6600-TABL-HDR (1)
               TO TBH-FLAG-1-VALUE-1.

               MOVE FLAG-1-VALUE-6600 OF R6600-TABL-HDR (2)
               TO TBH-FLAG-1-VALUE-2.

               MOVE FLAG-1-VALUE-6600 OF R6600-TABL-HDR (3)
               TO TBH-FLAG-1-VALUE-3.

               MOVE FLAG-1-VALUE-6600 OF R6600-TABL-HDR (4)
               TO TBH-FLAG-1-VALUE-4.

               MOVE FLAG-1-VALUE-6600 OF R6600-TABL-HDR (5)
               TO TBH-FLAG-1-VALUE-5.

               MOVE FLAG-1-DFLT-VALUE-6600 OF R6600-TABL-HDR
               TO TBH-FLAG-1-DFLT-VALUE.

               MOVE FLAG-2-LABEL-6600 OF R6600-TABL-HDR (1)
               TO TBH-FLAG-2-LABEL-1.

               MOVE FLAG-2-LABEL-6600 OF R6600-TABL-HDR (2)
               TO TBH-FLAG-2-LABEL-2.

               MOVE FLAG-2-VALUE-6600 OF R6600-TABL-HDR (1)
               TO TBH-FLAG-2-VALUE-1.

               MOVE FLAG-2-VALUE-6600 OF R6600-TABL-HDR (2)
               TO TBH-FLAG-2-VALUE-2.

               MOVE FLAG-2-VALUE-6600 OF R6600-TABL-HDR (3)
               TO TBH-FLAG-2-VALUE-3.

               MOVE FLAG-2-VALUE-6600 OF R6600-TABL-HDR (4)
               TO TBH-FLAG-2-VALUE-4.

               MOVE FLAG-2-VALUE-6600 OF R6600-TABL-HDR (5)
               TO TBH-FLAG-2-VALUE-5.

               MOVE FLAG-2-DFLT-VALUE-6600 OF R6600-TABL-HDR
               TO TBH-FLAG-2-DFLT-VALUE.
       976-FROM-R6600-TABL-HDR-EXIT.
           EXIT.
