       976-FROM-R4009-FNDT-EFCTV SECTION.

FCCCE**        MOVE USER-CODE-4009 OF R4009-FNDT-EFCTV
FCCCE          MOVE DBLINK-USER-CD
               TO FTE-USER-CD.

               MOVE LAST-ACTVY-DATE-4009 OF R4009-FNDT-EFCTV
               TO FTE-LAST-ACTVY-DT.

           IF START-DATE-4009 OF R4009-FNDT-EFCTV  NOT NUMERIC
               MOVE DBLINKX-NULL-DB2-DATE-ISO TO FTE-START-DT
           ELSE
               MOVE START-DATE-4009 OF R4009-FNDT-EFCTV
               TO DBLINKX-INPUT-08
               MOVE '1' TO DBLINKX-REQUEST-CODE
               MOVE '1' TO DBLINKX-DB2-DATE-FORMAT
               MOVE '01' TO DBLINKX-IDMS-DATE-FORMAT
               CALL 'IDDTECNV' USING DBLINKX-DATE-TIME-PARMS
               IF DBLINKX-OK
                   MOVE DBLINKX-OUTPUT-PARM
                   TO FTE-START-DT
               ELSE
                   MOVE DBLINKX-NULL-DB2-DATE-ISO
                   TO FTE-START-DT
               END-IF
           END-IF.

               MOVE TIME-STAMP-4009 OF R4009-FNDT-EFCTV
               TO DBLINKX-INPUT-PARM
           MOVE '3' TO DBLINKX-REQUEST-CODE
           MOVE '1' TO DBLINKX-DB2-TIME-FORMAT
           MOVE '51' TO DBLINKX-IDMS-TIME-FORMAT
           CALL 'IDDTECNV' USING DBLINKX-DATE-TIME-PARMS
           IF DBLINKX-OK
               MOVE DBLINKX-OUTPUT-PARM
               TO FTE-TIME-STMP
           ELSE
               MOVE DBLINKX-NULL-DB2-TIME-ISO
               TO FTE-TIME-STMP
           END-IF.

           IF END-DATE-4009 OF R4009-FNDT-EFCTV  NOT NUMERIC
               MOVE DBLINKX-NULL-DB2-DATE-ISO TO FTE-END-DT
           ELSE
               MOVE END-DATE-4009 OF R4009-FNDT-EFCTV
               TO DBLINKX-INPUT-08
               MOVE '1' TO DBLINKX-REQUEST-CODE
               MOVE '01' TO DBLINKX-IDMS-DATE-FORMAT
               CALL 'IDDTECNV' USING DBLINKX-DATE-TIME-PARMS
               IF DBLINKX-OK
                   MOVE DBLINKX-OUTPUT-PARM
                   TO FTE-END-DT
               ELSE
                   MOVE DBLINKX-NULL-DB2-DATE-ISO
                   TO FTE-END-DT
               END-IF
           END-IF.

               MOVE STATUS-4009 OF R4009-FNDT-EFCTV
               TO FTE-STATUS.

               MOVE FUND-TYPE-DESC-4009 OF R4009-FNDT-EFCTV
               TO FTE-FUND-TYP-DESC.

               MOVE INTRL-FUND-TYPE-CODE-4009 OF R4009-FNDT-EFCTV
               TO FTE-INTRL-FUND-TYP-CD.

               MOVE CPTLZN-FUND-CODE-4009 OF R4009-FNDT-EFCTV
               TO FTE-CPTLZN-FUND-CD.

               MOVE CPTLZN-ACCT-CODE-4009 OF R4009-FNDT-EFCTV
               TO FTE-CPTLZN-ACCT-CD.

               MOVE ACCT-INDX-BDGT-CNTRL-4009 OF R4009-FNDT-EFCTV
               TO FTE-ACCT-IX-BDGT-CNTL.

               MOVE FUND-BDGT-CNTRL-4009 OF R4009-FNDT-EFCTV
               TO FTE-FUND-BDGT-CNTL.

               MOVE ORGZN-BDGT-CNTRL-4009 OF R4009-FNDT-EFCTV
               TO FTE-ORGN-BDGT-CNTL.

               MOVE ACCT-BDGT-CNTRL-4009 OF R4009-FNDT-EFCTV
               TO FTE-ACCT-BDGT-CNTL.

               MOVE PRGRM-BDGT-CNTRL-4009 OF R4009-FNDT-EFCTV
               TO FTE-PRGRM-BDGT-CNTL.

               MOVE CNTRL-PRD-CODE-4009 OF R4009-FNDT-EFCTV
               TO FTE-CNTL-PRD-CD.

               MOVE CNTRL-SVRTY-CODE-4009 OF R4009-FNDT-EFCTV
               TO FTE-CNTL-SVRTY-CD.

               MOVE PREDCSR-FUND-TYPE-4009 OF R4009-FNDT-EFCTV
               TO FTE-PRDCSR-FUND-TYP.

               MOVE SBRDT-FUND-TYPE-4009 OF R4009-FNDT-EFCTV
               TO FTE-SBRDT-FUND-TYP.

               MOVE DFLT-FROM-IND-4009 OF R4009-FNDT-EFCTV
               TO FTE-DFLT-FROM-IND.

               MOVE ENCMBRNC-JRNL-TYPE-4009 OF R4009-FNDT-EFCTV
               TO FTE-ENCMB-JRNL-TYP.

               MOVE CMTMNT-TYPE-4009 OF R4009-FNDT-EFCTV
               TO FTE-CMTMNT-TYP.

               MOVE ROLL-BDGT-IND-4009 OF R4009-FNDT-EFCTV
               TO FTE-ROLL-BDGT-IND.

               MOVE BDGT-DSPSN-4009 OF R4009-FNDT-EFCTV
               TO FTE-BDGT-DSPSN.

           IF ENCMBRNC-PCT-4009 OF R4009-FNDT-EFCTV  NOT NUMERIC
               MOVE ZEROS TO FTE-ENCMB-PCT
           ELSE
               MOVE ENCMBRNC-PCT-4009 OF R4009-FNDT-EFCTV
               TO FTE-ENCMB-PCT
           END-IF.

               MOVE BDGT-JRNL-TYPE-4009 OF R4009-FNDT-EFCTV
               TO FTE-BDGT-JRNL-TYP.

               MOVE BDGT-CLSFN-4009 OF R4009-FNDT-EFCTV
               TO FTE-BDGT-CLSFN.

               MOVE CARRY-FRWRD-TYPE-4009 OF R4009-FNDT-EFCTV
               TO FTE-CARRY-FWD-TYP.

           IF BDGT-PCT-4009 OF R4009-FNDT-EFCTV  NOT NUMERIC
               MOVE ZEROS TO FTE-BDGT-PCT
           ELSE
               MOVE BDGT-PCT-4009 OF R4009-FNDT-EFCTV
               TO FTE-BDGT-PCT
           END-IF.
       976-FROM-R4009-FNDT-EFCTV-EXIT.
           EXIT.
