       976-FROM-R4063-PAY-EFCTV SECTION.

FCCCE**        MOVE USER-CODE-4063 OF R4063-PAY-EFCTV
FCCCE          MOVE DBLINK-USER-CD
               TO PYE-USER-CD.

               MOVE LAST-ACTVY-DATE-4063 OF R4063-PAY-EFCTV
               TO PYE-LAST-ACTVY-DT.

           IF START-DATE-4063 OF R4063-PAY-EFCTV  NOT NUMERIC
               MOVE DBLINKX-NULL-DB2-DATE-ISO TO PYE-START-DT
           ELSE
               MOVE START-DATE-4063 OF R4063-PAY-EFCTV
               TO DBLINKX-INPUT-08
               MOVE '1' TO DBLINKX-REQUEST-CODE
               MOVE '1' TO DBLINKX-DB2-DATE-FORMAT
               MOVE '01' TO DBLINKX-IDMS-DATE-FORMAT
               CALL 'IDDTECNV' USING DBLINKX-DATE-TIME-PARMS
               IF DBLINKX-OK
                   MOVE DBLINKX-OUTPUT-PARM
                   TO PYE-START-DT
               ELSE
                   MOVE DBLINKX-NULL-DB2-DATE-ISO
                   TO PYE-START-DT
               END-IF
           END-IF.

               MOVE TIME-STAMP-4063 OF R4063-PAY-EFCTV
               TO DBLINKX-INPUT-PARM
           MOVE '3' TO DBLINKX-REQUEST-CODE
           MOVE '1' TO DBLINKX-DB2-TIME-FORMAT
           MOVE '51' TO DBLINKX-IDMS-TIME-FORMAT
           CALL 'IDDTECNV' USING DBLINKX-DATE-TIME-PARMS
           IF DBLINKX-OK
               MOVE DBLINKX-OUTPUT-PARM
               TO PYE-TIME-STMP
           ELSE
               MOVE DBLINKX-NULL-DB2-TIME-ISO
               TO PYE-TIME-STMP
           END-IF.

           IF END-DATE-4063 OF R4063-PAY-EFCTV  NOT NUMERIC
               MOVE DBLINKX-NULL-DB2-DATE-ISO TO PYE-END-DT
           ELSE
               MOVE END-DATE-4063 OF R4063-PAY-EFCTV
               TO DBLINKX-INPUT-08
               MOVE '1' TO DBLINKX-REQUEST-CODE
               MOVE '01' TO DBLINKX-IDMS-DATE-FORMAT
               CALL 'IDDTECNV' USING DBLINKX-DATE-TIME-PARMS
               IF DBLINKX-OK
                   MOVE DBLINKX-OUTPUT-PARM
                   TO PYE-END-DT
               ELSE
                   MOVE DBLINKX-NULL-DB2-DATE-ISO
                   TO PYE-END-DT
               END-IF
           END-IF.

               MOVE STATUS-4063 OF R4063-PAY-EFCTV
               TO PYE-STATUS.

               MOVE PAY-PRCS-IND-4063 OF R4063-PAY-EFCTV
               TO PYE-PAY-PRCS-IND.

               MOVE PAY-MTHD-DESC-4063 OF R4063-PAY-EFCTV
               TO PYE-PAY-MTHD-DESC.

               MOVE RGN-4063 OF R4063-PAY-EFCTV
               TO PYE-RGN.

               MOVE PAN-ID-4063 OF R4063-PAY-EFCTV
               TO PYE-PAN-ID.

               MOVE FDRL-EMPLR-ID-4063 OF R4063-PAY-EFCTV
               TO PYE-FDRL-EMPLR-ID.

               MOVE PAY-PRD-4063 OF R4063-PAY-EFCTV
               TO PYE-PAY-PRD.

               MOVE PIN-4063 OF R4063-PAY-EFCTV
               TO PYE-PIN.

               MOVE PMS-CODE-4063 OF R4063-PAY-EFCTV
               TO PYE-PMS-CD.

               MOVE ADR-TYPE-CODE-4063 OF R4063-PAY-EFCTV
               TO PYE-ADR-TYP-CD.

               MOVE BANK-ACCT-CODE-4063 OF R4063-PAY-EFCTV
               TO PYE-BANK-ACCT-CD.

           IF AGNCY-INTRL-REF-ID-4063 OF R4063-PAY-EFCTV  NOT NUMERIC
               MOVE ZEROS TO PYE-AGNCY-IREF-ID
           ELSE
               MOVE AGNCY-INTRL-REF-ID-4063 OF R4063-PAY-EFCTV
               TO PYE-AGNCY-IREF-ID
           END-IF.
       976-FROM-R4063-PAY-EFCTV-EXIT.
           EXIT.
