       976-FROM-R4029-FOAP-VALID SECTION.

FCCCE**        MOVE USER-CODE-4029 OF R4029-FOAP-VALID
FCCCE          MOVE DBLINK-USER-CD
               TO FVL-USER-CD.

               MOVE LAST-ACTVY-DATE-4029 OF R4029-FOAP-VALID
               TO FVL-LAST-ACTVY-DT.

               MOVE SYSTEM-TIME-STAMP-4029 OF R4029-FOAP-VALID
               TO FVL-SYSTEM-TIME-STMP.

               MOVE UNVRS-CODE-4029 OF R4029-FOAP-VALID
               TO FVL-UNVRS-CD.

               MOVE COA-CODE-4029 OF R4029-FOAP-VALID
               TO FVL-COA-CD.

               MOVE FOAP-VALID-TYPE-4029 OF R4029-FOAP-VALID
               TO FVL-FOAP-VALID-TYP.

               MOVE FUND-CODE-4029 OF R4029-FOAP-VALID
               TO FVL-FUND-CD.

               MOVE ORGZN-CODE-4029 OF R4029-FOAP-VALID
               TO FVL-ORGN-CD.

               MOVE ACCT-CODE-4029 OF R4029-FOAP-VALID
               TO FVL-ACCT-CD.

               MOVE PRGRM-CODE-4029 OF R4029-FOAP-VALID
               TO FVL-PRGRM-CD.

               MOVE ACCT-TYPE-CODE-4029 OF R4029-FOAP-VALID
               TO FVL-ACCT-TYP-CD.

               MOVE FUND-TYPE-CODE-4029 OF R4029-FOAP-VALID
               TO FVL-FUND-TYP-CD.

               MOVE STATUS-4029 OF R4029-FOAP-VALID
               TO FVL-STATUS.

               MOVE FOAP-VAL-INVAL-4029 OF R4029-FOAP-VALID
               TO FVL-FOAP-VAL-INVAL.

               MOVE FOAP-EDIT-TYPE-4029 OF R4029-FOAP-VALID
               TO FVL-FOAP-EDIT-TYP.
       976-FROM-R4029-FOAP-VALID-EXIT.
           EXIT.
