       976-FROM-R4011-SYSDAT SECTION.

FCCCE**        MOVE USER-CODE-4011 OF R4011-SYSDAT
FCCCE          MOVE DBLINK-USER-CD
               TO SSD-USER-CD.

               MOVE LAST-ACTVY-DATE-4011 OF R4011-SYSDAT
               TO SSD-LAST-ACTVY-DT.

               MOVE UNVRS-CODE-4011 OF R4011-SYSDAT
               TO SSD-UNVRS-CD.

               MOVE FIMS-ENTY-CODE-4011 OF R4011-SYSDAT
               TO SSD-FIMS-ENTY-CD.

               MOVE ELMNT-NAME-4011 OF R4011-SYSDAT
               TO SSD-ELMNT-NAME.

               MOVE COA-CODE-4011 OF R4011-SYSDAT
               TO SSD-COA-CD.

           IF ACTVY-DATE-4011 OF R4011-SYSDAT  NOT NUMERIC
               MOVE DBLINKX-NULL-DB2-DATE-ISO TO SSD-ACTVY-DT
           ELSE
               MOVE ACTVY-DATE-4011 OF R4011-SYSDAT
               TO DBLINKX-INPUT-08
               MOVE '1' TO DBLINKX-REQUEST-CODE
               MOVE '1' TO DBLINKX-DB2-DATE-FORMAT
               MOVE '01' TO DBLINKX-IDMS-DATE-FORMAT
               CALL 'IDDTECNV' USING DBLINKX-DATE-TIME-PARMS
               IF DBLINKX-OK
                   MOVE DBLINKX-OUTPUT-PARM
                   TO SSD-ACTVY-DT
               ELSE
                   MOVE DBLINKX-NULL-DB2-DATE-ISO
                   TO SSD-ACTVY-DT
               END-IF
           END-IF.
       976-FROM-R4011-SYSDAT-EXIT.
           EXIT.
