       976-FROM-R4062-BANK-EFCTV SECTION.

FCYI **        MOVE USER-CODE-4062 OF R4062-BANK-EFCTV
FCYI           MOVE DBLINK-USER-CD
               TO BKE-USER-CD.

               MOVE LAST-ACTVY-DATE-4062 OF R4062-BANK-EFCTV
               TO BKE-LAST-ACTVY-DT.

           IF START-DATE-4062 OF R4062-BANK-EFCTV  NOT NUMERIC
               MOVE DBLINKX-NULL-DB2-DATE-ISO TO BKE-START-DT
           ELSE
               MOVE START-DATE-4062 OF R4062-BANK-EFCTV
               TO DBLINKX-INPUT-08
               MOVE '1' TO DBLINKX-REQUEST-CODE
               MOVE '1' TO DBLINKX-DB2-DATE-FORMAT
               MOVE '01' TO DBLINKX-IDMS-DATE-FORMAT
               CALL 'IDDTECNV' USING DBLINKX-DATE-TIME-PARMS
               IF DBLINKX-OK
                   MOVE DBLINKX-OUTPUT-PARM
                   TO BKE-START-DT
               ELSE
                   MOVE DBLINKX-NULL-DB2-DATE-ISO
                   TO BKE-START-DT
               END-IF
           END-IF.

               MOVE TIME-STAMP-4062 OF R4062-BANK-EFCTV
               TO DBLINKX-INPUT-PARM
           MOVE '3' TO DBLINKX-REQUEST-CODE
           MOVE '1' TO DBLINKX-DB2-TIME-FORMAT
           MOVE '51' TO DBLINKX-IDMS-TIME-FORMAT
           CALL 'IDDTECNV' USING DBLINKX-DATE-TIME-PARMS
           IF DBLINKX-OK
               MOVE DBLINKX-OUTPUT-PARM
               TO BKE-TIME-STMP
           ELSE
               MOVE DBLINKX-NULL-DB2-TIME-ISO
               TO BKE-TIME-STMP
           END-IF.

           IF END-DATE-4062 OF R4062-BANK-EFCTV  NOT NUMERIC
               MOVE DBLINKX-NULL-DB2-DATE-ISO TO BKE-END-DT
           ELSE
               MOVE END-DATE-4062 OF R4062-BANK-EFCTV
               TO DBLINKX-INPUT-08
               MOVE '1' TO DBLINKX-REQUEST-CODE
               MOVE '01' TO DBLINKX-IDMS-DATE-FORMAT
               CALL 'IDDTECNV' USING DBLINKX-DATE-TIME-PARMS
               IF DBLINKX-OK
                   MOVE DBLINKX-OUTPUT-PARM
                   TO BKE-END-DT
               ELSE
                   MOVE DBLINKX-NULL-DB2-DATE-ISO
                   TO BKE-END-DT
               END-IF
           END-IF.

               MOVE STATUS-4062 OF R4062-BANK-EFCTV
               TO BKE-STATUS.

               MOVE COA-CODE-4062 OF R4062-BANK-EFCTV
               TO BKE-COA-CD.

               MOVE BANK-ACCT-NMBR-4062 OF R4062-BANK-EFCTV
               TO BKE-BANK-ACCT-NBR.

               MOVE BANK-CODE-DESC-4062 OF R4062-BANK-EFCTV
               TO BKE-BANK-CD-DESC.

               MOVE BANK-FUND-CODE-4062 OF R4062-BANK-EFCTV
               TO BKE-BANK-FUND-CD.

               MOVE CASH-ACCT-CODE-4062 OF R4062-BANK-EFCTV
               TO BKE-CASH-ACCT-CD.

               MOVE INTRFND-ACCT-CODE-4062 OF R4062-BANK-EFCTV
               TO BKE-INTRFND-ACCT-CD.

           IF BANK-INTRL-REF-ID-4062 OF R4062-BANK-EFCTV  NOT NUMERIC
               MOVE ZEROS TO BKE-BANK-IREF-ID
           ELSE
               MOVE BANK-INTRL-REF-ID-4062 OF R4062-BANK-EFCTV
               TO BKE-BANK-IREF-ID
           END-IF.
       976-FROM-R4062-BANK-EFCTV-EXIT.
           EXIT.
