       976-FROM-R4069-JRNL-HDR SECTION.

FCCCE**        MOVE USER-CODE-4069 OF R4069-JRNL-HDR
FCCCE          MOVE DBLINK-USER-CD
               TO JLH-USER-CD.

               MOVE LAST-ACTVY-DATE-4069 OF R4069-JRNL-HDR
               TO JLH-LAST-ACTVY-DT.

               MOVE UNVRS-CODE-4069 OF R4069-JRNL-HDR
               TO JLH-UNVRS-CD.

               MOVE DCMNT-NMBR-4069 OF R4069-JRNL-HDR
               TO JLH-DOC-NBR.

               MOVE RVRSL-IND-4069 OF R4069-JRNL-HDR
               TO JLH-RVRSL-IND.

           IF ACTVY-DATE-4069 OF R4069-JRNL-HDR  NOT NUMERIC
               MOVE DBLINKX-NULL-DB2-DATE-ISO TO JLH-ACTVY-DT
           ELSE
               MOVE ACTVY-DATE-4069 OF R4069-JRNL-HDR
               TO DBLINKX-INPUT-08
               MOVE '1' TO DBLINKX-REQUEST-CODE
               MOVE '1' TO DBLINKX-DB2-DATE-FORMAT
               MOVE '01' TO DBLINKX-IDMS-DATE-FORMAT
               CALL 'IDDTECNV' USING DBLINKX-DATE-TIME-PARMS
               IF DBLINKX-OK
                   MOVE DBLINKX-OUTPUT-PARM
                   TO JLH-ACTVY-DT
               ELSE
                   MOVE DBLINKX-NULL-DB2-DATE-ISO
                   TO JLH-ACTVY-DT
               END-IF
           END-IF.

               MOVE DCMNT-DESC-4069 OF R4069-JRNL-HDR
               TO JLH-DOC-DESC.

           IF DCMNT-AMT-4069 OF R4069-JRNL-HDR  NOT NUMERIC
               MOVE ZEROS TO JLH-DOC-AMT
           ELSE
               MOVE DCMNT-AMT-4069 OF R4069-JRNL-HDR
               TO JLH-DOC-AMT
           END-IF.

               MOVE HDR-ERROR-IND-4069 OF R4069-JRNL-HDR
               TO JLH-HDR-ERROR-IND.

           IF HDR-CNTR-ACCT-4069 OF R4069-JRNL-HDR  NOT NUMERIC
               MOVE ZEROS TO JLH-HDR-CNTR-ACCT
           ELSE
               MOVE HDR-CNTR-ACCT-4069 OF R4069-JRNL-HDR
               TO JLH-HDR-CNTR-ACCT
           END-IF.

               MOVE APRVL-IND-4069 OF R4069-JRNL-HDR
               TO JLH-APRVL-IND.

               MOVE PSTNG-IND-4069 OF R4069-JRNL-HDR
               TO JLH-PSTNG-IND.

           IF TRANS-DATE-4069 OF R4069-JRNL-HDR  NOT NUMERIC
               MOVE DBLINKX-NULL-DB2-DATE-ISO TO JLH-TRANS-DT
           ELSE
               MOVE TRANS-DATE-4069 OF R4069-JRNL-HDR
               TO DBLINKX-INPUT-08
               MOVE '1' TO DBLINKX-REQUEST-CODE
               MOVE '01' TO DBLINKX-IDMS-DATE-FORMAT
               CALL 'IDDTECNV' USING DBLINKX-DATE-TIME-PARMS
               IF DBLINKX-OK
                   MOVE DBLINKX-OUTPUT-PARM
                   TO JLH-TRANS-DT
               ELSE
                   MOVE DBLINKX-NULL-DB2-DATE-ISO
                   TO JLH-TRANS-DT
               END-IF
           END-IF.

               MOVE CMPLT-IND-4069 OF R4069-JRNL-HDR
               TO JLH-CMPLT-IND.

               MOVE DSTBN-IND-4069 OF R4069-JRNL-HDR
               TO JLH-DSTBN-IND.

           IF UPDT-ACTVY-DATE-4069 OF R4069-JRNL-HDR  NOT NUMERIC
               MOVE DBLINKX-NULL-DB2-DATE-ISO TO JLH-UPDT-ACTVY-DT
           ELSE
               MOVE UPDT-ACTVY-DATE-4069 OF R4069-JRNL-HDR
               TO DBLINKX-INPUT-08
               MOVE '1' TO DBLINKX-REQUEST-CODE
               MOVE '01' TO DBLINKX-IDMS-DATE-FORMAT
               CALL 'IDDTECNV' USING DBLINKX-DATE-TIME-PARMS
               IF DBLINKX-OK
                   MOVE DBLINKX-OUTPUT-PARM
                   TO JLH-UPDT-ACTVY-DT
               ELSE
                   MOVE DBLINKX-NULL-DB2-DATE-ISO
                   TO JLH-UPDT-ACTVY-DT
               END-IF
           END-IF.

               MOVE UPDT-TIME-STAMP-4069 OF R4069-JRNL-HDR
               TO DBLINKX-INPUT-PARM
           MOVE '3' TO DBLINKX-REQUEST-CODE
           MOVE '1' TO DBLINKX-DB2-TIME-FORMAT
           MOVE '51' TO DBLINKX-IDMS-TIME-FORMAT
           CALL 'IDDTECNV' USING DBLINKX-DATE-TIME-PARMS
           IF DBLINKX-OK
               MOVE DBLINKX-OUTPUT-PARM
               TO JLH-UPDT-TIME-STMP
           ELSE
               MOVE DBLINKX-NULL-DB2-TIME-ISO
               TO JLH-UPDT-TIME-STMP
           END-IF.

           IF JV-DEBIT-AMT-4069 OF R4069-JRNL-HDR  NOT NUMERIC
               MOVE ZEROS TO JLH-JV-DEBIT-AMT
           ELSE
               MOVE JV-DEBIT-AMT-4069 OF R4069-JRNL-HDR
               TO JLH-JV-DEBIT-AMT
           END-IF.

           IF JV-CRDT-AMT-4069 OF R4069-JRNL-HDR  NOT NUMERIC
               MOVE ZEROS TO JLH-JV-CRDT-AMT
           ELSE
               MOVE JV-CRDT-AMT-4069 OF R4069-JRNL-HDR
               TO JLH-JV-CRDT-AMT
           END-IF.

               MOVE SUBSYSTEM-ID-4069 OF R4069-JRNL-HDR
               TO JLH-SUBSYSTEM-ID.

               MOVE ACTG-PRD-4069 OF R4069-JRNL-HDR
               TO JLH-ACTG-PRD.

               MOVE SUB-DCMNT-TYPE-4069 OF R4069-JRNL-HDR
               TO JLH-SUB-DOC-TYP.

               MOVE REEDIT-STATUS-4069 OF R4069-JRNL-HDR
               TO JLH-REEDIT-STATUS.
       976-FROM-R4069-JRNL-HDR-EXIT.
           EXIT.
