       976-FROM-R4055-XTRN-TRAN SECTION.

FCCCE**        MOVE USER-CODE-4055 OF R4055-XTRN-TRAN
FCCCE          MOVE DBLINK-USER-CD
               TO XTT-USER-CD.

               MOVE LAST-ACTVY-DATE-4055 OF R4055-XTRN-TRAN
               TO XTT-LAST-ACTVY-DT.

               MOVE UNVRS-CODE-4055 OF R4055-XTRN-TRAN
               TO XTT-UNVRS-CD.

               MOVE COA-CODE-4055 OF R4055-XTRN-TRAN
               TO XTT-COA-CD.

           IF ACTVY-DATE-4055 OF R4055-XTRN-TRAN  NOT NUMERIC
               MOVE DBLINKX-NULL-DB2-DATE-ISO TO XTT-ACTVY-DT
           ELSE
               MOVE ACTVY-DATE-4055 OF R4055-XTRN-TRAN
               TO DBLINKX-INPUT-08
               MOVE '1' TO DBLINKX-REQUEST-CODE
               MOVE '1' TO DBLINKX-DB2-DATE-FORMAT
               MOVE '01' TO DBLINKX-IDMS-DATE-FORMAT
               CALL 'IDDTECNV' USING DBLINKX-DATE-TIME-PARMS
               IF DBLINKX-OK
                   MOVE DBLINKX-OUTPUT-PARM
                   TO XTT-ACTVY-DT
               ELSE
                   MOVE DBLINKX-NULL-DB2-DATE-ISO
                   TO XTT-ACTVY-DT
               END-IF
           END-IF.

               MOVE STATUS-4055 OF R4055-XTRN-TRAN
               TO XTT-STATUS.

               MOVE INTRL-CODE-4055 OF R4055-XTRN-TRAN
               TO XTT-INTRL-CD.

               MOVE XTRNL-ENTY-CODE-4055 OF R4055-XTRN-TRAN
               TO XTT-XTRNL-ENTY-CD.

               MOVE INTRL-ENTY-CODE-4055 OF R4055-XTRN-TRAN
               TO XTT-INTRL-ENTY-CD.
       976-FROM-R4055-XTRN-TRAN-EXIT.
           EXIT.
