       976-FROM-R4202-CMD-PRED SECTION.

FCYI **        MOVE USER-CODE-4202 OF R4202-CMD-PRED
FCYI           MOVE DBLINK-USER-CD
               TO CDP-USER-CD.

               MOVE LAST-ACTVY-DATE-4202 OF R4202-CMD-PRED
               TO CDP-LAST-ACTVY-DT.
       976-FROM-R4202-CMD-PRED-EXIT.
           EXIT.
