       976-FROM-R4216-APRVL-TRAN SECTION.

FCYI **        MOVE USER-CODE-4216 OF R4216-APRVL-TRAN
FCYI           MOVE DBLINK-USER-CD
               TO APT-USER-CD.

               MOVE LAST-ACTVY-DATE-4216 OF R4216-APRVL-TRAN
               TO APT-LAST-ACTVY-DT.

               MOVE SYSTEM-TIME-STAMP-4216 OF R4216-APRVL-TRAN
               TO APT-SYSTEM-TIME-STMP.

               MOVE USER-ID-4216 OF R4216-APRVL-TRAN
               TO APT-USER-ID.

               MOVE DCMNT-TYPE-4216 OF R4216-APRVL-TRAN
               TO APT-DOC-TYP.

               MOVE APRVL-TMPLT-CODE-4216 OF R4216-APRVL-TRAN
               TO APT-APV-TPLT-CD.

           IF LEVEL-SEQ-NMBR-4216 OF R4216-APRVL-TRAN  NOT NUMERIC
               MOVE ZEROS TO APT-LEVEL-SEQ-NBR
           ELSE
               MOVE LEVEL-SEQ-NMBR-4216 OF R4216-APRVL-TRAN
               TO APT-LEVEL-SEQ-NBR
           END-IF.

               MOVE APRVL-ID-4216 OF R4216-APRVL-TRAN
               TO APT-APRVL-ID.

               MOVE APRVL-TYPE-4216 OF R4216-APRVL-TRAN
               TO APT-APRVL-TYP.
       976-FROM-R4216-APRVL-TRAN-EXIT.
           EXIT.
