       976-FROM-R4215-APRV-TMPLT SECTION.

FCYI **       MOVE USER-CODE-4215 OF R4215-APRV-TMPLT
FCYI           MOVE DBLINK-USER-CD
               TO APV-USER-CD.

               MOVE LAST-ACTVY-DATE-4215 OF R4215-APRV-TMPLT
               TO APV-LAST-ACTVY-DT.

               MOVE APRVL-TMPLT-CODE-4215 OF R4215-APRV-TMPLT
               TO APV-APV-TPLT-CD.

           IF ACTVY-DATE-4215 OF R4215-APRV-TMPLT  NOT NUMERIC
               MOVE DBLINKX-NULL-DB2-DATE-ISO TO APV-ACTVY-DT
           ELSE
               MOVE ACTVY-DATE-4215 OF R4215-APRV-TMPLT
               TO DBLINKX-INPUT-08
               MOVE '1' TO DBLINKX-REQUEST-CODE
               MOVE '1' TO DBLINKX-DB2-DATE-FORMAT
               MOVE '01' TO DBLINKX-IDMS-DATE-FORMAT
               CALL 'IDDTECNV' USING DBLINKX-DATE-TIME-PARMS
               IF DBLINKX-OK
                   MOVE DBLINKX-OUTPUT-PARM
                   TO APV-ACTVY-DT
               ELSE
                   MOVE DBLINKX-NULL-DB2-DATE-ISO
                   TO APV-ACTVY-DT
               END-IF
           END-IF.

               MOVE APRVL-TMPLT-DESC-4215 OF R4215-APRV-TMPLT
               TO APV-APV-TPLT-DESC.
       976-FROM-R4215-APRV-TMPLT-EXIT.
           EXIT.
