       976-FROM-R6164-LSTSYS-PID SECTION.

FCCCE**        MOVE USER-CODE-6164 OF R6164-LSTSYS-PID
FCCCE          MOVE DBLINK-USER-CD
               TO SPI-USER-CD.

               MOVE LAST-ACTVY-DATE-6164 OF R6164-LSTSYS-PID
               TO SPI-LAST-ACTVY-DT.

               MOVE UNVRS-CODE-6164 OF R6164-LSTSYS-PID
               TO SPI-UNVRS-CD.

           IF LAST-INTRL-REF-ID-6164 OF R6164-LSTSYS-PID  NOT NUMERIC
               MOVE ZEROS TO SPI-LAST-IREF-ID
           ELSE
               MOVE LAST-INTRL-REF-ID-6164 OF R6164-LSTSYS-PID
               TO SPI-LAST-IREF-ID
           END-IF.
       976-FROM-R6164-LSTSYS-PID-EXIT.
           EXIT.
