      *
      *      ** STANDARD INITIALIZIATION FOR STANDARD REPORT HEADING
      *      **  REQUIRES PROGRAM TO HAVE READ SYSTEM CONTROL RECORD
      *
           MOVE  SYS-CURR-PROC-YEAR  TO  RPT-HEAD2-REPORT-YEAR.
           MOVE  SYS-CURR-PROC-MONTH TO  RPT-HEAD2-REPORT-MONTH.
           MOVE  SYS-CURR-PROC-DAY   TO  RPT-HEAD2-REPORT-DAY.
      *
           ACCEPT  RPT-RUN-DATE  FROM  DATE.
           MOVE  RPT-RUN-YEAR  TO  RPT-HEAD3-RUN-YEAR.
           MOVE  RPT-RUN-MONTH TO  RPT-HEAD3-RUN-MONTH.
           MOVE  RPT-RUN-DAY   TO  RPT-HEAD3-RUN-DAY.
