      *---------------------------------------------------------------*
      *                                                               *
      *  RECORD SSYW100                              09/25/00  10:21  *
      *                                                               *
      *---------------------------------------------------------------*
       01  SSYW100.
           02  UNVRS-STATUS-FLAG                        PIC X(1).
           02  FICE-CODE-2001                           PIC 9(6).
           02  UNVRS-ID-2001.
               03  UNVRS-CODE-2001                      PIC X(2).
           02  FULL-NAME-2001                           PIC X(35).
